timestamp,bmc_node_power_watt
2022-04-02T09:39:16.726969+02:00,900
2022-04-02T09:39:21.726485+02:00,900
2022-04-02T09:39:26.726844+02:00,900
2022-04-02T09:39:31.727901+02:00,900
2022-04-02T09:39:36.728778+02:00,864
2022-04-02T09:39:41.73063+02:00,792
2022-04-02T09:39:46.731534+02:00,792
2022-04-02T09:39:51.732043+02:00,792
2022-04-02T09:39:56.733503+02:00,792
2022-04-02T09:40:01.735526+02:00,792
2022-04-02T09:40:06.735831+02:00,792
2022-04-02T09:40:11.736055+02:00,792
2022-04-02T09:40:16.736758+02:00,792
2022-04-02T09:40:21.737745+02:00,792
2022-04-02T09:40:26.738945+02:00,792
2022-04-02T09:40:31.739897+02:00,792
2022-04-02T09:40:36.740904+02:00,792
2022-04-02T09:40:41.746552+02:00,792
2022-04-02T09:40:46.747098+02:00,792
2022-04-02T09:40:51.751797+02:00,792
2022-04-02T09:40:56.751009+02:00,792
2022-04-02T09:41:01.751383+02:00,792
2022-04-02T09:41:06.752118+02:00,792
2022-04-02T09:41:11.753011+02:00,792
2022-04-02T09:41:16.754846+02:00,792
2022-04-02T09:41:21.755988+02:00,792
2022-04-02T09:41:26.758531+02:00,792
2022-04-02T09:41:31.759431+02:00,792
2022-04-02T09:41:36.761081+02:00,792
2022-04-02T09:41:41.762173+02:00,792
2022-04-02T09:41:46.763415+02:00,792
2022-04-02T09:41:51.765929+02:00,792
2022-04-02T09:41:56.76604+02:00,792
2022-04-02T09:42:01.767319+02:00,792
2022-04-02T09:42:06.768767+02:00,792
2022-04-02T09:42:11.769297+02:00,792
2022-04-02T09:42:16.770321+02:00,792
2022-04-02T09:42:21.770606+02:00,792
2022-04-02T09:42:26.781947+02:00,792
2022-04-02T09:42:31.777091+02:00,792
2022-04-02T09:42:36.777886+02:00,792
2022-04-02T09:42:41.779058+02:00,792
2022-04-02T09:42:46.779372+02:00,792
2022-04-02T09:42:51.781651+02:00,792
2022-04-02T09:42:56.783073+02:00,792
2022-04-02T09:43:01.784099+02:00,792
2022-04-02T09:43:06.785412+02:00,792
2022-04-02T09:43:11.786422+02:00,792
2022-04-02T09:43:16.787961+02:00,792
2022-04-02T09:43:21.788618+02:00,792
2022-04-02T09:43:26.790897+02:00,792
2022-04-02T09:43:31.790937+02:00,792
2022-04-02T09:43:36.791599+02:00,792
2022-04-02T09:43:41.792542+02:00,792
2022-04-02T09:43:46.794412+02:00,792
2022-04-02T09:43:51.795324+02:00,792
2022-04-02T09:43:56.796536+02:00,792
2022-04-02T09:44:01.796755+02:00,792
2022-04-02T09:44:06.797875+02:00,792
2022-04-02T09:44:11.80128+02:00,792
2022-04-02T09:44:16.802196+02:00,792
2022-04-02T09:44:21.8034+02:00,756
2022-04-02T09:44:26.805231+02:00,792
2022-04-02T09:44:31.80646+02:00,792
2022-04-02T09:44:36.809115+02:00,792
2022-04-02T09:44:41.811963+02:00,792
2022-04-02T09:44:46.810545+02:00,792
2022-04-02T09:44:51.811302+02:00,792
2022-04-02T09:44:56.818341+02:00,792
2022-04-02T09:45:01.82066+02:00,792
2022-04-02T09:45:06.824189+02:00,792
2022-04-02T09:45:11.825437+02:00,792
2022-04-02T09:45:16.82517+02:00,792
2022-04-02T09:45:21.825931+02:00,792
2022-04-02T09:45:26.828516+02:00,792
2022-04-02T09:45:31.829651+02:00,792
2022-04-02T09:45:36.830227+02:00,792
2022-04-02T09:45:41.830137+02:00,792
2022-04-02T09:45:46.830819+02:00,792
2022-04-02T09:45:51.831792+02:00,792
2022-04-02T09:45:56.833689+02:00,792
2022-04-02T09:46:01.834366+02:00,792
2022-04-02T09:46:06.835502+02:00,792
2022-04-02T09:46:11.839406+02:00,792
2022-04-02T09:46:16.838554+02:00,792
2022-04-02T09:46:21.838895+02:00,792
2022-04-02T09:46:26.839632+02:00,792
2022-04-02T09:46:31.840458+02:00,792
2022-04-02T09:46:36.841008+02:00,792
2022-04-02T09:46:41.84189+02:00,792
2022-04-02T09:46:46.843072+02:00,792
2022-04-02T09:46:51.845069+02:00,792
2022-04-02T09:46:56.845668+02:00,792
2022-04-02T09:47:01.846586+02:00,792
2022-04-02T09:47:06.847466+02:00,792
2022-04-02T09:47:11.848108+02:00,792
2022-04-02T09:47:16.849354+02:00,792
2022-04-02T09:47:21.851191+02:00,792
2022-04-02T09:47:26.854144+02:00,792
2022-04-02T09:47:31.862524+02:00,792
2022-04-02T09:47:36.865427+02:00,792
2022-04-02T09:47:41.864323+02:00,792
2022-04-02T09:47:46.873251+02:00,792
2022-04-02T09:47:51.868992+02:00,792
2022-04-02T09:47:56.869319+02:00,756
2022-04-02T09:48:01.872787+02:00,792
2022-04-02T09:48:06.87294+02:00,792
2022-04-02T09:48:11.875409+02:00,792
2022-04-02T09:48:16.87559+02:00,792
2022-04-02T09:48:21.878164+02:00,792
2022-04-02T09:48:26.879187+02:00,792
2022-04-02T09:48:31.880025+02:00,792
2022-04-02T09:48:36.880135+02:00,792
2022-04-02T09:48:41.880518+02:00,792
2022-04-02T09:48:46.881028+02:00,792
2022-04-02T09:48:51.882824+02:00,792
2022-04-02T09:48:56.886117+02:00,792
2022-04-02T09:49:01.887579+02:00,792
2022-04-02T09:49:06.8889+02:00,792
2022-04-02T09:49:11.890083+02:00,792
2022-04-02T09:49:16.891584+02:00,756
2022-04-02T09:49:21.898149+02:00,792
2022-04-02T09:49:26.898258+02:00,792
2022-04-02T09:49:31.89835+02:00,792
2022-04-02T09:49:36.899383+02:00,792
2022-04-02T09:49:41.900823+02:00,792
2022-04-02T09:49:46.900322+02:00,792
2022-04-02T09:49:51.900819+02:00,792
2022-04-02T09:49:56.90797+02:00,792
2022-04-02T09:50:01.904466+02:00,792
2022-04-02T09:50:06.913162+02:00,792
2022-04-02T09:50:11.906314+02:00,792
2022-04-02T09:50:16.908217+02:00,792
2022-04-02T09:50:21.908907+02:00,792
2022-04-02T09:50:26.909613+02:00,792
2022-04-02T09:50:31.91151+02:00,792
2022-04-02T09:50:36.91133+02:00,792
2022-04-02T09:50:41.913401+02:00,792
2022-04-02T09:50:46.913406+02:00,792
2022-04-02T09:50:51.914858+02:00,792
2022-04-02T09:50:56.915898+02:00,792
2022-04-02T09:51:01.917161+02:00,792
2022-04-02T09:51:06.920841+02:00,792
2022-04-02T09:51:11.921696+02:00,792
2022-04-02T09:51:16.92472+02:00,792
2022-04-02T09:51:21.925216+02:00,792
2022-04-02T09:51:26.927456+02:00,792
2022-04-02T09:51:31.930957+02:00,792
2022-04-02T09:51:36.93393+02:00,792
2022-04-02T09:51:41.93343+02:00,792
2022-04-02T09:51:46.933835+02:00,792
2022-04-02T09:51:51.93494+02:00,792
2022-04-02T09:51:56.934871+02:00,792
2022-04-02T09:52:01.936437+02:00,792
2022-04-02T09:52:06.937442+02:00,792
2022-04-02T09:52:11.938837+02:00,792
2022-04-02T09:52:16.939312+02:00,792
2022-04-02T09:52:21.940988+02:00,792
2022-04-02T09:52:26.944951+02:00,792
2022-04-02T09:52:31.944159+02:00,792
2022-04-02T09:52:36.945068+02:00,792
2022-04-02T09:52:41.946032+02:00,792
2022-04-02T09:52:46.946952+02:00,792
2022-04-02T09:52:51.957422+02:00,792
2022-04-02T09:52:56.954075+02:00,792
2022-04-02T09:53:01.951458+02:00,792
2022-04-02T09:53:06.952236+02:00,792
2022-04-02T09:53:11.952767+02:00,792
2022-04-02T09:53:16.955755+02:00,792
2022-04-02T09:53:21.955559+02:00,792
2022-04-02T09:53:26.956921+02:00,756
2022-04-02T09:53:31.95973+02:00,792
2022-04-02T09:53:36.962035+02:00,792
2022-04-02T09:53:41.962712+02:00,792
2022-04-02T09:53:46.963051+02:00,792
2022-04-02T09:53:51.964112+02:00,792
2022-04-02T09:53:56.965316+02:00,792
2022-04-02T09:54:01.966216+02:00,792
2022-04-02T09:54:06.966857+02:00,792
2022-04-02T09:54:11.968085+02:00,792
2022-04-02T09:54:16.969593+02:00,792
2022-04-02T09:54:21.970562+02:00,792
2022-04-02T09:54:26.982126+02:00,792
2022-04-02T09:54:31.978595+02:00,792
2022-04-02T09:54:36.979285+02:00,792
2022-04-02T09:54:41.98016+02:00,756
2022-04-02T09:54:46.981277+02:00,792
2022-04-02T09:54:51.981754+02:00,792
2022-04-02T09:54:56.983531+02:00,792
2022-04-02T09:55:01.983809+02:00,792
2022-04-02T09:55:06.985298+02:00,792
2022-04-02T09:55:11.985941+02:00,792
2022-04-02T09:55:16.987456+02:00,792
2022-04-02T09:55:21.988288+02:00,792
2022-04-02T09:55:26.988779+02:00,792
2022-04-02T09:55:31.994986+02:00,792
2022-04-02T09:55:36.994778+02:00,792
2022-04-02T09:55:41.995833+02:00,756
2022-04-02T09:55:46.997051+02:00,756
2022-04-02T09:55:51.997569+02:00,792
2022-04-02T09:55:56.998362+02:00,756
2022-04-02T09:56:01.998662+02:00,756
2022-04-02T09:56:06.99918+02:00,792
2022-04-02T09:56:11.999981+02:00,792
2022-04-02T09:56:17.002467+02:00,756
2022-04-02T09:56:22.002891+02:00,792
2022-04-02T09:56:27.005072+02:00,792
2022-04-02T09:56:32.005269+02:00,792
2022-04-02T09:56:37.007677+02:00,756
2022-04-02T09:56:42.007601+02:00,792
2022-04-02T09:56:47.008172+02:00,756
2022-04-02T09:56:52.008665+02:00,792
2022-04-02T09:56:57.009633+02:00,792
2022-04-02T09:57:02.010375+02:00,792
2022-04-02T09:57:07.011206+02:00,792
2022-04-02T09:57:12.012001+02:00,756
2022-04-02T09:57:17.013881+02:00,792
2022-04-02T09:57:22.014863+02:00,792
2022-04-02T09:57:27.016527+02:00,792
2022-04-02T09:57:32.017807+02:00,756
2022-04-02T09:57:37.018287+02:00,756
2022-04-02T09:57:42.019228+02:00,792
2022-04-02T09:57:47.020754+02:00,792
2022-04-02T09:57:52.021381+02:00,756
2022-04-02T09:57:57.022672+02:00,792
2022-04-02T09:58:02.024616+02:00,792
2022-04-02T09:58:07.02535+02:00,792
2022-04-02T09:58:12.026723+02:00,792
2022-04-02T09:58:17.028474+02:00,792
2022-04-02T09:58:22.029515+02:00,756
2022-04-02T09:58:27.03073+02:00,792
2022-04-02T09:58:32.03102+02:00,756
2022-04-02T09:58:37.032704+02:00,792
2022-04-02T09:58:42.033939+02:00,792
2022-04-02T09:58:47.034911+02:00,792
2022-04-02T09:58:52.036293+02:00,792
2022-04-02T09:58:57.037546+02:00,792
2022-04-02T09:59:02.038021+02:00,792
2022-04-02T09:59:07.038459+02:00,792
2022-04-02T09:59:12.038977+02:00,792
2022-04-02T09:59:17.040508+02:00,756
2022-04-02T09:59:22.041182+02:00,756
2022-04-02T09:59:27.042027+02:00,792
2022-04-02T09:59:32.043745+02:00,792
2022-04-02T09:59:37.044197+02:00,792
2022-04-02T09:59:42.045294+02:00,792
2022-04-02T09:59:47.045734+02:00,792
2022-04-02T09:59:52.060682+02:00,756
2022-04-02T09:59:57.058475+02:00,792
2022-04-02T10:00:02.05328+02:00,756
2022-04-02T10:00:07.053871+02:00,792
2022-04-02T10:00:12.05422+02:00,792
2022-04-02T10:00:17.05739+02:00,792
2022-04-02T10:00:22.057652+02:00,756
2022-04-02T10:00:27.058438+02:00,792
2022-04-02T10:00:32.064297+02:00,756
2022-04-02T10:00:37.06442+02:00,756
2022-04-02T10:00:42.065706+02:00,792
2022-04-02T10:00:47.066513+02:00,792
2022-04-02T10:00:52.067755+02:00,756
2022-04-02T10:00:57.068887+02:00,756
2022-04-02T10:01:02.078611+02:00,756
2022-04-02T10:01:07.070822+02:00,756
2022-04-02T10:01:12.071386+02:00,756
2022-04-02T10:01:17.072118+02:00,792
2022-04-02T10:01:22.072845+02:00,792
2022-04-02T10:01:27.076232+02:00,756
2022-04-02T10:01:32.07708+02:00,792
2022-04-02T10:01:37.078145+02:00,792
2022-04-02T10:01:42.092536+02:00,792
2022-04-02T10:01:47.082898+02:00,792
2022-04-02T10:01:52.085362+02:00,756
2022-04-02T10:01:57.086085+02:00,792
2022-04-02T10:02:02.091147+02:00,792
2022-04-02T10:02:07.091353+02:00,792
2022-04-02T10:02:12.091677+02:00,756
2022-04-02T10:02:17.092606+02:00,792
2022-04-02T10:02:22.093007+02:00,756
2022-04-02T10:02:27.09375+02:00,792
2022-04-02T10:02:32.094853+02:00,792
2022-04-02T10:02:37.096805+02:00,792
2022-04-02T10:02:42.097669+02:00,792
2022-04-02T10:02:47.107054+02:00,792
2022-04-02T10:02:52.121348+02:00,792
2022-04-02T10:02:57.11116+02:00,792
2022-04-02T10:03:02.111319+02:00,792
2022-04-02T10:03:07.112151+02:00,792
2022-04-02T10:03:12.112744+02:00,792
2022-04-02T10:03:17.11392+02:00,792
2022-04-02T10:03:22.114389+02:00,792
2022-04-02T10:03:27.115598+02:00,792
2022-04-02T10:03:32.116188+02:00,792
2022-04-02T10:03:37.117279+02:00,792
2022-04-02T10:03:42.118256+02:00,792
2022-04-02T10:03:47.120283+02:00,792
2022-04-02T10:03:52.123976+02:00,756
2022-04-02T10:03:57.124226+02:00,756
2022-04-02T10:04:02.126744+02:00,792
2022-04-02T10:04:07.128363+02:00,792
2022-04-02T10:04:12.129442+02:00,756
2022-04-02T10:04:17.129912+02:00,756
2022-04-02T10:04:22.130378+02:00,792
2022-04-02T10:04:27.131725+02:00,792
2022-04-02T10:04:32.13277+02:00,792
2022-04-02T10:04:37.134994+02:00,756
2022-04-02T10:04:42.136282+02:00,792
2022-04-02T10:04:47.140043+02:00,792
2022-04-02T10:04:52.136863+02:00,756
2022-04-02T10:04:57.138021+02:00,756
2022-04-02T10:05:02.145905+02:00,756
2022-04-02T10:05:07.155744+02:00,756
2022-04-02T10:05:12.147778+02:00,792
2022-04-02T10:05:17.159827+02:00,792
2022-04-02T10:05:22.151132+02:00,792
2022-04-02T10:05:27.152282+02:00,792
2022-04-02T10:05:32.152404+02:00,756
2022-04-02T10:05:37.153481+02:00,792
2022-04-02T10:05:42.153939+02:00,792
2022-04-02T10:05:47.154665+02:00,792
2022-04-02T10:05:52.163307+02:00,792
2022-04-02T10:05:57.17436+02:00,756
2022-04-02T10:06:02.16534+02:00,792
2022-04-02T10:06:07.172599+02:00,756
2022-04-02T10:06:12.169038+02:00,792
2022-04-02T10:06:17.169362+02:00,792
2022-04-02T10:06:22.170535+02:00,792
2022-04-02T10:06:27.172662+02:00,792
2022-04-02T10:06:32.173996+02:00,756
2022-04-02T10:06:37.176862+02:00,756
2022-04-02T10:06:42.176873+02:00,792
2022-04-02T10:06:47.19605+02:00,792
2022-04-02T10:06:52.186262+02:00,756
2022-04-02T10:06:57.187167+02:00,792
2022-04-02T10:07:02.188481+02:00,792
2022-04-02T10:07:07.189248+02:00,756
2022-04-02T10:07:12.190716+02:00,792
2022-04-02T10:07:17.190674+02:00,756
2022-04-02T10:07:22.191712+02:00,792
2022-04-02T10:07:27.192265+02:00,792
2022-04-02T10:07:32.193457+02:00,792
2022-04-02T10:07:37.194259+02:00,792
2022-04-02T10:07:42.197927+02:00,792
2022-04-02T10:07:47.198436+02:00,792
2022-04-02T10:07:52.199668+02:00,792
2022-04-02T10:07:57.202265+02:00,756
2022-04-02T10:08:02.202597+02:00,792
2022-04-02T10:08:07.204554+02:00,792
2022-04-02T10:08:12.205665+02:00,792
2022-04-02T10:08:17.206138+02:00,792
2022-04-02T10:08:22.206958+02:00,792
2022-04-02T10:08:27.227862+02:00,792
2022-04-02T10:08:32.214471+02:00,792
2022-04-02T10:08:37.215218+02:00,792
2022-04-02T10:08:42.215727+02:00,756
2022-04-02T10:08:47.21696+02:00,792
2022-04-02T10:08:52.225819+02:00,792
2022-04-02T10:08:57.226359+02:00,756
2022-04-02T10:09:02.227249+02:00,792
2022-04-02T10:09:07.228197+02:00,792
2022-04-02T10:09:12.228793+02:00,756
2022-04-02T10:09:17.22986+02:00,756
2022-04-02T10:09:22.229782+02:00,756
2022-04-02T10:09:27.231616+02:00,756
2022-04-02T10:09:32.233079+02:00,792
2022-04-02T10:09:37.233508+02:00,756
2022-04-02T10:09:42.234337+02:00,792
2022-04-02T10:09:47.235051+02:00,792
2022-04-02T10:09:52.237139+02:00,792
2022-04-02T10:09:57.237972+02:00,792
2022-04-02T10:10:02.241117+02:00,792
2022-04-02T10:10:07.243845+02:00,792
2022-04-02T10:10:12.2545+02:00,828
2022-04-02T10:10:17.246149+02:00,792
2022-04-02T10:10:22.247978+02:00,936
2022-04-02T10:10:27.248587+02:00,792
2022-04-02T10:10:32.249546+02:00,756
2022-04-02T10:10:37.25041+02:00,792
2022-04-02T10:10:42.253469+02:00,756
2022-04-02T10:10:47.255461+02:00,756
2022-04-02T10:10:52.25595+02:00,792
2022-04-02T10:10:57.257249+02:00,756
2022-04-02T10:11:02.257593+02:00,792
2022-04-02T10:11:07.258049+02:00,756
2022-04-02T10:11:12.260278+02:00,756
2022-04-02T10:11:17.260928+02:00,792
2022-04-02T10:11:22.261578+02:00,756
2022-04-02T10:11:27.262358+02:00,792
2022-04-02T10:11:32.706626+02:00,792
2022-04-02T10:11:37.702681+02:00,792
2022-04-02T10:11:42.701775+02:00,828
2022-04-02T10:11:47.707898+02:00,792
2022-04-02T10:11:52.712711+02:00,756
2022-04-02T10:11:57.713242+02:00,792
2022-04-02T10:12:02.714634+02:00,756
2022-04-02T10:12:07.715031+02:00,756
2022-04-02T10:12:12.717354+02:00,756
2022-04-02T10:12:17.717433+02:00,756
2022-04-02T10:12:22.720041+02:00,792
2022-04-02T10:12:27.720811+02:00,756
2022-04-02T10:12:32.739779+02:00,756
2022-04-02T10:12:37.725297+02:00,756
2022-04-02T10:12:42.726007+02:00,756
2022-04-02T10:12:47.728451+02:00,792
2022-04-02T10:12:52.729893+02:00,792
2022-04-02T10:12:57.732611+02:00,900
2022-04-02T10:13:02.733035+02:00,792
2022-04-02T10:13:07.74604+02:00,792
2022-04-02T10:13:12.736825+02:00,756
2022-04-02T10:13:17.744614+02:00,756
2022-04-02T10:13:22.761422+02:00,792
2022-04-02T10:13:27.754738+02:00,792
2022-04-02T10:13:32.759268+02:00,756
2022-04-02T10:13:37.762922+02:00,792
2022-04-02T10:13:42.763352+02:00,792
2022-04-02T10:13:47.764298+02:00,792
2022-04-02T10:13:52.764917+02:00,756
2022-04-02T10:13:57.765819+02:00,792
2022-04-02T10:14:02.765979+02:00,792
2022-04-02T10:14:07.766892+02:00,792
2022-04-02T10:14:12.772395+02:00,828
2022-04-02T10:14:17.76819+02:00,792
2022-04-02T10:14:22.768726+02:00,972
2022-04-02T10:14:27.769201+02:00,792
2022-04-02T10:14:32.770015+02:00,756
2022-04-02T10:14:37.771185+02:00,756
2022-04-02T10:14:42.773949+02:00,792
2022-04-02T10:14:47.773834+02:00,756
2022-04-02T10:14:52.774093+02:00,756
2022-04-02T10:14:57.777299+02:00,756
2022-04-02T10:15:02.778472+02:00,756
2022-04-02T10:15:07.779652+02:00,756
2022-04-02T10:15:12.782244+02:00,756
2022-04-02T10:15:17.82593+02:00,756
2022-04-02T10:15:22.826766+02:00,756
2022-04-02T10:15:27.828341+02:00,792
2022-04-02T10:15:32.847234+02:00,792
2022-04-02T10:15:37.848853+02:00,792
2022-04-02T10:15:42.850231+02:00,864
2022-04-02T10:15:47.85002+02:00,792
2022-04-02T10:15:52.852869+02:00,756
2022-04-02T10:15:57.851707+02:00,792
2022-04-02T10:16:02.852477+02:00,792
2022-04-02T10:16:07.853598+02:00,792
2022-04-02T10:16:12.854802+02:00,792
2022-04-02T10:16:17.855808+02:00,792
2022-04-02T10:16:22.857068+02:00,792
2022-04-02T10:16:27.858084+02:00,792
2022-04-02T10:16:32.858241+02:00,756
2022-04-02T10:16:37.859455+02:00,756
2022-04-02T10:16:42.859818+02:00,792
2022-04-02T10:16:47.860629+02:00,792
2022-04-02T10:16:52.862506+02:00,828
2022-04-02T10:16:57.863613+02:00,864
2022-04-02T10:17:02.864307+02:00,900
2022-04-02T10:17:07.864688+02:00,792
2022-04-02T10:17:12.865789+02:00,792
2022-04-02T10:17:17.867025+02:00,756
2022-04-02T10:17:22.866747+02:00,756
2022-04-02T10:17:27.868673+02:00,756
2022-04-02T10:17:32.903855+02:00,792
2022-04-02T10:17:37.903856+02:00,792
2022-04-02T10:17:42.904559+02:00,756
2022-04-02T10:17:47.905163+02:00,756
2022-04-02T10:17:52.906478+02:00,792
2022-04-02T10:17:57.906511+02:00,792
2022-04-02T10:18:02.90759+02:00,792
2022-04-02T10:18:07.908514+02:00,792
2022-04-02T10:18:12.909142+02:00,792
2022-04-02T10:18:17.909254+02:00,792
2022-04-02T10:18:22.909545+02:00,900
2022-04-02T10:18:27.910876+02:00,792
2022-04-02T10:18:32.911801+02:00,756
2022-04-02T10:18:37.912785+02:00,792
2022-04-02T10:18:42.913046+02:00,792
2022-04-02T10:18:47.913788+02:00,792
2022-04-02T10:18:52.914469+02:00,792
2022-04-02T10:18:57.915891+02:00,756
2022-04-02T10:19:02.917036+02:00,792
2022-04-02T10:19:07.917277+02:00,792
2022-04-02T10:19:12.918575+02:00,756
2022-04-02T10:19:17.918856+02:00,756
2022-04-02T10:19:22.920571+02:00,756
2022-04-02T10:19:27.921859+02:00,792
2022-04-02T10:19:32.921852+02:00,792
2022-04-02T10:19:37.92313+02:00,792
2022-04-02T10:19:42.924305+02:00,792
2022-04-02T10:19:47.924914+02:00,792
2022-04-02T10:19:52.925677+02:00,792
2022-04-02T10:19:57.92606+02:00,756
2022-04-02T10:20:02.92648+02:00,792
2022-04-02T10:20:07.926675+02:00,792
2022-04-02T10:20:12.927563+02:00,756
2022-04-02T10:20:17.927619+02:00,756
2022-04-02T10:20:22.928269+02:00,792
2022-04-02T10:20:27.929458+02:00,792
2022-04-02T10:20:32.930466+02:00,756
2022-04-02T10:20:37.931777+02:00,792
2022-04-02T10:20:42.932549+02:00,792
2022-04-02T10:20:47.932952+02:00,792
2022-04-02T10:20:52.933633+02:00,792
2022-04-02T10:20:57.93403+02:00,792
2022-04-02T10:21:02.934897+02:00,972
2022-04-02T10:21:07.935011+02:00,864
2022-04-02T10:21:12.935744+02:00,792
2022-04-02T10:21:17.936293+02:00,792
2022-04-02T10:21:22.937331+02:00,756
2022-04-02T10:21:27.937734+02:00,756
2022-04-02T10:21:32.941296+02:00,792
2022-04-02T10:21:37.941779+02:00,792
2022-04-02T10:21:42.944874+02:00,756
2022-04-02T10:21:47.954185+02:00,792
2022-04-02T10:21:52.954699+02:00,792
2022-04-02T10:21:57.955165+02:00,756
2022-04-02T10:22:02.956444+02:00,756
2022-04-02T10:22:07.956622+02:00,792
2022-04-02T10:22:12.957529+02:00,792
2022-04-02T10:22:17.959829+02:00,792
2022-04-02T10:22:22.959302+02:00,936
2022-04-02T10:22:27.961951+02:00,792
2022-04-02T10:22:32.961808+02:00,792
2022-04-02T10:22:37.962963+02:00,792
2022-04-02T10:22:42.964747+02:00,792
2022-04-02T10:22:47.964731+02:00,756
2022-04-02T10:22:52.967376+02:00,756
2022-04-02T10:22:57.968082+02:00,792
2022-04-02T10:23:02.968492+02:00,756
2022-04-02T10:23:07.969987+02:00,756
2022-04-02T10:23:12.970994+02:00,792
2022-04-02T10:23:17.97205+02:00,756
2022-04-02T10:23:22.973982+02:00,792
2022-04-02T10:23:27.975564+02:00,792
2022-04-02T10:23:32.976115+02:00,792
2022-04-02T10:23:37.977219+02:00,792
2022-04-02T10:23:42.978303+02:00,792
2022-04-02T10:23:47.978724+02:00,792
2022-04-02T10:23:52.981347+02:00,792
2022-04-02T10:23:57.985204+02:00,792
2022-04-02T10:24:02.985549+02:00,792
2022-04-02T10:24:07.986165+02:00,792
2022-04-02T10:24:12.987757+02:00,792
2022-04-02T10:24:17.987649+02:00,792
2022-04-02T10:24:22.988778+02:00,792
2022-04-02T10:24:27.989888+02:00,792
2022-04-02T10:24:32.990647+02:00,792
2022-04-02T10:24:37.990842+02:00,828
2022-04-02T10:24:42.991441+02:00,828
2022-04-02T10:24:47.992436+02:00,828
2022-04-02T10:24:52.99296+02:00,828
2022-04-02T10:24:57.993999+02:00,828
2022-04-02T10:25:02.994849+02:00,792
2022-04-02T10:25:07.995279+02:00,792
2022-04-02T10:25:12.996034+02:00,792
2022-04-02T10:25:17.998212+02:00,792
2022-04-02T10:25:22.998941+02:00,756
2022-04-02T10:25:27.999651+02:00,792
2022-04-02T10:25:32.999962+02:00,792
2022-04-02T10:25:38.000302+02:00,936
2022-04-02T10:25:43.001447+02:00,1008
2022-04-02T10:25:48.002228+02:00,900
2022-04-02T10:25:53.004945+02:00,828
2022-04-02T10:25:58.00697+02:00,864
2022-04-02T10:26:03.007932+02:00,864
2022-04-02T10:26:08.008387+02:00,828
2022-04-02T10:26:13.009369+02:00,828
2022-04-02T10:26:18.009591+02:00,828
2022-04-02T10:26:23.010022+02:00,828
2022-04-02T10:26:28.010273+02:00,828
2022-04-02T10:26:33.010828+02:00,792
2022-04-02T10:26:38.012298+02:00,756
2022-04-02T10:26:43.012587+02:00,756
2022-04-02T10:26:48.013587+02:00,792
2022-04-02T10:26:53.016227+02:00,792
2022-04-02T10:26:58.016546+02:00,792
2022-04-02T10:27:03.018079+02:00,792
2022-04-02T10:27:08.018726+02:00,792
2022-04-02T10:27:13.019655+02:00,792
2022-04-02T10:27:18.020202+02:00,792
2022-04-02T10:27:23.021304+02:00,792
2022-04-02T10:27:28.02115+02:00,756
2022-04-02T10:27:33.021636+02:00,828
2022-04-02T10:27:38.022354+02:00,792
2022-04-02T10:27:43.022662+02:00,792
2022-04-02T10:27:48.024547+02:00,792
2022-04-02T10:27:53.025655+02:00,792
2022-04-02T10:27:58.029087+02:00,792
2022-04-02T10:28:03.051422+02:00,828
2022-04-02T10:28:08.042909+02:00,828
2022-04-02T10:28:13.043783+02:00,828
2022-04-02T10:28:18.057252+02:00,828
2022-04-02T10:28:23.046985+02:00,792
2022-04-02T10:28:28.05133+02:00,792
2022-04-02T10:28:33.05549+02:00,792
2022-04-02T10:28:38.058204+02:00,792
2022-04-02T10:28:43.058925+02:00,792
2022-04-02T10:28:48.061284+02:00,792
2022-04-02T10:28:53.061757+02:00,792
2022-04-02T10:28:58.062023+02:00,828
2022-04-02T10:29:03.063077+02:00,1008
2022-04-02T10:29:08.063574+02:00,1008
2022-04-02T10:29:13.064216+02:00,1008
2022-04-02T10:29:18.06554+02:00,828
2022-04-02T10:29:23.067291+02:00,864
2022-04-02T10:29:28.067897+02:00,828
2022-04-02T10:29:33.068223+02:00,864
2022-04-02T10:29:38.068417+02:00,864
2022-04-02T10:29:43.068797+02:00,864
2022-04-02T10:29:48.070005+02:00,864
2022-04-02T10:29:53.071444+02:00,864
2022-04-02T10:29:58.07214+02:00,792
2022-04-02T10:30:03.072385+02:00,792
2022-04-02T10:30:08.073095+02:00,792
2022-04-02T10:30:13.074173+02:00,792
2022-04-02T10:30:18.075276+02:00,756
2022-04-02T10:30:23.076045+02:00,756
2022-04-02T10:30:28.076793+02:00,756
2022-04-02T10:30:33.077608+02:00,756
2022-04-02T10:30:38.079017+02:00,792
2022-04-02T10:30:43.079125+02:00,792
2022-04-02T10:30:48.080204+02:00,792
2022-04-02T10:30:53.082308+02:00,792
2022-04-02T10:30:58.083464+02:00,792
2022-04-02T10:31:03.083851+02:00,756
2022-04-02T10:31:08.084277+02:00,756
2022-04-02T10:31:13.084872+02:00,792
2022-04-02T10:31:18.085827+02:00,792
2022-04-02T10:31:23.086818+02:00,792
2022-04-02T10:31:28.087553+02:00,792
2022-04-02T10:31:33.088728+02:00,792
2022-04-02T10:31:38.089735+02:00,792
2022-04-02T10:31:43.090796+02:00,828
2022-04-02T10:31:48.097693+02:00,828
2022-04-02T10:31:53.098272+02:00,828
2022-04-02T10:31:58.098904+02:00,828
2022-04-02T10:32:03.09986+02:00,828
2022-04-02T10:32:08.108678+02:00,792
2022-04-02T10:32:13.101009+02:00,792
2022-04-02T10:32:18.101581+02:00,792
2022-04-02T10:32:23.103392+02:00,792
2022-04-02T10:32:28.103078+02:00,792
2022-04-02T10:32:33.103988+02:00,792
2022-04-02T10:32:38.109642+02:00,792
2022-04-02T10:32:43.110375+02:00,792
2022-04-02T10:32:48.111345+02:00,1044
2022-04-02T10:32:53.112179+02:00,972
2022-04-02T10:32:58.112899+02:00,828
2022-04-02T10:33:03.11354+02:00,828
2022-04-02T10:33:08.11458+02:00,828
2022-04-02T10:33:13.114868+02:00,828
2022-04-02T10:33:18.115115+02:00,828
2022-04-02T10:33:23.115507+02:00,828
2022-04-02T10:33:28.117533+02:00,828
2022-04-02T10:33:33.117976+02:00,828
2022-04-02T10:33:38.118652+02:00,792
2022-04-02T10:33:43.119441+02:00,756
2022-04-02T10:33:48.11935+02:00,792
2022-04-02T10:33:53.123578+02:00,756
2022-04-02T10:33:58.124109+02:00,792
2022-04-02T10:34:03.12438+02:00,792
2022-04-02T10:34:08.125831+02:00,792
2022-04-02T10:34:13.125815+02:00,756
2022-04-02T10:34:18.143745+02:00,792
2022-04-02T10:34:23.127259+02:00,756
2022-04-02T10:34:28.128543+02:00,756
2022-04-02T10:34:33.129395+02:00,756
2022-04-02T10:34:38.130042+02:00,792
2022-04-02T10:34:43.131019+02:00,792
2022-04-02T10:34:48.131536+02:00,792
2022-04-02T10:34:53.13249+02:00,792
2022-04-02T10:34:58.134002+02:00,828
2022-04-02T10:35:03.135668+02:00,792
2022-04-02T10:35:08.135906+02:00,828
2022-04-02T10:35:13.147972+02:00,828
2022-04-02T10:35:18.148604+02:00,792
2022-04-02T10:35:23.149419+02:00,828
2022-04-02T10:35:28.150292+02:00,828
2022-04-02T10:35:33.15127+02:00,792
2022-04-02T10:35:38.152282+02:00,792
2022-04-02T10:35:43.154701+02:00,792
2022-04-02T10:35:48.153961+02:00,792
2022-04-02T10:35:53.157839+02:00,792
2022-04-02T10:35:58.165794+02:00,792
2022-04-02T10:36:03.1671+02:00,792
2022-04-02T10:36:08.167273+02:00,864
2022-04-02T10:36:13.167455+02:00,1044
2022-04-02T10:36:18.167664+02:00,936
2022-04-02T10:36:23.168495+02:00,828
2022-04-02T10:36:28.168854+02:00,828
2022-04-02T10:36:33.169044+02:00,864
2022-04-02T10:36:38.169931+02:00,864
2022-04-02T10:36:43.171028+02:00,864
2022-04-02T10:36:48.171666+02:00,864
2022-04-02T10:36:53.181771+02:00,828
2022-04-02T10:36:58.182533+02:00,828
2022-04-02T10:37:03.183614+02:00,792
2022-04-02T10:37:08.184465+02:00,756
2022-04-02T10:37:13.185878+02:00,792
2022-04-02T10:37:18.186729+02:00,792
2022-04-02T10:37:23.187792+02:00,792
2022-04-02T10:37:28.188228+02:00,792
2022-04-02T10:37:33.190284+02:00,792
2022-04-02T10:37:38.190285+02:00,792
2022-04-02T10:37:43.190554+02:00,792
2022-04-02T10:37:48.191147+02:00,792
2022-04-02T10:37:53.197807+02:00,756
2022-04-02T10:37:58.198457+02:00,756
2022-04-02T10:38:03.198891+02:00,792
2022-04-02T10:38:08.198987+02:00,792
2022-04-02T10:38:13.199421+02:00,792
2022-04-02T10:38:18.2004+02:00,792
2022-04-02T10:38:23.200607+02:00,792
2022-04-02T10:38:28.201418+02:00,828
2022-04-02T10:38:33.204895+02:00,828
2022-04-02T10:38:38.203968+02:00,828
2022-04-02T10:38:43.204404+02:00,828
2022-04-02T10:38:48.204779+02:00,828
2022-04-02T10:38:53.205214+02:00,828
2022-04-02T10:38:58.206203+02:00,792
2022-04-02T10:39:03.206553+02:00,792
2022-04-02T10:39:08.207056+02:00,792
2022-04-02T10:39:13.209328+02:00,792
2022-04-02T10:39:18.209482+02:00,792
2022-04-02T10:39:23.210067+02:00,792
2022-04-02T10:39:28.216323+02:00,792
2022-04-02T10:39:33.217245+02:00,972
2022-04-02T10:39:38.21795+02:00,972
2022-04-02T10:39:43.219117+02:00,900
2022-04-02T10:39:48.220335+02:00,864
2022-04-02T10:39:53.227148+02:00,864
2022-04-02T10:39:58.226741+02:00,900
2022-04-02T10:40:03.226833+02:00,864
2022-04-02T10:40:08.227297+02:00,864
2022-04-02T10:40:13.230411+02:00,864
2022-04-02T10:40:18.229992+02:00,864
2022-04-02T10:40:23.230875+02:00,864
2022-04-02T10:40:28.231698+02:00,792
2022-04-02T10:40:33.232412+02:00,792
2022-04-02T10:40:38.235864+02:00,792
2022-04-02T10:40:43.235979+02:00,756
2022-04-02T10:40:48.236862+02:00,756
2022-04-02T10:40:53.237326+02:00,756
2022-04-02T10:40:58.240811+02:00,756
2022-04-02T10:41:03.241667+02:00,792
2022-04-02T10:41:08.242384+02:00,792
2022-04-02T10:41:13.24357+02:00,756
2022-04-02T10:41:18.244522+02:00,756
2022-04-02T10:41:23.247135+02:00,756
2022-04-02T10:41:28.248104+02:00,792
2022-04-02T10:41:33.249381+02:00,792
2022-04-02T10:41:38.249552+02:00,792
2022-04-02T10:41:43.24968+02:00,828
2022-04-02T10:41:48.25055+02:00,792
2022-04-02T10:41:53.251323+02:00,792
2022-04-02T10:41:58.252684+02:00,792
2022-04-02T10:42:03.25276+02:00,792
2022-04-02T10:42:08.253085+02:00,828
2022-04-02T10:42:13.253686+02:00,828
2022-04-02T10:42:18.253879+02:00,828
2022-04-02T10:42:23.254446+02:00,828
2022-04-02T10:42:28.256376+02:00,828
2022-04-02T10:42:33.260942+02:00,828
2022-04-02T10:42:38.261982+02:00,792
2022-04-02T10:42:43.263109+02:00,792
2022-04-02T10:42:48.263629+02:00,792
2022-04-02T10:42:53.26396+02:00,792
2022-04-02T10:42:58.264267+02:00,792
2022-04-02T10:43:03.264774+02:00,756
2022-04-02T10:43:08.266002+02:00,792
2022-04-02T10:43:13.266578+02:00,1044
2022-04-02T10:43:18.267383+02:00,936
2022-04-02T10:43:23.267661+02:00,900
2022-04-02T10:43:28.268503+02:00,864
2022-04-02T10:43:33.269215+02:00,864
2022-04-02T10:43:38.269783+02:00,828
2022-04-02T10:43:43.270227+02:00,864
2022-04-02T10:43:48.270979+02:00,828
2022-04-02T10:43:53.27131+02:00,828
2022-04-02T10:43:58.27241+02:00,828
2022-04-02T10:44:03.279226+02:00,864
2022-04-02T10:44:08.279636+02:00,792
2022-04-02T10:44:13.283745+02:00,756
2022-04-02T10:44:18.284281+02:00,756
2022-04-02T10:44:23.284558+02:00,756
2022-04-02T10:44:28.285384+02:00,792
2022-04-02T10:44:33.292721+02:00,792
2022-04-02T10:44:38.29282+02:00,792
2022-04-02T10:44:43.296077+02:00,756
2022-04-02T10:44:48.29712+02:00,792
2022-04-02T10:44:53.297828+02:00,792
2022-04-02T10:44:58.298117+02:00,792
2022-04-02T10:45:03.299244+02:00,792
2022-04-02T10:45:08.299771+02:00,792
2022-04-02T10:45:13.300784+02:00,792
2022-04-02T10:45:18.308535+02:00,792
2022-04-02T10:45:23.312588+02:00,792
2022-04-02T10:45:28.313449+02:00,792
2022-04-02T10:45:33.314335+02:00,792
2022-04-02T10:45:38.315167+02:00,828
2022-04-02T10:45:43.315654+02:00,828
2022-04-02T10:45:48.320593+02:00,828
2022-04-02T10:45:53.320613+02:00,828
2022-04-02T10:45:58.32129+02:00,828
2022-04-02T10:46:03.322537+02:00,828
2022-04-02T10:46:08.324506+02:00,756
2022-04-02T10:46:13.325107+02:00,792
2022-04-02T10:46:18.325616+02:00,792
2022-04-02T10:46:23.326168+02:00,756
2022-04-02T10:46:28.326511+02:00,792
2022-04-02T10:46:33.326462+02:00,792
2022-04-02T10:46:38.326925+02:00,828
2022-04-02T10:46:43.327254+02:00,1044
2022-04-02T10:46:48.327675+02:00,1008
2022-04-02T10:46:53.334194+02:00,864
2022-04-02T10:46:58.335298+02:00,864
2022-04-02T10:47:03.33639+02:00,864
2022-04-02T10:47:08.340388+02:00,864
2022-04-02T10:47:13.338926+02:00,864
2022-04-02T10:47:18.339297+02:00,864
2022-04-02T10:47:23.339498+02:00,864
2022-04-02T10:47:28.340547+02:00,864
2022-04-02T10:47:33.340842+02:00,792
2022-04-02T10:47:38.341857+02:00,792
2022-04-02T10:47:43.342182+02:00,756
2022-04-02T10:47:48.342383+02:00,756
2022-04-02T10:47:53.343295+02:00,756
2022-04-02T10:47:58.343501+02:00,792
2022-04-02T10:48:03.357087+02:00,756
2022-04-02T10:48:08.354643+02:00,792
2022-04-02T10:48:13.359471+02:00,792
2022-04-02T10:48:18.360234+02:00,792
2022-04-02T10:48:23.360647+02:00,792
2022-04-02T10:48:28.361085+02:00,792
2022-04-02T10:48:33.362301+02:00,792
2022-04-02T10:48:38.363199+02:00,792
2022-04-02T10:48:43.363591+02:00,792
2022-04-02T10:48:48.364108+02:00,792
2022-04-02T10:48:53.364601+02:00,792
2022-04-02T10:48:58.364745+02:00,792
2022-04-02T10:49:03.367468+02:00,792
2022-04-02T10:49:08.368597+02:00,792
2022-04-02T10:49:13.369541+02:00,792
2022-04-02T10:49:18.373652+02:00,828
2022-04-02T10:49:23.374093+02:00,828
2022-04-02T10:49:28.375427+02:00,828
2022-04-02T10:49:33.374849+02:00,828
2022-04-02T10:49:38.374948+02:00,828
2022-04-02T10:49:43.380092+02:00,792
2022-04-02T10:49:48.381057+02:00,792
2022-04-02T10:49:53.381802+02:00,792
2022-04-02T10:49:58.381675+02:00,792
2022-04-02T10:50:03.381637+02:00,792
2022-04-02T10:50:08.382231+02:00,792
2022-04-02T10:50:13.383072+02:00,792
2022-04-02T10:50:18.383786+02:00,792
2022-04-02T10:50:23.385858+02:00,1008
2022-04-02T10:50:28.386473+02:00,864
2022-04-02T10:50:33.391699+02:00,828
2022-04-02T10:50:38.392102+02:00,864
2022-04-02T10:50:43.402505+02:00,900
2022-04-02T10:50:48.402775+02:00,864
2022-04-02T10:50:53.402629+02:00,828
2022-04-02T10:50:58.402761+02:00,828
2022-04-02T10:51:03.403271+02:00,864
2022-04-02T10:51:08.404687+02:00,828
2022-04-02T10:51:13.407095+02:00,792
2022-04-02T10:51:18.408147+02:00,756
2022-04-02T10:51:23.408215+02:00,792
2022-04-02T10:51:28.408274+02:00,756
2022-04-02T10:51:33.408962+02:00,756
2022-04-02T10:51:38.414457+02:00,756
2022-04-02T10:51:43.414892+02:00,792
2022-04-02T10:51:48.414789+02:00,792
2022-04-02T10:51:53.430772+02:00,792
2022-04-02T10:51:58.430482+02:00,792
2022-04-02T10:52:03.432491+02:00,792
2022-04-02T10:52:08.433035+02:00,792
2022-04-02T10:52:13.433796+02:00,792
2022-04-02T10:52:18.434981+02:00,756
2022-04-02T10:52:23.435352+02:00,792
2022-04-02T10:52:28.435902+02:00,756
2022-04-02T10:52:33.436278+02:00,792
2022-04-02T10:52:38.436828+02:00,792
2022-04-02T10:52:43.438944+02:00,792
2022-04-02T10:52:48.4398+02:00,792
2022-04-02T10:52:53.440517+02:00,792
2022-04-02T10:52:58.442538+02:00,828
2022-04-02T10:53:03.443188+02:00,828
2022-04-02T10:53:08.443198+02:00,828
2022-04-02T10:53:13.444413+02:00,828
2022-04-02T10:53:18.444744+02:00,828
2022-04-02T10:53:23.445221+02:00,792
2022-04-02T10:53:28.445488+02:00,792
2022-04-02T10:53:33.446376+02:00,792
2022-04-02T10:53:38.447058+02:00,792
2022-04-02T10:53:43.450217+02:00,792
2022-04-02T10:53:48.450947+02:00,756
2022-04-02T10:53:53.451607+02:00,792
2022-04-02T10:53:58.452168+02:00,828
2022-04-02T10:54:03.454543+02:00,1008
2022-04-02T10:54:08.455288+02:00,900
2022-04-02T10:54:13.455339+02:00,828
2022-04-02T10:54:18.45686+02:00,864
2022-04-02T10:54:23.457472+02:00,900
2022-04-02T10:54:28.464381+02:00,864
2022-04-02T10:54:33.464491+02:00,864
2022-04-02T10:54:38.465695+02:00,864
2022-04-02T10:54:43.466833+02:00,828
2022-04-02T10:54:48.474219+02:00,828
2022-04-02T10:54:53.47424+02:00,792
2022-04-02T10:54:58.475085+02:00,756
2022-04-02T10:55:03.475151+02:00,756
2022-04-02T10:55:08.476124+02:00,792
2022-04-02T10:55:13.477744+02:00,792
2022-04-02T10:55:18.47788+02:00,756
2022-04-02T10:55:23.478424+02:00,792
2022-04-02T10:55:28.479309+02:00,792
2022-04-02T10:55:33.480621+02:00,792
2022-04-02T10:55:38.482658+02:00,792
2022-04-02T10:55:43.483632+02:00,792
2022-04-02T10:55:48.484805+02:00,792
2022-04-02T10:55:53.485662+02:00,792
2022-04-02T10:55:58.489169+02:00,792
2022-04-02T10:56:03.489452+02:00,792
2022-04-02T10:56:08.489626+02:00,792
2022-04-02T10:56:13.498446+02:00,792
2022-04-02T10:56:18.498138+02:00,792
2022-04-02T10:56:23.498746+02:00,792
2022-04-02T10:56:28.499155+02:00,792
2022-04-02T10:56:33.499697+02:00,792
2022-04-02T10:56:38.500889+02:00,828
2022-04-02T10:56:43.500883+02:00,828
2022-04-02T10:56:48.501087+02:00,828
2022-04-02T10:56:53.501383+02:00,828
2022-04-02T10:56:58.502372+02:00,792
2022-04-02T10:57:03.503054+02:00,792
2022-04-02T10:57:08.503761+02:00,792
2022-04-02T10:57:13.504028+02:00,792
2022-04-02T10:57:18.504784+02:00,792
2022-04-02T10:57:23.504651+02:00,792
2022-04-02T10:57:28.505378+02:00,756
2022-04-02T10:57:33.505645+02:00,756
2022-04-02T10:57:38.505764+02:00,864
2022-04-02T10:57:43.506191+02:00,1044
2022-04-02T10:57:48.512741+02:00,900
2022-04-02T10:57:53.512806+02:00,864
2022-04-02T10:57:58.51308+02:00,828
2022-04-02T10:58:03.513316+02:00,828
2022-04-02T10:58:08.513497+02:00,828
2022-04-02T10:58:13.514537+02:00,828
2022-04-02T10:58:18.518195+02:00,864
2022-04-02T10:58:23.518956+02:00,864
2022-04-02T10:58:28.519863+02:00,828
2022-04-02T10:58:33.529222+02:00,756
2022-04-02T10:58:38.52975+02:00,792
2022-04-02T10:58:43.530536+02:00,756
2022-04-02T10:58:48.531596+02:00,756
2022-04-02T10:58:53.531581+02:00,792
2022-04-02T10:58:58.532146+02:00,756
2022-04-02T10:59:03.532716+02:00,756
2022-04-02T10:59:08.533188+02:00,792
2022-04-02T10:59:13.534303+02:00,792
2022-04-02T10:59:18.535186+02:00,756
2022-04-02T10:59:23.536556+02:00,756
2022-04-02T10:59:28.536445+02:00,756
2022-04-02T10:59:33.537858+02:00,756
2022-04-02T10:59:38.541953+02:00,792
2022-04-02T10:59:43.542414+02:00,792
2022-04-02T10:59:48.543328+02:00,792
2022-04-02T10:59:53.544315+02:00,756
2022-04-02T10:59:58.544429+02:00,792
2022-04-02T11:00:03.54466+02:00,756
2022-04-02T11:00:08.54486+02:00,792
2022-04-02T11:00:13.545179+02:00,756
2022-04-02T11:00:18.545437+02:00,792
2022-04-02T11:00:23.546808+02:00,756
2022-04-02T11:00:28.548519+02:00,756
2022-04-02T11:00:33.547829+02:00,756
2022-04-02T11:00:38.549609+02:00,756
2022-04-02T11:00:43.550561+02:00,756
2022-04-02T11:00:48.550934+02:00,756
2022-04-02T11:00:53.551877+02:00,756
2022-04-02T11:00:58.553487+02:00,756
2022-04-02T11:01:03.556207+02:00,756
2022-04-02T11:01:08.555955+02:00,756
2022-04-02T11:01:13.556767+02:00,756
2022-04-02T11:01:18.557494+02:00,792
2022-04-02T11:01:23.557906+02:00,792
2022-04-02T11:01:28.558934+02:00,756
2022-04-02T11:01:33.560224+02:00,756
2022-04-02T11:01:38.561128+02:00,756
2022-04-02T11:01:43.562181+02:00,756
2022-04-02T11:01:48.562978+02:00,756
2022-04-02T11:01:53.563099+02:00,792
2022-04-02T11:01:58.568217+02:00,756
2022-04-02T11:02:03.571556+02:00,756
2022-04-02T11:02:08.572232+02:00,792
2022-04-02T11:02:13.572772+02:00,756
2022-04-02T11:02:18.575743+02:00,756
2022-04-02T11:02:23.577664+02:00,864
2022-04-02T11:02:28.578053+02:00,756
2022-04-02T11:02:33.578311+02:00,756
2022-04-02T11:02:38.579162+02:00,792
2022-04-02T11:02:43.585482+02:00,792
2022-04-02T11:02:48.585943+02:00,756
2022-04-02T11:02:53.587383+02:00,792
2022-04-02T11:02:58.58799+02:00,792
2022-04-02T11:03:03.591225+02:00,756
2022-04-02T11:03:08.591701+02:00,756
2022-04-02T11:03:13.592515+02:00,756
2022-04-02T11:03:18.600304+02:00,756
2022-04-02T11:03:23.599851+02:00,864
2022-04-02T11:03:28.602276+02:00,864
2022-04-02T11:03:33.606956+02:00,792
2022-04-02T11:03:38.608132+02:00,792
2022-04-02T11:03:43.608533+02:00,756
2022-04-02T11:03:48.609099+02:00,792
2022-04-02T11:03:53.609224+02:00,756
2022-04-02T11:03:58.609514+02:00,792
2022-04-02T11:04:03.610345+02:00,792
2022-04-02T11:04:08.61072+02:00,756
2022-04-02T11:04:13.611966+02:00,756
2022-04-02T11:04:18.612939+02:00,756
2022-04-02T11:04:23.613047+02:00,792
2022-04-02T11:04:28.617204+02:00,864
2022-04-02T11:04:33.618001+02:00,792
2022-04-02T11:04:38.618676+02:00,792
2022-04-02T11:04:43.619056+02:00,756
2022-04-02T11:04:48.620176+02:00,756
2022-04-02T11:04:53.621072+02:00,756
2022-04-02T11:04:58.621725+02:00,756
2022-04-02T11:05:03.621829+02:00,792
2022-04-02T11:05:08.62236+02:00,756
2022-04-02T11:05:13.623846+02:00,756
2022-04-02T11:05:18.624372+02:00,792
2022-04-02T11:05:23.625184+02:00,756
2022-04-02T11:05:28.626202+02:00,756
2022-04-02T11:05:33.626198+02:00,792
2022-04-02T11:05:38.627048+02:00,792
2022-04-02T11:05:43.627587+02:00,756
2022-04-02T11:05:48.627797+02:00,792
2022-04-02T11:05:53.630104+02:00,756
2022-04-02T11:05:58.631091+02:00,792
2022-04-02T11:06:03.631064+02:00,756
2022-04-02T11:06:08.63255+02:00,792
2022-04-02T11:06:13.633271+02:00,792
2022-04-02T11:06:18.63436+02:00,756
2022-04-02T11:06:23.634969+02:00,756
2022-04-02T11:06:28.639892+02:00,792
2022-04-02T11:06:33.641068+02:00,864
2022-04-02T11:06:38.642027+02:00,756
2022-04-02T11:06:43.643024+02:00,756
2022-04-02T11:06:48.644074+02:00,756
2022-04-02T11:06:53.644793+02:00,792
2022-04-02T11:06:58.645032+02:00,792
2022-04-02T11:07:03.646085+02:00,792
2022-04-02T11:07:08.646984+02:00,792
2022-04-02T11:07:13.647734+02:00,792
2022-04-02T11:07:18.648952+02:00,792
2022-04-02T11:07:23.649922+02:00,756
2022-04-02T11:07:28.649894+02:00,792
2022-04-02T11:07:33.652613+02:00,756
2022-04-02T11:07:38.653496+02:00,864
2022-04-02T11:07:43.654283+02:00,756
2022-04-02T11:07:48.655857+02:00,756
2022-04-02T11:07:53.657029+02:00,756
2022-04-02T11:07:58.656389+02:00,756
2022-04-02T11:08:03.657283+02:00,756
2022-04-02T11:08:08.66175+02:00,756
2022-04-02T11:08:13.662208+02:00,756
2022-04-02T11:08:18.663293+02:00,792
2022-04-02T11:08:23.664528+02:00,756
2022-04-02T11:08:28.667552+02:00,756
2022-04-02T11:08:33.668443+02:00,792
2022-04-02T11:08:38.669046+02:00,792
2022-04-02T11:08:43.669853+02:00,792
2022-04-02T11:08:48.670621+02:00,792
2022-04-02T11:08:53.670697+02:00,792
2022-04-02T11:08:58.671781+02:00,756
2022-04-02T11:09:03.675043+02:00,756
2022-04-02T11:09:08.676329+02:00,792
2022-04-02T11:09:13.67752+02:00,756
2022-04-02T11:09:18.677042+02:00,756
2022-04-02T11:09:23.677998+02:00,756
2022-04-02T11:09:28.678902+02:00,792
2022-04-02T11:09:33.689211+02:00,756
2022-04-02T11:09:38.680454+02:00,756
2022-04-02T11:09:43.682419+02:00,972
2022-04-02T11:09:48.684253+02:00,792
2022-04-02T11:09:53.684623+02:00,792
2022-04-02T11:09:58.687431+02:00,792
2022-04-02T11:10:03.689919+02:00,792
2022-04-02T11:10:08.691567+02:00,792
2022-04-02T11:10:13.691419+02:00,828
2022-04-02T11:10:18.692317+02:00,936
2022-04-02T11:10:23.694138+02:00,936
2022-04-02T11:10:28.696966+02:00,936
2022-04-02T11:10:33.698075+02:00,792
2022-04-02T11:10:38.699732+02:00,756
2022-04-02T11:10:43.700327+02:00,792
2022-04-02T11:10:48.704272+02:00,936
2022-04-02T11:10:53.705294+02:00,936
2022-04-02T11:10:58.705798+02:00,936
2022-04-02T11:11:03.705956+02:00,936
2022-04-02T11:11:08.706812+02:00,972
2022-04-02T11:11:13.707015+02:00,936
2022-04-02T11:11:18.707364+02:00,972
2022-04-02T11:11:23.709325+02:00,972
2022-04-02T11:11:28.71037+02:00,792
2022-04-02T11:11:33.711316+02:00,792
2022-04-02T11:11:38.712301+02:00,936
2022-04-02T11:11:43.71596+02:00,972
2022-04-02T11:11:48.716686+02:00,972
2022-04-02T11:11:53.718221+02:00,972
2022-04-02T11:11:58.718283+02:00,972
2022-04-02T11:12:03.719195+02:00,936
2022-04-02T11:12:08.720093+02:00,900
2022-04-02T11:12:13.723266+02:00,900
2022-04-02T11:12:18.723945+02:00,792
2022-04-02T11:12:23.725383+02:00,792
2022-04-02T11:12:28.72617+02:00,792
2022-04-02T11:12:33.727109+02:00,792
2022-04-02T11:12:38.727895+02:00,792
2022-04-02T11:12:43.728711+02:00,756
2022-04-02T11:12:48.728957+02:00,828
2022-04-02T11:12:53.72907+02:00,900
2022-04-02T11:12:58.730342+02:00,936
2022-04-02T11:13:03.731679+02:00,828
2022-04-02T11:13:08.732924+02:00,792
2022-04-02T11:13:13.733772+02:00,792
2022-04-02T11:13:18.741549+02:00,792
2022-04-02T11:13:23.741372+02:00,792
2022-04-02T11:13:28.741784+02:00,792
2022-04-02T11:13:33.742132+02:00,792
2022-04-02T11:13:38.742546+02:00,792
2022-04-02T11:13:43.7434+02:00,792
2022-04-02T11:13:48.743684+02:00,792
2022-04-02T11:13:53.744921+02:00,792
2022-04-02T11:13:58.750888+02:00,864
2022-04-02T11:14:03.751047+02:00,792
2022-04-02T11:14:08.752419+02:00,828
2022-04-02T11:14:13.752817+02:00,792
2022-04-02T11:14:18.759094+02:00,936
2022-04-02T11:14:23.755472+02:00,936
2022-04-02T11:14:28.755892+02:00,936
2022-04-02T11:14:33.756338+02:00,936
2022-04-02T11:14:38.757608+02:00,936
2022-04-02T11:14:43.758291+02:00,900
2022-04-02T11:14:48.75887+02:00,792
2022-04-02T11:14:53.759934+02:00,792
2022-04-02T11:14:58.760866+02:00,972
2022-04-02T11:15:03.761766+02:00,936
2022-04-02T11:15:08.762018+02:00,936
2022-04-02T11:15:13.763062+02:00,936
2022-04-02T11:15:18.764312+02:00,936
2022-04-02T11:15:23.764729+02:00,936
2022-04-02T11:15:28.766144+02:00,936
2022-04-02T11:15:33.767784+02:00,900
2022-04-02T11:15:38.769533+02:00,792
2022-04-02T11:15:43.769885+02:00,936
2022-04-02T11:15:48.771698+02:00,936
2022-04-02T11:15:53.772777+02:00,936
2022-04-02T11:15:58.772612+02:00,936
2022-04-02T11:16:03.775731+02:00,936
2022-04-02T11:16:08.776405+02:00,972
2022-04-02T11:16:13.776839+02:00,936
2022-04-02T11:16:18.777215+02:00,936
2022-04-02T11:16:23.777343+02:00,900
2022-04-02T11:16:28.782772+02:00,756
2022-04-02T11:16:33.782417+02:00,792
2022-04-02T11:16:38.782665+02:00,792
2022-04-02T11:16:43.782763+02:00,792
2022-04-02T11:16:48.786744+02:00,792
2022-04-02T11:16:53.787095+02:00,828
2022-04-02T11:16:58.787759+02:00,792
2022-04-02T11:17:03.78798+02:00,900
2022-04-02T11:17:08.788473+02:00,936
2022-04-02T11:17:13.789877+02:00,828
2022-04-02T11:17:18.790226+02:00,792
2022-04-02T11:17:23.791444+02:00,756
2022-04-02T11:17:28.791639+02:00,756
2022-04-02T11:17:33.792344+02:00,792
2022-04-02T11:17:38.804334+02:00,792
2022-04-02T11:17:43.803811+02:00,756
2022-04-02T11:17:48.804092+02:00,756
2022-04-02T11:17:53.805525+02:00,756
2022-04-02T11:17:58.806333+02:00,756
2022-04-02T11:18:03.806847+02:00,756
2022-04-02T11:18:08.807563+02:00,972
2022-04-02T11:18:13.808892+02:00,792
2022-04-02T11:18:18.809958+02:00,828
2022-04-02T11:18:23.810643+02:00,756
2022-04-02T11:18:28.811147+02:00,972
2022-04-02T11:18:33.811287+02:00,936
2022-04-02T11:18:38.811621+02:00,936
2022-04-02T11:18:43.812037+02:00,972
2022-04-02T11:18:48.812909+02:00,936
2022-04-02T11:18:53.813439+02:00,936
2022-04-02T11:18:58.814428+02:00,936
2022-04-02T11:19:03.822669+02:00,792
2022-04-02T11:19:08.82362+02:00,792
2022-04-02T11:19:13.82456+02:00,972
2022-04-02T11:19:18.825601+02:00,936
2022-04-02T11:19:23.830068+02:00,936
2022-04-02T11:19:28.830603+02:00,972
2022-04-02T11:19:33.831159+02:00,936
2022-04-02T11:19:38.832311+02:00,972
2022-04-02T11:19:43.83345+02:00,936
2022-04-02T11:19:48.833885+02:00,972
2022-04-02T11:19:53.834384+02:00,828
2022-04-02T11:19:58.834796+02:00,828
2022-04-02T11:20:03.835675+02:00,864
2022-04-02T11:20:08.836644+02:00,828
2022-04-02T11:20:13.837641+02:00,864
2022-04-02T11:20:18.837945+02:00,828
2022-04-02T11:20:23.838573+02:00,828
2022-04-02T11:20:28.838646+02:00,864
2022-04-02T11:20:33.840526+02:00,792
2022-04-02T11:20:38.841966+02:00,792
2022-04-02T11:20:43.851294+02:00,756
2022-04-02T11:20:48.874943+02:00,792
2022-04-02T11:20:53.862153+02:00,792
2022-04-02T11:20:58.862912+02:00,792
2022-04-02T11:21:03.863546+02:00,792
2022-04-02T11:21:08.863528+02:00,972
2022-04-02T11:21:13.86378+02:00,864
2022-04-02T11:21:18.893159+02:00,792
2022-04-02T11:21:23.864522+02:00,792
2022-04-02T11:21:28.865373+02:00,792
2022-04-02T11:21:33.865737+02:00,792
2022-04-02T11:21:38.86635+02:00,792
2022-04-02T11:21:43.868192+02:00,792
2022-04-02T11:21:48.868547+02:00,756
2022-04-02T11:21:53.870006+02:00,792
2022-04-02T11:21:58.870025+02:00,756
2022-04-02T11:22:03.870428+02:00,756
2022-04-02T11:22:08.871982+02:00,792
2022-04-02T11:22:13.872584+02:00,792
2022-04-02T11:22:18.874575+02:00,864
2022-04-02T11:22:23.874312+02:00,792
2022-04-02T11:22:28.8761+02:00,936
2022-04-02T11:22:33.875744+02:00,936
2022-04-02T11:22:38.875777+02:00,936
2022-04-02T11:22:43.877436+02:00,936
2022-04-02T11:22:48.878221+02:00,900
2022-04-02T11:22:53.880614+02:00,936
2022-04-02T11:22:58.880658+02:00,936
2022-04-02T11:23:03.88113+02:00,936
2022-04-02T11:23:08.881833+02:00,936
2022-04-02T11:23:13.882595+02:00,792
2022-04-02T11:23:18.88332+02:00,756
2022-04-02T11:23:23.884514+02:00,864
2022-04-02T11:23:28.887881+02:00,792
2022-04-02T11:23:33.888045+02:00,792
2022-04-02T11:23:38.889173+02:00,792
2022-04-02T11:23:43.889709+02:00,792
2022-04-02T11:23:48.890372+02:00,792
2022-04-02T11:23:53.890974+02:00,792
2022-04-02T11:23:58.892186+02:00,792
2022-04-02T11:24:03.893244+02:00,792
2022-04-02T11:24:08.896399+02:00,792
2022-04-02T11:24:13.896967+02:00,792
2022-04-02T11:24:18.897424+02:00,792
2022-04-02T11:24:23.899393+02:00,792
2022-04-02T11:24:28.900313+02:00,828
2022-04-02T11:24:33.900862+02:00,792
2022-04-02T11:24:38.904215+02:00,792
2022-04-02T11:24:43.910357+02:00,792
2022-04-02T11:24:48.910944+02:00,792
2022-04-02T11:24:53.911411+02:00,828
2022-04-02T11:24:58.911762+02:00,828
2022-04-02T11:25:03.912641+02:00,828
2022-04-02T11:25:08.913238+02:00,792
2022-04-02T11:25:13.913707+02:00,792
2022-04-02T11:25:18.915221+02:00,792
2022-04-02T11:25:23.915105+02:00,792
2022-04-02T11:25:28.917048+02:00,864
2022-04-02T11:25:33.91763+02:00,792
2022-04-02T11:25:38.918082+02:00,792
2022-04-02T11:25:43.918755+02:00,900
2022-04-02T11:25:48.921566+02:00,900
2022-04-02T11:25:53.922837+02:00,936
2022-04-02T11:25:58.922873+02:00,1008
2022-04-02T11:26:03.923227+02:00,972
2022-04-02T11:26:08.924304+02:00,972
2022-04-02T11:26:13.924695+02:00,936
2022-04-02T11:26:18.926028+02:00,972
2022-04-02T11:26:23.937806+02:00,792
2022-04-02T11:26:28.935567+02:00,792
2022-04-02T11:26:33.935321+02:00,828
2022-04-02T11:26:38.942672+02:00,792
2022-04-02T11:26:43.937779+02:00,792
2022-04-02T11:26:48.938163+02:00,792
2022-04-02T11:26:53.95228+02:00,756
2022-04-02T11:26:58.941741+02:00,756
2022-04-02T11:27:03.942539+02:00,792
2022-04-02T11:27:08.94353+02:00,792
2022-04-02T11:27:13.944409+02:00,792
2022-04-02T11:27:18.945173+02:00,792
2022-04-02T11:27:23.946104+02:00,792
2022-04-02T11:27:28.946971+02:00,792
2022-04-02T11:27:33.947843+02:00,792
2022-04-02T11:27:38.954467+02:00,792
2022-04-02T11:27:43.954629+02:00,792
2022-04-02T11:27:48.955578+02:00,792
2022-04-02T11:27:53.957382+02:00,792
2022-04-02T11:27:58.957937+02:00,792
2022-04-02T11:28:03.959029+02:00,828
2022-04-02T11:28:08.959838+02:00,792
2022-04-02T11:28:13.961156+02:00,792
2022-04-02T11:28:18.961948+02:00,792
2022-04-02T11:28:23.963044+02:00,828
2022-04-02T11:28:28.963385+02:00,828
2022-04-02T11:28:33.964173+02:00,828
2022-04-02T11:28:38.966132+02:00,828
2022-04-02T11:28:43.966513+02:00,828
2022-04-02T11:28:48.967972+02:00,828
2022-04-02T11:28:53.968532+02:00,792
2022-04-02T11:28:58.96952+02:00,792
2022-04-02T11:29:03.98218+02:00,792
2022-04-02T11:29:08.972254+02:00,792
2022-04-02T11:29:13.972647+02:00,792
2022-04-02T11:29:18.972797+02:00,828
2022-04-02T11:29:23.973546+02:00,828
2022-04-02T11:29:28.974697+02:00,828
2022-04-02T11:29:33.978823+02:00,828
2022-04-02T11:29:38.98173+02:00,828
2022-04-02T11:29:43.982192+02:00,900
2022-04-02T11:29:48.982641+02:00,900
2022-04-02T11:29:53.983329+02:00,864
2022-04-02T11:29:58.98454+02:00,828
2022-04-02T11:30:03.985632+02:00,828
2022-04-02T11:30:08.986962+02:00,828
2022-04-02T11:30:13.987942+02:00,828
2022-04-02T11:30:18.988695+02:00,792
2022-04-02T11:30:23.99354+02:00,792
2022-04-02T11:30:28.990601+02:00,756
2022-04-02T11:30:33.990888+02:00,756
2022-04-02T11:30:38.991133+02:00,792
2022-04-02T11:30:43.991489+02:00,900
2022-04-02T11:30:48.993531+02:00,756
2022-04-02T11:30:53.994376+02:00,792
2022-04-02T11:30:58.997998+02:00,792
2022-04-02T11:31:03.998701+02:00,792
2022-04-02T11:31:09.000819+02:00,792
2022-04-02T11:31:14.001878+02:00,756
2022-04-02T11:31:19.002652+02:00,792
2022-04-02T11:31:24.004035+02:00,792
2022-04-02T11:31:29.009713+02:00,756
2022-04-02T11:31:34.010755+02:00,756
2022-04-02T11:31:39.010303+02:00,792
2022-04-02T11:31:44.010866+02:00,792
2022-04-02T11:31:49.011709+02:00,828
2022-04-02T11:31:54.01305+02:00,792
2022-04-02T11:31:59.013903+02:00,792
2022-04-02T11:32:04.015436+02:00,792
2022-04-02T11:32:09.01634+02:00,828
2022-04-02T11:32:14.017009+02:00,828
2022-04-02T11:32:19.018748+02:00,828
2022-04-02T11:32:24.023725+02:00,828
2022-04-02T11:32:29.024557+02:00,828
2022-04-02T11:32:34.024851+02:00,792
2022-04-02T11:32:39.025133+02:00,792
2022-04-02T11:32:44.026315+02:00,792
2022-04-02T11:32:49.026969+02:00,756
2022-04-02T11:32:54.027287+02:00,792
2022-04-02T11:32:59.02816+02:00,792
2022-04-02T11:33:04.028346+02:00,828
2022-04-02T11:33:09.029547+02:00,900
2022-04-02T11:33:14.029947+02:00,936
2022-04-02T11:33:19.033515+02:00,936
2022-04-02T11:33:24.034107+02:00,1008
2022-04-02T11:33:29.034132+02:00,972
2022-04-02T11:33:34.03878+02:00,972
2022-04-02T11:33:39.039658+02:00,900
2022-04-02T11:33:44.04038+02:00,792
2022-04-02T11:33:49.040875+02:00,792
2022-04-02T11:33:54.041041+02:00,900
2022-04-02T11:33:59.0474+02:00,756
2022-04-02T11:34:04.047533+02:00,756
2022-04-02T11:34:09.0486+02:00,792
2022-04-02T11:34:14.048793+02:00,756
2022-04-02T11:34:19.049462+02:00,756
2022-04-02T11:34:24.05515+02:00,792
2022-04-02T11:34:29.054976+02:00,756
2022-04-02T11:34:34.063241+02:00,792
2022-04-02T11:34:39.063266+02:00,792
2022-04-02T11:34:44.063466+02:00,792
2022-04-02T11:34:49.06487+02:00,792
2022-04-02T11:34:54.065578+02:00,792
2022-04-02T11:34:59.065913+02:00,864
2022-04-02T11:35:04.065817+02:00,792
2022-04-02T11:35:09.06713+02:00,792
2022-04-02T11:35:14.067371+02:00,756
2022-04-02T11:35:19.067855+02:00,792
2022-04-02T11:35:24.068211+02:00,792
2022-04-02T11:35:29.068792+02:00,792
2022-04-02T11:35:34.074962+02:00,792
2022-04-02T11:35:39.075665+02:00,828
2022-04-02T11:35:44.076625+02:00,828
2022-04-02T11:35:49.077526+02:00,828
2022-04-02T11:35:54.078515+02:00,828
2022-04-02T11:35:59.085435+02:00,936
2022-04-02T11:36:04.085569+02:00,828
2022-04-02T11:36:09.086623+02:00,792
2022-04-02T11:36:14.087805+02:00,792
2022-04-02T11:36:19.088679+02:00,792
2022-04-02T11:36:24.089627+02:00,792
2022-04-02T11:36:29.089841+02:00,792
2022-04-02T11:36:34.090887+02:00,792
2022-04-02T11:36:39.091567+02:00,792
2022-04-02T11:36:44.0919+02:00,936
2022-04-02T11:36:49.09249+02:00,936
2022-04-02T11:36:54.093417+02:00,828
2022-04-02T11:36:59.094471+02:00,792
2022-04-02T11:37:04.096055+02:00,864
2022-04-02T11:37:09.097078+02:00,828
2022-04-02T11:37:14.097558+02:00,828
2022-04-02T11:37:19.098124+02:00,828
2022-04-02T11:37:24.099048+02:00,828
2022-04-02T11:37:29.099725+02:00,828
2022-04-02T11:37:34.099661+02:00,828
2022-04-02T11:37:39.100228+02:00,792
2022-04-02T11:37:44.101947+02:00,792
2022-04-02T11:37:49.10307+02:00,792
2022-04-02T11:37:54.104331+02:00,792
2022-04-02T11:37:59.104063+02:00,792
2022-04-02T11:38:04.125376+02:00,900
2022-04-02T11:38:09.126189+02:00,792
2022-04-02T11:38:14.126876+02:00,756
2022-04-02T11:38:19.130734+02:00,792
2022-04-02T11:38:24.131346+02:00,792
2022-04-02T11:38:29.132467+02:00,792
2022-04-02T11:38:34.138291+02:00,756
2022-04-02T11:38:39.139085+02:00,792
2022-04-02T11:38:44.140013+02:00,792
2022-04-02T11:38:49.140149+02:00,792
2022-04-02T11:38:54.140755+02:00,792
2022-04-02T11:38:59.141647+02:00,792
2022-04-02T11:39:04.141672+02:00,792
2022-04-02T11:39:09.143247+02:00,900
2022-04-02T11:39:14.144126+02:00,792
2022-04-02T11:39:19.14482+02:00,792
2022-04-02T11:39:24.146034+02:00,792
2022-04-02T11:39:29.147764+02:00,792
2022-04-02T11:39:34.148997+02:00,828
2022-04-02T11:39:39.149231+02:00,828
2022-04-02T11:39:44.149798+02:00,828
2022-04-02T11:39:49.150084+02:00,828
2022-04-02T11:39:54.150913+02:00,828
2022-04-02T11:39:59.151999+02:00,792
2022-04-02T11:40:04.152562+02:00,792
2022-04-02T11:40:09.153752+02:00,900
2022-04-02T11:40:14.155426+02:00,792
2022-04-02T11:40:19.156374+02:00,792
2022-04-02T11:40:24.156877+02:00,792
2022-04-02T11:40:29.158551+02:00,792
2022-04-02T11:40:34.158404+02:00,900
2022-04-02T11:40:39.159789+02:00,936
2022-04-02T11:40:44.16068+02:00,936
2022-04-02T11:40:49.161376+02:00,900
2022-04-02T11:40:54.162313+02:00,1008
2022-04-02T11:40:59.162586+02:00,972
2022-04-02T11:41:04.162936+02:00,792
2022-04-02T11:41:09.16381+02:00,792
2022-04-02T11:41:14.164097+02:00,756
2022-04-02T11:41:19.164226+02:00,792
2022-04-02T11:41:24.164319+02:00,792
2022-04-02T11:41:29.164417+02:00,756
