{"timestamp":1649909119.062251,"rapl_power_draw_absolute":146.25076496096966,"rapl_estimated_attributable_power_draw":0.08878912498444445,"cpu_time_seconds":{"412143":{"user":0.01,"system":0.05,"children_user":0.11,"children_system":34.48,"iowait":0.0},"411935":{"user":2.53,"system":0.69,"children_user":2.18,"children_system":26.84,"iowait":0.0}},"average_relative_cpu_utilization":0.0006237899764582214,"absolute_cpu_utilization":0.00499580801499954,"relative_mem_usage":0.0005396511292655988,"absolute_mem_usage":77509632.0,"absolute_mem_percent_usage":0.00014328933849177224,"mem_info_per_process":{"412143":{"rss":182423552,"vms":1834033152,"shared":5763072,"text":3096576,"lib":0,"data":1525248000,"dirty":0,"uss":5206016,"pss":22669312,"swap":0},"411935":{"rss":220573696,"vms":2035376128,"shared":43892736,"text":3096576,"lib":0,"data":1525653504,"dirty":0,"uss":35950592,"pss":54840320,"swap":0}},"nvidia_draw_absolute":467.95000000000005,"nvidia_estimated_attributable_power_draw":0,"average_gpu_estimated_utilization_absolute":0,"per_gpu_average_estimated_utilization_absolute":{"(0, 0)":{"type":0.0,"sm":0.0,"mem":0.0,"enc":0.0,"dec":0.0,"command":0.0},"(1, 0)":{"type":0.0,"sm":0.0,"mem":0.0,"enc":0.0,"dec":0.0,"command":0.0},"(2, 0)":{"type":0.0,"sm":0.0,"mem":0.0,"enc":0.0,"dec":0.0,"command":0.0},"(3, 0)":{"type":0.0,"sm":0.0,"mem":0.0,"enc":0.0,"dec":0.0,"command":0.0},"(4, 0)":{"type":0.0,"sm":0.0,"mem":0.0,"enc":0.0,"dec":0.0,"command":0.0},"(5, 0)":{"type":0.0,"sm":0.0,"mem":0.0,"enc":0.0,"dec":0.0,"command":0.0},"(6, 0)":{"type":0.0,"sm":0.0,"mem":0.0,"enc":0.0,"dec":0.0,"command":0.0},"(7, 0)":{"type":0.0,"sm":0.0,"mem":0.0,"enc":0.0,"dec":0.0,"command":0.0}},"average_gpu_estimated_utilization_relative":0,"per_gpu_performance_state":{},"per_gpu_power_draw":{},"cpu_count_adjusted_average_load":[0.15625,0.057499999999999996,0.04725],"cpu_freq":[{"current":2195.043,"min":2200.0,"max":2200.0},{"current":2195.043,"min":2200.0,"max":2200.0},{"current":2195.043,"min":2200.0,"max":2200.0},{"current":2195.044,"min":2200.0,"max":2200.0},{"current":2195.043,"min":2200.0,"max":2200.0},{"current":2195.043,"min":2200.0,"max":2200.0},{"current":2195.043,"min":2200.0,"max":2200.0},{"current":2195.043,"min":2200.0,"max":2200.0},{"current":2195.043,"min":2200.0,"max":2200.0},{"current":2195.043,"min":2200.0,"max":2200.0},{"current":2195.043,"min":2200.0,"max":2200.0},{"current":2195.044,"min":2200.0,"max":2200.0},{"current":2195.043,"min":2200.0,"max":2200.0},{"current":2195.043,"min":2200.0,"max":2200.0},{"current":2195.043,"min":2200.0,"max":2200.0},{"current":2195.043,"min":2200.0,"max":2200.0},{"current":2195.043,"min":2200.0,"max":2200.0},{"current":2195.043,"min":2200.0,"max":2200.0},{"current":2195.043,"min":2200.0,"max":2200.0},{"current":2195.043,"min":2200.0,"max":2200.0},{"current":2195.043,"min":2200.0,"max":2200.0},{"current":2195.043,"min":2200.0,"max":2200.0},{"current":2195.043,"min":2200.0,"max":2200.0},{"current":2195.042,"min":2200.0,"max":2200.0},{"current":2195.043,"min":2200.0,"max":2200.0},{"current":2195.043,"min":2200.0,"max":2200.0},{"current":2195.043,"min":2200.0,"max":2200.0},{"current":2195.043,"min":2200.0,"max":2200.0},{"current":2195.042,"min":2200.0,"max":2200.0},{"current":2195.043,"min":2200.0,"max":2200.0},{"current":2195.043,"min":2200.0,"max":2200.0},{"current":2195.043,"min":2200.0,"max":2200.0},{"current":2195.043,"min":2200.0,"max":2200.0},{"current":2195.043,"min":2200.0,"max":2200.0},{"current":2195.042,"min":2200.0,"max":2200.0},{"current":2195.043,"min":2200.0,"max":2200.0},{"current":2195.043,"min":2200.0,"max":2200.0},{"current":2195.042,"min":2200.0,"max":2200.0},{"current":2195.042,"min":2200.0,"max":2200.0},{"current":2195.042,"min":2200.0,"max":2200.0},{"current":1214.592,"min":1200.0,"max":3600.0},{"current":1417.96,"min":1200.0,"max":3600.0},{"current":1213.913,"min":1200.0,"max":3600.0},{"current":1280.436,"min":1200.0,"max":3600.0},{"current":1354.602,"min":1200.0,"max":3600.0},{"current":1410.891,"min":1200.0,"max":3600.0},{"current":1918.223,"min":1200.0,"max":3600.0},{"current":1885.756,"min":1200.0,"max":3600.0},{"current":1926.317,"min":1200.0,"max":3600.0},{"current":1955.031,"min":1200.0,"max":3600.0},{"current":1913.307,"min":1200.0,"max":3600.0},{"current":1233.226,"min":1200.0,"max":3600.0},{"current":1231.215,"min":1200.0,"max":3600.0},{"current":1261.278,"min":1200.0,"max":3600.0},{"current":1292.44,"min":1200.0,"max":3600.0},{"current":1237.046,"min":1200.0,"max":3600.0},{"current":1267.292,"min":1200.0,"max":3600.0},{"current":1320.377,"min":1200.0,"max":3600.0},{"current":1209.316,"min":1200.0,"max":3600.0},{"current":1318.436,"min":1200.0,"max":3600.0},{"current":1197.45,"min":1200.0,"max":3600.0},{"current":1815.162,"min":1200.0,"max":3600.0},{"current":1197.421,"min":1200.0,"max":3600.0},{"current":1197.503,"min":1200.0,"max":3600.0},{"current":1197.371,"min":1200.0,"max":3600.0},{"current":1197.374,"min":1200.0,"max":3600.0},{"current":1328.263,"min":1200.0,"max":3600.0},{"current":1314.334,"min":1200.0,"max":3600.0},{"current":1236.332,"min":1200.0,"max":3600.0},{"current":1234.253,"min":1200.0,"max":3600.0},{"current":1885.071,"min":1200.0,"max":3600.0},{"current":1843.541,"min":1200.0,"max":3600.0},{"current":1691.573,"min":1200.0,"max":3600.0},{"current":1471.484,"min":1200.0,"max":3600.0},{"current":1682.503,"min":1200.0,"max":3600.0},{"current":1691.032,"min":1200.0,"max":3600.0},{"current":1746.678,"min":1200.0,"max":3600.0},{"current":1542.603,"min":1200.0,"max":3600.0},{"current":1714.362,"min":1200.0,"max":3600.0},{"current":1468.635,"min":1200.0,"max":3600.0}],"disk_write_speed":146.2727534925982,"process_ids":[412143,411935]}
{"timestamp":1649909182.558243,"rapl_power_draw_absolute":149.27701113995,"rapl_estimated_attributable_power_draw":148.3528966913205,"cpu_time_seconds":{"412160":{"user":0.0,"system":0.0,"children_user":0.0,"children_system":0.0,"iowait":0.0},"412161":{"user":0.0,"system":0.0,"children_user":0.0,"children_system":0.0,"iowait":0.0},"412162":{"user":0.0,"system":0.0,"children_user":0.0,"children_system":0.0,"iowait":0.0},"412163":{"user":0.0,"system":0.0,"children_user":0.0,"children_system":0.0,"iowait":0.0},"412164":{"user":0.0,"system":0.0,"children_user":0.0,"children_system":0.0,"iowait":0.0},"412165":{"user":0.0,"system":0.0,"children_user":0.0,"children_system":0.0,"iowait":0.0},"412166":{"user":0.0,"system":0.0,"children_user":0.0,"children_system":0.0,"iowait":0.0},"412167":{"user":0.0,"system":0.0,"children_user":0.0,"children_system":0.0,"iowait":0.0},"412168":{"user":0.0,"system":0.0,"children_user":0.0,"children_system":0.0,"iowait":0.0},"412169":{"user":0.0,"system":0.0,"children_user":0.0,"children_system":0.0,"iowait":0.0},"412179":{"user":0.0,"system":0.0,"children_user":0.0,"children_system":0.0,"iowait":0.0},"412181":{"user":0.0,"system":0.0,"children_user":0.0,"children_system":0.0,"iowait":0.0},"411935":{"user":2.56,"system":0.71,"children_user":2.18,"children_system":26.84,"iowait":0.0},"412192":{"user":88.15,"system":15.31,"children_user":0.0,"children_system":0.0,"iowait":0.0},"412194":{"user":88.92,"system":14.52,"children_user":0.0,"children_system":0.0,"iowait":0.0},"412195":{"user":87.92,"system":15.54,"children_user":0.0,"children_system":0.0,"iowait":0.0},"412198":{"user":87.9,"system":15.56,"children_user":0.0,"children_system":0.0,"iowait":0.0},"412199":{"user":88.12,"system":15.34,"children_user":0.0,"children_system":0.0,"iowait":0.0},"412200":{"user":68.42,"system":35.03,"children_user":0.0,"children_system":0.0,"iowait":0.0},"412203":{"user":88.2,"system":15.26,"children_user":0.0,"children_system":0.0,"iowait":0.0},"412204":{"user":88.18,"system":15.27,"children_user":0.0,"children_system":0.0,"iowait":0.0},"412143":{"user":0.51,"system":0.25,"children_user":0.38,"children_system":83.26,"iowait":0.0},"412144":{"user":0.0,"system":0.0,"children_user":0.0,"children_system":0.0,"iowait":0.0},"412145":{"user":0.0,"system":0.0,"children_user":0.0,"children_system":0.0,"iowait":0.0},"412146":{"user":0.0,"system":0.0,"children_user":0.0,"children_system":0.0,"iowait":0.0},"412147":{"user":0.0,"system":0.0,"children_user":0.0,"children_system":0.0,"iowait":0.0},"412148":{"user":0.0,"system":0.0,"children_user":0.0,"children_system":0.0,"iowait":0.0},"412149":{"user":0.0,"system":0.0,"children_user":0.0,"children_system":0.0,"iowait":0.0},"412150":{"user":0.0,"system":0.0,"children_user":0.0,"children_system":0.0,"iowait":0.0},"412151":{"user":0.0,"system":0.0,"children_user":0.0,"children_system":0.0,"iowait":0.0},"412156":{"user":0.0,"system":0.0,"children_user":0.0,"children_system":0.0,"iowait":0.0},"412157":{"user":0.0,"system":0.0,"children_user":0.0,"children_system":0.0,"iowait":0.0},"412158":{"user":0.0,"system":0.0,"children_user":0.0,"children_system":0.0,"iowait":0.0},"412159":{"user":0.0,"system":0.0,"children_user":0.0,"children_system":0.0,"iowait":0.0}},"average_relative_cpu_utilization":0.9981090062420535,"absolute_cpu_utilization":7.9919901157930315,"relative_mem_usage":0.9772026590194087,"absolute_mem_usage":227535136768.0,"absolute_mem_percent_usage":0.42063622790934735,"mem_info_per_process":{"412160":{"rss":610304,"vms":2670592,"shared":540672,"text":98304,"lib":0,"data":323584,"dirty":0,"uss":90112,"pss":129024,"swap":0},"412161":{"rss":544768,"vms":2670592,"shared":475136,"text":98304,"lib":0,"data":323584,"dirty":0,"uss":90112,"pss":130048,"swap":0},"412162":{"rss":614400,"vms":2670592,"shared":540672,"text":98304,"lib":0,"data":323584,"dirty":0,"uss":94208,"pss":137216,"swap":0},"412163":{"rss":610304,"vms":2670592,"shared":540672,"text":98304,"lib":0,"data":323584,"dirty":0,"uss":90112,"pss":133120,"swap":0},"412164":{"rss":3330048,"vms":9719808,"shared":3084288,"text":909312,"lib":0,"data":409600,"dirty":0,"uss":245760,"pss":448512,"swap":0},"412165":{"rss":3330048,"vms":9719808,"shared":3084288,"text":909312,"lib":0,"data":409600,"dirty":0,"uss":249856,"pss":434176,"swap":0},"412166":{"rss":3411968,"vms":9719808,"shared":3162112,"text":909312,"lib":0,"data":409600,"dirty":0,"uss":311296,"pss":521216,"swap":0},"412167":{"rss":3334144,"vms":9719808,"shared":3088384,"text":909312,"lib":0,"data":409600,"dirty":0,"uss":258048,"pss":453632,"swap":0},"412168":{"rss":3317760,"vms":9719808,"shared":3067904,"text":909312,"lib":0,"data":409600,"dirty":0,"uss":249856,"pss":450560,"swap":0},"412169":{"rss":3190784,"vms":9719808,"shared":2940928,"text":909312,"lib":0,"data":409600,"dirty":0,"uss":249856,"pss":433152,"swap":0},"412179":{"rss":3244032,"vms":9719808,"shared":2998272,"text":909312,"lib":0,"data":409600,"dirty":0,"uss":253952,"pss":454656,"swap":0},"412181":{"rss":3383296,"vms":9719808,"shared":3137536,"text":909312,"lib":0,"data":409600,"dirty":0,"uss":245760,"pss":429056,"swap":0},"411935":{"rss":220573696,"vms":2035376128,"shared":43892736,"text":3096576,"lib":0,"data":1525653504,"dirty":0,"uss":31391744,"pss":52622336,"swap":0},"412192":{"rss":28411244544,"vms":28413927424,"shared":2064384,"text":475136,"lib":0,"data":28409503744,"dirty":0,"uss":28409634816,"pss":28409670656,"swap":0},"412194":{"rss":28411310080,"vms":28413927424,"shared":2113536,"text":475136,"lib":0,"data":28409503744,"dirty":0,"uss":28409561088,"pss":28409609216,"swap":0},"412195":{"rss":28411207680,"vms":28413927424,"shared":2105344,"text":475136,"lib":0,"data":28409503744,"dirty":0,"uss":28409610240,"pss":28409649152,"swap":0},"412198":{"rss":28411281408,"vms":28413927424,"shared":2191360,"text":475136,"lib":0,"data":28409503744,"dirty":0,"uss":28409663488,"pss":28409707520,"swap":0},"412199":{"rss":28411252736,"vms":28413927424,"shared":2154496,"text":475136,"lib":0,"data":28409503744,"dirty":0,"uss":28409610240,"pss":28409657344,"swap":0},"412200":{"rss":28411420672,"vms":28413927424,"shared":2170880,"text":475136,"lib":0,"data":28409503744,"dirty":0,"uss":28409622528,"pss":28409670656,"swap":0},"412203":{"rss":28411191296,"vms":28413927424,"shared":2097152,"text":475136,"lib":0,"data":28409503744,"dirty":0,"uss":28409663488,"pss":28409699328,"swap":0},"412204":{"rss":28411478016,"vms":28413927424,"shared":2154496,"text":475136,"lib":0,"data":28409503744,"dirty":0,"uss":28409647104,"pss":28409690112,"swap":0},"412143":{"rss":189255680,"vms":1834033152,"shared":12582912,"text":3096576,"lib":0,"data":1525248000,"dirty":0,"uss":19099648,"pss":37702656,"swap":0},"412144":{"rss":181927936,"vms":1834049536,"shared":5267456,"text":3096576,"lib":0,"data":1525248000,"dirty":0,"uss":2658304,"pss":20350976,"swap":0},"412145":{"rss":181927936,"vms":1834049536,"shared":5267456,"text":3096576,"lib":0,"data":1525248000,"dirty":0,"uss":2650112,"pss":20342784,"swap":0},"412146":{"rss":181927936,"vms":1834049536,"shared":5267456,"text":3096576,"lib":0,"data":1525248000,"dirty":0,"uss":2654208,"pss":20344832,"swap":0},"412147":{"rss":181927936,"vms":1834049536,"shared":5267456,"text":3096576,"lib":0,"data":1525248000,"dirty":0,"uss":2654208,"pss":20344832,"swap":0},"412148":{"rss":181927936,"vms":1834049536,"shared":5267456,"text":3096576,"lib":0,"data":1525248000,"dirty":0,"uss":2654208,"pss":20344832,"swap":0},"412149":{"rss":181927936,"vms":1834049536,"shared":5267456,"text":3096576,"lib":0,"data":1525248000,"dirty":0,"uss":2654208,"pss":20345856,"swap":0},"412150":{"rss":181927936,"vms":1834049536,"shared":5267456,"text":3096576,"lib":0,"data":1525248000,"dirty":0,"uss":2658304,"pss":20349952,"swap":0},"412151":{"rss":181927936,"vms":1834049536,"shared":5267456,"text":3096576,"lib":0,"data":1525248000,"dirty":0,"uss":2646016,"pss":20346880,"swap":0},"412156":{"rss":614400,"vms":2670592,"shared":540672,"text":98304,"lib":0,"data":323584,"dirty":0,"uss":94208,"pss":137216,"swap":0},"412157":{"rss":548864,"vms":2670592,"shared":475136,"text":98304,"lib":0,"data":323584,"dirty":0,"uss":94208,"pss":134144,"swap":0},"412158":{"rss":610304,"vms":2670592,"shared":540672,"text":98304,"lib":0,"data":323584,"dirty":0,"uss":90112,"pss":131072,"swap":0},"412159":{"rss":610304,"vms":2670592,"shared":540672,"text":98304,"lib":0,"data":323584,"dirty":0,"uss":90112,"pss":130048,"swap":0}},"nvidia_draw_absolute":468.42999999999995,"nvidia_estimated_attributable_power_draw":0,"average_gpu_estimated_utilization_absolute":0,"per_gpu_average_estimated_utilization_absolute":{"(0, 0)":{"type":0.0,"sm":0.0,"mem":0.0,"enc":0.0,"dec":0.0,"command":0.0},"(1, 0)":{"type":0.0,"sm":0.0,"mem":0.0,"enc":0.0,"dec":0.0,"command":0.0},"(2, 0)":{"type":0.0,"sm":0.0,"mem":0.0,"enc":0.0,"dec":0.0,"command":0.0},"(3, 0)":{"type":0.0,"sm":0.0,"mem":0.0,"enc":0.0,"dec":0.0,"command":0.0},"(4, 0)":{"type":0.0,"sm":0.0,"mem":0.0,"enc":0.0,"dec":0.0,"command":0.0},"(5, 0)":{"type":0.0,"sm":0.0,"mem":0.0,"enc":0.0,"dec":0.0,"command":0.0},"(6, 0)":{"type":0.0,"sm":0.0,"mem":0.0,"enc":0.0,"dec":0.0,"command":0.0},"(7, 0)":{"type":0.0,"sm":0.0,"mem":0.0,"enc":0.0,"dec":0.0,"command":0.0}},"average_gpu_estimated_utilization_relative":0,"per_gpu_performance_state":{},"per_gpu_power_draw":{},"cpu_count_adjusted_average_load":[0.20099999999999998,0.09025,0.059250000000000004],"cpu_freq":[{"current":2195.043,"min":2200.0,"max":2200.0},{"current":2195.043,"min":2200.0,"max":2200.0},{"current":2195.043,"min":2200.0,"max":2200.0},{"current":2195.044,"min":2200.0,"max":2200.0},{"current":2195.043,"min":2200.0,"max":2200.0},{"current":2195.043,"min":2200.0,"max":2200.0},{"current":2195.043,"min":2200.0,"max":2200.0},{"current":2195.043,"min":2200.0,"max":2200.0},{"current":2195.042,"min":2200.0,"max":2200.0},{"current":2195.044,"min":2200.0,"max":2200.0},{"current":2195.043,"min":2200.0,"max":2200.0},{"current":2195.042,"min":2200.0,"max":2200.0},{"current":2195.043,"min":2200.0,"max":2200.0},{"current":2195.043,"min":2200.0,"max":2200.0},{"current":2195.043,"min":2200.0,"max":2200.0},{"current":2195.043,"min":2200.0,"max":2200.0},{"current":2195.043,"min":2200.0,"max":2200.0},{"current":2195.044,"min":2200.0,"max":2200.0},{"current":2195.043,"min":2200.0,"max":2200.0},{"current":2195.042,"min":2200.0,"max":2200.0},{"current":2195.043,"min":2200.0,"max":2200.0},{"current":2195.042,"min":2200.0,"max":2200.0},{"current":2195.043,"min":2200.0,"max":2200.0},{"current":2195.043,"min":2200.0,"max":2200.0},{"current":2195.043,"min":2200.0,"max":2200.0},{"current":2195.043,"min":2200.0,"max":2200.0},{"current":2195.043,"min":2200.0,"max":2200.0},{"current":2195.043,"min":2200.0,"max":2200.0},{"current":2195.043,"min":2200.0,"max":2200.0},{"current":2195.044,"min":2200.0,"max":2200.0},{"current":2195.044,"min":2200.0,"max":2200.0},{"current":2195.043,"min":2200.0,"max":2200.0},{"current":2195.043,"min":2200.0,"max":2200.0},{"current":2195.043,"min":2200.0,"max":2200.0},{"current":2195.043,"min":2200.0,"max":2200.0},{"current":2195.042,"min":2200.0,"max":2200.0},{"current":2195.042,"min":2200.0,"max":2200.0},{"current":2195.042,"min":2200.0,"max":2200.0},{"current":2195.043,"min":2200.0,"max":2200.0},{"current":2195.042,"min":2200.0,"max":2200.0},{"current":1214.592,"min":1200.0,"max":3600.0},{"current":1417.96,"min":1200.0,"max":3600.0},{"current":1213.913,"min":1200.0,"max":3600.0},{"current":1280.436,"min":1200.0,"max":3600.0},{"current":1354.602,"min":1200.0,"max":3600.0},{"current":1410.891,"min":1200.0,"max":3600.0},{"current":1918.223,"min":1200.0,"max":3600.0},{"current":1885.756,"min":1200.0,"max":3600.0},{"current":1926.317,"min":1200.0,"max":3600.0},{"current":1955.031,"min":1200.0,"max":3600.0},{"current":1913.307,"min":1200.0,"max":3600.0},{"current":1233.226,"min":1200.0,"max":3600.0},{"current":1231.215,"min":1200.0,"max":3600.0},{"current":1261.278,"min":1200.0,"max":3600.0},{"current":1292.44,"min":1200.0,"max":3600.0},{"current":1237.046,"min":1200.0,"max":3600.0},{"current":1267.292,"min":1200.0,"max":3600.0},{"current":1320.377,"min":1200.0,"max":3600.0},{"current":1209.316,"min":1200.0,"max":3600.0},{"current":1318.436,"min":1200.0,"max":3600.0},{"current":1197.45,"min":1200.0,"max":3600.0},{"current":1815.162,"min":1200.0,"max":3600.0},{"current":1197.421,"min":1200.0,"max":3600.0},{"current":1197.503,"min":1200.0,"max":3600.0},{"current":1197.371,"min":1200.0,"max":3600.0},{"current":1197.374,"min":1200.0,"max":3600.0},{"current":1328.263,"min":1200.0,"max":3600.0},{"current":1314.334,"min":1200.0,"max":3600.0},{"current":1236.332,"min":1200.0,"max":3600.0},{"current":1234.253,"min":1200.0,"max":3600.0},{"current":1885.071,"min":1200.0,"max":3600.0},{"current":1843.541,"min":1200.0,"max":3600.0},{"current":1691.573,"min":1200.0,"max":3600.0},{"current":1471.484,"min":1200.0,"max":3600.0},{"current":1682.503,"min":1200.0,"max":3600.0},{"current":1691.032,"min":1200.0,"max":3600.0},{"current":1746.678,"min":1200.0,"max":3600.0},{"current":1542.603,"min":1200.0,"max":3600.0},{"current":1714.362,"min":1200.0,"max":3600.0},{"current":1468.635,"min":1200.0,"max":3600.0}],"disk_write_speed":148.38157645236427,"process_ids":[412160,412161,412162,412163,412164,412165,412166,412167,412168,412169,412179,412181,411935,412192,412194,412195,412198,412199,412200,412203,412204,412143,412144,412145,412146,412147,412148,412149,412150,412151,412156,412157,412158,412159]}
{"timestamp":1649909218.418413,"rapl_power_draw_absolute":174.85062342333765,"rapl_estimated_attributable_power_draw":171.77589582074364,"cpu_time_seconds":{"412160":{"user":0.0,"system":0.0,"children_user":0.0,"children_system":0.0,"iowait":0.0},"412161":{"user":0.0,"system":0.0,"children_user":0.0,"children_system":0.0,"iowait":0.0},"412162":{"user":0.0,"system":0.0,"children_user":0.0,"children_system":0.0,"iowait":0.0},"412163":{"user":0.0,"system":0.0,"children_user":0.0,"children_system":0.0,"iowait":0.0},"412164":{"user":0.0,"system":0.0,"children_user":0.0,"children_system":0.0,"iowait":0.0},"412165":{"user":0.0,"system":0.0,"children_user":0.0,"children_system":0.0,"iowait":0.0},"412166":{"user":0.0,"system":0.0,"children_user":0.0,"children_system":0.0,"iowait":0.0},"412167":{"user":0.0,"system":0.0,"children_user":0.0,"children_system":0.0,"iowait":0.0},"412168":{"user":0.0,"system":0.0,"children_user":0.0,"children_system":0.0,"iowait":0.0},"412169":{"user":0.0,"system":0.0,"children_user":0.0,"children_system":0.0,"iowait":0.0},"412179":{"user":0.0,"system":0.0,"children_user":0.0,"children_system":0.0,"iowait":0.0},"412181":{"user":0.0,"system":0.0,"children_user":0.0,"children_system":0.0,"iowait":0.0},"411935":{"user":2.58,"system":0.71,"children_user":2.18,"children_system":26.84,"iowait":0.0},"412192":{"user":118.8,"system":16.05,"children_user":0.0,"children_system":0.0,"iowait":0.0},"412194":{"user":119.03,"system":15.37,"children_user":0.0,"children_system":0.0,"iowait":0.0},"412195":{"user":119.71,"system":16.25,"children_user":0.0,"children_system":0.0,"iowait":0.0},"412198":{"user":119.05,"system":16.64,"children_user":0.0,"children_system":0.0,"iowait":0.0},"412199":{"user":119.21,"system":16.15,"children_user":0.0,"children_system":0.0,"iowait":0.0},"412200":{"user":103.93,"system":35.39,"children_user":0.0,"children_system":0.0,"iowait":0.0},"412203":{"user":119.28,"system":16.32,"children_user":0.0,"children_system":0.0,"iowait":0.0},"412204":{"user":119.24,"system":15.85,"children_user":0.0,"children_system":0.0,"iowait":0.0},"412143":{"user":1.11,"system":2.04,"children_user":0.65,"children_system":103.06,"iowait":0.0},"412144":{"user":0.0,"system":0.0,"children_user":0.0,"children_system":0.0,"iowait":0.0},"412145":{"user":0.0,"system":0.0,"children_user":0.0,"children_system":0.0,"iowait":0.0},"412146":{"user":0.0,"system":0.0,"children_user":0.0,"children_system":0.0,"iowait":0.0},"412147":{"user":0.0,"system":0.0,"children_user":0.0,"children_system":0.0,"iowait":0.0},"412148":{"user":0.0,"system":0.0,"children_user":0.0,"children_system":0.0,"iowait":0.0},"412149":{"user":0.0,"system":0.0,"children_user":0.0,"children_system":0.0,"iowait":0.0},"412150":{"user":0.0,"system":0.0,"children_user":0.0,"children_system":0.0,"iowait":0.0},"412151":{"user":0.0,"system":0.0,"children_user":0.0,"children_system":0.0,"iowait":0.0},"412156":{"user":0.0,"system":0.0,"children_user":0.0,"children_system":0.0,"iowait":0.0},"412157":{"user":0.0,"system":0.0,"children_user":0.0,"children_system":0.0,"iowait":0.0},"412158":{"user":0.0,"system":0.0,"children_user":0.0,"children_system":0.0,"iowait":0.0},"412159":{"user":0.0,"system":0.0,"children_user":0.0,"children_system":0.0,"iowait":0.0}},"average_relative_cpu_utilization":0.9993536771031841,"absolute_cpu_utilization":8.009836568465785,"relative_mem_usage":0.9402000100033998,"absolute_mem_usage":199879040000.0,"absolute_mem_percent_usage":0.36950937168648257,"mem_info_per_process":{"412160":{"rss":610304,"vms":2670592,"shared":540672,"text":98304,"lib":0,"data":323584,"dirty":0,"uss":90112,"pss":129024,"swap":0},"412161":{"rss":544768,"vms":2670592,"shared":475136,"text":98304,"lib":0,"data":323584,"dirty":0,"uss":90112,"pss":130048,"swap":0},"412162":{"rss":614400,"vms":2670592,"shared":540672,"text":98304,"lib":0,"data":323584,"dirty":0,"uss":94208,"pss":137216,"swap":0},"412163":{"rss":610304,"vms":2670592,"shared":540672,"text":98304,"lib":0,"data":323584,"dirty":0,"uss":90112,"pss":133120,"swap":0},"412164":{"rss":3330048,"vms":9719808,"shared":3084288,"text":909312,"lib":0,"data":409600,"dirty":0,"uss":245760,"pss":447488,"swap":0},"412165":{"rss":3330048,"vms":9719808,"shared":3084288,"text":909312,"lib":0,"data":409600,"dirty":0,"uss":245760,"pss":432128,"swap":0},"412166":{"rss":3411968,"vms":9719808,"shared":3162112,"text":909312,"lib":0,"data":409600,"dirty":0,"uss":311296,"pss":520192,"swap":0},"412167":{"rss":3334144,"vms":9719808,"shared":3088384,"text":909312,"lib":0,"data":409600,"dirty":0,"uss":258048,"pss":452608,"swap":0},"412168":{"rss":3317760,"vms":9719808,"shared":3067904,"text":909312,"lib":0,"data":409600,"dirty":0,"uss":249856,"pss":450560,"swap":0},"412169":{"rss":3190784,"vms":9719808,"shared":2940928,"text":909312,"lib":0,"data":409600,"dirty":0,"uss":249856,"pss":433152,"swap":0},"412179":{"rss":3244032,"vms":9719808,"shared":2998272,"text":909312,"lib":0,"data":409600,"dirty":0,"uss":253952,"pss":453632,"swap":0},"412181":{"rss":3383296,"vms":9719808,"shared":3137536,"text":909312,"lib":0,"data":409600,"dirty":0,"uss":245760,"pss":429056,"swap":0},"411935":{"rss":220573696,"vms":2035376128,"shared":43892736,"text":3096576,"lib":0,"data":1525653504,"dirty":0,"uss":27828224,"pss":51137536,"swap":0},"412192":{"rss":28538675200,"vms":92191154176,"shared":121167872,"text":475136,"lib":0,"data":28440518656,"dirty":0,"uss":28529508352,"pss":28530681856,"swap":0},"412194":{"rss":28538753024,"vms":92191154176,"shared":121249792,"text":475136,"lib":0,"data":28440518656,"dirty":0,"uss":28529430528,"pss":28530603008,"swap":0},"412195":{"rss":28538744832,"vms":92191154176,"shared":121237504,"text":475136,"lib":0,"data":28440518656,"dirty":0,"uss":28529524736,"pss":28530685952,"swap":0},"412198":{"rss":28538408960,"vms":92191150080,"shared":121147392,"text":475136,"lib":0,"data":28440514560,"dirty":0,"uss":28529463296,"pss":28530693120,"swap":0},"412199":{"rss":28538949632,"vms":92191154176,"shared":121446400,"text":475136,"lib":0,"data":28440518656,"dirty":0,"uss":28529504256,"pss":28530700288,"swap":0},"412200":{"rss":28411420672,"vms":28413927424,"shared":2170880,"text":475136,"lib":0,"data":28409503744,"dirty":0,"uss":28409622528,"pss":28409670656,"swap":0},"412203":{"rss":28538802176,"vms":92191154176,"shared":121298944,"text":475136,"lib":0,"data":28440518656,"dirty":0,"uss":28529766400,"pss":28531299328,"swap":0},"412204":{"rss":0,"vms":0,"shared":0,"text":0,"lib":0,"data":0,"dirty":0,"uss":0,"pss":0,"swap":0},"412143":{"rss":192974848,"vms":1834033152,"shared":16297984,"text":3096576,"lib":0,"data":1525248000,"dirty":0,"uss":45998080,"pss":63705088,"swap":0},"412144":{"rss":181927936,"vms":1834049536,"shared":5267456,"text":3096576,"lib":0,"data":1525248000,"dirty":0,"uss":2658304,"pss":20652032,"swap":0},"412145":{"rss":181927936,"vms":1834049536,"shared":5267456,"text":3096576,"lib":0,"data":1525248000,"dirty":0,"uss":2650112,"pss":20645888,"swap":0},"412146":{"rss":181927936,"vms":1834049536,"shared":5267456,"text":3096576,"lib":0,"data":1525248000,"dirty":0,"uss":2654208,"pss":20647936,"swap":0},"412147":{"rss":181927936,"vms":1834049536,"shared":5267456,"text":3096576,"lib":0,"data":1525248000,"dirty":0,"uss":2654208,"pss":20646912,"swap":0},"412148":{"rss":181927936,"vms":1834049536,"shared":5267456,"text":3096576,"lib":0,"data":1525248000,"dirty":0,"uss":2654208,"pss":20645888,"swap":0},"412149":{"rss":181927936,"vms":1834049536,"shared":5267456,"text":3096576,"lib":0,"data":1525248000,"dirty":0,"uss":2654208,"pss":20645888,"swap":0},"412150":{"rss":181927936,"vms":1834049536,"shared":5267456,"text":3096576,"lib":0,"data":1525248000,"dirty":0,"uss":2658304,"pss":20651008,"swap":0},"412151":{"rss":181927936,"vms":1834049536,"shared":5267456,"text":3096576,"lib":0,"data":1525248000,"dirty":0,"uss":2646016,"pss":20647936,"swap":0},"412156":{"rss":614400,"vms":2670592,"shared":540672,"text":98304,"lib":0,"data":323584,"dirty":0,"uss":94208,"pss":137216,"swap":0},"412157":{"rss":548864,"vms":2670592,"shared":475136,"text":98304,"lib":0,"data":323584,"dirty":0,"uss":94208,"pss":134144,"swap":0},"412158":{"rss":610304,"vms":2670592,"shared":540672,"text":98304,"lib":0,"data":323584,"dirty":0,"uss":90112,"pss":131072,"swap":0},"412159":{"rss":610304,"vms":2670592,"shared":540672,"text":98304,"lib":0,"data":323584,"dirty":0,"uss":90112,"pss":129024,"swap":0}},"nvidia_draw_absolute":469.4,"nvidia_estimated_attributable_power_draw":0.0,"average_gpu_estimated_utilization_absolute":0.0,"per_gpu_average_estimated_utilization_absolute":{"(0, 0)":{"sm":0.0,"mem":0.0,"enc":0.0,"dec":0.0},"(1, 0)":{"sm":0.0,"mem":0.0,"enc":0.0,"dec":0.0},"(2, 0)":{"sm":0.0,"mem":0.0,"enc":0.0,"dec":0.0},"(2, 412195)":{"sm":28.0,"mem":0.0,"enc":0.0,"dec":0.0},"(3, 0)":{"sm":0.0,"mem":0.0,"enc":0.0,"dec":0.0},"(3, 412198)":{"sm":46.0,"mem":0.0,"enc":0.0,"dec":0.0},"(4, 0)":{"sm":0.0,"mem":0.0,"enc":0.0,"dec":0.0},"(4, 412199)":{"sm":30.0,"mem":0.0,"enc":0.0,"dec":0.0},"(5, 0)":{"sm":0.0,"mem":0.0,"enc":0.0,"dec":0.0},"(6, 0)":{"sm":0.0,"mem":0.0,"enc":0.0,"dec":0.0},"(6, 412203)":{"sm":46.0,"mem":0.0,"enc":0.0,"dec":0.0},"(7, 0)":{"sm":0.0,"mem":0.0,"enc":0.0,"dec":0.0}},"average_gpu_estimated_utilization_relative":0.0,"per_gpu_performance_state":{"5":"P0"},"per_gpu_power_draw":{},"cpu_count_adjusted_average_load":[0.18525,0.09775,0.06275],"cpu_freq":[{"current":2195.043,"min":2200.0,"max":2200.0},{"current":2195.043,"min":2200.0,"max":2200.0},{"current":2195.043,"min":2200.0,"max":2200.0},{"current":2195.043,"min":2200.0,"max":2200.0},{"current":2195.042,"min":2200.0,"max":2200.0},{"current":2195.043,"min":2200.0,"max":2200.0},{"current":2195.043,"min":2200.0,"max":2200.0},{"current":2195.043,"min":2200.0,"max":2200.0},{"current":2195.043,"min":2200.0,"max":2200.0},{"current":2195.043,"min":2200.0,"max":2200.0},{"current":2195.043,"min":2200.0,"max":2200.0},{"current":2195.043,"min":2200.0,"max":2200.0},{"current":2195.043,"min":2200.0,"max":2200.0},{"current":2195.043,"min":2200.0,"max":2200.0},{"current":2195.042,"min":2200.0,"max":2200.0},{"current":2195.043,"min":2200.0,"max":2200.0},{"current":2195.042,"min":2200.0,"max":2200.0},{"current":2195.043,"min":2200.0,"max":2200.0},{"current":2195.043,"min":2200.0,"max":2200.0},{"current":2195.042,"min":2200.0,"max":2200.0},{"current":2195.042,"min":2200.0,"max":2200.0},{"current":2195.044,"min":2200.0,"max":2200.0},{"current":2195.044,"min":2200.0,"max":2200.0},{"current":2195.042,"min":2200.0,"max":2200.0},{"current":2195.042,"min":2200.0,"max":2200.0},{"current":2195.043,"min":2200.0,"max":2200.0},{"current":2195.043,"min":2200.0,"max":2200.0},{"current":2195.043,"min":2200.0,"max":2200.0},{"current":2195.043,"min":2200.0,"max":2200.0},{"current":2195.043,"min":2200.0,"max":2200.0},{"current":2195.043,"min":2200.0,"max":2200.0},{"current":2195.043,"min":2200.0,"max":2200.0},{"current":2195.042,"min":2200.0,"max":2200.0},{"current":2195.043,"min":2200.0,"max":2200.0},{"current":2195.042,"min":2200.0,"max":2200.0},{"current":2195.043,"min":2200.0,"max":2200.0},{"current":2195.042,"min":2200.0,"max":2200.0},{"current":2195.043,"min":2200.0,"max":2200.0},{"current":2195.042,"min":2200.0,"max":2200.0},{"current":2195.042,"min":2200.0,"max":2200.0},{"current":1214.592,"min":1200.0,"max":3600.0},{"current":1417.96,"min":1200.0,"max":3600.0},{"current":1213.913,"min":1200.0,"max":3600.0},{"current":1280.436,"min":1200.0,"max":3600.0},{"current":1354.602,"min":1200.0,"max":3600.0},{"current":1410.891,"min":1200.0,"max":3600.0},{"current":1918.223,"min":1200.0,"max":3600.0},{"current":1885.756,"min":1200.0,"max":3600.0},{"current":1926.317,"min":1200.0,"max":3600.0},{"current":1955.031,"min":1200.0,"max":3600.0},{"current":1913.307,"min":1200.0,"max":3600.0},{"current":1233.226,"min":1200.0,"max":3600.0},{"current":1231.215,"min":1200.0,"max":3600.0},{"current":1261.278,"min":1200.0,"max":3600.0},{"current":1292.44,"min":1200.0,"max":3600.0},{"current":1237.046,"min":1200.0,"max":3600.0},{"current":1267.292,"min":1200.0,"max":3600.0},{"current":1320.377,"min":1200.0,"max":3600.0},{"current":1209.316,"min":1200.0,"max":3600.0},{"current":1318.436,"min":1200.0,"max":3600.0},{"current":1197.45,"min":1200.0,"max":3600.0},{"current":1815.162,"min":1200.0,"max":3600.0},{"current":1197.421,"min":1200.0,"max":3600.0},{"current":1197.503,"min":1200.0,"max":3600.0},{"current":1197.371,"min":1200.0,"max":3600.0},{"current":1197.374,"min":1200.0,"max":3600.0},{"current":1328.263,"min":1200.0,"max":3600.0},{"current":1314.334,"min":1200.0,"max":3600.0},{"current":1236.332,"min":1200.0,"max":3600.0},{"current":1234.253,"min":1200.0,"max":3600.0},{"current":1885.071,"min":1200.0,"max":3600.0},{"current":1843.541,"min":1200.0,"max":3600.0},{"current":1691.573,"min":1200.0,"max":3600.0},{"current":1471.484,"min":1200.0,"max":3600.0},{"current":1682.503,"min":1200.0,"max":3600.0},{"current":1691.032,"min":1200.0,"max":3600.0},{"current":1746.678,"min":1200.0,"max":3600.0},{"current":1542.603,"min":1200.0,"max":3600.0},{"current":1714.362,"min":1200.0,"max":3600.0},{"current":1468.635,"min":1200.0,"max":3600.0}],"disk_write_speed":147.44758620984518,"process_ids":[412160,412161,412162,412163,412164,412165,412166,412167,412168,412169,412179,412181,411935,412192,412194,412195,412198,412199,412200,412203,412204,412143,412144,412145,412146,412147,412148,412149,412150,412151,412156,412157,412158,412159]}
