tool_on_one_process,experiment_start,experiment_end,gpu_0_start_benchmark,gpu_0_stop_benchmark,wattmetre_power_watt_energy_consumption(kWh),wattmetre_power_watt_csv_file,bmc_node_power_watt_energy_consumption(kWh),bmc_node_power_watt_csv_file,pdu_outlet_power_watt_energy_consumption(kWh),pdu_outlet_power_watt_csv_file,tool_csv_file,tool_parameters,tool_energy_consumption(kWh),result_dir,tool_name,source_dir,job_id,es_execution_command,es_analysis_command,launch_parallel_script,trace_tar_file,es_trace_id,trace_eprofile,execution_script_path,benchmark_config_file,benchmark_config,binary_path,gpu_0_name,gpu_0_benchmark_id,gpu_0_gpu_id,gpu_0_binary_dir,gpu_0_appli,gpu_0_appli_class,gpu_0_sleep_before,gpu_0_sleep_after,gpu_0_execution_script_template,gpu_1_name,gpu_1_benchmark_id,gpu_1_gpu_id,gpu_1_binary_dir,gpu_1_appli,gpu_1_appli_class,gpu_1_sleep_before,gpu_1_sleep_after,gpu_1_execution_script_template,gpu_2_name,gpu_2_benchmark_id,gpu_2_gpu_id,gpu_2_binary_dir,gpu_2_appli,gpu_2_appli_class,gpu_2_sleep_before,gpu_2_sleep_after,gpu_2_execution_script_template,gpu_3_name,gpu_3_benchmark_id,gpu_3_gpu_id,gpu_3_binary_dir,gpu_3_appli,gpu_3_appli_class,gpu_3_sleep_before,gpu_3_sleep_after,gpu_3_execution_script_template,gpu_4_name,gpu_4_benchmark_id,gpu_4_gpu_id,gpu_4_binary_dir,gpu_4_appli,gpu_4_appli_class,gpu_4_sleep_before,gpu_4_sleep_after,gpu_4_execution_script_template,gpu_5_name,gpu_5_benchmark_id,gpu_5_gpu_id,gpu_5_binary_dir,gpu_5_appli,gpu_5_appli_class,gpu_5_sleep_before,gpu_5_sleep_after,gpu_5_execution_script_template,gpu_6_name,gpu_6_benchmark_id,gpu_6_gpu_id,gpu_6_binary_dir,gpu_6_appli,gpu_6_appli_class,gpu_6_sleep_before,gpu_6_sleep_after,gpu_6_execution_script_template,gpu_7_name,gpu_7_benchmark_id,gpu_7_gpu_id,gpu_7_binary_dir,gpu_7_appli,gpu_7_appli_class,gpu_7_sleep_before,gpu_7_sleep_after,gpu_7_execution_script_template,exp_id,host_name,site,node,gpu_name,gpu_count,cpu_name,cpu_count,cpu_phyical_core_count
False,1648489652.0722795,1648489744.8128543,1648489697.907714,1648489704.675704,0.0,/root/energy-consumption-of-gpu-benchmarks/results/night_exp/836_0/wattmetre_power_watt.csv,0.0,/root/energy-consumption-of-gpu-benchmarks/results/night_exp/836_0/bmc_node_power_watt.csv,0.0,/root/energy-consumption-of-gpu-benchmarks/results/night_exp/836_0/pdu_outlet_power_watt.csv,/root/energy-consumption-of-gpu-benchmarks/results/night_exp/836_0/energy_scope.csv,/root/energy-consumption-of-gpu-benchmarks/results/night_exp/836_0/energy_scope_parameters.csv,0.010388355555555557,/root/energy-consumption-of-gpu-benchmarks/results/night_exp/836_0/,energy scope,/root/energy_scope/,836,/root/energy_scope//energy_scope_mypc.sh,/root/energy_scope//energy_scope_run_analysis_allgo.sh,/root/energy-consumption-of-gpu-benchmarks/code/templates/launch_parallel.sh,/root/energy-consumption-of-gpu-benchmarks/results/night_exp/836_0/energy_scope_20220328194732.tar.gz,20220328194732,/root/energy-consumption-of-gpu-benchmarks/results/night_exp/836_0/tmp_energy_scope_20220328194732/energy_scope_eprofile_20220328194732.txt,/root/energy-consumption-of-gpu-benchmarks/results/night_exp/836_0//gpu7/scripts/0.sh,/root/energy-consumption-of-gpu-benchmarks/NAS_benchmark_binaries//gpu7/gpu.config,"{'gpu_device': 7, 'ep_threads_per_block': 32}",/root/energy-consumption-of-gpu-benchmarks/NAS_benchmark_binaries//gpu7/ep.E,NAS,836_0_0,0,/root/energy-consumption-of-gpu-benchmarks/NAS_benchmark_binaries//gpu0/,ep,E,30,30,/root/energy-consumption-of-gpu-benchmarks/code/templates/script_template.sh,NAS,836_0_0,1,/root/energy-consumption-of-gpu-benchmarks/NAS_benchmark_binaries//gpu1/,ep,E,30,30,/root/energy-consumption-of-gpu-benchmarks/code/templates/script_template.sh,NAS,836_0_0,2,/root/energy-consumption-of-gpu-benchmarks/NAS_benchmark_binaries//gpu2/,ep,E,30,30,/root/energy-consumption-of-gpu-benchmarks/code/templates/script_template.sh,NAS,836_0_0,3,/root/energy-consumption-of-gpu-benchmarks/NAS_benchmark_binaries//gpu3/,ep,E,30,30,/root/energy-consumption-of-gpu-benchmarks/code/templates/script_template.sh,NAS,836_0_0,4,/root/energy-consumption-of-gpu-benchmarks/NAS_benchmark_binaries//gpu4/,ep,E,30,30,/root/energy-consumption-of-gpu-benchmarks/code/templates/script_template.sh,NAS,836_0_0,5,/root/energy-consumption-of-gpu-benchmarks/NAS_benchmark_binaries//gpu5/,ep,E,30,30,/root/energy-consumption-of-gpu-benchmarks/code/templates/script_template.sh,NAS,836_0_0,6,/root/energy-consumption-of-gpu-benchmarks/NAS_benchmark_binaries//gpu6/,ep,E,30,30,/root/energy-consumption-of-gpu-benchmarks/code/templates/script_template.sh,NAS,836_0_0,7,/root/energy-consumption-of-gpu-benchmarks/NAS_benchmark_binaries//gpu7/,ep,E,30,30,/root/energy-consumption-of-gpu-benchmarks/code/templates/script_template.sh,836_0,"gemini-1
",lille,"gemini-1
",Tesla V100-SXM2-32GB,8,Intel(R) Xeon(R) CPU E5-2698 v4 @ 2.20GHz,40,40
