data.data.etotal(W),data.data.ecpu(W),data.data.edram(W),data.arch.gemini-1.arch.0.data.ecpu(W),data.arch.gemini-1.arch.0.data.edram(W),data.arch.gemini-1.arch.1.data.ecpu(W),data.arch.gemini-1.arch.1.data.edram(W),data.arch.gemini-1.arch.gpu-nvidia-0.data.ecpu(W),data.arch.gemini-1.arch.gpu-nvidia-0.data.edram(W),data.arch.gemini-1.arch.gpu-nvidia-1.data.ecpu(W),data.arch.gemini-1.arch.gpu-nvidia-1.data.edram(W),data.arch.gemini-1.arch.gpu-nvidia-2.data.ecpu(W),data.arch.gemini-1.arch.gpu-nvidia-2.data.edram(W),data.arch.gemini-1.arch.gpu-nvidia-3.data.ecpu(W),data.arch.gemini-1.arch.gpu-nvidia-3.data.edram(W),data.arch.gemini-1.arch.gpu-nvidia-4.data.ecpu(W),data.arch.gemini-1.arch.gpu-nvidia-4.data.edram(W),data.arch.gemini-1.arch.gpu-nvidia-5.data.ecpu(W),data.arch.gemini-1.arch.gpu-nvidia-5.data.edram(W),data.arch.gemini-1.arch.gpu-nvidia-6.data.ecpu(W),data.arch.gemini-1.arch.gpu-nvidia-6.data.edram(W),data.arch.gemini-1.arch.gpu-nvidia-7.data.ecpu(W),data.arch.gemini-1.arch.gpu-nvidia-7.data.edram(W)
534.932,509.47,25.462,75.646,12.383,71.004,13.079,44.863,0.0,45.826,0.0,44.839,0.0,45.277,0.0,45.166,0.0,45.733,0.0,46.282,0.0,44.834,0.0
534.932,509.47,25.462,75.646,12.383,71.004,13.079,44.863,0.0,45.826,0.0,44.839,0.0,45.277,0.0,45.166,0.0,45.733,0.0,46.282,0.0,44.834,0.0
532.75,507.26,25.49,75.162,12.411,70.937,13.079,44.706,0.0,45.695,0.0,44.703,0.0,45.107,0.0,44.809,0.0,45.58,0.0,46.002,0.0,44.559,0.0
532.784,507.215,25.569,75.237,12.452,71.053,13.117,44.539,0.0,45.52,0.0,44.606,0.0,45.079,0.0,44.934,0.0,45.557,0.0,46.064,0.0,44.626,0.0
532.31,506.857,25.453,75.178,12.361,70.926,13.092,44.6,0.0,45.562,0.0,44.56,0.0,45.032,0.0,44.9,0.0,45.504,0.0,46.021,0.0,44.574,0.0
532.035,506.628,25.407,75.256,12.419,71.081,12.988,44.477,0.0,45.434,0.0,44.473,0.0,44.945,0.0,44.845,0.0,45.514,0.0,46.019,0.0,44.584,0.0
532.387,506.933,25.454,75.161,12.395,70.938,13.059,44.608,0.0,45.579,0.0,44.619,0.0,45.092,0.0,44.865,0.0,45.501,0.0,46.002,0.0,44.568,0.0
531.373,505.858,25.515,75.187,12.433,70.862,13.082,44.424,0.0,45.375,0.0,44.42,0.0,44.896,0.0,44.677,0.0,45.427,0.0,46.012,0.0,44.578,0.0
533.234,507.706,25.528,75.323,12.436,71.081,13.092,44.645,0.0,45.603,0.0,44.691,0.0,45.161,0.0,44.956,0.0,45.583,0.0,46.048,0.0,44.615,0.0
533.063,507.583,25.48,75.177,12.438,71.107,13.042,44.639,0.0,45.65,0.0,44.656,0.0,45.129,0.0,44.959,0.0,45.579,0.0,46.062,0.0,44.625,0.0
532.235,506.764,25.471,75.151,12.418,70.973,13.053,44.601,0.0,45.536,0.0,44.552,0.0,45.027,0.0,44.855,0.0,45.497,0.0,46.001,0.0,44.571,0.0
532.076,506.564,25.512,75.244,12.444,70.864,13.068,44.547,0.0,45.495,0.0,44.528,0.0,45.009,0.0,44.798,0.0,45.483,0.0,46.01,0.0,44.586,0.0
532.684,507.164,25.52,75.276,12.45,70.973,13.07,44.558,0.0,45.527,0.0,44.605,0.0,45.08,0.0,44.925,0.0,45.556,0.0,46.056,0.0,44.608,0.0
531.566,506.094,25.472,75.212,12.419,70.887,13.053,44.45,0.0,45.413,0.0,44.436,0.0,44.91,0.0,44.714,0.0,45.457,0.0,46.031,0.0,44.584,0.0
531.403,505.981,25.422,75.18,12.397,70.901,13.025,44.409,0.0,45.368,0.0,44.447,0.0,44.924,0.0,44.74,0.0,45.453,0.0,45.999,0.0,44.56,0.0
532.823,507.405,25.418,75.146,12.403,71.023,13.015,44.63,0.0,45.593,0.0,44.694,0.0,45.166,0.0,44.979,0.0,45.577,0.0,46.019,0.0,44.578,0.0
532.873,507.4,25.473,75.12,12.449,70.967,13.024,44.731,0.0,45.693,0.0,44.676,0.0,45.143,0.0,44.922,0.0,45.556,0.0,46.014,0.0,44.578,0.0
532.268,506.757,25.511,75.203,12.456,70.907,13.055,44.6,0.0,45.572,0.0,44.548,0.0,45.017,0.0,44.841,0.0,45.496,0.0,46.003,0.0,44.57,0.0
532.568,507.045,25.523,75.267,12.44,70.962,13.083,44.579,0.0,45.545,0.0,44.586,0.0,45.057,0.0,44.86,0.0,45.537,0.0,46.044,0.0,44.608,0.0
532.748,507.189,25.559,75.218,12.476,71.037,13.083,44.623,0.0,45.568,0.0,44.603,0.0,45.075,0.0,44.819,0.0,45.556,0.0,46.063,0.0,44.627,0.0
531.897,506.359,25.538,75.175,12.467,71.017,13.071,44.479,0.0,45.446,0.0,44.477,0.0,44.954,0.0,44.73,0.0,45.475,0.0,46.02,0.0,44.586,0.0
531.466,506.001,25.465,75.199,12.403,70.91,13.062,44.417,0.0,45.386,0.0,44.457,0.0,44.935,0.0,44.7,0.0,45.447,0.0,45.993,0.0,44.557,0.0
533.224,507.767,25.457,75.294,12.382,70.992,13.075,44.68,0.0,45.651,0.0,44.732,0.0,45.207,0.0,44.983,0.0,45.606,0.0,46.03,0.0,44.592,0.0
532.673,507.174,25.499,75.203,12.431,70.986,13.068,44.625,0.0,45.628,0.0,44.593,0.0,45.063,0.0,44.887,0.0,45.531,0.0,46.046,0.0,44.612,0.0
531.519,506.066,25.453,75.002,12.395,70.879,13.058,44.434,0.0,45.475,0.0,44.518,0.0,44.989,0.0,44.76,0.0,45.481,0.0,45.982,0.0,44.546,0.0
532.49,506.981,25.509,75.284,12.447,70.916,13.062,44.654,0.0,45.507,0.0,44.545,0.0,45.02,0.0,44.839,0.0,45.548,0.0,46.054,0.0,44.614,0.0
532.497,506.913,25.584,75.3,12.445,71.004,13.139,44.572,0.0,45.529,0.0,44.567,0.0,45.035,0.0,44.729,0.0,45.514,0.0,46.052,0.0,44.611,0.0
531.437,505.972,25.465,75.111,12.408,70.89,13.057,44.465,0.0,45.423,0.0,44.466,0.0,44.932,0.0,44.709,0.0,45.397,0.0,46.007,0.0,44.572,0.0
533.247,507.753,25.494,75.133,12.403,71.027,13.091,44.735,0.0,45.702,0.0,44.737,0.0,45.209,0.0,44.99,0.0,45.625,0.0,46.021,0.0,44.574,0.0
531.752,506.309,25.443,75.133,12.461,70.828,12.982,44.528,0.0,45.496,0.0,44.531,0.0,45.003,0.0,44.769,0.0,45.48,0.0,45.986,0.0,44.555,0.0
532.149,506.653,25.496,75.178,12.426,70.868,13.07,44.521,0.0,45.53,0.0,44.559,0.0,45.047,0.0,44.801,0.0,45.525,0.0,46.033,0.0,44.591,0.0
532.659,507.13,25.529,75.217,12.405,71.002,13.124,44.579,0.0,45.504,0.0,44.541,0.0,45.016,0.0,44.946,0.0,45.579,0.0,46.087,0.0,44.659,0.0
532.063,506.584,25.479,74.989,12.384,70.826,13.095,44.618,0.0,45.579,0.0,44.622,0.0,45.103,0.0,44.81,0.0,45.485,0.0,45.998,0.0,44.554,0.0
530.735,505.307,25.428,74.977,12.367,71.009,13.061,44.337,0.0,45.297,0.0,44.336,0.0,44.806,0.0,44.588,0.0,45.37,0.0,46.0,0.0,44.587,0.0
532.17,506.691,25.479,75.064,12.412,70.68,13.067,44.591,0.0,45.572,0.0,44.595,0.0,45.176,0.0,44.893,0.0,45.576,0.0,46.004,0.0,44.54,0.0
533.181,507.73,25.451,75.132,12.404,71.066,13.047,44.678,0.0,45.672,0.0,44.766,0.0,45.15,0.0,44.908,0.0,45.614,0.0,46.092,0.0,44.652,0.0
532.155,506.761,25.394,75.1,12.441,70.854,12.953,44.65,0.0,45.612,0.0,44.569,0.0,45.032,0.0,44.852,0.0,45.502,0.0,46.02,0.0,44.57,0.0
531.706,506.269,25.437,75.112,12.406,70.78,13.031,44.48,0.0,45.509,0.0,44.532,0.0,45.007,0.0,44.808,0.0,45.49,0.0,45.998,0.0,44.553,0.0
532.454,506.843,25.611,75.254,12.443,70.9,13.168,44.583,0.0,45.502,0.0,44.531,0.0,45.006,0.0,44.807,0.0,45.561,0.0,46.071,0.0,44.628,0.0
532.174,506.684,25.49,75.176,12.417,70.753,13.073,44.626,0.0,45.572,0.0,44.602,0.0,45.085,0.0,44.776,0.0,45.507,0.0,46.009,0.0,44.578,0.0
532.073,506.643,25.43,75.161,12.422,70.911,13.008,44.562,0.0,45.531,0.0,44.552,0.0,45.046,0.0,44.819,0.0,45.493,0.0,45.999,0.0,44.569,0.0
532.15,506.654,25.496,75.146,12.454,70.858,13.042,44.554,0.0,45.527,0.0,44.556,0.0,45.043,0.0,44.861,0.0,45.515,0.0,46.011,0.0,44.583,0.0
531.908,506.454,25.454,75.122,12.45,70.784,13.004,44.547,0.0,45.517,0.0,44.552,0.0,45.024,0.0,44.825,0.0,45.507,0.0,46.005,0.0,44.571,0.0
532.379,506.935,25.444,75.181,12.473,70.92,12.971,44.59,0.0,45.557,0.0,44.593,0.0,45.068,0.0,44.811,0.0,45.546,0.0,46.054,0.0,44.615,0.0
532.25,506.724,25.526,75.251,12.451,70.966,13.075,44.517,0.0,45.479,0.0,44.515,0.0,44.997,0.0,44.789,0.0,45.548,0.0,46.049,0.0,44.613,0.0
532.036,506.506,25.53,75.205,12.429,70.942,13.101,44.521,0.0,45.487,0.0,44.52,0.0,44.993,0.0,44.82,0.0,45.459,0.0,45.965,0.0,44.594,0.0
532.435,506.927,25.508,75.143,12.429,70.85,13.079,44.622,0.0,45.589,0.0,44.619,0.0,45.093,0.0,44.894,0.0,45.513,0.0,46.026,0.0,44.578,0.0
532.21,506.718,25.492,75.129,12.411,70.769,13.081,44.593,0.0,45.556,0.0,44.589,0.0,45.067,0.0,44.866,0.0,45.544,0.0,46.051,0.0,44.554,0.0
531.989,506.508,25.481,75.222,12.435,70.842,13.046,44.487,0.0,45.497,0.0,44.531,0.0,45.011,0.0,44.763,0.0,45.526,0.0,46.032,0.0,44.597,0.0
532.384,506.876,25.508,75.225,12.436,70.908,13.072,44.56,0.0,45.542,0.0,44.578,0.0,45.06,0.0,44.798,0.0,45.54,0.0,46.05,0.0,44.615,0.0
532.318,506.816,25.502,75.147,12.401,70.883,13.101,44.643,0.0,45.559,0.0,44.594,0.0,45.075,0.0,44.852,0.0,45.49,0.0,46.002,0.0,44.571,0.0
532.201,506.7,25.501,75.189,12.416,70.904,13.085,44.557,0.0,45.528,0.0,44.557,0.0,45.043,0.0,44.799,0.0,45.514,0.0,46.021,0.0,44.588,0.0
532.283,506.753,25.53,75.109,12.396,70.921,13.134,44.57,0.0,45.535,0.0,44.57,0.0,45.053,0.0,44.836,0.0,45.529,0.0,46.033,0.0,44.597,0.0
531.956,506.461,25.495,75.099,12.412,70.834,13.083,44.55,0.0,45.515,0.0,44.546,0.0,45.018,0.0,44.844,0.0,45.489,0.0,46.002,0.0,44.564,0.0
532.087,506.53,25.557,75.099,12.432,70.854,13.125,44.531,0.0,45.5,0.0,44.534,0.0,45.006,0.0,44.903,0.0,45.501,0.0,46.02,0.0,44.582,0.0
532.449,506.903,25.546,75.166,12.444,70.953,13.102,44.554,0.0,45.519,0.0,44.56,0.0,45.031,0.0,44.848,0.0,45.566,0.0,46.072,0.0,44.634,0.0
531.967,506.415,25.552,75.026,12.435,70.853,13.117,44.588,0.0,45.558,0.0,44.594,0.0,45.069,0.0,44.727,0.0,45.467,0.0,45.974,0.0,44.559,0.0
531.85,506.245,25.605,75.141,12.446,70.991,13.159,44.491,0.0,45.459,0.0,44.491,0.0,44.969,0.0,44.716,0.0,45.445,0.0,45.953,0.0,44.589,0.0
533.382,507.862,25.52,75.3,12.448,71.031,13.072,44.691,0.0,45.662,0.0,44.692,0.0,45.168,0.0,44.876,0.0,45.65,0.0,46.157,0.0,44.635,0.0
532.002,506.466,25.536,75.157,12.458,70.906,13.078,44.528,0.0,45.501,0.0,44.536,0.0,45.015,0.0,44.8,0.0,45.479,0.0,45.989,0.0,44.555,0.0
531.885,506.442,25.443,75.085,12.401,70.84,13.042,44.539,0.0,45.512,0.0,44.548,0.0,45.018,0.0,44.835,0.0,45.498,0.0,46.001,0.0,44.566,0.0
532.874,507.327,25.547,75.274,12.424,71.034,13.123,44.603,0.0,45.57,0.0,44.601,0.0,45.085,0.0,44.903,0.0,45.554,0.0,46.069,0.0,44.634,0.0
531.341,505.843,25.498,75.217,12.441,70.814,13.057,44.443,0.0,45.41,0.0,44.447,0.0,44.936,0.0,44.669,0.0,45.4,0.0,45.919,0.0,44.588,0.0
533.099,507.556,25.543,75.223,12.436,71.128,13.107,44.651,0.0,45.612,0.0,44.657,0.0,45.122,0.0,44.88,0.0,45.597,0.0,46.12,0.0,44.566,0.0
532.053,506.623,25.43,75.112,12.415,70.832,13.015,44.567,0.0,45.526,0.0,44.565,0.0,45.04,0.0,44.872,0.0,45.517,0.0,46.015,0.0,44.577,0.0
531.991,506.491,25.5,75.144,12.42,70.926,13.08,44.533,0.0,45.503,0.0,44.538,0.0,45.017,0.0,44.774,0.0,45.484,0.0,46.004,0.0,44.568,0.0
536.355,508.469,27.886,77.412,14.678,71.159,13.208,44.469,0.0,45.423,0.0,44.468,0.0,44.946,0.0,44.773,0.0,45.405,0.0,45.922,0.0,44.492,0.0
543.862,512.704,31.158,79.413,16.592,72.734,14.566,44.525,0.0,45.492,0.0,44.527,0.0,45.031,0.0,44.889,0.0,45.49,0.0,46.014,0.0,44.589,0.0
543.998,512.593,31.405,79.151,16.08,73.228,15.325,44.509,0.0,45.483,0.0,44.519,0.0,44.975,0.0,44.813,0.0,45.431,0.0,45.94,0.0,44.544,0.0
540.375,510.168,30.207,77.354,15.267,72.241,14.94,44.538,0.0,45.508,0.0,44.567,0.0,45.034,0.0,44.785,0.0,45.498,0.0,46.006,0.0,44.637,0.0
536.753,507.533,29.22,75.791,14.719,71.273,14.501,44.553,0.0,45.522,0.0,44.542,0.0,45.017,0.0,44.816,0.0,45.475,0.0,45.991,0.0,44.553,0.0
536.745,507.66,29.085,75.666,14.54,71.219,14.545,44.583,0.0,45.552,0.0,44.58,0.0,45.056,0.0,44.838,0.0,45.509,0.0,46.029,0.0,44.628,0.0
536.802,507.987,28.815,75.611,14.284,71.223,14.531,44.64,0.0,45.604,0.0,44.64,0.0,45.112,0.0,44.898,0.0,45.574,0.0,46.092,0.0,44.593,0.0
535.819,506.967,28.852,75.566,14.302,71.217,14.55,44.458,0.0,45.415,0.0,44.461,0.0,44.972,0.0,44.783,0.0,45.515,0.0,46.026,0.0,44.554,0.0
536.644,507.688,28.956,75.627,14.381,71.267,14.575,44.566,0.0,45.528,0.0,44.569,0.0,45.076,0.0,44.897,0.0,45.524,0.0,46.034,0.0,44.6,0.0
536.587,507.738,28.849,75.565,14.353,71.208,14.496,44.64,0.0,45.607,0.0,44.642,0.0,45.081,0.0,44.893,0.0,45.501,0.0,46.015,0.0,44.586,0.0
536.639,507.771,28.868,75.559,14.355,71.297,14.513,44.614,0.0,45.585,0.0,44.617,0.0,45.061,0.0,44.884,0.0,45.521,0.0,46.031,0.0,44.602,0.0
547.458,513.473,33.985,78.686,17.042,73.996,16.943,44.569,0.0,45.551,0.0,44.583,0.0,45.06,0.0,44.869,0.0,45.522,0.0,46.033,0.0,44.604,0.0
554.768,517.567,37.201,81.702,19.411,75.655,17.79,44.508,0.0,45.483,0.0,44.516,0.0,44.993,0.0,44.744,0.0,45.452,0.0,45.969,0.0,44.545,0.0
552.933,517.532,35.401,82.004,19.283,75.132,16.118,44.528,0.0,45.491,0.0,44.521,0.0,45.003,0.0,44.816,0.0,45.475,0.0,45.991,0.0,44.571,0.0
554.689,518.688,36.001,82.054,19.191,75.962,16.81,44.557,0.0,45.522,0.0,44.559,0.0,45.039,0.0,44.891,0.0,45.496,0.0,46.013,0.0,44.595,0.0
555.838,518.826,37.012,81.928,19.04,76.363,17.972,44.563,0.0,45.53,0.0,44.571,0.0,45.044,0.0,44.816,0.0,45.464,0.0,45.985,0.0,44.562,0.0
556.843,519.645,37.198,82.501,19.23,76.275,17.968,44.579,0.0,45.551,0.0,44.59,0.0,45.068,0.0,44.906,0.0,45.519,0.0,46.042,0.0,44.614,0.0
561.884,522.266,39.618,84.487,20.81,77.213,18.808,44.538,0.0,45.502,0.0,44.539,0.0,45.024,0.0,44.846,0.0,45.48,0.0,46.025,0.0,44.612,0.0
571.176,526.651,44.525,87.834,24.169,78.829,20.356,44.457,0.0,45.422,0.0,44.452,0.0,44.946,0.0,44.783,0.0,45.405,0.0,45.963,0.0,44.56,0.0
571.378,527.213,44.165,86.772,22.764,79.897,21.401,44.517,0.0,45.48,0.0,44.515,0.0,45.081,0.0,44.889,0.0,45.538,0.0,45.99,0.0,44.534,0.0
570.645,527.212,43.433,86.082,21.728,80.406,21.705,44.59,0.0,45.559,0.0,44.597,0.0,45.045,0.0,44.836,0.0,45.495,0.0,46.012,0.0,44.59,0.0
572.465,528.473,43.992,86.81,22.606,80.581,21.386,44.616,0.0,45.595,0.0,44.628,0.0,45.091,0.0,44.91,0.0,45.545,0.0,46.062,0.0,44.635,0.0
570.578,526.512,44.066,85.696,22.16,80.755,21.906,44.444,0.0,45.43,0.0,44.462,0.0,44.967,0.0,44.891,0.0,45.418,0.0,45.936,0.0,44.513,0.0
562.741,521.75,40.991,80.048,18.713,80.231,22.278,44.691,0.0,45.671,0.0,44.699,0.0,45.111,0.0,44.999,0.0,45.558,0.0,46.085,0.0,44.657,0.0
547.952,513.515,34.437,75.855,14.187,77.206,20.25,44.545,0.0,45.502,0.0,44.545,0.0,44.986,0.0,44.766,0.0,45.438,0.0,46.046,0.0,44.626,0.0
542.206,510.519,31.687,75.85,14.212,74.319,17.475,44.492,0.0,45.45,0.0,44.492,0.0,44.954,0.0,44.86,0.0,45.473,0.0,46.033,0.0,44.596,0.0
541.38,510.47,30.91,75.724,14.219,73.802,16.691,44.641,0.0,45.608,0.0,44.647,0.0,45.117,0.0,44.921,0.0,45.517,0.0,45.918,0.0,44.575,0.0
541.231,510.094,31.137,75.79,14.147,73.824,16.99,44.536,0.0,45.496,0.0,44.538,0.0,45.019,0.0,44.856,0.0,45.469,0.0,45.98,0.0,44.586,0.0
540.692,510.109,30.583,75.925,14.172,72.583,16.411,44.692,0.0,45.663,0.0,44.697,0.0,45.169,0.0,44.985,0.0,45.63,0.0,46.156,0.0,44.609,0.0
536.325,507.215,29.11,75.65,14.141,71.241,14.969,44.476,0.0,45.442,0.0,44.485,0.0,44.958,0.0,44.801,0.0,45.527,0.0,46.041,0.0,44.594,0.0
536.543,507.497,29.046,75.566,14.202,71.03,14.844,44.617,0.0,45.587,0.0,44.622,0.0,45.095,0.0,44.927,0.0,45.485,0.0,45.995,0.0,44.573,0.0
543.352,511.242,32.11,78.555,16.523,71.991,15.587,44.573,0.0,45.545,0.0,44.58,0.0,45.054,0.0,44.89,0.0,45.485,0.0,45.998,0.0,44.571,0.0
543.549,511.227,32.322,78.372,16.239,72.681,16.083,44.438,0.0,45.412,0.0,44.457,0.0,44.992,0.0,44.854,0.0,45.471,0.0,45.987,0.0,44.563,0.0
496.888,467.595,29.293,76.149,13.739,72.421,15.554,38.522,0.0,39.429,0.0,38.68,0.0,39.148,0.0,38.985,0.0,39.594,0.0,40.082,0.0,44.585,0.0
508.683,479.866,28.817,75.961,13.27,72.564,15.547,41.419,0.0,40.822,0.0,40.024,0.0,40.47,0.0,40.294,0.0,40.932,0.0,41.457,0.0,45.923,0.0
622.546,591.214,31.332,78.13,14.858,73.706,16.474,61.109,0.0,55.031,0.0,53.739,0.0,54.235,0.0,54.06,0.0,54.817,0.0,55.529,0.0,50.858,0.0
612.58,574.734,37.846,84.955,20.013,77.218,17.833,67.892,0.0,46.792,0.0,45.875,0.0,46.317,0.0,46.133,0.0,46.652,0.0,47.038,0.0,65.862,0.0
605.929,569.316,36.613,83.546,19.016,77.088,17.597,67.759,0.0,45.562,0.0,44.532,0.0,45.018,0.0,44.952,0.0,45.5,0.0,46.019,0.0,69.34,0.0
602.729,568.61,34.119,81.888,17.165,77.079,16.954,67.827,0.0,45.631,0.0,44.639,0.0,45.107,0.0,44.927,0.0,45.526,0.0,46.034,0.0,69.952,0.0
600.87,567.835,33.035,80.686,16.063,77.217,16.972,67.738,0.0,45.577,0.0,44.59,0.0,45.065,0.0,44.859,0.0,45.5,0.0,46.011,0.0,70.592,0.0
595.027,563.852,31.175,77.635,13.768,76.816,17.407,67.561,0.0,45.454,0.0,44.481,0.0,44.957,0.0,44.76,0.0,45.411,0.0,45.924,0.0,70.853,0.0
585.884,557.08,28.804,75.62,12.533,74.792,16.271,64.609,0.0,45.484,0.0,44.548,0.0,45.052,0.0,44.833,0.0,45.525,0.0,46.051,0.0,70.566,0.0
569.663,543.118,26.545,75.335,12.471,72.233,14.074,53.629,0.0,45.653,0.0,44.681,0.0,45.151,0.0,44.964,0.0,45.596,0.0,46.114,0.0,69.762,0.0
559.347,533.809,25.538,75.376,12.459,71.104,13.079,46.5,0.0,45.557,0.0,44.587,0.0,45.041,0.0,44.92,0.0,45.475,0.0,45.988,0.0,69.261,0.0
558.69,533.178,25.512,75.293,12.453,70.907,13.059,46.394,0.0,45.451,0.0,44.553,0.0,45.027,0.0,44.883,0.0,45.478,0.0,46.0,0.0,69.192,0.0
559.043,533.566,25.477,75.171,12.443,70.872,13.034,46.535,0.0,45.58,0.0,44.614,0.0,45.089,0.0,44.897,0.0,45.54,0.0,46.066,0.0,69.202,0.0
558.616,533.084,25.532,75.189,12.43,70.965,13.102,46.492,0.0,45.611,0.0,44.584,0.0,45.053,0.0,44.851,0.0,45.511,0.0,46.036,0.0,68.792,0.0
548.027,522.483,25.544,75.238,12.428,70.876,13.116,45.63,0.0,45.542,0.0,44.586,0.0,45.053,0.0,44.833,0.0,45.516,0.0,46.033,0.0,59.176,0.0
533.017,507.595,25.422,75.24,12.418,70.811,13.004,44.547,0.0,45.515,0.0,44.546,0.0,45.026,0.0,44.819,0.0,45.495,0.0,46.005,0.0,45.591,0.0
532.816,507.425,25.391,75.311,12.393,70.826,12.998,44.519,0.0,45.487,0.0,44.517,0.0,45.0,0.0,44.79,0.0,45.471,0.0,45.982,0.0,45.522,0.0
533.31,507.879,25.431,75.332,12.359,70.812,13.072,44.587,0.0,45.551,0.0,44.589,0.0,45.07,0.0,44.818,0.0,45.514,0.0,46.032,0.0,45.574,0.0
533.35,507.858,25.492,75.25,12.385,70.833,13.107,44.581,0.0,45.545,0.0,44.584,0.0,45.059,0.0,44.86,0.0,45.526,0.0,46.043,0.0,45.577,0.0
533.274,507.779,25.495,75.221,12.455,70.976,13.04,44.571,0.0,45.539,0.0,44.582,0.0,45.055,0.0,44.882,0.0,45.525,0.0,46.038,0.0,45.39,0.0
532.181,506.716,25.465,75.066,12.447,70.821,13.018,44.565,0.0,45.536,0.0,44.569,0.0,45.043,0.0,44.828,0.0,45.517,0.0,46.018,0.0,44.753,0.0
531.684,506.195,25.489,75.177,12.42,70.839,13.069,44.488,0.0,45.469,0.0,44.492,0.0,44.984,0.0,44.784,0.0,45.452,0.0,45.968,0.0,44.542,0.0
532.205,506.753,25.452,75.27,12.44,70.865,13.012,44.513,0.0,45.47,0.0,44.509,0.0,45.072,0.0,44.809,0.0,45.544,0.0,46.056,0.0,44.645,0.0
532.294,506.888,25.406,75.167,12.376,70.931,13.03,44.653,0.0,45.621,0.0,44.656,0.0,45.017,0.0,44.779,0.0,45.488,0.0,46.007,0.0,44.569,0.0
532.105,506.642,25.463,75.082,12.406,70.86,13.057,44.579,0.0,45.539,0.0,44.579,0.0,45.05,0.0,44.807,0.0,45.527,0.0,46.031,0.0,44.588,0.0
532.454,506.838,25.616,75.189,12.493,70.949,13.123,44.571,0.0,45.54,0.0,44.574,0.0,45.047,0.0,44.8,0.0,45.528,0.0,46.037,0.0,44.603,0.0
532.385,506.823,25.562,75.203,12.467,70.876,13.095,44.564,0.0,45.531,0.0,44.572,0.0,45.045,0.0,44.831,0.0,45.541,0.0,46.049,0.0,44.611,0.0
530.254,504.759,25.495,74.954,12.437,70.859,13.058,44.324,0.0,45.283,0.0,44.329,0.0,44.865,0.0,44.59,0.0,45.329,0.0,45.823,0.0,44.403,0.0
533.411,507.935,25.476,75.19,12.448,70.994,13.028,44.738,0.0,45.708,0.0,44.738,0.0,45.159,0.0,44.926,0.0,45.633,0.0,46.145,0.0,44.704,0.0
532.81,507.31,25.5,75.087,12.393,70.989,13.107,44.636,0.0,45.603,0.0,44.638,0.0,45.109,0.0,44.922,0.0,45.585,0.0,46.086,0.0,44.655,0.0
531.652,506.196,25.456,74.99,12.417,70.883,13.039,44.532,0.0,45.486,0.0,44.533,0.0,45.0,0.0,44.784,0.0,45.461,0.0,45.982,0.0,44.545,0.0
532.504,507.056,25.448,75.198,12.417,71.024,13.031,44.591,0.0,45.556,0.0,44.594,0.0,45.068,0.0,44.813,0.0,45.541,0.0,46.06,0.0,44.611,0.0
531.758,506.226,25.532,75.02,12.439,70.857,13.093,44.522,0.0,45.489,0.0,44.524,0.0,44.997,0.0,44.812,0.0,45.474,0.0,45.983,0.0,44.548,0.0
532.66,507.135,25.525,75.226,12.409,71.058,13.116,44.581,0.0,45.551,0.0,44.581,0.0,45.051,0.0,44.888,0.0,45.529,0.0,46.051,0.0,44.619,0.0
532.598,507.017,25.581,75.304,12.441,71.046,13.14,44.537,0.0,45.5,0.0,44.531,0.0,45.069,0.0,44.846,0.0,45.54,0.0,46.037,0.0,44.607,0.0
532.052,506.504,25.548,75.224,12.455,70.772,13.093,44.567,0.0,45.533,0.0,44.569,0.0,45.015,0.0,44.792,0.0,45.481,0.0,45.989,0.0,44.562,0.0
532.291,506.831,25.46,75.251,12.418,70.887,13.042,44.586,0.0,45.555,0.0,44.592,0.0,45.048,0.0,44.782,0.0,45.52,0.0,46.016,0.0,44.594,0.0
532.733,507.211,25.522,75.319,12.412,71.028,13.11,44.585,0.0,45.551,0.0,44.59,0.0,45.066,0.0,44.869,0.0,45.537,0.0,46.041,0.0,44.625,0.0
532.199,506.646,25.553,75.228,12.427,70.949,13.126,44.532,0.0,45.496,0.0,44.539,0.0,45.009,0.0,44.786,0.0,45.506,0.0,46.015,0.0,44.586,0.0
532.58,507.052,25.528,75.262,12.416,70.979,13.112,44.587,0.0,45.558,0.0,44.585,0.0,45.06,0.0,44.863,0.0,45.529,0.0,46.032,0.0,44.597,0.0
532.012,506.543,25.469,75.248,12.424,70.965,13.045,44.507,0.0,45.476,0.0,44.507,0.0,44.981,0.0,44.839,0.0,45.439,0.0,45.995,0.0,44.586,0.0
532.225,506.764,25.461,75.243,12.415,70.873,13.046,44.557,0.0,45.524,0.0,44.563,0.0,45.034,0.0,44.876,0.0,45.508,0.0,46.012,0.0,44.574,0.0
533.001,507.433,25.568,75.301,12.437,70.961,13.131,44.635,0.0,45.605,0.0,44.638,0.0,45.111,0.0,44.945,0.0,45.588,0.0,46.054,0.0,44.595,0.0
532.856,507.224,25.632,75.323,12.482,71.023,13.15,44.587,0.0,45.555,0.0,44.587,0.0,45.063,0.0,44.892,0.0,45.536,0.0,46.049,0.0,44.609,0.0
532.382,506.814,25.568,75.277,12.47,70.945,13.098,44.551,0.0,45.516,0.0,44.561,0.0,45.039,0.0,44.808,0.0,45.509,0.0,46.021,0.0,44.587,0.0
531.891,506.379,25.512,75.163,12.438,70.901,13.074,44.516,0.0,45.485,0.0,44.524,0.0,44.999,0.0,44.751,0.0,45.487,0.0,45.99,0.0,44.563,0.0
532.189,506.671,25.518,75.103,12.431,70.924,13.087,44.565,0.0,45.535,0.0,44.555,0.0,45.038,0.0,44.806,0.0,45.525,0.0,46.029,0.0,44.591,0.0
532.283,506.767,25.516,75.121,12.432,70.975,13.084,44.578,0.0,45.544,0.0,44.576,0.0,45.061,0.0,44.787,0.0,45.516,0.0,46.022,0.0,44.587,0.0
532.024,506.516,25.508,75.197,12.407,70.899,13.101,44.55,0.0,45.528,0.0,44.554,0.0,45.004,0.0,44.765,0.0,45.474,0.0,45.982,0.0,44.563,0.0
532.928,507.388,25.54,75.307,12.412,70.979,13.128,44.631,0.0,45.591,0.0,44.63,0.0,45.098,0.0,44.884,0.0,45.569,0.0,46.083,0.0,44.616,0.0
532.35,506.825,25.525,75.259,12.412,70.922,13.113,44.561,0.0,45.519,0.0,44.561,0.0,45.032,0.0,44.855,0.0,45.5,0.0,46.028,0.0,44.588,0.0
531.837,506.344,25.493,75.127,12.446,70.904,13.047,44.514,0.0,45.478,0.0,44.512,0.0,44.988,0.0,44.833,0.0,45.456,0.0,45.988,0.0,44.544,0.0
532.599,507.051,25.548,75.183,12.453,70.963,13.095,44.572,0.0,45.542,0.0,44.577,0.0,45.079,0.0,44.918,0.0,45.554,0.0,46.052,0.0,44.611,0.0
532.365,506.948,25.417,75.294,12.362,70.911,13.055,44.507,0.0,45.472,0.0,44.51,0.0,45.074,0.0,44.954,0.0,45.552,0.0,46.057,0.0,44.617,0.0
531.929,506.498,25.431,75.137,12.392,70.742,13.039,44.614,0.0,45.589,0.0,44.624,0.0,44.988,0.0,44.837,0.0,45.456,0.0,45.973,0.0,44.538,0.0
532.348,506.849,25.499,75.129,12.353,70.954,13.146,44.587,0.0,45.544,0.0,44.585,0.0,45.054,0.0,44.856,0.0,45.52,0.0,46.027,0.0,44.593,0.0
532.467,507.102,25.365,75.21,12.386,70.996,12.979,44.577,0.0,45.536,0.0,44.577,0.0,45.049,0.0,44.965,0.0,45.528,0.0,46.049,0.0,44.615,0.0
531.672,506.152,25.52,75.08,12.439,70.76,13.081,44.507,0.0,45.469,0.0,44.515,0.0,44.979,0.0,44.824,0.0,45.493,0.0,45.979,0.0,44.546,0.0
532.294,506.891,25.403,75.215,12.372,70.81,13.031,44.616,0.0,45.57,0.0,44.612,0.0,45.076,0.0,44.829,0.0,45.523,0.0,46.039,0.0,44.601,0.0
531.301,505.734,25.567,75.19,12.465,70.916,13.102,44.413,0.0,45.37,0.0,44.413,0.0,44.882,0.0,44.644,0.0,45.348,0.0,45.956,0.0,44.602,0.0
533.111,507.553,25.558,75.157,12.512,70.83,13.046,44.704,0.0,45.676,0.0,44.715,0.0,45.194,0.0,44.943,0.0,45.674,0.0,46.084,0.0,44.576,0.0
532.511,506.992,25.519,75.313,12.447,70.896,13.072,44.597,0.0,45.559,0.0,44.589,0.0,45.064,0.0,44.82,0.0,45.529,0.0,46.032,0.0,44.593,0.0
532.383,506.954,25.429,75.078,12.411,70.988,13.018,44.573,0.0,45.541,0.0,44.579,0.0,45.052,0.0,44.966,0.0,45.532,0.0,46.045,0.0,44.6,0.0
532.212,506.731,25.481,75.214,12.4,71.002,13.081,44.527,0.0,45.496,0.0,44.53,0.0,44.995,0.0,44.898,0.0,45.5,0.0,46.005,0.0,44.564,0.0
532.023,506.483,25.54,75.173,12.478,70.901,13.062,44.537,0.0,45.505,0.0,44.534,0.0,45.006,0.0,44.83,0.0,45.467,0.0,45.971,0.0,44.559,0.0
531.874,506.39,25.484,75.165,12.391,70.987,13.093,44.507,0.0,45.47,0.0,44.505,0.0,44.98,0.0,44.763,0.0,45.441,0.0,45.967,0.0,44.605,0.0
532.895,507.355,25.54,75.265,12.397,70.989,13.143,44.638,0.0,45.603,0.0,44.645,0.0,45.114,0.0,44.821,0.0,45.587,0.0,46.087,0.0,44.606,0.0
532.577,507.108,25.469,75.135,12.398,70.925,13.071,44.624,0.0,45.584,0.0,44.621,0.0,45.094,0.0,44.896,0.0,45.561,0.0,46.068,0.0,44.6,0.0
532.371,506.865,25.506,75.144,12.44,70.96,13.066,44.589,0.0,45.544,0.0,44.585,0.0,45.057,0.0,44.816,0.0,45.53,0.0,46.037,0.0,44.603,0.0
531.921,506.454,25.467,75.104,12.413,70.908,13.054,44.526,0.0,45.485,0.0,44.528,0.0,44.995,0.0,44.807,0.0,45.503,0.0,46.015,0.0,44.583,0.0
531.81,506.301,25.509,75.06,12.415,70.87,13.094,44.53,0.0,45.493,0.0,44.539,0.0,45.015,0.0,44.804,0.0,45.471,0.0,45.977,0.0,44.542,0.0
532.172,506.644,25.528,75.176,12.422,70.938,13.106,44.521,0.0,45.49,0.0,44.526,0.0,45.072,0.0,44.794,0.0,45.516,0.0,46.024,0.0,44.587,0.0
531.76,506.223,25.537,75.212,12.432,70.905,13.105,44.484,0.0,45.454,0.0,44.485,0.0,44.95,0.0,44.727,0.0,45.422,0.0,45.981,0.0,44.603,0.0
531.373,505.88,25.493,75.135,12.431,70.86,13.062,44.453,0.0,45.419,0.0,44.5,0.0,44.908,0.0,44.685,0.0,45.38,0.0,45.962,0.0,44.578,0.0
532.654,507.184,25.47,75.058,12.441,70.967,13.029,44.645,0.0,45.613,0.0,44.662,0.0,45.132,0.0,44.833,0.0,45.603,0.0,46.08,0.0,44.591,0.0
533.336,507.832,25.504,75.059,12.439,71.011,13.065,44.773,0.0,45.738,0.0,44.729,0.0,45.203,0.0,44.931,0.0,45.674,0.0,46.106,0.0,44.608,0.0
531.876,506.403,25.473,75.005,12.39,70.924,13.083,44.556,0.0,45.5,0.0,44.555,0.0,45.023,0.0,44.769,0.0,45.495,0.0,46.008,0.0,44.568,0.0
531.605,506.085,25.52,74.952,12.429,70.953,13.091,44.52,0.0,45.458,0.0,44.522,0.0,44.99,0.0,44.694,0.0,45.467,0.0,45.981,0.0,44.548,0.0
532.342,506.801,25.541,75.147,12.459,71.023,13.082,44.535,0.0,45.494,0.0,44.542,0.0,45.051,0.0,44.827,0.0,45.527,0.0,46.042,0.0,44.613,0.0
531.859,506.337,25.522,75.067,12.424,70.979,13.098,44.461,0.0,45.427,0.0,44.481,0.0,45.01,0.0,44.813,0.0,45.476,0.0,46.04,0.0,44.583,0.0
531.889,506.272,25.617,75.087,12.482,70.98,13.135,44.537,0.0,45.508,0.0,44.522,0.0,44.912,0.0,44.669,0.0,45.424,0.0,46.02,0.0,44.613,0.0
532.015,506.45,25.565,74.957,12.445,70.836,13.12,44.563,0.0,45.523,0.0,44.549,0.0,45.031,0.0,44.815,0.0,45.599,0.0,45.981,0.0,44.596,0.0
532.78,507.301,25.479,74.997,12.424,70.853,13.055,44.725,0.0,45.701,0.0,44.726,0.0,45.212,0.0,44.975,0.0,45.532,0.0,46.034,0.0,44.546,0.0
532.399,506.976,25.423,75.14,12.42,71.016,13.003,44.579,0.0,45.553,0.0,44.586,0.0,45.069,0.0,44.852,0.0,45.541,0.0,46.018,0.0,44.622,0.0
532.23,506.779,25.451,75.077,12.439,70.942,13.012,44.586,0.0,45.552,0.0,44.586,0.0,45.064,0.0,44.824,0.0,45.521,0.0,46.032,0.0,44.595,0.0
531.542,505.963,25.579,74.931,12.454,70.945,13.125,44.504,0.0,45.462,0.0,44.504,0.0,44.976,0.0,44.683,0.0,45.445,0.0,45.954,0.0,44.559,0.0
532.779,507.2,25.579,75.01,12.481,71.123,13.098,44.617,0.0,45.585,0.0,44.622,0.0,45.097,0.0,44.888,0.0,45.572,0.0,46.085,0.0,44.601,0.0
532.504,506.939,25.565,75.091,12.375,71.038,13.19,44.591,0.0,45.55,0.0,44.587,0.0,45.062,0.0,44.818,0.0,45.542,0.0,46.047,0.0,44.613,0.0
530.831,505.314,25.517,74.921,12.44,70.834,13.077,44.402,0.0,45.359,0.0,44.403,0.0,44.88,0.0,44.631,0.0,45.342,0.0,45.988,0.0,44.554,0.0
532.874,507.256,25.618,75.071,12.504,70.978,13.114,44.627,0.0,45.592,0.0,44.625,0.0,45.101,0.0,44.916,0.0,45.677,0.0,46.053,0.0,44.616,0.0
