2022-04-02 12:43:26 - CarbonTracker: The following components were found: GPU with device(s) Tesla V100-SXM2-32GB, Tesla V100-SXM2-32GB, Tesla V100-SXM2-32GB, Tesla V100-SXM2-32GB, Tesla V100-SXM2-32GB, Tesla V100-SXM2-32GB, Tesla V100-SXM2-32GB, Tesla V100-SXM2-32GB. CPU with device(s) cpu:1, cpu:0.
2022-04-02 12:45:51 - CarbonTracker: Average carbon intensity during training was 294.21 gCO2/kWh at detected location: Paris, Île-de-France, FR.
2022-04-02 12:45:51 - CarbonTracker: 
Actual consumption for 1 epoch(s):
	Time:	0:02:00
	Energy:	0.026852 kWh
	CO2eq:	7.900062 g
	This is equivalent to:
	0.065615 km travelled by car
2022-04-02 12:45:51 - CarbonTracker: Live carbon intensity could not be fetched at detected location: Paris, Île-de-France, FR. Defaulted to average carbon intensity for EU-28 in 2017 of 294.21 gCO2/kWh.
2022-04-02 12:45:51 - CarbonTracker: 
Predicted consumption for 1 epoch(s):
	Time:	0:02:00
	Energy:	0.026852 kWh
	CO2eq:	7.900062 g
	This is equivalent to:
	0.065615 km travelled by car
2022-04-02 12:45:51 - CarbonTracker: Finished monitoring.
2022-04-02 12:46:33 - CarbonTracker: The following components were found: GPU with device(s) Tesla V100-SXM2-32GB, Tesla V100-SXM2-32GB, Tesla V100-SXM2-32GB, Tesla V100-SXM2-32GB, Tesla V100-SXM2-32GB, Tesla V100-SXM2-32GB, Tesla V100-SXM2-32GB, Tesla V100-SXM2-32GB. CPU with device(s) cpu:1, cpu:0.
2022-04-02 12:48:58 - CarbonTracker: Average carbon intensity during training was 294.21 gCO2/kWh at detected location: Paris, Île-de-France, FR.
2022-04-02 12:48:58 - CarbonTracker: 
Actual consumption for 1 epoch(s):
	Time:	0:02:00
	Energy:	0.026853 kWh
	CO2eq:	7.900180 g
	This is equivalent to:
	0.065616 km travelled by car
2022-04-02 12:48:59 - CarbonTracker: Live carbon intensity could not be fetched at detected location: Paris, Île-de-France, FR. Defaulted to average carbon intensity for EU-28 in 2017 of 294.21 gCO2/kWh.
2022-04-02 12:48:59 - CarbonTracker: 
Predicted consumption for 1 epoch(s):
	Time:	0:02:00
	Energy:	0.026853 kWh
	CO2eq:	7.900180 g
	This is equivalent to:
	0.065616 km travelled by car
2022-04-02 12:48:59 - CarbonTracker: Finished monitoring.
2022-04-02 12:49:41 - CarbonTracker: The following components were found: GPU with device(s) Tesla V100-SXM2-32GB, Tesla V100-SXM2-32GB, Tesla V100-SXM2-32GB, Tesla V100-SXM2-32GB, Tesla V100-SXM2-32GB, Tesla V100-SXM2-32GB, Tesla V100-SXM2-32GB, Tesla V100-SXM2-32GB. CPU with device(s) cpu:1, cpu:0.
2022-04-02 12:52:06 - CarbonTracker: Average carbon intensity during training was 294.21 gCO2/kWh at detected location: Paris, Île-de-France, FR.
2022-04-02 12:52:06 - CarbonTracker: 
Actual consumption for 1 epoch(s):
	Time:	0:02:00
	Energy:	0.026862 kWh
	CO2eq:	7.902845 g
	This is equivalent to:
	0.065638 km travelled by car
2022-04-02 12:52:06 - CarbonTracker: Live carbon intensity could not be fetched at detected location: Paris, Île-de-France, FR. Defaulted to average carbon intensity for EU-28 in 2017 of 294.21 gCO2/kWh.
2022-04-02 12:52:06 - CarbonTracker: 
Predicted consumption for 1 epoch(s):
	Time:	0:02:00
	Energy:	0.026862 kWh
	CO2eq:	7.902845 g
	This is equivalent to:
	0.065638 km travelled by car
2022-04-02 12:52:06 - CarbonTracker: Finished monitoring.
2022-04-02 12:52:48 - CarbonTracker: The following components were found: GPU with device(s) Tesla V100-SXM2-32GB, Tesla V100-SXM2-32GB, Tesla V100-SXM2-32GB, Tesla V100-SXM2-32GB, Tesla V100-SXM2-32GB, Tesla V100-SXM2-32GB, Tesla V100-SXM2-32GB, Tesla V100-SXM2-32GB. CPU with device(s) cpu:1, cpu:0.
2022-04-02 12:55:14 - CarbonTracker: Average carbon intensity during training was 294.21 gCO2/kWh at detected location: Paris, Île-de-France, FR.
2022-04-02 12:55:14 - CarbonTracker: 
Actual consumption for 1 epoch(s):
	Time:	0:02:00
	Energy:	0.026853 kWh
	CO2eq:	7.900347 g
	This is equivalent to:
	0.065617 km travelled by car
2022-04-02 12:55:14 - CarbonTracker: Live carbon intensity could not be fetched at detected location: Paris, Île-de-France, FR. Defaulted to average carbon intensity for EU-28 in 2017 of 294.21 gCO2/kWh.
2022-04-02 12:55:14 - CarbonTracker: 
Predicted consumption for 1 epoch(s):
	Time:	0:02:00
	Energy:	0.026853 kWh
	CO2eq:	7.900347 g
	This is equivalent to:
	0.065617 km travelled by car
2022-04-02 12:55:14 - CarbonTracker: Finished monitoring.
2022-04-02 12:55:56 - CarbonTracker: The following components were found: GPU with device(s) Tesla V100-SXM2-32GB, Tesla V100-SXM2-32GB, Tesla V100-SXM2-32GB, Tesla V100-SXM2-32GB, Tesla V100-SXM2-32GB, Tesla V100-SXM2-32GB, Tesla V100-SXM2-32GB, Tesla V100-SXM2-32GB. CPU with device(s) cpu:1, cpu:0.
2022-04-02 12:58:21 - CarbonTracker: Average carbon intensity during training was 294.21 gCO2/kWh at detected location: Paris, Île-de-France, FR.
2022-04-02 12:58:21 - CarbonTracker: 
Actual consumption for 1 epoch(s):
	Time:	0:02:00
	Energy:	0.026851 kWh
	CO2eq:	7.899822 g
	This is equivalent to:
	0.065613 km travelled by car
2022-04-02 12:58:21 - CarbonTracker: Live carbon intensity could not be fetched at detected location: Paris, Île-de-France, FR. Defaulted to average carbon intensity for EU-28 in 2017 of 294.21 gCO2/kWh.
2022-04-02 12:58:21 - CarbonTracker: 
Predicted consumption for 1 epoch(s):
	Time:	0:02:00
	Energy:	0.026851 kWh
	CO2eq:	7.899822 g
	This is equivalent to:
	0.065613 km travelled by car
2022-04-02 12:58:21 - CarbonTracker: Finished monitoring.
2022-04-02 12:59:03 - CarbonTracker: The following components were found: GPU with device(s) Tesla V100-SXM2-32GB, Tesla V100-SXM2-32GB, Tesla V100-SXM2-32GB, Tesla V100-SXM2-32GB, Tesla V100-SXM2-32GB, Tesla V100-SXM2-32GB, Tesla V100-SXM2-32GB, Tesla V100-SXM2-32GB. CPU with device(s) cpu:1, cpu:0.
2022-04-02 13:01:29 - CarbonTracker: Average carbon intensity during training was 294.21 gCO2/kWh at detected location: Paris, Île-de-France, FR.
2022-04-02 13:01:29 - CarbonTracker: 
Actual consumption for 1 epoch(s):
	Time:	0:02:00
	Energy:	0.026866 kWh
	CO2eq:	7.904010 g
	This is equivalent to:
	0.065648 km travelled by car
2022-04-02 13:01:29 - CarbonTracker: Live carbon intensity could not be fetched at detected location: Paris, Île-de-France, FR. Defaulted to average carbon intensity for EU-28 in 2017 of 294.21 gCO2/kWh.
2022-04-02 13:01:29 - CarbonTracker: 
Predicted consumption for 1 epoch(s):
	Time:	0:02:00
	Energy:	0.026866 kWh
	CO2eq:	7.904010 g
	This is equivalent to:
	0.065648 km travelled by car
2022-04-02 13:01:29 - CarbonTracker: Finished monitoring.
2022-04-02 13:01:59 - CarbonTracker: The following components were found: GPU with device(s) Tesla V100-SXM2-32GB, Tesla V100-SXM2-32GB, Tesla V100-SXM2-32GB, Tesla V100-SXM2-32GB, Tesla V100-SXM2-32GB, Tesla V100-SXM2-32GB, Tesla V100-SXM2-32GB, Tesla V100-SXM2-32GB. CPU with device(s) cpu:1, cpu:0.
2022-04-02 13:04:29 - CarbonTracker: Average carbon intensity during training was 294.21 gCO2/kWh at detected location: Paris, Île-de-France, FR.
2022-04-02 13:04:29 - CarbonTracker: 
Actual consumption for 1 epoch(s):
	Time:	0:02:00
	Energy:	0.026850 kWh
	CO2eq:	7.899326 g
	This is equivalent to:
	0.065609 km travelled by car
2022-04-02 13:04:29 - CarbonTracker: Live carbon intensity could not be fetched at detected location: Paris, Île-de-France, FR. Defaulted to average carbon intensity for EU-28 in 2017 of 294.21 gCO2/kWh.
2022-04-02 13:04:29 - CarbonTracker: 
Predicted consumption for 1 epoch(s):
	Time:	0:02:00
	Energy:	0.026850 kWh
	CO2eq:	7.899326 g
	This is equivalent to:
	0.065609 km travelled by car
2022-04-02 13:04:29 - CarbonTracker: Finished monitoring.
2022-04-02 13:05:00 - CarbonTracker: The following components were found: GPU with device(s) Tesla V100-SXM2-32GB, Tesla V100-SXM2-32GB, Tesla V100-SXM2-32GB, Tesla V100-SXM2-32GB, Tesla V100-SXM2-32GB, Tesla V100-SXM2-32GB, Tesla V100-SXM2-32GB, Tesla V100-SXM2-32GB. CPU with device(s) cpu:1, cpu:0.
2022-04-02 13:07:30 - CarbonTracker: Average carbon intensity during training was 294.21 gCO2/kWh at detected location: Paris, Île-de-France, FR.
2022-04-02 13:07:30 - CarbonTracker: 
Actual consumption for 1 epoch(s):
	Time:	0:02:00
	Energy:	0.026849 kWh
	CO2eq:	7.899146 g
	This is equivalent to:
	0.065608 km travelled by car
2022-04-02 13:07:30 - CarbonTracker: Live carbon intensity could not be fetched at detected location: Paris, Île-de-France, FR. Defaulted to average carbon intensity for EU-28 in 2017 of 294.21 gCO2/kWh.
2022-04-02 13:07:30 - CarbonTracker: 
Predicted consumption for 1 epoch(s):
	Time:	0:02:00
	Energy:	0.026849 kWh
	CO2eq:	7.899146 g
	This is equivalent to:
	0.065608 km travelled by car
2022-04-02 13:07:30 - CarbonTracker: Finished monitoring.
2022-04-02 13:08:00 - CarbonTracker: The following components were found: GPU with device(s) Tesla V100-SXM2-32GB, Tesla V100-SXM2-32GB, Tesla V100-SXM2-32GB, Tesla V100-SXM2-32GB, Tesla V100-SXM2-32GB, Tesla V100-SXM2-32GB, Tesla V100-SXM2-32GB, Tesla V100-SXM2-32GB. CPU with device(s) cpu:1, cpu:0.
