timestamp,bmc_node_power_watt
2022-03-15T11:35:06.763295+01:00,684
2022-03-15T11:35:11.77509+01:00,648
2022-03-15T11:35:16.775616+01:00,612
2022-03-15T11:35:21.776277+01:00,648
2022-03-15T11:35:26.776107+01:00,612
2022-03-15T11:35:31.776304+01:00,612
2022-03-15T11:35:36.776519+01:00,612
2022-03-15T11:35:41.778136+01:00,684
2022-03-15T11:35:46.77844+01:00,684
2022-03-15T11:35:51.778804+01:00,648
2022-03-15T11:35:56.783633+01:00,612
2022-03-15T11:36:01.781251+01:00,648
2022-03-15T11:36:06.781542+01:00,648
2022-03-15T11:36:11.782283+01:00,612
2022-03-15T11:36:16.782974+01:00,612
2022-03-15T11:36:21.783412+01:00,612
2022-03-15T11:36:26.784061+01:00,612
2022-03-15T11:36:31.785198+01:00,648
2022-03-15T11:36:36.786415+01:00,612
2022-03-15T11:36:41.788953+01:00,612
2022-03-15T11:36:46.789411+01:00,648
2022-03-15T11:36:51.793533+01:00,648
2022-03-15T11:36:56.793201+01:00,612
2022-03-15T11:37:01.793504+01:00,648
2022-03-15T11:37:06.794117+01:00,612
2022-03-15T11:37:11.794257+01:00,648
2022-03-15T11:37:16.796541+01:00,612
2022-03-15T11:37:21.798107+01:00,648
2022-03-15T11:37:26.798964+01:00,612
2022-03-15T11:37:31.799886+01:00,648
2022-03-15T11:37:36.801221+01:00,648
