2022-04-20 03:44:51 - carbontracker version 1.1.6
2022-04-20 03:44:51 - Only predicted and actual consumptions are multiplied by a PUE coefficient of 1.59 (Rhonda Ascierto, 2019, Uptime Institute Global Data Center Survey).
2022-04-20 03:44:51 - The following components were found: GPU with device(s) Tesla V100-SXM2-32GB, Tesla V100-SXM2-32GB, Tesla V100-SXM2-32GB, Tesla V100-SXM2-32GB, Tesla V100-SXM2-32GB, Tesla V100-SXM2-32GB, Tesla V100-SXM2-32GB, Tesla V100-SXM2-32GB. CPU with device(s) cpu:1, cpu:0.
2022-04-20 03:44:51 - Monitoring thread started.
2022-04-20 03:46:30 - Epoch 1:
2022-04-20 03:46:30 - Duration: 0:01:08.82
2022-04-20 03:46:30 - Average power usage (W) for gpu: [202.161      208.08       202.06985714 205.19942857 207.60271429
 206.55614286 201.50085714 202.56271429]
2022-04-20 03:46:30 - Average power usage (W) for cpu: [73.36498586 75.80857386]
2022-04-20 03:46:30 - Carbon intensities (gCO2/kWh) fetched every 900 s at detected location Paris, Île-de-France, FR: [294.2060978]
2022-04-20 03:46:30 - Average carbon intensity during training was 294.21 gCO2/kWh at detected location: Paris, Île-de-France, FR.
2022-04-20 03:46:30 - Live carbon intensity could not be fetched at detected location: Paris, Île-de-France, FR. Defaulted to average carbon intensity for EU-28 in 2017 of 294.21 gCO2/kWh.
2022-04-20 03:46:30 - Monitoring thread ended.
