timestamp,experiment_id,project_name,duration,emissions,energy_consumed,country_name,country_iso_code,region,on_cloud,cloud_provider,cloud_region
2022-03-10T11:52:24,f420a0d1-24d1-49d6-a86e-73916ae0222b,1874762_1_0,3.04819393157959,2.4906986422129412e-08,5.866210355218741e-08,France,FRA,île-de-france,N,,
2022-03-10T12:01:05,28112ce4-dc04-41a4-a046-aa1ace9a7c18,1874762_1_1,3.035928726196289,2.676907834469492e-08,6.30477898545727e-08,France,FRA,île-de-france,N,,
