timestamp,project_name,run_id,duration,emissions,emissions_rate,cpu_power,gpu_power,ram_power,cpu_energy,gpu_energy,ram_energy,energy_consumed,country_name,country_iso_code,region,cloud_provider,cloud_region,os,python_version,cpu_count,cpu_model,gpu_count,gpu_model,longitude,latitude,ram_total_size,tracking_mode,on_cloud
2022-04-14T04:38:02,104_0_0,2da6dfc8-5f78-42b0-86d1-35d1d4444e27,19.679642915725708,0.0002224021214185,0.0113011258573596,152.81694661701135,525.937,188.9179372787476,0.0008342943554905,0.0021789298075173,0.0010304507718742,0.004043674934882,France,FRA,grand est,,,Linux-5.4.0-105-generic-x86_64-with-Ubuntu-20.04-focal,3.7.13,40,Intel(R) Xeon(R) CPU E5-2698 v4 @ 2.20GHz,8,8 x Tesla V100-SXM2-32GB,7.7418,48.5855,503.78116607666016,machine,N
2022-04-14T04:41:06,104_0_1,912f26cb-8d0c-4a16-b69c-e80d0154ae88,120.09740281105042,0.0012695370126792,0.0105708948150748,145.72018672917946,359.359,188.9179372787476,0.0048208554508479,0.0119701173130932,0.0062915183756821,0.0230824911396233,France,FRA,grand est,,,Linux-5.4.0-105-generic-x86_64-with-Ubuntu-20.04-focal,3.7.13,40,Intel(R) Xeon(R) CPU E5-2698 v4 @ 2.20GHz,8,8 x Tesla V100-SXM2-32GB,7.7418,48.5855,503.78116607666016,machine,N
2022-04-14T04:44:34,104_0_2,e37464b0-bab2-438e-b6c4-be58938b8c83,142.97548151016235,0.0015820841992678,0.0110654231240019,162.82256621542024,418.042,188.9179372787476,0.006112669617354,0.0151628583861535,0.0074896392559081,0.0287651672594157,France,FRA,grand est,,,Linux-5.4.0-105-generic-x86_64-with-Ubuntu-20.04-focal,3.7.13,40,Intel(R) Xeon(R) CPU E5-2698 v4 @ 2.20GHz,8,8 x Tesla V100-SXM2-32GB,7.7418,48.5855,503.78116607666016,machine,N
2022-04-14T04:45:41,104_0_3,5ce7545b-bef2-42d9-bfe6-83a99341c9bf,2.752842426300049,3.2985501680870244e-05,0.0119823428198192,145.33517777066703,455.454,188.9179372787476,0.0001111133397239,0.000345394428364,0.0001432286261096,0.0005997363941976,France,FRA,grand est,,,Linux-5.4.0-105-generic-x86_64-with-Ubuntu-20.04-focal,3.7.13,40,Intel(R) Xeon(R) CPU E5-2698 v4 @ 2.20GHz,8,8 x Tesla V100-SXM2-32GB,7.7418,48.5855,503.78116607666016,machine,N
2022-04-14T04:46:48,104_0_4,fd41e6c9-73b6-4a82-987a-f7d2ca647822,3.051314353942871,4.070367505103754e-05,0.013339718668593,145.21084296046106,544.2090000000001,188.9179372787476,0.0001230570003899,0.0004580433635888,0.0001589664551309,0.0007400668191097,France,FRA,grand est,,,Linux-5.4.0-105-generic-x86_64-with-Ubuntu-20.04-focal,3.7.13,40,Intel(R) Xeon(R) CPU E5-2698 v4 @ 2.20GHz,8,8 x Tesla V100-SXM2-32GB,7.7418,48.5855,503.78116607666016,machine,N
2022-04-14T04:47:56,104_0_5,6e83e52a-fdfd-4f32-b6cf-b5a4bb8bc819,2.754432439804077,3.29560504912209e-05,0.011964733647112,145.4802041999323,454.442,188.9179372787476,0.000111286611807,0.0003446728432648,0.0001432414629503,0.0005992009180221,France,FRA,grand est,,,Linux-5.4.0-105-generic-x86_64-with-Ubuntu-20.04-focal,3.7.13,40,Intel(R) Xeon(R) CPU E5-2698 v4 @ 2.20GHz,8,8 x Tesla V100-SXM2-32GB,7.7418,48.5855,503.78116607666016,machine,N
2022-04-14T04:49:03,104_0_6,0c9d204d-4841-4815-ade8-561c1ce8f6db,2.753458261489868,3.353944414265694e-05,0.01218084349116267,145.45647921121844,468.427,188.91793727874756,0.0001112293234278288,0.0003553209738939339,0.00014325777799927266,0.0006098080753210353,France,FRA,grand est,,,Linux-5.4.0-105-generic-x86_64-with-Ubuntu-20.04-focal,3.7.13,40,Intel(R) Xeon(R) CPU E5-2698 v4 @ 2.20GHz,8,8 x Tesla V100-SXM2-32GB,7.7418,48.5855,503.78116607666016,machine,N
