timestamp,bmc_node_power_watt
2022-03-15T11:14:31.455497+01:00,648
2022-03-15T11:14:36.456+01:00,648
2022-03-15T11:14:41.457275+01:00,684
2022-03-15T11:14:46.464917+01:00,684
2022-03-15T11:14:51.465228+01:00,684
2022-03-15T11:14:56.465748+01:00,684
2022-03-15T11:15:01.466104+01:00,684
2022-03-15T11:15:06.466811+01:00,720
2022-03-15T11:15:11.467366+01:00,720
2022-03-15T11:15:16.467391+01:00,720
2022-03-15T11:15:21.471685+01:00,756
2022-03-15T11:15:26.475395+01:00,756
2022-03-15T11:15:31.475732+01:00,756
2022-03-15T11:15:36.475784+01:00,756
2022-03-15T11:15:41.476382+01:00,756
2022-03-15T11:15:46.482908+01:00,684
2022-03-15T11:15:51.483911+01:00,684
2022-03-15T11:15:56.483885+01:00,720
2022-03-15T11:16:01.484014+01:00,720
2022-03-15T11:16:06.484289+01:00,756
2022-03-15T11:16:11.484498+01:00,936
2022-03-15T11:16:16.485388+01:00,864
2022-03-15T11:16:21.4857+01:00,648
2022-03-15T11:16:26.486701+01:00,684
2022-03-15T11:16:31.486998+01:00,648
