timestamp,bmc_node_power_watt
2022-03-01T10:59:47.799451+01:00,392
2022-03-01T10:59:52.801546+01:00,392
2022-03-01T10:59:57.80413+01:00,392
2022-03-01T11:00:02.805922+01:00,392
2022-03-01T11:00:07.806539+01:00,392
2022-03-01T11:00:12.808239+01:00,392
2022-03-01T11:00:17.809452+01:00,392
2022-03-01T11:00:22.810693+01:00,406
2022-03-01T11:00:27.811976+01:00,406
2022-03-01T11:00:32.813581+01:00,406
