2022-04-19 21:12:29 - CarbonTracker: The following components were found: GPU with device(s) Tesla V100-SXM2-32GB, Tesla V100-SXM2-32GB, Tesla V100-SXM2-32GB, Tesla V100-SXM2-32GB, Tesla V100-SXM2-32GB, Tesla V100-SXM2-32GB, Tesla V100-SXM2-32GB, Tesla V100-SXM2-32GB. CPU with device(s) cpu:1, cpu:0.
2022-04-19 21:13:59 - CarbonTracker: Average carbon intensity during training was 294.21 gCO2/kWh at detected location: Paris, Île-de-France, FR.
2022-04-19 21:13:59 - CarbonTracker: 
Actual consumption for 1 epoch(s):
	Time:	0:01:00
	Energy:	0.013481 kWh
	CO2eq:	3.966114 g
	This is equivalent to:
	0.032941 km travelled by car
2022-04-19 21:13:59 - CarbonTracker: Live carbon intensity could not be fetched at detected location: Paris, Île-de-France, FR. Defaulted to average carbon intensity for EU-28 in 2017 of 294.21 gCO2/kWh.
2022-04-19 21:13:59 - CarbonTracker: 
Predicted consumption for 1 epoch(s):
	Time:	0:01:00
	Energy:	0.013481 kWh
	CO2eq:	3.966114 g
	This is equivalent to:
	0.032941 km travelled by car
2022-04-19 21:13:59 - CarbonTracker: Finished monitoring.
2022-04-19 21:14:29 - CarbonTracker: The following components were found: GPU with device(s) Tesla V100-SXM2-32GB, Tesla V100-SXM2-32GB, Tesla V100-SXM2-32GB, Tesla V100-SXM2-32GB, Tesla V100-SXM2-32GB, Tesla V100-SXM2-32GB, Tesla V100-SXM2-32GB, Tesla V100-SXM2-32GB. CPU with device(s) cpu:1, cpu:0.
2022-04-19 21:17:38 - CarbonTracker: Average carbon intensity during training was 294.21 gCO2/kWh at detected location: Paris, Île-de-France, FR.
2022-04-19 21:17:38 - CarbonTracker: 
Actual consumption for 1 epoch(s):
	Time:	0:02:39
	Energy:	0.046617 kWh
	CO2eq:	13.715025 g
	This is equivalent to:
	0.113912 km travelled by car
2022-04-19 21:17:38 - CarbonTracker: Live carbon intensity could not be fetched at detected location: Paris, Île-de-France, FR. Defaulted to average carbon intensity for EU-28 in 2017 of 294.21 gCO2/kWh.
2022-04-19 21:17:38 - CarbonTracker: 
Predicted consumption for 1 epoch(s):
	Time:	0:02:39
	Energy:	0.046617 kWh
	CO2eq:	13.715025 g
	This is equivalent to:
	0.113912 km travelled by car
2022-04-19 21:17:38 - CarbonTracker: Finished monitoring.
2022-04-19 21:18:09 - CarbonTracker: The following components were found: GPU with device(s) Tesla V100-SXM2-32GB, Tesla V100-SXM2-32GB, Tesla V100-SXM2-32GB, Tesla V100-SXM2-32GB, Tesla V100-SXM2-32GB, Tesla V100-SXM2-32GB, Tesla V100-SXM2-32GB, Tesla V100-SXM2-32GB. CPU with device(s) cpu:1, cpu:0.
2022-04-19 21:22:04 - CarbonTracker: Average carbon intensity during training was 294.21 gCO2/kWh at detected location: Paris, Île-de-France, FR.
2022-04-19 21:22:04 - CarbonTracker: 
Actual consumption for 1 epoch(s):
	Time:	0:03:25
	Energy:	0.125827 kWh
	CO2eq:	37.019040 g
	This is equivalent to:
	0.307467 km travelled by car
2022-04-19 21:22:04 - CarbonTracker: Live carbon intensity could not be fetched at detected location: Paris, Île-de-France, FR. Defaulted to average carbon intensity for EU-28 in 2017 of 294.21 gCO2/kWh.
2022-04-19 21:22:04 - CarbonTracker: 
Predicted consumption for 1 epoch(s):
	Time:	0:03:25
	Energy:	0.125827 kWh
	CO2eq:	37.019040 g
	This is equivalent to:
	0.307467 km travelled by car
2022-04-19 21:22:04 - CarbonTracker: Finished monitoring.
2022-04-19 21:22:34 - CarbonTracker: The following components were found: GPU with device(s) Tesla V100-SXM2-32GB, Tesla V100-SXM2-32GB, Tesla V100-SXM2-32GB, Tesla V100-SXM2-32GB, Tesla V100-SXM2-32GB, Tesla V100-SXM2-32GB, Tesla V100-SXM2-32GB, Tesla V100-SXM2-32GB. CPU with device(s) cpu:1, cpu:0.
2022-04-19 21:24:13 - CarbonTracker: Average carbon intensity during training was 294.21 gCO2/kWh at detected location: Paris, Île-de-France, FR.
2022-04-19 21:24:13 - CarbonTracker: 
Actual consumption for 1 epoch(s):
	Time:	0:01:09
	Energy:	0.054548 kWh
	CO2eq:	16.048306 g
	This is equivalent to:
	0.133292 km travelled by car
2022-04-19 21:24:13 - CarbonTracker: Live carbon intensity could not be fetched at detected location: Paris, Île-de-France, FR. Defaulted to average carbon intensity for EU-28 in 2017 of 294.21 gCO2/kWh.
2022-04-19 21:24:13 - CarbonTracker: 
Predicted consumption for 1 epoch(s):
	Time:	0:01:09
	Energy:	0.054548 kWh
	CO2eq:	16.048306 g
	This is equivalent to:
	0.133292 km travelled by car
2022-04-19 21:24:13 - CarbonTracker: Finished monitoring.
