timestamp,wattmetre_power_watt
2022-03-15T10:43:17+01:00,373.335643564356
2022-03-15T10:43:18+01:00,377.782
2022-03-15T10:43:19+01:00,355.131
2022-03-15T10:43:20+01:00,353.380808080808
2022-03-15T10:43:21+01:00,351.481
2022-03-15T10:43:22+01:00,351.616
2022-03-15T10:43:23+01:00,352.177
2022-03-15T10:43:24+01:00,352.313
2022-03-15T10:43:25+01:00,351.476
2022-03-15T10:43:26+01:00,351.87
2022-03-15T10:43:27+01:00,351.785
2022-03-15T10:43:28+01:00,351.865
2022-03-15T10:43:29+01:00,352.715
2022-03-15T10:43:30+01:00,352.668
2022-03-15T10:43:31+01:00,352.029
2022-03-15T10:43:32+01:00,352.261
2022-03-15T10:43:33+01:00,379.346
2022-03-15T10:43:34+01:00,359.265
2022-03-15T10:43:35+01:00,352.782
2022-03-15T10:43:36+01:00,352.576
2022-03-15T10:43:37+01:00,351.936
2022-03-15T10:43:38+01:00,352.119
2022-03-15T10:43:39+01:00,351.969
2022-03-15T10:43:40+01:00,352.292
2022-03-15T10:43:41+01:00,364.472
2022-03-15T10:43:42+01:00,367.294
2022-03-15T10:43:43+01:00,352.272
2022-03-15T10:43:44+01:00,352.226
2022-03-15T10:43:45+01:00,351.611
2022-03-15T10:43:46+01:00,353.842
2022-03-15T10:43:47+01:00,353.209
2022-03-15T10:43:48+01:00,365.703
2022-03-15T10:43:49+01:00,367.798
2022-03-15T10:43:50+01:00,366.076
2022-03-15T10:43:51+01:00,372.109
2022-03-15T10:43:52+01:00,375.172448979592
2022-03-15T10:43:53+01:00,375.735
2022-03-15T10:43:54+01:00,420.795
2022-03-15T10:43:55+01:00,402.046
2022-03-15T10:43:56+01:00,389.159
2022-03-15T10:43:57+01:00,355.113
2022-03-15T10:43:58+01:00,355.405
2022-03-15T10:43:59+01:00,355.852
2022-03-15T10:44:00+01:00,353.024
2022-03-15T10:44:01+01:00,351.883
2022-03-15T10:44:02+01:00,352.465
2022-03-15T10:44:03+01:00,355.384
2022-03-15T10:44:04+01:00,352.592
2022-03-15T10:44:05+01:00,352.503
2022-03-15T10:44:06+01:00,354.018
2022-03-15T10:44:07+01:00,351.917
2022-03-15T10:44:08+01:00,352.146
2022-03-15T10:44:09+01:00,352.114
2022-03-15T10:44:10+01:00,352.388
2022-03-15T10:44:11+01:00,364.405
2022-03-15T10:44:12+01:00,364.951
2022-03-15T10:44:13+01:00,352.567
2022-03-15T10:44:14+01:00,352.441
2022-03-15T10:44:15+01:00,351.927
2022-03-15T10:44:16+01:00,352.39
2022-03-15T10:44:17+01:00,352.877
2022-03-15T10:44:18+01:00,355.848
2022-03-15T10:44:19+01:00,352.487
2022-03-15T10:44:20+01:00,352.665
2022-03-15T10:44:21+01:00,352.134
2022-03-15T10:44:22+01:00,352.332
2022-03-15T10:44:23+01:00,353.129
2022-03-15T10:44:24+01:00,353.547
2022-03-15T10:44:25+01:00,354.296
2022-03-15T10:44:26+01:00,352.342
2022-03-15T10:44:27+01:00,352.555
2022-03-15T10:44:28+01:00,352.559
2022-03-15T10:44:29+01:00,352.538
2022-03-15T10:44:30+01:00,354.073
2022-03-15T10:44:31+01:00,353.138
2022-03-15T10:44:32+01:00,352.35
2022-03-15T10:44:33+01:00,355.902
2022-03-15T10:44:34+01:00,352.221
2022-03-15T10:44:35+01:00,352.491919191919
2022-03-15T10:44:36+01:00,353.454455445544
2022-03-15T10:44:37+01:00,352.297
2022-03-15T10:44:38+01:00,353.58
