{"timestamp":1649915242.422229,"rapl_power_draw_absolute":146.04439562282334,"rapl_estimated_attributable_power_draw":0.08855267070613466,"cpu_time_seconds":{"473763":{"user":0.01,"system":0.04,"children_user":0.08,"children_system":34.55,"iowait":0.0},"473556":{"user":2.56,"system":0.67,"children_user":2.18,"children_system":26.84,"iowait":0.0}},"average_relative_cpu_utilization":0.0006238139083794759,"absolute_cpu_utilization":0.004995892307409378,"relative_mem_usage":0.0005354667193200504,"absolute_mem_usage":76911616.0,"absolute_mem_percent_usage":0.0001421838072844057,"mem_info_per_process":{"473763":{"rss":181866496,"vms":1833508864,"shared":5730304,"text":3096576,"lib":0,"data":1524723712,"dirty":0,"uss":5201920,"pss":22575104,"swap":0},"473556":{"rss":219762688,"vms":2034851840,"shared":43606016,"text":3096576,"lib":0,"data":1525129216,"dirty":0,"uss":35516416,"pss":54336512,"swap":0}},"nvidia_draw_absolute":469.84,"nvidia_estimated_attributable_power_draw":0,"average_gpu_estimated_utilization_absolute":0,"per_gpu_average_estimated_utilization_absolute":{"(0, 0)":{"type":0.0,"sm":0.0,"mem":0.0,"enc":0.0,"dec":0.0,"command":0.0},"(1, 0)":{"type":0.0,"sm":0.0,"mem":0.0,"enc":0.0,"dec":0.0,"command":0.0},"(2, 0)":{"type":0.0,"sm":0.0,"mem":0.0,"enc":0.0,"dec":0.0,"command":0.0},"(3, 0)":{"type":0.0,"sm":0.0,"mem":0.0,"enc":0.0,"dec":0.0,"command":0.0},"(4, 0)":{"type":0.0,"sm":0.0,"mem":0.0,"enc":0.0,"dec":0.0,"command":0.0},"(5, 0)":{"type":0.0,"sm":0.0,"mem":0.0,"enc":0.0,"dec":0.0,"command":0.0},"(6, 0)":{"type":0.0,"sm":0.0,"mem":0.0,"enc":0.0,"dec":0.0,"command":0.0},"(7, 0)":{"type":0.0,"sm":0.0,"mem":0.0,"enc":0.0,"dec":0.0,"command":0.0}},"average_gpu_estimated_utilization_relative":0,"per_gpu_performance_state":{},"per_gpu_power_draw":{},"cpu_count_adjusted_average_load":[0.14250000000000002,0.054000000000000006,0.04525],"cpu_freq":[{"current":2195.043,"min":2200.0,"max":2200.0},{"current":2195.043,"min":2200.0,"max":2200.0},{"current":2195.043,"min":2200.0,"max":2200.0},{"current":2195.043,"min":2200.0,"max":2200.0},{"current":2195.043,"min":2200.0,"max":2200.0},{"current":2195.044,"min":2200.0,"max":2200.0},{"current":2195.043,"min":2200.0,"max":2200.0},{"current":2195.043,"min":2200.0,"max":2200.0},{"current":2195.044,"min":2200.0,"max":2200.0},{"current":2195.043,"min":2200.0,"max":2200.0},{"current":2195.043,"min":2200.0,"max":2200.0},{"current":2195.042,"min":2200.0,"max":2200.0},{"current":2195.043,"min":2200.0,"max":2200.0},{"current":2195.043,"min":2200.0,"max":2200.0},{"current":2195.043,"min":2200.0,"max":2200.0},{"current":2195.043,"min":2200.0,"max":2200.0},{"current":2195.043,"min":2200.0,"max":2200.0},{"current":2195.043,"min":2200.0,"max":2200.0},{"current":2195.043,"min":2200.0,"max":2200.0},{"current":2195.043,"min":2200.0,"max":2200.0},{"current":2195.043,"min":2200.0,"max":2200.0},{"current":2195.043,"min":2200.0,"max":2200.0},{"current":2195.042,"min":2200.0,"max":2200.0},{"current":2195.043,"min":2200.0,"max":2200.0},{"current":2195.042,"min":2200.0,"max":2200.0},{"current":2195.043,"min":2200.0,"max":2200.0},{"current":2195.043,"min":2200.0,"max":2200.0},{"current":2195.044,"min":2200.0,"max":2200.0},{"current":2195.043,"min":2200.0,"max":2200.0},{"current":2195.042,"min":2200.0,"max":2200.0},{"current":2195.043,"min":2200.0,"max":2200.0},{"current":2195.042,"min":2200.0,"max":2200.0},{"current":2195.043,"min":2200.0,"max":2200.0},{"current":2195.044,"min":2200.0,"max":2200.0},{"current":2195.042,"min":2200.0,"max":2200.0},{"current":2195.043,"min":2200.0,"max":2200.0},{"current":2195.043,"min":2200.0,"max":2200.0},{"current":2195.043,"min":2200.0,"max":2200.0},{"current":2195.042,"min":2200.0,"max":2200.0},{"current":2195.042,"min":2200.0,"max":2200.0},{"current":1214.592,"min":1200.0,"max":3600.0},{"current":1417.96,"min":1200.0,"max":3600.0},{"current":1213.913,"min":1200.0,"max":3600.0},{"current":1280.436,"min":1200.0,"max":3600.0},{"current":1354.602,"min":1200.0,"max":3600.0},{"current":1410.891,"min":1200.0,"max":3600.0},{"current":1918.223,"min":1200.0,"max":3600.0},{"current":1885.756,"min":1200.0,"max":3600.0},{"current":1926.317,"min":1200.0,"max":3600.0},{"current":1955.031,"min":1200.0,"max":3600.0},{"current":1913.307,"min":1200.0,"max":3600.0},{"current":1233.226,"min":1200.0,"max":3600.0},{"current":1231.215,"min":1200.0,"max":3600.0},{"current":1261.278,"min":1200.0,"max":3600.0},{"current":1292.44,"min":1200.0,"max":3600.0},{"current":1237.046,"min":1200.0,"max":3600.0},{"current":1267.292,"min":1200.0,"max":3600.0},{"current":1320.377,"min":1200.0,"max":3600.0},{"current":1209.316,"min":1200.0,"max":3600.0},{"current":1318.436,"min":1200.0,"max":3600.0},{"current":1197.45,"min":1200.0,"max":3600.0},{"current":1815.162,"min":1200.0,"max":3600.0},{"current":1197.421,"min":1200.0,"max":3600.0},{"current":1197.503,"min":1200.0,"max":3600.0},{"current":1197.371,"min":1200.0,"max":3600.0},{"current":1197.374,"min":1200.0,"max":3600.0},{"current":1328.263,"min":1200.0,"max":3600.0},{"current":1314.334,"min":1200.0,"max":3600.0},{"current":1236.332,"min":1200.0,"max":3600.0},{"current":1234.253,"min":1200.0,"max":3600.0},{"current":1885.071,"min":1200.0,"max":3600.0},{"current":1843.541,"min":1200.0,"max":3600.0},{"current":1691.573,"min":1200.0,"max":3600.0},{"current":1471.484,"min":1200.0,"max":3600.0},{"current":1682.503,"min":1200.0,"max":3600.0},{"current":1691.032,"min":1200.0,"max":3600.0},{"current":1746.678,"min":1200.0,"max":3600.0},{"current":1542.603,"min":1200.0,"max":3600.0},{"current":1714.362,"min":1200.0,"max":3600.0},{"current":1468.635,"min":1200.0,"max":3600.0}],"disk_write_speed":144.697335390013,"process_ids":[473763,473556]}
{"timestamp":1649915305.954243,"rapl_power_draw_absolute":149.14218749612184,"rapl_estimated_attributable_power_draw":148.4925268968352,"cpu_time_seconds":{"473763":{"user":0.52,"system":0.24,"children_user":0.32,"children_system":83.43,"iowait":0.0},"473764":{"user":0.0,"system":0.0,"children_user":0.0,"children_system":0.0,"iowait":0.0},"473765":{"user":0.0,"system":0.0,"children_user":0.0,"children_system":0.0,"iowait":0.0},"473766":{"user":0.0,"system":0.0,"children_user":0.0,"children_system":0.0,"iowait":0.0},"473767":{"user":0.0,"system":0.0,"children_user":0.0,"children_system":0.0,"iowait":0.0},"473768":{"user":0.0,"system":0.0,"children_user":0.0,"children_system":0.0,"iowait":0.0},"473769":{"user":0.0,"system":0.0,"children_user":0.0,"children_system":0.0,"iowait":0.0},"473770":{"user":0.0,"system":0.0,"children_user":0.0,"children_system":0.0,"iowait":0.0},"473771":{"user":0.0,"system":0.0,"children_user":0.0,"children_system":0.0,"iowait":0.0},"473776":{"user":0.0,"system":0.0,"children_user":0.0,"children_system":0.0,"iowait":0.0},"473777":{"user":0.0,"system":0.0,"children_user":0.0,"children_system":0.0,"iowait":0.0},"473778":{"user":0.0,"system":0.0,"children_user":0.0,"children_system":0.0,"iowait":0.0},"473779":{"user":0.0,"system":0.0,"children_user":0.0,"children_system":0.0,"iowait":0.0},"473780":{"user":0.0,"system":0.0,"children_user":0.0,"children_system":0.0,"iowait":0.0},"473781":{"user":0.0,"system":0.0,"children_user":0.0,"children_system":0.0,"iowait":0.0},"473782":{"user":0.0,"system":0.0,"children_user":0.0,"children_system":0.0,"iowait":0.0},"473783":{"user":0.0,"system":0.0,"children_user":0.0,"children_system":0.0,"iowait":0.0},"473784":{"user":0.0,"system":0.0,"children_user":0.0,"children_system":0.0,"iowait":0.0},"473785":{"user":0.0,"system":0.0,"children_user":0.0,"children_system":0.0,"iowait":0.0},"473786":{"user":0.0,"system":0.0,"children_user":0.0,"children_system":0.0,"iowait":0.0},"473787":{"user":0.0,"system":0.0,"children_user":0.0,"children_system":0.0,"iowait":0.0},"473788":{"user":0.0,"system":0.0,"children_user":0.0,"children_system":0.0,"iowait":0.0},"473789":{"user":0.0,"system":0.0,"children_user":0.0,"children_system":0.0,"iowait":0.0},"473800":{"user":0.0,"system":0.0,"children_user":0.0,"children_system":0.0,"iowait":0.0},"473801":{"user":0.0,"system":0.0,"children_user":0.0,"children_system":0.0,"iowait":0.0},"473556":{"user":2.59,"system":0.69,"children_user":2.18,"children_system":26.84,"iowait":0.0},"473813":{"user":87.44,"system":16.12,"children_user":0.0,"children_system":0.0,"iowait":0.0},"473814":{"user":88.4,"system":15.17,"children_user":0.0,"children_system":0.0,"iowait":0.0},"473815":{"user":88.47,"system":15.09,"children_user":0.0,"children_system":0.0,"iowait":0.0},"473817":{"user":88.07,"system":15.5,"children_user":0.0,"children_system":0.0,"iowait":0.0},"473819":{"user":88.01,"system":15.56,"children_user":0.0,"children_system":0.0,"iowait":0.0},"473820":{"user":88.91,"system":14.65,"children_user":0.0,"children_system":0.0,"iowait":0.0},"473823":{"user":68.7,"system":34.86,"children_user":0.0,"children_system":0.0,"iowait":0.0},"473827":{"user":87.97,"system":15.58,"children_user":0.0,"children_system":0.0,"iowait":0.0}},"average_relative_cpu_utilization":1.0004406619204043,"absolute_cpu_utilization":8.006994584971974,"relative_mem_usage":0.9771803010297367,"absolute_mem_usage":227534013440.0,"absolute_mem_percent_usage":0.4206341512522677,"mem_info_per_process":{"473763":{"rss":188506112,"vms":1833508864,"shared":12357632,"text":3096576,"lib":0,"data":1524723712,"dirty":0,"uss":18784256,"pss":37321728,"swap":0},"473764":{"rss":181440512,"vms":1833525248,"shared":5304320,"text":3096576,"lib":0,"data":1524723712,"dirty":0,"uss":2662400,"pss":20321280,"swap":0},"473765":{"rss":181440512,"vms":1833525248,"shared":5304320,"text":3096576,"lib":0,"data":1524723712,"dirty":0,"uss":2654208,"pss":20315136,"swap":0},"473766":{"rss":181440512,"vms":1833525248,"shared":5304320,"text":3096576,"lib":0,"data":1524723712,"dirty":0,"uss":2654208,"pss":20315136,"swap":0},"473767":{"rss":181440512,"vms":1833525248,"shared":5304320,"text":3096576,"lib":0,"data":1524723712,"dirty":0,"uss":2658304,"pss":20316160,"swap":0},"473768":{"rss":181440512,"vms":1833525248,"shared":5304320,"text":3096576,"lib":0,"data":1524723712,"dirty":0,"uss":2658304,"pss":20315136,"swap":0},"473769":{"rss":181440512,"vms":1833525248,"shared":5304320,"text":3096576,"lib":0,"data":1524723712,"dirty":0,"uss":2662400,"pss":20318208,"swap":0},"473770":{"rss":181440512,"vms":1833525248,"shared":5304320,"text":3096576,"lib":0,"data":1524723712,"dirty":0,"uss":2666496,"pss":20323328,"swap":0},"473771":{"rss":181440512,"vms":1833525248,"shared":5304320,"text":3096576,"lib":0,"data":1524723712,"dirty":0,"uss":2658304,"pss":20324352,"swap":0},"473776":{"rss":614400,"vms":2670592,"shared":540672,"text":98304,"lib":0,"data":323584,"dirty":0,"uss":94208,"pss":137216,"swap":0},"473777":{"rss":544768,"vms":2670592,"shared":475136,"text":98304,"lib":0,"data":323584,"dirty":0,"uss":90112,"pss":131072,"swap":0},"473778":{"rss":610304,"vms":2670592,"shared":540672,"text":98304,"lib":0,"data":323584,"dirty":0,"uss":90112,"pss":135168,"swap":0},"473779":{"rss":544768,"vms":2670592,"shared":475136,"text":98304,"lib":0,"data":323584,"dirty":0,"uss":90112,"pss":130048,"swap":0},"473780":{"rss":544768,"vms":2670592,"shared":475136,"text":98304,"lib":0,"data":323584,"dirty":0,"uss":90112,"pss":132096,"swap":0},"473781":{"rss":610304,"vms":2670592,"shared":540672,"text":98304,"lib":0,"data":323584,"dirty":0,"uss":90112,"pss":135168,"swap":0},"473782":{"rss":610304,"vms":2670592,"shared":540672,"text":98304,"lib":0,"data":323584,"dirty":0,"uss":90112,"pss":133120,"swap":0},"473783":{"rss":614400,"vms":2670592,"shared":540672,"text":98304,"lib":0,"data":323584,"dirty":0,"uss":94208,"pss":139264,"swap":0},"473784":{"rss":3391488,"vms":9719808,"shared":3141632,"text":909312,"lib":0,"data":409600,"dirty":0,"uss":249856,"pss":437248,"swap":0},"473785":{"rss":3338240,"vms":9719808,"shared":3092480,"text":909312,"lib":0,"data":409600,"dirty":0,"uss":245760,"pss":450560,"swap":0},"473786":{"rss":3465216,"vms":9719808,"shared":3215360,"text":909312,"lib":0,"data":409600,"dirty":0,"uss":270336,"pss":477184,"swap":0},"473787":{"rss":3280896,"vms":9719808,"shared":3035136,"text":909312,"lib":0,"data":409600,"dirty":0,"uss":245760,"pss":427008,"swap":0},"473788":{"rss":3362816,"vms":9719808,"shared":3112960,"text":909312,"lib":0,"data":409600,"dirty":0,"uss":249856,"pss":458752,"swap":0},"473789":{"rss":3362816,"vms":9719808,"shared":3117056,"text":909312,"lib":0,"data":409600,"dirty":0,"uss":270336,"pss":502784,"swap":0},"473800":{"rss":3317760,"vms":9719808,"shared":3072000,"text":909312,"lib":0,"data":409600,"dirty":0,"uss":245760,"pss":444416,"swap":0},"473801":{"rss":3334144,"vms":9719808,"shared":3088384,"text":909312,"lib":0,"data":409600,"dirty":0,"uss":245760,"pss":427008,"swap":0},"473556":{"rss":219762688,"vms":2034851840,"shared":43606016,"text":3096576,"lib":0,"data":1525129216,"dirty":0,"uss":30961664,"pss":52122624,"swap":0},"473813":{"rss":28411359232,"vms":28413927424,"shared":2105344,"text":475136,"lib":0,"data":28409503744,"dirty":0,"uss":28409614336,"pss":28409655296,"swap":0},"473814":{"rss":28411199488,"vms":28413927424,"shared":2097152,"text":475136,"lib":0,"data":28409503744,"dirty":0,"uss":28409663488,"pss":28409699328,"swap":0},"473815":{"rss":28411166720,"vms":28413927424,"shared":2064384,"text":475136,"lib":0,"data":28409503744,"dirty":0,"uss":28409618432,"pss":28409655296,"swap":0},"473817":{"rss":28411256832,"vms":28413927424,"shared":2158592,"text":475136,"lib":0,"data":28409503744,"dirty":0,"uss":28409602048,"pss":28409648128,"swap":0},"473819":{"rss":28411305984,"vms":28413927424,"shared":2215936,"text":475136,"lib":0,"data":28409503744,"dirty":0,"uss":28409663488,"pss":28409711616,"swap":0},"473820":{"rss":28411424768,"vms":28413927424,"shared":2105344,"text":475136,"lib":0,"data":28409503744,"dirty":0,"uss":28409602048,"pss":28409646080,"swap":0},"473823":{"rss":28411351040,"vms":28413927424,"shared":2043904,"text":475136,"lib":0,"data":28409503744,"dirty":0,"uss":28409614336,"pss":28409650176,"swap":0},"473827":{"rss":28411465728,"vms":28413927424,"shared":2166784,"text":475136,"lib":0,"data":28409503744,"dirty":0,"uss":28409610240,"pss":28409656320,"swap":0}},"nvidia_draw_absolute":469.39,"nvidia_estimated_attributable_power_draw":0,"average_gpu_estimated_utilization_absolute":0,"per_gpu_average_estimated_utilization_absolute":{"(0, 0)":{"type":0.0,"sm":0.0,"mem":0.0,"enc":0.0,"dec":0.0,"command":0.0},"(1, 0)":{"type":0.0,"sm":0.0,"mem":0.0,"enc":0.0,"dec":0.0,"command":0.0},"(2, 0)":{"type":0.0,"sm":0.0,"mem":0.0,"enc":0.0,"dec":0.0,"command":0.0},"(3, 0)":{"type":0.0,"sm":0.0,"mem":0.0,"enc":0.0,"dec":0.0,"command":0.0},"(4, 0)":{"type":0.0,"sm":0.0,"mem":0.0,"enc":0.0,"dec":0.0,"command":0.0},"(5, 0)":{"type":0.0,"sm":0.0,"mem":0.0,"enc":0.0,"dec":0.0,"command":0.0},"(6, 0)":{"type":0.0,"sm":0.0,"mem":0.0,"enc":0.0,"dec":0.0,"command":0.0},"(7, 0)":{"type":0.0,"sm":0.0,"mem":0.0,"enc":0.0,"dec":0.0,"command":0.0}},"average_gpu_estimated_utilization_relative":0,"per_gpu_performance_state":{},"per_gpu_power_draw":{},"cpu_count_adjusted_average_load":[0.194,0.08675000000000001,0.05725],"cpu_freq":[{"current":2195.043,"min":2200.0,"max":2200.0},{"current":2195.043,"min":2200.0,"max":2200.0},{"current":2195.043,"min":2200.0,"max":2200.0},{"current":2195.043,"min":2200.0,"max":2200.0},{"current":2195.043,"min":2200.0,"max":2200.0},{"current":2195.043,"min":2200.0,"max":2200.0},{"current":2195.043,"min":2200.0,"max":2200.0},{"current":2195.042,"min":2200.0,"max":2200.0},{"current":2195.043,"min":2200.0,"max":2200.0},{"current":2195.043,"min":2200.0,"max":2200.0},{"current":2195.043,"min":2200.0,"max":2200.0},{"current":2195.043,"min":2200.0,"max":2200.0},{"current":2195.044,"min":2200.0,"max":2200.0},{"current":2195.043,"min":2200.0,"max":2200.0},{"current":2195.043,"min":2200.0,"max":2200.0},{"current":2195.043,"min":2200.0,"max":2200.0},{"current":2195.043,"min":2200.0,"max":2200.0},{"current":2195.042,"min":2200.0,"max":2200.0},{"current":2195.043,"min":2200.0,"max":2200.0},{"current":2195.043,"min":2200.0,"max":2200.0},{"current":2195.043,"min":2200.0,"max":2200.0},{"current":2195.042,"min":2200.0,"max":2200.0},{"current":2195.043,"min":2200.0,"max":2200.0},{"current":2195.044,"min":2200.0,"max":2200.0},{"current":2195.043,"min":2200.0,"max":2200.0},{"current":2195.042,"min":2200.0,"max":2200.0},{"current":2195.044,"min":2200.0,"max":2200.0},{"current":2195.044,"min":2200.0,"max":2200.0},{"current":2195.042,"min":2200.0,"max":2200.0},{"current":2195.043,"min":2200.0,"max":2200.0},{"current":2195.043,"min":2200.0,"max":2200.0},{"current":2195.043,"min":2200.0,"max":2200.0},{"current":2195.042,"min":2200.0,"max":2200.0},{"current":2195.043,"min":2200.0,"max":2200.0},{"current":2195.043,"min":2200.0,"max":2200.0},{"current":2195.042,"min":2200.0,"max":2200.0},{"current":2195.043,"min":2200.0,"max":2200.0},{"current":2195.043,"min":2200.0,"max":2200.0},{"current":2195.043,"min":2200.0,"max":2200.0},{"current":2195.043,"min":2200.0,"max":2200.0},{"current":1214.592,"min":1200.0,"max":3600.0},{"current":1417.96,"min":1200.0,"max":3600.0},{"current":1213.913,"min":1200.0,"max":3600.0},{"current":1280.436,"min":1200.0,"max":3600.0},{"current":1354.602,"min":1200.0,"max":3600.0},{"current":1410.891,"min":1200.0,"max":3600.0},{"current":1918.223,"min":1200.0,"max":3600.0},{"current":1885.756,"min":1200.0,"max":3600.0},{"current":1926.317,"min":1200.0,"max":3600.0},{"current":1955.031,"min":1200.0,"max":3600.0},{"current":1913.307,"min":1200.0,"max":3600.0},{"current":1233.226,"min":1200.0,"max":3600.0},{"current":1231.215,"min":1200.0,"max":3600.0},{"current":1261.278,"min":1200.0,"max":3600.0},{"current":1292.44,"min":1200.0,"max":3600.0},{"current":1237.046,"min":1200.0,"max":3600.0},{"current":1267.292,"min":1200.0,"max":3600.0},{"current":1320.377,"min":1200.0,"max":3600.0},{"current":1209.316,"min":1200.0,"max":3600.0},{"current":1318.436,"min":1200.0,"max":3600.0},{"current":1197.45,"min":1200.0,"max":3600.0},{"current":1815.162,"min":1200.0,"max":3600.0},{"current":1197.421,"min":1200.0,"max":3600.0},{"current":1197.503,"min":1200.0,"max":3600.0},{"current":1197.371,"min":1200.0,"max":3600.0},{"current":1197.374,"min":1200.0,"max":3600.0},{"current":1328.263,"min":1200.0,"max":3600.0},{"current":1314.334,"min":1200.0,"max":3600.0},{"current":1236.332,"min":1200.0,"max":3600.0},{"current":1234.253,"min":1200.0,"max":3600.0},{"current":1885.071,"min":1200.0,"max":3600.0},{"current":1843.541,"min":1200.0,"max":3600.0},{"current":1691.573,"min":1200.0,"max":3600.0},{"current":1471.484,"min":1200.0,"max":3600.0},{"current":1682.503,"min":1200.0,"max":3600.0},{"current":1691.032,"min":1200.0,"max":3600.0},{"current":1746.678,"min":1200.0,"max":3600.0},{"current":1542.603,"min":1200.0,"max":3600.0},{"current":1714.362,"min":1200.0,"max":3600.0},{"current":1468.635,"min":1200.0,"max":3600.0}],"disk_write_speed":146.2755798527246,"process_ids":[473763,473764,473765,473766,473767,473768,473769,473770,473771,473776,473777,473778,473779,473780,473781,473782,473783,473784,473785,473786,473787,473788,473789,473800,473801,473556,473813,473814,473815,473817,473819,473820,473823,473827]}
{"timestamp":1649915341.554421,"rapl_power_draw_absolute":173.79901502857825,"rapl_estimated_attributable_power_draw":171.8383567904411,"cpu_time_seconds":{"473763":{"user":1.13,"system":2.02,"children_user":0.55,"children_system":103.25,"iowait":0.0},"473764":{"user":0.0,"system":0.0,"children_user":0.0,"children_system":0.0,"iowait":0.0},"473765":{"user":0.0,"system":0.0,"children_user":0.0,"children_system":0.0,"iowait":0.0},"473766":{"user":0.0,"system":0.0,"children_user":0.0,"children_system":0.0,"iowait":0.0},"473767":{"user":0.0,"system":0.0,"children_user":0.0,"children_system":0.0,"iowait":0.0},"473768":{"user":0.0,"system":0.0,"children_user":0.0,"children_system":0.0,"iowait":0.0},"473769":{"user":0.0,"system":0.0,"children_user":0.0,"children_system":0.0,"iowait":0.0},"473770":{"user":0.0,"system":0.0,"children_user":0.0,"children_system":0.0,"iowait":0.0},"473771":{"user":0.0,"system":0.0,"children_user":0.0,"children_system":0.0,"iowait":0.0},"473776":{"user":0.0,"system":0.0,"children_user":0.0,"children_system":0.0,"iowait":0.0},"473777":{"user":0.0,"system":0.0,"children_user":0.0,"children_system":0.0,"iowait":0.0},"473778":{"user":0.0,"system":0.0,"children_user":0.0,"children_system":0.0,"iowait":0.0},"473779":{"user":0.0,"system":0.0,"children_user":0.0,"children_system":0.0,"iowait":0.0},"473780":{"user":0.0,"system":0.0,"children_user":0.0,"children_system":0.0,"iowait":0.0},"473781":{"user":0.0,"system":0.0,"children_user":0.0,"children_system":0.0,"iowait":0.0},"473782":{"user":0.0,"system":0.0,"children_user":0.0,"children_system":0.0,"iowait":0.0},"473783":{"user":0.0,"system":0.0,"children_user":0.0,"children_system":0.0,"iowait":0.0},"473784":{"user":0.0,"system":0.0,"children_user":0.0,"children_system":0.0,"iowait":0.0},"473785":{"user":0.0,"system":0.0,"children_user":0.0,"children_system":0.0,"iowait":0.0},"473786":{"user":0.0,"system":0.0,"children_user":0.0,"children_system":0.0,"iowait":0.0},"473787":{"user":0.0,"system":0.0,"children_user":0.0,"children_system":0.0,"iowait":0.0},"473788":{"user":0.0,"system":0.0,"children_user":0.0,"children_system":0.0,"iowait":0.0},"473789":{"user":0.0,"system":0.0,"children_user":0.0,"children_system":0.0,"iowait":0.0},"473800":{"user":0.0,"system":0.0,"children_user":0.0,"children_system":0.0,"iowait":0.0},"473801":{"user":0.0,"system":0.0,"children_user":0.0,"children_system":0.0,"iowait":0.0},"473556":{"user":2.61,"system":0.69,"children_user":2.18,"children_system":26.84,"iowait":0.0},"473813":{"user":118.87,"system":16.77,"children_user":0.0,"children_system":0.0,"iowait":0.0},"473814":{"user":118.4,"system":16.93,"children_user":0.0,"children_system":0.0,"iowait":0.0},"473815":{"user":118.16,"system":17.19,"children_user":0.0,"children_system":0.0,"iowait":0.0},"473817":{"user":119.84,"system":16.57,"children_user":0.0,"children_system":0.0,"iowait":0.0},"473819":{"user":119.63,"system":16.35,"children_user":0.0,"children_system":0.0,"iowait":0.0},"473820":{"user":119.08,"system":15.39,"children_user":0.0,"children_system":0.0,"iowait":0.0},"473823":{"user":103.95,"system":35.21,"children_user":0.0,"children_system":0.0,"iowait":0.0},"473827":{"user":118.59,"system":16.38,"children_user":0.0,"children_system":0.0,"iowait":0.0}},"average_relative_cpu_utilization":0.9998206489470343,"absolute_cpu_utilization":8.005199779085288,"relative_mem_usage":0.9601865743887174,"absolute_mem_usage":199878366208.0,"absolute_mem_percent_usage":0.3695081260708414,"mem_info_per_process":{"473763":{"rss":192204800,"vms":1833508864,"shared":16052224,"text":3096576,"lib":0,"data":1524723712,"dirty":0,"uss":46010368,"pss":63563776,"swap":0},"473764":{"rss":181440512,"vms":1833525248,"shared":5304320,"text":3096576,"lib":0,"data":1524723712,"dirty":0,"uss":2662400,"pss":20620288,"swap":0},"473765":{"rss":181440512,"vms":1833525248,"shared":5304320,"text":3096576,"lib":0,"data":1524723712,"dirty":0,"uss":2654208,"pss":20614144,"swap":0},"473766":{"rss":181440512,"vms":1833525248,"shared":5304320,"text":3096576,"lib":0,"data":1524723712,"dirty":0,"uss":2654208,"pss":20614144,"swap":0},"473767":{"rss":181440512,"vms":1833525248,"shared":5304320,"text":3096576,"lib":0,"data":1524723712,"dirty":0,"uss":2658304,"pss":20617216,"swap":0},"473768":{"rss":181440512,"vms":1833525248,"shared":5304320,"text":3096576,"lib":0,"data":1524723712,"dirty":0,"uss":2658304,"pss":20616192,"swap":0},"473769":{"rss":181440512,"vms":1833525248,"shared":5304320,"text":3096576,"lib":0,"data":1524723712,"dirty":0,"uss":2662400,"pss":20620288,"swap":0},"473770":{"rss":181440512,"vms":1833525248,"shared":5304320,"text":3096576,"lib":0,"data":1524723712,"dirty":0,"uss":2666496,"pss":20625408,"swap":0},"473771":{"rss":181440512,"vms":1833525248,"shared":5304320,"text":3096576,"lib":0,"data":1524723712,"dirty":0,"uss":2658304,"pss":20626432,"swap":0},"473776":{"rss":614400,"vms":2670592,"shared":540672,"text":98304,"lib":0,"data":323584,"dirty":0,"uss":94208,"pss":136192,"swap":0},"473777":{"rss":544768,"vms":2670592,"shared":475136,"text":98304,"lib":0,"data":323584,"dirty":0,"uss":90112,"pss":131072,"swap":0},"473778":{"rss":610304,"vms":2670592,"shared":540672,"text":98304,"lib":0,"data":323584,"dirty":0,"uss":90112,"pss":135168,"swap":0},"473779":{"rss":544768,"vms":2670592,"shared":475136,"text":98304,"lib":0,"data":323584,"dirty":0,"uss":90112,"pss":130048,"swap":0},"473780":{"rss":544768,"vms":2670592,"shared":475136,"text":98304,"lib":0,"data":323584,"dirty":0,"uss":90112,"pss":131072,"swap":0},"473781":{"rss":610304,"vms":2670592,"shared":540672,"text":98304,"lib":0,"data":323584,"dirty":0,"uss":90112,"pss":135168,"swap":0},"473782":{"rss":610304,"vms":2670592,"shared":540672,"text":98304,"lib":0,"data":323584,"dirty":0,"uss":90112,"pss":132096,"swap":0},"473783":{"rss":614400,"vms":2670592,"shared":540672,"text":98304,"lib":0,"data":323584,"dirty":0,"uss":94208,"pss":139264,"swap":0},"473784":{"rss":3391488,"vms":9719808,"shared":3141632,"text":909312,"lib":0,"data":409600,"dirty":0,"uss":249856,"pss":436224,"swap":0},"473785":{"rss":3338240,"vms":9719808,"shared":3092480,"text":909312,"lib":0,"data":409600,"dirty":0,"uss":245760,"pss":449536,"swap":0},"473786":{"rss":3465216,"vms":9719808,"shared":3215360,"text":909312,"lib":0,"data":409600,"dirty":0,"uss":270336,"pss":476160,"swap":0},"473787":{"rss":3280896,"vms":9719808,"shared":3035136,"text":909312,"lib":0,"data":409600,"dirty":0,"uss":245760,"pss":427008,"swap":0},"473788":{"rss":3362816,"vms":9719808,"shared":3112960,"text":909312,"lib":0,"data":409600,"dirty":0,"uss":249856,"pss":457728,"swap":0},"473789":{"rss":3362816,"vms":9719808,"shared":3117056,"text":909312,"lib":0,"data":409600,"dirty":0,"uss":270336,"pss":502784,"swap":0},"473800":{"rss":3317760,"vms":9719808,"shared":3072000,"text":909312,"lib":0,"data":409600,"dirty":0,"uss":245760,"pss":443392,"swap":0},"473801":{"rss":3334144,"vms":9719808,"shared":3088384,"text":909312,"lib":0,"data":409600,"dirty":0,"uss":245760,"pss":427008,"swap":0},"473556":{"rss":219762688,"vms":2034851840,"shared":43606016,"text":3096576,"lib":0,"data":1525129216,"dirty":0,"uss":27525120,"pss":50699264,"swap":0},"473813":{"rss":28539162624,"vms":92191154176,"shared":121651200,"text":475136,"lib":0,"data":28440518656,"dirty":0,"uss":28529528832,"pss":28530808832,"swap":0},"473814":{"rss":28538793984,"vms":92191154176,"shared":121286656,"text":475136,"lib":0,"data":28440518656,"dirty":0,"uss":28529516544,"pss":28530690048,"swap":0},"473815":{"rss":28539150336,"vms":92191150080,"shared":121638912,"text":475136,"lib":0,"data":28440514560,"dirty":0,"uss":28529561600,"pss":28530829312,"swap":0},"473817":{"rss":28538863616,"vms":92191154176,"shared":121360384,"text":475136,"lib":0,"data":28440518656,"dirty":0,"uss":28529442816,"pss":28530643968,"swap":0},"473819":{"rss":28538798080,"vms":92191154176,"shared":121290752,"text":475136,"lib":0,"data":28440518656,"dirty":0,"uss":28529553408,"pss":28530726912,"swap":0},"473820":{"rss":28538916864,"vms":92191154176,"shared":121409536,"text":475136,"lib":0,"data":28440518656,"dirty":0,"uss":28529467392,"pss":28531109888,"swap":0},"473823":{"rss":28411351040,"vms":28413927424,"shared":2043904,"text":475136,"lib":0,"data":28409503744,"dirty":0,"uss":28409614336,"pss":28409650176,"swap":0},"473827":{"rss":0,"vms":0,"shared":0,"text":0,"lib":0,"data":0,"dirty":0,"uss":0,"pss":0,"swap":0}},"nvidia_draw_absolute":470.36,"nvidia_estimated_attributable_power_draw":0,"average_gpu_estimated_utilization_absolute":0,"per_gpu_average_estimated_utilization_absolute":{"(0, 0)":{"sm":0.0,"mem":0.0,"enc":0.0,"dec":0.0},"(0, 473814)":{"sm":84.0,"mem":0.0,"enc":0.0,"dec":0.0},"(1, 0)":{"sm":0.0,"mem":0.0,"enc":0.0,"dec":0.0},"(2, 0)":{"sm":0.0,"mem":0.0,"enc":0.0,"dec":0.0},"(2, 473815)":{"sm":56.0,"mem":0.3333333333333333,"enc":0.0,"dec":0.0},"(3, 0)":{"sm":0.0,"mem":0.0,"enc":0.0,"dec":0.0},"(4, 0)":{"sm":0.0,"mem":0.0,"enc":0.0,"dec":0.0},"(4, 473819)":{"sm":40.0,"mem":0.0,"enc":0.0,"dec":0.0},"(5, 0)":{"sm":0.0,"mem":0.0,"enc":0.0,"dec":0.0},"(5, 473820)":{"sm":30.0,"mem":0.0,"enc":0.0,"dec":0.0},"(6, 0)":{"sm":0.0,"mem":0.0,"enc":0.0,"dec":0.0},"(7, 0)":{"sm":0.0,"mem":0.0,"enc":0.0,"dec":0.0}},"average_gpu_estimated_utilization_relative":0,"per_gpu_performance_state":{},"per_gpu_power_draw":{},"cpu_count_adjusted_average_load":[0.17075,0.092,0.06],"cpu_freq":[{"current":2195.043,"min":2200.0,"max":2200.0},{"current":2195.042,"min":2200.0,"max":2200.0},{"current":2195.043,"min":2200.0,"max":2200.0},{"current":2195.043,"min":2200.0,"max":2200.0},{"current":2195.043,"min":2200.0,"max":2200.0},{"current":2195.043,"min":2200.0,"max":2200.0},{"current":2195.043,"min":2200.0,"max":2200.0},{"current":2195.043,"min":2200.0,"max":2200.0},{"current":2195.043,"min":2200.0,"max":2200.0},{"current":2195.043,"min":2200.0,"max":2200.0},{"current":2195.043,"min":2200.0,"max":2200.0},{"current":2195.043,"min":2200.0,"max":2200.0},{"current":2195.043,"min":2200.0,"max":2200.0},{"current":2195.043,"min":2200.0,"max":2200.0},{"current":2195.043,"min":2200.0,"max":2200.0},{"current":2195.043,"min":2200.0,"max":2200.0},{"current":2195.043,"min":2200.0,"max":2200.0},{"current":2195.043,"min":2200.0,"max":2200.0},{"current":2195.043,"min":2200.0,"max":2200.0},{"current":2195.042,"min":2200.0,"max":2200.0},{"current":2195.043,"min":2200.0,"max":2200.0},{"current":2195.043,"min":2200.0,"max":2200.0},{"current":2195.043,"min":2200.0,"max":2200.0},{"current":2195.043,"min":2200.0,"max":2200.0},{"current":2195.043,"min":2200.0,"max":2200.0},{"current":2195.042,"min":2200.0,"max":2200.0},{"current":2195.043,"min":2200.0,"max":2200.0},{"current":2195.043,"min":2200.0,"max":2200.0},{"current":2195.043,"min":2200.0,"max":2200.0},{"current":2195.043,"min":2200.0,"max":2200.0},{"current":2195.043,"min":2200.0,"max":2200.0},{"current":2195.043,"min":2200.0,"max":2200.0},{"current":2195.043,"min":2200.0,"max":2200.0},{"current":2195.043,"min":2200.0,"max":2200.0},{"current":2195.043,"min":2200.0,"max":2200.0},{"current":2195.043,"min":2200.0,"max":2200.0},{"current":2195.043,"min":2200.0,"max":2200.0},{"current":2195.042,"min":2200.0,"max":2200.0},{"current":2195.043,"min":2200.0,"max":2200.0},{"current":2195.042,"min":2200.0,"max":2200.0},{"current":1214.592,"min":1200.0,"max":3600.0},{"current":1417.96,"min":1200.0,"max":3600.0},{"current":1213.913,"min":1200.0,"max":3600.0},{"current":1280.436,"min":1200.0,"max":3600.0},{"current":1354.602,"min":1200.0,"max":3600.0},{"current":1410.891,"min":1200.0,"max":3600.0},{"current":1918.223,"min":1200.0,"max":3600.0},{"current":1885.756,"min":1200.0,"max":3600.0},{"current":1926.317,"min":1200.0,"max":3600.0},{"current":1955.031,"min":1200.0,"max":3600.0},{"current":1913.307,"min":1200.0,"max":3600.0},{"current":1233.226,"min":1200.0,"max":3600.0},{"current":1231.215,"min":1200.0,"max":3600.0},{"current":1261.278,"min":1200.0,"max":3600.0},{"current":1292.44,"min":1200.0,"max":3600.0},{"current":1237.046,"min":1200.0,"max":3600.0},{"current":1267.292,"min":1200.0,"max":3600.0},{"current":1320.377,"min":1200.0,"max":3600.0},{"current":1209.316,"min":1200.0,"max":3600.0},{"current":1318.436,"min":1200.0,"max":3600.0},{"current":1197.45,"min":1200.0,"max":3600.0},{"current":1815.162,"min":1200.0,"max":3600.0},{"current":1197.421,"min":1200.0,"max":3600.0},{"current":1197.503,"min":1200.0,"max":3600.0},{"current":1197.371,"min":1200.0,"max":3600.0},{"current":1197.374,"min":1200.0,"max":3600.0},{"current":1328.263,"min":1200.0,"max":3600.0},{"current":1314.334,"min":1200.0,"max":3600.0},{"current":1236.332,"min":1200.0,"max":3600.0},{"current":1234.253,"min":1200.0,"max":3600.0},{"current":1885.071,"min":1200.0,"max":3600.0},{"current":1843.541,"min":1200.0,"max":3600.0},{"current":1691.573,"min":1200.0,"max":3600.0},{"current":1471.484,"min":1200.0,"max":3600.0},{"current":1682.503,"min":1200.0,"max":3600.0},{"current":1691.032,"min":1200.0,"max":3600.0},{"current":1746.678,"min":1200.0,"max":3600.0},{"current":1542.603,"min":1200.0,"max":3600.0},{"current":1714.362,"min":1200.0,"max":3600.0},{"current":1468.635,"min":1200.0,"max":3600.0}],"disk_write_speed":145.86339773504656,"process_ids":[473763,473764,473765,473766,473767,473768,473769,473770,473771,473776,473777,473778,473779,473780,473781,473782,473783,473784,473785,473786,473787,473788,473789,473800,473801,473556,473813,473814,473815,473817,473819,473820,473823,473827]}
