tool_on_one_process,experiment_start,experiment_end,gpu_0_start_benchmark,gpu_0_stop_benchmark,tool_energy_consumption(kWh),tool_carbon_emissions(kgC02eq),tool_duration(seconds),tool_components,result_dir,tool_name,gpu_0_benchmark_id,gpu_0_gpu_id,gpu_0_name,gpu_0_binary_dir,gpu_0_appli,gpu_0_appli_class,gpu_0_sleep_before,gpu_0_sleep_after,gpu_0_execution_script_template,gpu_0_execution_script_path,gpu_0_binary_path,job_id,exp_id,host_name,site,node,gpu_name,gpu_count,cpu_name,cpu_count,cpu_phyical_core_count,tool_timestamp(seconds),tool_project_name,tool_run_id,tool_emissions_rate,tool_cpu_power,tool_gpu_power,tool_ram_power,tool_cpu_energy,tool_gpu_energy,tool_ram_energy,tool_country_name,tool_country_iso_code,tool_region,tool_cloud_provider,tool_cloud_region,tool_os,tool_python_version,tool_cpu_count,tool_cpu_model,tool_gpu_count,tool_gpu_model,tool_longitude,tool_latitude,tool_ram_total_size,tool_tracking_mode,tool_on_cloud,tool_csv_file,tool_parameters,source_dir,es_execution_command,es_analysis_command,launch_parallel_script,trace_tar_file,es_trace_id,trace_eprofile
False,1667845737.637328,1667846226.6345823,1667845767.767216,1667845827.770261,0.003716,1.093352,60.0,"{'cpu': {'avg_power_usages (W)': array([[69.49836733, 70.56729367],
       [82.63255064, 85.82948655],
       [85.49371833, 91.330719  ],
       [83.8073662 , 87.5148274 ]]), 'avg_energy_usages (J)': array([[4174.76692551, 4238.97733076],
       [9195.35023522, 9551.10526328],
       [2433.15122367, 2599.27226274],
       [3977.49759985, 4153.4537084 ]]), 'epoch_durations (s)': array([ 60.07, 111.28,  28.46,  47.46]), 'devices': ['cpu:1', ' cpu:0']}}",/root/energy-consumption-of-gpu-benchmarks//results/night_exp_08_11/740_0//carbontracker/,carbon_tracker,740_0_0,0,NAS,/root/energy-consumption-of-gpu-benchmarks///CPU_benchmark_binaries///gpu0/,idle,sh,30,30,/root/energy-consumption-of-gpu-benchmarks/code/templates/script_template.sh,/root/energy-consumption-of-gpu-benchmarks//results/night_exp_08_11/740_0//gpu0/scripts/0.sh,/root/energy-consumption-of-gpu-benchmarks///CPU_benchmark_binaries///gpu0/idle.sh,740,740_0,"gemini-1
",lyon,gemini-1,,,Intel(R) Xeon(R) CPU E5-2698 v4 @ 2.20GHz,40,40,,,,,,,,,,,,,,,,,,,,,,,,,,,,,,,,,,,
False,1667845737.637328,1667846226.6345823,1667845888.285528,1667845999.50728,0.00828,2.43598,111.0,"{'cpu': {'avg_power_usages (W)': array([[82.63255064, 85.82948655],
       [85.49371833, 91.330719  ],
       [83.8073662 , 87.5148274 ]]), 'avg_energy_usages (J)': array([[9195.35023522, 9551.10526328],
       [2433.15122367, 2599.27226274],
       [3977.49759985, 4153.4537084 ]]), 'epoch_durations (s)': array([111.28,  28.46,  47.46]), 'devices': ['cpu:1', ' cpu:0']}}",/root/energy-consumption-of-gpu-benchmarks//results/night_exp_08_11/740_0//carbontracker/,carbon_tracker,740_0_1,0,NAS,/root/energy-consumption-of-gpu-benchmarks///CPU_benchmark_binaries///gpu0/,mg,D,30,30,/root/energy-consumption-of-gpu-benchmarks/code/templates/script_template.sh,/root/energy-consumption-of-gpu-benchmarks//results/night_exp_08_11/740_0//gpu0/scripts/1.sh,/root/energy-consumption-of-gpu-benchmarks///CPU_benchmark_binaries///gpu0/mg.D,740,740_0,"gemini-1
",lyon,gemini-1,,,Intel(R) Xeon(R) CPU E5-2698 v4 @ 2.20GHz,40,40,,,,,,,,,,,,,,,,,,,,,,,,,,,,,,,,,,,
False,1667845737.637328,1667846226.6345823,1667846059.978931,1667846088.393854,0.002223,0.65401,28.0,"{'cpu': {'avg_power_usages (W)': array([[85.49371833, 91.330719  ],
       [83.8073662 , 87.5148274 ]]), 'avg_energy_usages (J)': array([[2433.15122367, 2599.27226274],
       [3977.49759985, 4153.4537084 ]]), 'epoch_durations (s)': array([28.46, 47.46]), 'devices': ['cpu:1', ' cpu:0']}}",/root/energy-consumption-of-gpu-benchmarks//results/night_exp_08_11/740_0//carbontracker/,carbon_tracker,740_0_2,0,NAS,/root/energy-consumption-of-gpu-benchmarks///CPU_benchmark_binaries///gpu0/,lu,C,30,30,/root/energy-consumption-of-gpu-benchmarks/code/templates/script_template.sh,/root/energy-consumption-of-gpu-benchmarks//results/night_exp_08_11/740_0//gpu0/scripts/2.sh,/root/energy-consumption-of-gpu-benchmarks///CPU_benchmark_binaries///gpu0/lu.C,740,740_0,"gemini-1
",lyon,gemini-1,,,Intel(R) Xeon(R) CPU E5-2698 v4 @ 2.20GHz,40,40,,,,,,,,,,,,,,,,,,,,,,,,,,,,,,,,,,,
False,1667845737.637328,1667846226.6345823,1667846148.841925,1667846196.195993,0.003591,1.056581,47.0,"{'cpu': {'avg_power_usages (W)': array([[83.8073662, 87.5148274]]), 'avg_energy_usages (J)': array([[3977.49759985, 4153.4537084 ]]), 'epoch_durations (s)': array([47.46]), 'devices': ['cpu:1', ' cpu:0']}}",/root/energy-consumption-of-gpu-benchmarks//results/night_exp_08_11/740_0//carbontracker/,carbon_tracker,740_0_3,0,NAS,/root/energy-consumption-of-gpu-benchmarks///CPU_benchmark_binaries///gpu0/,ep,D,30,30,/root/energy-consumption-of-gpu-benchmarks/code/templates/script_template.sh,/root/energy-consumption-of-gpu-benchmarks//results/night_exp_08_11/740_0//gpu0/scripts/3.sh,/root/energy-consumption-of-gpu-benchmarks///CPU_benchmark_binaries///gpu0/ep.D,740,740_0,"gemini-1
",lyon,gemini-1,,,Intel(R) Xeon(R) CPU E5-2698 v4 @ 2.20GHz,40,40,,,,,,,,,,,,,,,,,,,,,,,,,,,,,,,,,,,
False,1667846229.148779,1667846747.7505202,1667846263.791806,1667846323.794849,0.0054934987025433,0.0003021424286398,60.07247757911682,,/root/energy-consumption-of-gpu-benchmarks//results/night_exp_08_11/933_0/,codecarbon,933_0_0,0,NAS,/root/energy-consumption-of-gpu-benchmarks///CPU_benchmark_binaries///gpu0/,idle,sh,30,30,/root/energy-consumption-of-gpu-benchmarks/code/templates/script_template.sh,/root/energy-consumption-of-gpu-benchmarks//results/night_exp_08_11/933_0//gpu0/scripts/0.sh,/root/energy-consumption-of-gpu-benchmarks///CPU_benchmark_binaries///gpu0/idle.sh,933,933_0,"gemini-1
",lyon,gemini-1,,,Intel(R) Xeon(R) CPU E5-2698 v4 @ 2.20GHz,40,40,1667846323.0,933_0_0,61ebd71d-b112-4481-917b-43407e3a4336,0.005029631552019,141.58117051093512,0.0,188.914336681366,0.0023413914311671,0.0,0.0031521072713761,France,FRA,,,,Linux-5.4.0-126-generic-x86_64-with-Ubuntu-20.04-focal,3.7.15,40.0,Intel(R) Xeon(R) CPU E5-2698 v4 @ 2.20GHz,,,6.8557,47.643,503.7715644836426,machine,N,/root/energy-consumption-of-gpu-benchmarks//results/night_exp_08_11/933_0/emissions.csv,,,,,,,,
False,1667846229.148779,1667846747.7505202,1667846388.254233,1667846507.176723,0.0120676510084002,0.000663720805462,118.99041485786438,,/root/energy-consumption-of-gpu-benchmarks//results/night_exp_08_11/933_0/,codecarbon,933_0_1,0,NAS,/root/energy-consumption-of-gpu-benchmarks///CPU_benchmark_binaries///gpu0/,mg,D,30,30,/root/energy-consumption-of-gpu-benchmarks/code/templates/script_template.sh,/root/energy-consumption-of-gpu-benchmarks//results/night_exp_08_11/933_0//gpu0/scripts/1.sh,/root/energy-consumption-of-gpu-benchmarks///CPU_benchmark_binaries///gpu0/mg.D,933,933_0,"gemini-1
",lyon,gemini-1,,,Intel(R) Xeon(R) CPU E5-2698 v4 @ 2.20GHz,40,40,1667846507.0,933_0_1,b395aa4f-6b8e-4f05-8cf4-2010b68a2919,0.0055779350484225,177.93010952647631,0.0,188.914336681366,0.0058245058079342,0.0,0.006243145200466,France,FRA,,,,Linux-5.4.0-126-generic-x86_64-with-Ubuntu-20.04-focal,3.7.15,40.0,Intel(R) Xeon(R) CPU E5-2698 v4 @ 2.20GHz,,,6.8557,47.643,503.7715644836426,machine,N,/root/energy-consumption-of-gpu-benchmarks//results/night_exp_08_11/933_0/emissions.csv,,,,,,,,
False,1667846229.148779,1667846747.7505202,1667846571.671367,1667846603.945398,0.0032760394340909,0.000180182168875,32.37306356430054,,/root/energy-consumption-of-gpu-benchmarks//results/night_exp_08_11/933_0/,codecarbon,933_0_2,0,NAS,/root/energy-consumption-of-gpu-benchmarks///CPU_benchmark_binaries///gpu0/,lu,C,30,30,/root/energy-consumption-of-gpu-benchmarks/code/templates/script_template.sh,/root/energy-consumption-of-gpu-benchmarks//results/night_exp_08_11/933_0//gpu0/scripts/2.sh,/root/energy-consumption-of-gpu-benchmarks///CPU_benchmark_binaries///gpu0/lu.C,933,933_0,"gemini-1
",lyon,gemini-1,,,Intel(R) Xeon(R) CPU E5-2698 v4 @ 2.20GHz,40,40,1667846604.0,933_0_2,a5063a63-60de-4a60-81b1-a524a4c75aab,0.0055658053034467,177.85242397826693,0.0,188.914336681366,0.0015774532955727,0.0,0.0016985861385181,France,FRA,,,,Linux-5.4.0-126-generic-x86_64-with-Ubuntu-20.04-focal,3.7.15,40.0,Intel(R) Xeon(R) CPU E5-2698 v4 @ 2.20GHz,,,6.8557,47.643,503.7715644836426,machine,N,/root/energy-consumption-of-gpu-benchmarks//results/night_exp_08_11/933_0/emissions.csv,,,,,,,,
False,1667846229.148779,1667846747.7505202,1667846668.455078,1667846717.631575,0.0049071900443297,0.0002698954524381,49.26354098320007,,/root/energy-consumption-of-gpu-benchmarks//results/night_exp_08_11/933_0/,codecarbon,933_0_3,0,NAS,/root/energy-consumption-of-gpu-benchmarks///CPU_benchmark_binaries///gpu0/,ep,D,30,30,/root/energy-consumption-of-gpu-benchmarks/code/templates/script_template.sh,/root/energy-consumption-of-gpu-benchmarks//results/night_exp_08_11/933_0//gpu0/scripts/3.sh,/root/energy-consumption-of-gpu-benchmarks///CPU_benchmark_binaries///gpu0/ep.D,933,933_0,"gemini-1
",lyon,gemini-1,,,Intel(R) Xeon(R) CPU E5-2698 v4 @ 2.20GHz,40,40,1667846717.0,933_0_3,82f4f9e1-c46a-45d9-ad68-307d126b562c,0.0054786044009742,156.72382393449556,0.0,188.914336681366,0.0023222640639208,0.0,0.0025849259804088,France,FRA,,,,Linux-5.4.0-126-generic-x86_64-with-Ubuntu-20.04-focal,3.7.15,40.0,Intel(R) Xeon(R) CPU E5-2698 v4 @ 2.20GHz,,,6.8557,47.643,503.7715644836426,machine,N,/root/energy-consumption-of-gpu-benchmarks//results/night_exp_08_11/933_0/emissions.csv,,,,,,,,
False,1667846750.2603028,1667847261.886666,1667846783.455098,1667846843.46186,0.0256070061111111,,,,/root/energy-consumption-of-gpu-benchmarks//results/night_exp_08_11/426_0/,energy scope,426_0_0,0,NAS,/root/energy-consumption-of-gpu-benchmarks///CPU_benchmark_binaries///gpu0/,idle,sh,30,30,/root/energy-consumption-of-gpu-benchmarks/code/templates/script_template.sh,/root/energy-consumption-of-gpu-benchmarks//results/night_exp_08_11/426_0//gpu0/scripts/0.sh,/root/energy-consumption-of-gpu-benchmarks///CPU_benchmark_binaries///gpu0/idle.sh,426,426_0,"gemini-1
",lyon,gemini-1,,,Intel(R) Xeon(R) CPU E5-2698 v4 @ 2.20GHz,40,40,,,,,,,,,,,,,,,,,,,,,,,,,,,/root/energy-consumption-of-gpu-benchmarks//results/night_exp_08_11/426_0/energy_scope.csv,/root/energy-consumption-of-gpu-benchmarks//results/night_exp_08_11/426_0/energy_scope_parameters.csv,/root/energy_scope/,/root/energy_scope//energy_scope_mypc.sh,/root/energy_scope//energy_scope_run_analysis_allgo.sh,/root/energy-consumption-of-gpu-benchmarks/code/templates/launch_parallel.sh,/root/energy-consumption-of-gpu-benchmarks//results/night_exp_08_11/426_0/energy_scope_20221107194550.tar.gz,20221107194550.0,/root/energy-consumption-of-gpu-benchmarks//results/night_exp_08_11/426_0/tmp_energy_scope_20221107194550/energy_scope_eprofile_20221107194550.txt
False,1667846750.2603028,1667847261.886666,1667846903.465309,1667847016.669628,0.0256070061111111,,,,/root/energy-consumption-of-gpu-benchmarks//results/night_exp_08_11/426_0/,energy scope,426_0_1,0,NAS,/root/energy-consumption-of-gpu-benchmarks///CPU_benchmark_binaries///gpu0/,mg,D,30,30,/root/energy-consumption-of-gpu-benchmarks/code/templates/script_template.sh,/root/energy-consumption-of-gpu-benchmarks//results/night_exp_08_11/426_0//gpu0/scripts/1.sh,/root/energy-consumption-of-gpu-benchmarks///CPU_benchmark_binaries///gpu0/mg.D,426,426_0,"gemini-1
",lyon,gemini-1,,,Intel(R) Xeon(R) CPU E5-2698 v4 @ 2.20GHz,40,40,,,,,,,,,,,,,,,,,,,,,,,,,,,/root/energy-consumption-of-gpu-benchmarks//results/night_exp_08_11/426_0/energy_scope.csv,/root/energy-consumption-of-gpu-benchmarks//results/night_exp_08_11/426_0/energy_scope_parameters.csv,/root/energy_scope/,/root/energy_scope//energy_scope_mypc.sh,/root/energy_scope//energy_scope_run_analysis_allgo.sh,/root/energy-consumption-of-gpu-benchmarks/code/templates/launch_parallel.sh,/root/energy-consumption-of-gpu-benchmarks//results/night_exp_08_11/426_0/energy_scope_20221107194550.tar.gz,20221107194550.0,/root/energy-consumption-of-gpu-benchmarks//results/night_exp_08_11/426_0/tmp_energy_scope_20221107194550/energy_scope_eprofile_20221107194550.txt
False,1667846750.2603028,1667847261.886666,1667847076.673114,1667847104.672209,0.0256070061111111,,,,/root/energy-consumption-of-gpu-benchmarks//results/night_exp_08_11/426_0/,energy scope,426_0_2,0,NAS,/root/energy-consumption-of-gpu-benchmarks///CPU_benchmark_binaries///gpu0/,lu,C,30,30,/root/energy-consumption-of-gpu-benchmarks/code/templates/script_template.sh,/root/energy-consumption-of-gpu-benchmarks//results/night_exp_08_11/426_0//gpu0/scripts/2.sh,/root/energy-consumption-of-gpu-benchmarks///CPU_benchmark_binaries///gpu0/lu.C,426,426_0,"gemini-1
",lyon,gemini-1,,,Intel(R) Xeon(R) CPU E5-2698 v4 @ 2.20GHz,40,40,,,,,,,,,,,,,,,,,,,,,,,,,,,/root/energy-consumption-of-gpu-benchmarks//results/night_exp_08_11/426_0/energy_scope.csv,/root/energy-consumption-of-gpu-benchmarks//results/night_exp_08_11/426_0/energy_scope_parameters.csv,/root/energy_scope/,/root/energy_scope//energy_scope_mypc.sh,/root/energy_scope//energy_scope_run_analysis_allgo.sh,/root/energy-consumption-of-gpu-benchmarks/code/templates/launch_parallel.sh,/root/energy-consumption-of-gpu-benchmarks//results/night_exp_08_11/426_0/energy_scope_20221107194550.tar.gz,20221107194550.0,/root/energy-consumption-of-gpu-benchmarks//results/night_exp_08_11/426_0/tmp_energy_scope_20221107194550/energy_scope_eprofile_20221107194550.txt
False,1667846750.2603028,1667847261.886666,1667847164.675625,1667847213.721396,0.0256070061111111,,,,/root/energy-consumption-of-gpu-benchmarks//results/night_exp_08_11/426_0/,energy scope,426_0_3,0,NAS,/root/energy-consumption-of-gpu-benchmarks///CPU_benchmark_binaries///gpu0/,ep,D,30,30,/root/energy-consumption-of-gpu-benchmarks/code/templates/script_template.sh,/root/energy-consumption-of-gpu-benchmarks//results/night_exp_08_11/426_0//gpu0/scripts/3.sh,/root/energy-consumption-of-gpu-benchmarks///CPU_benchmark_binaries///gpu0/ep.D,426,426_0,"gemini-1
",lyon,gemini-1,,,Intel(R) Xeon(R) CPU E5-2698 v4 @ 2.20GHz,40,40,,,,,,,,,,,,,,,,,,,,,,,,,,,/root/energy-consumption-of-gpu-benchmarks//results/night_exp_08_11/426_0/energy_scope.csv,/root/energy-consumption-of-gpu-benchmarks//results/night_exp_08_11/426_0/energy_scope_parameters.csv,/root/energy_scope/,/root/energy_scope//energy_scope_mypc.sh,/root/energy_scope//energy_scope_run_analysis_allgo.sh,/root/energy-consumption-of-gpu-benchmarks/code/templates/launch_parallel.sh,/root/energy-consumption-of-gpu-benchmarks//results/night_exp_08_11/426_0/energy_scope_20221107194550.tar.gz,20221107194550.0,/root/energy-consumption-of-gpu-benchmarks//results/night_exp_08_11/426_0/tmp_energy_scope_20221107194550/energy_scope_eprofile_20221107194550.txt
False,1667858317.49719,1667858815.5464694,1667858347.624,1667858407.627125,0.003718,1.093879,60.0,"{'cpu': {'avg_power_usages (W)': array([[69.48458383, 70.64805317],
       [86.06633555, 89.03606009],
       [87.69264667, 90.80327567],
       [83.9587086 , 87.1897426 ]]), 'avg_energy_usages (J)': array([[ 4173.93895067,  4243.82855392],
       [10198.86076267, 10550.77312067],
       [ 2513.27125356,  2602.4218807 ],
       [ 4119.01424392,  4277.52877196]]), 'epoch_durations (s)': array([ 60.07, 118.5 ,  28.66,  49.06]), 'devices': ['cpu:1', ' cpu:0']}}",/root/energy-consumption-of-gpu-benchmarks//results/night_exp_08_11/280_0//carbontracker/,carbon_tracker,280_0_0,0,NAS,/root/energy-consumption-of-gpu-benchmarks///CPU_benchmark_binaries///gpu0/,idle,sh,30,30,/root/energy-consumption-of-gpu-benchmarks/code/templates/script_template.sh,/root/energy-consumption-of-gpu-benchmarks//results/night_exp_08_11/280_0//gpu0/scripts/0.sh,/root/energy-consumption-of-gpu-benchmarks///CPU_benchmark_binaries///gpu0/idle.sh,280,280_0,"gemini-1
",lyon,gemini-1,,,Intel(R) Xeon(R) CPU E5-2698 v4 @ 2.20GHz,40,40,,,,,,,,,,,,,,,,,,,,,,,,,,,,,,,,,,,
False,1667858317.49719,1667858815.5464694,1667858468.147223,1667858586.584622,0.009164,2.696164,118.0,"{'cpu': {'avg_power_usages (W)': array([[86.06633555, 89.03606009],
       [87.69264667, 90.80327567],
       [83.9587086 , 87.1897426 ]]), 'avg_energy_usages (J)': array([[10198.86076267, 10550.77312067],
       [ 2513.27125356,  2602.4218807 ],
       [ 4119.01424392,  4277.52877196]]), 'epoch_durations (s)': array([118.5 ,  28.66,  49.06]), 'devices': ['cpu:1', ' cpu:0']}}",/root/energy-consumption-of-gpu-benchmarks//results/night_exp_08_11/280_0//carbontracker/,carbon_tracker,280_0_1,0,NAS,/root/energy-consumption-of-gpu-benchmarks///CPU_benchmark_binaries///gpu0/,mg,D,30,30,/root/energy-consumption-of-gpu-benchmarks/code/templates/script_template.sh,/root/energy-consumption-of-gpu-benchmarks//results/night_exp_08_11/280_0//gpu0/scripts/1.sh,/root/energy-consumption-of-gpu-benchmarks///CPU_benchmark_binaries///gpu0/mg.D,280,280_0,"gemini-1
",lyon,gemini-1,,,Intel(R) Xeon(R) CPU E5-2698 v4 @ 2.20GHz,40,40,,,,,,,,,,,,,,,,,,,,,,,,,,,,,,,,,,,
False,1667858317.49719,1667858815.5464694,1667858647.102097,1667858675.717567,0.002259,0.664712,29.0,"{'cpu': {'avg_power_usages (W)': array([[87.69264667, 90.80327567],
       [83.9587086 , 87.1897426 ]]), 'avg_energy_usages (J)': array([[2513.27125356, 2602.4218807 ],
       [4119.01424392, 4277.52877196]]), 'epoch_durations (s)': array([28.66, 49.06]), 'devices': ['cpu:1', ' cpu:0']}}",/root/energy-consumption-of-gpu-benchmarks//results/night_exp_08_11/280_0//carbontracker/,carbon_tracker,280_0_2,0,NAS,/root/energy-consumption-of-gpu-benchmarks///CPU_benchmark_binaries///gpu0/,lu,C,30,30,/root/energy-consumption-of-gpu-benchmarks/code/templates/script_template.sh,/root/energy-consumption-of-gpu-benchmarks//results/night_exp_08_11/280_0//gpu0/scripts/2.sh,/root/energy-consumption-of-gpu-benchmarks///CPU_benchmark_binaries///gpu0/lu.C,280,280_0,"gemini-1
",lyon,gemini-1,,,Intel(R) Xeon(R) CPU E5-2698 v4 @ 2.20GHz,40,40,,,,,,,,,,,,,,,,,,,,,,,,,,,,,,,,,,,
False,1667858317.49719,1667858815.5464694,1667858736.158099,1667858785.187677,0.003709,1.091126,49.0,"{'cpu': {'avg_power_usages (W)': array([[83.9587086, 87.1897426]]), 'avg_energy_usages (J)': array([[4119.01424392, 4277.52877196]]), 'epoch_durations (s)': array([49.06]), 'devices': ['cpu:1', ' cpu:0']}}",/root/energy-consumption-of-gpu-benchmarks//results/night_exp_08_11/280_0//carbontracker/,carbon_tracker,280_0_3,0,NAS,/root/energy-consumption-of-gpu-benchmarks///CPU_benchmark_binaries///gpu0/,ep,D,30,30,/root/energy-consumption-of-gpu-benchmarks/code/templates/script_template.sh,/root/energy-consumption-of-gpu-benchmarks//results/night_exp_08_11/280_0//gpu0/scripts/3.sh,/root/energy-consumption-of-gpu-benchmarks///CPU_benchmark_binaries///gpu0/ep.D,280,280_0,"gemini-1
",lyon,gemini-1,,,Intel(R) Xeon(R) CPU E5-2698 v4 @ 2.20GHz,40,40,,,,,,,,,,,,,,,,,,,,,,,,,,,,,,,,,,,
