2022-04-13 21:25:11 - carbontracker version 1.1.6
2022-04-13 21:25:11 - Only predicted and actual consumptions are multiplied by a PUE coefficient of 1.59 (Rhonda Ascierto, 2019, Uptime Institute Global Data Center Survey).
2022-04-13 21:25:23 - The following components were found: GPU with device(s) Tesla V100-SXM2-32GB, Tesla V100-SXM2-32GB, Tesla V100-SXM2-32GB, Tesla V100-SXM2-32GB, Tesla V100-SXM2-32GB, Tesla V100-SXM2-32GB, Tesla V100-SXM2-32GB, Tesla V100-SXM2-32GB. CPU with device(s) cpu:1, cpu:0.
2022-04-13 21:25:23 - Monitoring thread started.
2022-04-13 21:25:49 - Epoch 1:
2022-04-13 21:25:49 - Duration: 0:00:00.82
2022-04-13 21:25:49 - Average power usage (W) for gpu: [44.487 45.933 47.862 44.969 44.999 45.451 46.929 44.999]
2022-04-13 21:25:49 - Average power usage (W) for cpu: None
2022-04-13 21:25:49 - Carbon intensities (gCO2/kWh) fetched every 900 s at detected location Paris, Île-de-France, FR: [294.2060978]
2022-04-13 21:25:49 - Average carbon intensity during training was 294.21 gCO2/kWh at detected location: Paris, Île-de-France, FR.
2022-04-13 21:25:49 - Live carbon intensity could not be fetched at detected location: Paris, Île-de-France, FR. Defaulted to average carbon intensity for EU-28 in 2017 of 294.21 gCO2/kWh.
2022-04-13 21:25:49 - Monitoring thread ended.
