2022-04-13 23:02:44 - CarbonTracker: The following components were found: GPU with device(s) Tesla V100-SXM2-32GB, Tesla V100-SXM2-32GB, Tesla V100-SXM2-32GB, Tesla V100-SXM2-32GB, Tesla V100-SXM2-32GB, Tesla V100-SXM2-32GB, Tesla V100-SXM2-32GB, Tesla V100-SXM2-32GB. CPU with device(s) cpu:1, cpu:0.
2022-04-13 23:05:30 - CarbonTracker: Average carbon intensity during training was 294.21 gCO2/kWh at detected location: Paris, Île-de-France, FR.
2022-04-13 23:05:30 - CarbonTracker: 
Actual consumption for 1 epoch(s):
	Time:	0:02:21
	Energy:	0.033070 kWh
	CO2eq:	9.729422 g
	This is equivalent to:
	0.080809 km travelled by car
2022-04-13 23:05:31 - CarbonTracker: Live carbon intensity could not be fetched at detected location: Paris, Île-de-France, FR. Defaulted to average carbon intensity for EU-28 in 2017 of 294.21 gCO2/kWh.
2022-04-13 23:05:31 - CarbonTracker: 
Predicted consumption for 1 epoch(s):
	Time:	0:02:21
	Energy:	0.033070 kWh
	CO2eq:	9.729422 g
	This is equivalent to:
	0.080809 km travelled by car
2022-04-13 23:05:31 - CarbonTracker: Finished monitoring.
