2022-04-13 23:09:26 - carbontracker version 1.1.6
2022-04-13 23:09:26 - Only predicted and actual consumptions are multiplied by a PUE coefficient of 1.59 (Rhonda Ascierto, 2019, Uptime Institute Global Data Center Survey).
2022-04-13 23:09:38 - The following components were found: GPU with device(s) Tesla V100-SXM2-32GB, Tesla V100-SXM2-32GB, Tesla V100-SXM2-32GB, Tesla V100-SXM2-32GB, Tesla V100-SXM2-32GB, Tesla V100-SXM2-32GB, Tesla V100-SXM2-32GB, Tesla V100-SXM2-32GB. CPU with device(s) cpu:1, cpu:0.
2022-04-13 23:09:38 - Monitoring thread started.
2022-04-13 23:10:04 - Epoch 1:
2022-04-13 23:10:04 - Duration: 0:00:00.82
2022-04-13 23:10:04 - Average power usage (W) for gpu: [44.487 45.933 44.969 45.933 45.481 45.933 47.38  44.999]
2022-04-13 23:10:04 - Average power usage (W) for cpu: None
2022-04-13 23:10:04 - Carbon intensities (gCO2/kWh) fetched every 900 s at detected location Paris, Île-de-France, FR: [294.2060978]
2022-04-13 23:10:04 - Average carbon intensity during training was 294.21 gCO2/kWh at detected location: Paris, Île-de-France, FR.
2022-04-13 23:10:04 - Live carbon intensity could not be fetched at detected location: Paris, Île-de-France, FR. Defaulted to average carbon intensity for EU-28 in 2017 of 294.21 gCO2/kWh.
2022-04-13 23:10:04 - Monitoring thread ended.
