2022-04-03 23:54:33 - carbontracker version 1.1.6
2022-04-03 23:54:33 - Only predicted and actual consumptions are multiplied by a PUE coefficient of 1.59 (Rhonda Ascierto, 2019, Uptime Institute Global Data Center Survey).
2022-04-03 23:54:45 - The following components were found: GPU with device(s) Tesla V100-SXM2-32GB, Tesla V100-SXM2-32GB, Tesla V100-SXM2-32GB, Tesla V100-SXM2-32GB, Tesla V100-SXM2-32GB, Tesla V100-SXM2-32GB, Tesla V100-SXM2-32GB, Tesla V100-SXM2-32GB. CPU with device(s) cpu:1, cpu:0.
2022-04-03 23:54:45 - Monitoring thread started.
2022-04-03 23:58:04 - Epoch 1:
2022-04-03 23:58:04 - Duration: 0:02:54.50
2022-04-03 23:58:04 - Average power usage (W) for gpu: [47.908375  46.952375  47.343625  46.199375  49.59425   50.89425
 50.7784375 49.17175  ]
2022-04-03 23:58:04 - Average power usage (W) for cpu: [74.85465531 79.46026487]
2022-04-03 23:58:05 - Carbon intensities (gCO2/kWh) fetched every 900 s at detected location Paris, Île-de-France, FR: [294.2060978]
2022-04-03 23:58:05 - Average carbon intensity during training was 294.21 gCO2/kWh at detected location: Paris, Île-de-France, FR.
2022-04-03 23:58:05 - Live carbon intensity could not be fetched at detected location: Paris, Île-de-France, FR. Defaulted to average carbon intensity for EU-28 in 2017 of 294.21 gCO2/kWh.
2022-04-03 23:58:05 - Monitoring thread ended.
