timestamp,project_name,run_id,duration,emissions,emissions_rate,cpu_power,gpu_power,ram_power,cpu_energy,gpu_energy,ram_energy,energy_consumed,country_name,country_iso_code,region,cloud_provider,cloud_region,os,python_version,cpu_count,cpu_model,gpu_count,gpu_model,longitude,latitude,ram_total_size,tracking_mode,on_cloud
2022-04-14T01:14:37,480_0_0,40a32fca-65e1-41d5-95c3-af6c5b2ebcfa,19.582835912704468,0.0002215389518233,0.01131291467747,153.71791796366557,527.383,188.9179372787476,0.0008330590567244,0.0021698386771663,0.0010250832083514,0.0040279809422422,France,FRA,grand est,,,Linux-5.4.0-105-generic-x86_64-with-Ubuntu-20.04-focal,3.7.13,40,Intel(R) Xeon(R) CPU E5-2698 v4 @ 2.20GHz,8,8 x Tesla V100-SXM2-32GB,7.7418,48.5855,503.78116607666016,machine,N
2022-04-14T01:17:41,480_0_1,0d833f9e-82bf-4127-83b1-63270f51a207,120.09845542907716,0.0012700194730036,0.0105748193718746,145.97759134989326,359.359,188.9179372787476,0.0048292510933977,0.0119703702500926,0.0062916418020302,0.0230912631455206,France,FRA,grand est,,,Linux-5.4.0-105-generic-x86_64-with-Ubuntu-20.04-focal,3.7.13,40,Intel(R) Xeon(R) CPU E5-2698 v4 @ 2.20GHz,8,8 x Tesla V100-SXM2-32GB,7.7418,48.5855,503.78116607666016,machine,N
2022-04-14T01:21:09,480_0_2,936ad7ce-336c-46ca-9259-0d8f734114a0,143.97933053970337,0.0016044666883973,0.0111437293282517,162.45945800163975,486.167,188.9179372787476,0.0061664214556332,0.0154637899811649,0.0075419101704263,0.0291721216072245,France,FRA,grand est,,,Linux-5.4.0-105-generic-x86_64-with-Ubuntu-20.04-focal,3.7.13,40,Intel(R) Xeon(R) CPU E5-2698 v4 @ 2.20GHz,8,8 x Tesla V100-SXM2-32GB,7.7418,48.5855,503.78116607666016,machine,N
2022-04-14T01:22:17,480_0_3,09587929-70e6-4414-b86b-39fd4af38a05,2.7528557777404785,3.299771344986635e-05,0.0119867207416694,145.7274261340147,455.455,188.9179372787476,0.0001114128013523,0.0003453428227189,0.0001432028022898,0.0005999584263612,France,FRA,grand est,,,Linux-5.4.0-105-generic-x86_64-with-Ubuntu-20.04-focal,3.7.13,40,Intel(R) Xeon(R) CPU E5-2698 v4 @ 2.20GHz,8,8 x Tesla V100-SXM2-32GB,7.7418,48.5855,503.78116607666016,machine,N
2022-04-14T01:23:24,480_0_4,af92e030-d9f0-4411-b6bb-61f5eadb6e6a,3.054443120956421,4.0920206718168544e-05,0.0133969450723821,145.78398414571922,548.0600000000001,188.9179372787476,0.0001236687072682,0.0004613501791252,0.0001589848721187,0.0007440037585121,France,FRA,grand est,,,Linux-5.4.0-105-generic-x86_64-with-Ubuntu-20.04-focal,3.7.13,40,Intel(R) Xeon(R) CPU E5-2698 v4 @ 2.20GHz,8,8 x Tesla V100-SXM2-32GB,7.7418,48.5855,503.78116607666016,machine,N
2022-04-14T01:24:31,480_0_5,848d8c0d-d93e-4a22-97a3-c881c7af278b,2.753096580505371,3.301257647172275e-05,0.0119910709655027,146.1251021430127,454.924,188.9179372787476,0.0001117255554914,0.0003451959590922,0.0001433071485384,0.0006002286631222,France,FRA,grand est,,,Linux-5.4.0-105-generic-x86_64-with-Ubuntu-20.04-focal,3.7.13,40,Intel(R) Xeon(R) CPU E5-2698 v4 @ 2.20GHz,8,8 x Tesla V100-SXM2-32GB,7.7418,48.5855,503.78116607666016,machine,N
2022-04-14T01:25:39,480_0_6,c5055546-3a29-46a5-ac13-2bbeff72b40e,2.7529568672180176,3.354349634942742e-05,0.012184533927451098,145.54419305296008,468.427,188.91793727874756,0.00011127555790925968,0.00035534092148641744,0.0001432652724120942,0.0006098817518077713,France,FRA,grand est,,,Linux-5.4.0-105-generic-x86_64-with-Ubuntu-20.04-focal,3.7.13,40,Intel(R) Xeon(R) CPU E5-2698 v4 @ 2.20GHz,8,8 x Tesla V100-SXM2-32GB,7.7418,48.5855,503.78116607666016,machine,N
