2022-04-02 17:06:06 - CarbonTracker: The following components were found: GPU with device(s) Tesla V100-SXM2-32GB, Tesla V100-SXM2-32GB, Tesla V100-SXM2-32GB, Tesla V100-SXM2-32GB, Tesla V100-SXM2-32GB, Tesla V100-SXM2-32GB, Tesla V100-SXM2-32GB, Tesla V100-SXM2-32GB. CPU with device(s) cpu:1, cpu:0.
2022-04-02 17:06:43 - CarbonTracker: Average carbon intensity during training was 294.21 gCO2/kWh at detected location: Paris, Île-de-France, FR.
2022-04-02 17:06:43 - CarbonTracker: 
Actual consumption for 1 epoch(s):
	Time:	0:00:07
	Energy:	0.001535 kWh
	CO2eq:	0.451632 g
	This is equivalent to:
	0.003751 km travelled by car
2022-04-02 17:06:43 - CarbonTracker: Live carbon intensity could not be fetched at detected location: Paris, Île-de-France, FR. Defaulted to average carbon intensity for EU-28 in 2017 of 294.21 gCO2/kWh.
2022-04-02 17:06:43 - CarbonTracker: 
Predicted consumption for 1 epoch(s):
	Time:	0:00:07
	Energy:	0.001535 kWh
	CO2eq:	0.451632 g
	This is equivalent to:
	0.003751 km travelled by car
2022-04-02 17:06:43 - CarbonTracker: Finished monitoring.
2022-04-02 17:07:15 - CarbonTracker: The following components were found: GPU with device(s) Tesla V100-SXM2-32GB, Tesla V100-SXM2-32GB, Tesla V100-SXM2-32GB, Tesla V100-SXM2-32GB, Tesla V100-SXM2-32GB, Tesla V100-SXM2-32GB, Tesla V100-SXM2-32GB, Tesla V100-SXM2-32GB. CPU with device(s) cpu:1, cpu:0.
2022-04-02 17:07:52 - CarbonTracker: Average carbon intensity during training was 294.21 gCO2/kWh at detected location: Paris, Île-de-France, FR.
2022-04-02 17:07:52 - CarbonTracker: 
Actual consumption for 1 epoch(s):
	Time:	0:00:07
	Energy:	0.001538 kWh
	CO2eq:	0.452536 g
	This is equivalent to:
	0.003759 km travelled by car
2022-04-02 17:07:53 - CarbonTracker: Live carbon intensity could not be fetched at detected location: Paris, Île-de-France, FR. Defaulted to average carbon intensity for EU-28 in 2017 of 294.21 gCO2/kWh.
2022-04-02 17:07:53 - CarbonTracker: 
Predicted consumption for 1 epoch(s):
	Time:	0:00:07
	Energy:	0.001538 kWh
	CO2eq:	0.452536 g
	This is equivalent to:
	0.003759 km travelled by car
2022-04-02 17:07:53 - CarbonTracker: Finished monitoring.
2022-04-02 17:08:24 - CarbonTracker: The following components were found: GPU with device(s) Tesla V100-SXM2-32GB, Tesla V100-SXM2-32GB, Tesla V100-SXM2-32GB, Tesla V100-SXM2-32GB, Tesla V100-SXM2-32GB, Tesla V100-SXM2-32GB, Tesla V100-SXM2-32GB, Tesla V100-SXM2-32GB. CPU with device(s) cpu:1, cpu:0.
2022-04-02 17:09:01 - CarbonTracker: Average carbon intensity during training was 294.21 gCO2/kWh at detected location: Paris, Île-de-France, FR.
2022-04-02 17:09:01 - CarbonTracker: 
Actual consumption for 1 epoch(s):
	Time:	0:00:07
	Energy:	0.001513 kWh
	CO2eq:	0.445209 g
	This is equivalent to:
	0.003698 km travelled by car
2022-04-02 17:09:01 - CarbonTracker: Live carbon intensity could not be fetched at detected location: Paris, Île-de-France, FR. Defaulted to average carbon intensity for EU-28 in 2017 of 294.21 gCO2/kWh.
2022-04-02 17:09:01 - CarbonTracker: 
Predicted consumption for 1 epoch(s):
	Time:	0:00:07
	Energy:	0.001513 kWh
	CO2eq:	0.445209 g
	This is equivalent to:
	0.003698 km travelled by car
2022-04-02 17:09:01 - CarbonTracker: Finished monitoring.
2022-04-02 17:09:33 - CarbonTracker: The following components were found: GPU with device(s) Tesla V100-SXM2-32GB, Tesla V100-SXM2-32GB, Tesla V100-SXM2-32GB, Tesla V100-SXM2-32GB, Tesla V100-SXM2-32GB, Tesla V100-SXM2-32GB, Tesla V100-SXM2-32GB, Tesla V100-SXM2-32GB. CPU with device(s) cpu:1, cpu:0.
2022-04-02 17:10:10 - CarbonTracker: Average carbon intensity during training was 294.21 gCO2/kWh at detected location: Paris, Île-de-France, FR.
2022-04-02 17:10:10 - CarbonTracker: 
Actual consumption for 1 epoch(s):
	Time:	0:00:07
	Energy:	0.001512 kWh
	CO2eq:	0.444738 g
	This is equivalent to:
	0.003694 km travelled by car
2022-04-02 17:10:10 - CarbonTracker: Live carbon intensity could not be fetched at detected location: Paris, Île-de-France, FR. Defaulted to average carbon intensity for EU-28 in 2017 of 294.21 gCO2/kWh.
2022-04-02 17:10:10 - CarbonTracker: 
Predicted consumption for 1 epoch(s):
	Time:	0:00:07
	Energy:	0.001512 kWh
	CO2eq:	0.444738 g
	This is equivalent to:
	0.003694 km travelled by car
2022-04-02 17:10:10 - CarbonTracker: Finished monitoring.
2022-04-02 17:10:43 - CarbonTracker: The following components were found: GPU with device(s) Tesla V100-SXM2-32GB, Tesla V100-SXM2-32GB, Tesla V100-SXM2-32GB, Tesla V100-SXM2-32GB, Tesla V100-SXM2-32GB, Tesla V100-SXM2-32GB, Tesla V100-SXM2-32GB, Tesla V100-SXM2-32GB. CPU with device(s) cpu:1, cpu:0.
2022-04-02 17:11:19 - CarbonTracker: Average carbon intensity during training was 294.21 gCO2/kWh at detected location: Paris, Île-de-France, FR.
2022-04-02 17:11:19 - CarbonTracker: 
Actual consumption for 1 epoch(s):
	Time:	0:00:07
	Energy:	0.001511 kWh
	CO2eq:	0.444523 g
	This is equivalent to:
	0.003692 km travelled by car
2022-04-02 17:11:20 - CarbonTracker: Live carbon intensity could not be fetched at detected location: Paris, Île-de-France, FR. Defaulted to average carbon intensity for EU-28 in 2017 of 294.21 gCO2/kWh.
2022-04-02 17:11:20 - CarbonTracker: 
Predicted consumption for 1 epoch(s):
	Time:	0:00:07
	Energy:	0.001511 kWh
	CO2eq:	0.444523 g
	This is equivalent to:
	0.003692 km travelled by car
2022-04-02 17:11:20 - CarbonTracker: Finished monitoring.
2022-04-02 17:11:52 - CarbonTracker: The following components were found: GPU with device(s) Tesla V100-SXM2-32GB, Tesla V100-SXM2-32GB, Tesla V100-SXM2-32GB, Tesla V100-SXM2-32GB, Tesla V100-SXM2-32GB, Tesla V100-SXM2-32GB, Tesla V100-SXM2-32GB, Tesla V100-SXM2-32GB. CPU with device(s) cpu:1, cpu:0.
2022-04-02 17:12:29 - CarbonTracker: Average carbon intensity during training was 294.21 gCO2/kWh at detected location: Paris, Île-de-France, FR.
2022-04-02 17:12:29 - CarbonTracker: 
Actual consumption for 1 epoch(s):
	Time:	0:00:07
	Energy:	0.001516 kWh
	CO2eq:	0.445875 g
	This is equivalent to:
	0.003703 km travelled by car
2022-04-02 17:12:29 - CarbonTracker: Live carbon intensity could not be fetched at detected location: Paris, Île-de-France, FR. Defaulted to average carbon intensity for EU-28 in 2017 of 294.21 gCO2/kWh.
2022-04-02 17:12:29 - CarbonTracker: 
Predicted consumption for 1 epoch(s):
	Time:	0:00:07
	Energy:	0.001516 kWh
	CO2eq:	0.445875 g
	This is equivalent to:
	0.003703 km travelled by car
2022-04-02 17:12:29 - CarbonTracker: Finished monitoring.
2022-04-02 17:13:01 - CarbonTracker: The following components were found: GPU with device(s) Tesla V100-SXM2-32GB, Tesla V100-SXM2-32GB, Tesla V100-SXM2-32GB, Tesla V100-SXM2-32GB, Tesla V100-SXM2-32GB, Tesla V100-SXM2-32GB, Tesla V100-SXM2-32GB, Tesla V100-SXM2-32GB. CPU with device(s) cpu:1, cpu:0.
2022-04-02 17:13:38 - CarbonTracker: Average carbon intensity during training was 294.21 gCO2/kWh at detected location: Paris, Île-de-France, FR.
2022-04-02 17:13:38 - CarbonTracker: 
Actual consumption for 1 epoch(s):
	Time:	0:00:07
	Energy:	0.001535 kWh
	CO2eq:	0.451534 g
	This is equivalent to:
	0.003750 km travelled by car
2022-04-02 17:13:38 - CarbonTracker: Live carbon intensity could not be fetched at detected location: Paris, Île-de-France, FR. Defaulted to average carbon intensity for EU-28 in 2017 of 294.21 gCO2/kWh.
2022-04-02 17:13:38 - CarbonTracker: 
Predicted consumption for 1 epoch(s):
	Time:	0:00:07
	Energy:	0.001535 kWh
	CO2eq:	0.451534 g
	This is equivalent to:
	0.003750 km travelled by car
2022-04-02 17:13:38 - CarbonTracker: Finished monitoring.
2022-04-02 17:14:10 - CarbonTracker: The following components were found: GPU with device(s) Tesla V100-SXM2-32GB, Tesla V100-SXM2-32GB, Tesla V100-SXM2-32GB, Tesla V100-SXM2-32GB, Tesla V100-SXM2-32GB, Tesla V100-SXM2-32GB, Tesla V100-SXM2-32GB, Tesla V100-SXM2-32GB. CPU with device(s) cpu:1, cpu:0.
2022-04-02 17:14:47 - CarbonTracker: Average carbon intensity during training was 294.21 gCO2/kWh at detected location: Paris, Île-de-France, FR.
2022-04-02 17:14:47 - CarbonTracker: 
Actual consumption for 1 epoch(s):
	Time:	0:00:07
	Energy:	0.001514 kWh
	CO2eq:	0.445341 g
	This is equivalent to:
	0.003699 km travelled by car
2022-04-02 17:14:47 - CarbonTracker: Live carbon intensity could not be fetched at detected location: Paris, Île-de-France, FR. Defaulted to average carbon intensity for EU-28 in 2017 of 294.21 gCO2/kWh.
2022-04-02 17:14:47 - CarbonTracker: 
Predicted consumption for 1 epoch(s):
	Time:	0:00:07
	Energy:	0.001514 kWh
	CO2eq:	0.445341 g
	This is equivalent to:
	0.003699 km travelled by car
2022-04-02 17:14:47 - CarbonTracker: Finished monitoring.
2022-04-02 17:15:19 - CarbonTracker: The following components were found: GPU with device(s) Tesla V100-SXM2-32GB, Tesla V100-SXM2-32GB, Tesla V100-SXM2-32GB, Tesla V100-SXM2-32GB, Tesla V100-SXM2-32GB, Tesla V100-SXM2-32GB, Tesla V100-SXM2-32GB, Tesla V100-SXM2-32GB. CPU with device(s) cpu:1, cpu:0.
2022-04-02 17:15:52 - CarbonTracker: Average carbon intensity during training was 294.21 gCO2/kWh at detected location: Paris, Île-de-France, FR.
2022-04-02 17:15:52 - CarbonTracker: 
Actual consumption for 1 epoch(s):
	Time:	0:00:03
	Energy:	0.000614 kWh
	CO2eq:	0.180778 g
	This is equivalent to:
	0.001501 km travelled by car
2022-04-02 17:15:52 - CarbonTracker: Live carbon intensity could not be fetched at detected location: Paris, Île-de-France, FR. Defaulted to average carbon intensity for EU-28 in 2017 of 294.21 gCO2/kWh.
2022-04-02 17:15:52 - CarbonTracker: 
Predicted consumption for 1 epoch(s):
	Time:	0:00:03
	Energy:	0.000614 kWh
	CO2eq:	0.180778 g
	This is equivalent to:
	0.001501 km travelled by car
2022-04-02 17:15:52 - CarbonTracker: Finished monitoring.
2022-04-02 17:16:27 - CarbonTracker: The following components were found: GPU with device(s) Tesla V100-SXM2-32GB, Tesla V100-SXM2-32GB, Tesla V100-SXM2-32GB, Tesla V100-SXM2-32GB, Tesla V100-SXM2-32GB, Tesla V100-SXM2-32GB, Tesla V100-SXM2-32GB, Tesla V100-SXM2-32GB. CPU with device(s) cpu:1, cpu:0.
2022-04-02 17:17:01 - CarbonTracker: Average carbon intensity during training was 294.21 gCO2/kWh at detected location: Paris, Île-de-France, FR.
2022-04-02 17:17:01 - CarbonTracker: 
Actual consumption for 1 epoch(s):
	Time:	0:00:03
	Energy:	0.000681 kWh
	CO2eq:	0.200424 g
	This is equivalent to:
	0.001665 km travelled by car
2022-04-02 17:17:01 - CarbonTracker: Live carbon intensity could not be fetched at detected location: Paris, Île-de-France, FR. Defaulted to average carbon intensity for EU-28 in 2017 of 294.21 gCO2/kWh.
2022-04-02 17:17:01 - CarbonTracker: 
Predicted consumption for 1 epoch(s):
	Time:	0:00:03
	Energy:	0.000681 kWh
	CO2eq:	0.200424 g
	This is equivalent to:
	0.001665 km travelled by car
2022-04-02 17:17:01 - CarbonTracker: Finished monitoring.
2022-04-02 17:17:35 - CarbonTracker: The following components were found: GPU with device(s) Tesla V100-SXM2-32GB, Tesla V100-SXM2-32GB, Tesla V100-SXM2-32GB, Tesla V100-SXM2-32GB, Tesla V100-SXM2-32GB, Tesla V100-SXM2-32GB, Tesla V100-SXM2-32GB, Tesla V100-SXM2-32GB. CPU with device(s) cpu:1, cpu:0.
2022-04-02 17:18:12 - CarbonTracker: Average carbon intensity during training was 294.21 gCO2/kWh at detected location: Paris, Île-de-France, FR.
2022-04-02 17:18:12 - CarbonTracker: 
Actual consumption for 1 epoch(s):
	Time:	0:00:07
	Energy:	0.001580 kWh
	CO2eq:	0.464991 g
	This is equivalent to:
	0.003862 km travelled by car
2022-04-02 17:18:13 - CarbonTracker: Live carbon intensity could not be fetched at detected location: Paris, Île-de-France, FR. Defaulted to average carbon intensity for EU-28 in 2017 of 294.21 gCO2/kWh.
2022-04-02 17:18:13 - CarbonTracker: 
Predicted consumption for 1 epoch(s):
	Time:	0:00:07
	Energy:	0.001580 kWh
	CO2eq:	0.464991 g
	This is equivalent to:
	0.003862 km travelled by car
2022-04-02 17:18:13 - CarbonTracker: Finished monitoring.
2022-04-02 17:18:44 - CarbonTracker: The following components were found: GPU with device(s) Tesla V100-SXM2-32GB, Tesla V100-SXM2-32GB, Tesla V100-SXM2-32GB, Tesla V100-SXM2-32GB, Tesla V100-SXM2-32GB, Tesla V100-SXM2-32GB, Tesla V100-SXM2-32GB, Tesla V100-SXM2-32GB. CPU with device(s) cpu:1, cpu:0.
2022-04-02 17:19:22 - CarbonTracker: Average carbon intensity during training was 294.21 gCO2/kWh at detected location: Paris, Île-de-France, FR.
2022-04-02 17:19:22 - CarbonTracker: 
Actual consumption for 1 epoch(s):
	Time:	0:00:07
	Energy:	0.001602 kWh
	CO2eq:	0.471254 g
	This is equivalent to:
	0.003914 km travelled by car
2022-04-02 17:19:22 - CarbonTracker: Live carbon intensity could not be fetched at detected location: Paris, Île-de-France, FR. Defaulted to average carbon intensity for EU-28 in 2017 of 294.21 gCO2/kWh.
2022-04-02 17:19:22 - CarbonTracker: 
Predicted consumption for 1 epoch(s):
	Time:	0:00:07
	Energy:	0.001602 kWh
	CO2eq:	0.471254 g
	This is equivalent to:
	0.003914 km travelled by car
2022-04-02 17:19:22 - CarbonTracker: Finished monitoring.
2022-04-02 17:19:52 - CarbonTracker: The following components were found: GPU with device(s) Tesla V100-SXM2-32GB, Tesla V100-SXM2-32GB, Tesla V100-SXM2-32GB, Tesla V100-SXM2-32GB, Tesla V100-SXM2-32GB, Tesla V100-SXM2-32GB, Tesla V100-SXM2-32GB, Tesla V100-SXM2-32GB. CPU with device(s) cpu:1, cpu:0.
2022-04-02 17:20:26 - CarbonTracker: Average carbon intensity during training was 294.21 gCO2/kWh at detected location: Paris, Île-de-France, FR.
2022-04-02 17:20:26 - CarbonTracker: 
Actual consumption for 1 epoch(s):
	Time:	0:00:03
	Energy:	0.000705 kWh
	CO2eq:	0.207275 g
	This is equivalent to:
	0.001722 km travelled by car
2022-04-02 17:20:26 - CarbonTracker: Live carbon intensity could not be fetched at detected location: Paris, Île-de-France, FR. Defaulted to average carbon intensity for EU-28 in 2017 of 294.21 gCO2/kWh.
2022-04-02 17:20:26 - CarbonTracker: 
Predicted consumption for 1 epoch(s):
	Time:	0:00:03
	Energy:	0.000705 kWh
	CO2eq:	0.207275 g
	This is equivalent to:
	0.001722 km travelled by car
2022-04-02 17:20:26 - CarbonTracker: Finished monitoring.
2022-04-02 17:21:00 - CarbonTracker: The following components were found: GPU with device(s) Tesla V100-SXM2-32GB, Tesla V100-SXM2-32GB, Tesla V100-SXM2-32GB, Tesla V100-SXM2-32GB, Tesla V100-SXM2-32GB, Tesla V100-SXM2-32GB, Tesla V100-SXM2-32GB, Tesla V100-SXM2-32GB. CPU with device(s) cpu:1, cpu:0.
2022-04-02 17:21:37 - CarbonTracker: Average carbon intensity during training was 294.21 gCO2/kWh at detected location: Paris, Île-de-France, FR.
2022-04-02 17:21:37 - CarbonTracker: 
Actual consumption for 1 epoch(s):
	Time:	0:00:07
	Energy:	0.001603 kWh
	CO2eq:	0.471758 g
	This is equivalent to:
	0.003918 km travelled by car
2022-04-02 17:21:38 - CarbonTracker: Live carbon intensity could not be fetched at detected location: Paris, Île-de-France, FR. Defaulted to average carbon intensity for EU-28 in 2017 of 294.21 gCO2/kWh.
2022-04-02 17:21:38 - CarbonTracker: 
Predicted consumption for 1 epoch(s):
	Time:	0:00:07
	Energy:	0.001603 kWh
	CO2eq:	0.471758 g
	This is equivalent to:
	0.003918 km travelled by car
2022-04-02 17:21:38 - CarbonTracker: Finished monitoring.
2022-04-02 17:22:09 - CarbonTracker: The following components were found: GPU with device(s) Tesla V100-SXM2-32GB, Tesla V100-SXM2-32GB, Tesla V100-SXM2-32GB, Tesla V100-SXM2-32GB, Tesla V100-SXM2-32GB, Tesla V100-SXM2-32GB, Tesla V100-SXM2-32GB, Tesla V100-SXM2-32GB. CPU with device(s) cpu:1, cpu:0.
2022-04-02 17:22:47 - CarbonTracker: Average carbon intensity during training was 294.21 gCO2/kWh at detected location: Paris, Île-de-France, FR.
2022-04-02 17:22:47 - CarbonTracker: 
Actual consumption for 1 epoch(s):
	Time:	0:00:07
	Energy:	0.001605 kWh
	CO2eq:	0.472234 g
	This is equivalent to:
	0.003922 km travelled by car
2022-04-02 17:22:47 - CarbonTracker: Live carbon intensity could not be fetched at detected location: Paris, Île-de-France, FR. Defaulted to average carbon intensity for EU-28 in 2017 of 294.21 gCO2/kWh.
2022-04-02 17:22:47 - CarbonTracker: 
Predicted consumption for 1 epoch(s):
	Time:	0:00:07
	Energy:	0.001605 kWh
	CO2eq:	0.472234 g
	This is equivalent to:
	0.003922 km travelled by car
2022-04-02 17:22:47 - CarbonTracker: Finished monitoring.
2022-04-02 17:23:19 - CarbonTracker: The following components were found: GPU with device(s) Tesla V100-SXM2-32GB, Tesla V100-SXM2-32GB, Tesla V100-SXM2-32GB, Tesla V100-SXM2-32GB, Tesla V100-SXM2-32GB, Tesla V100-SXM2-32GB, Tesla V100-SXM2-32GB, Tesla V100-SXM2-32GB. CPU with device(s) cpu:1, cpu:0.
2022-04-02 17:23:56 - CarbonTracker: Average carbon intensity during training was 294.21 gCO2/kWh at detected location: Paris, Île-de-France, FR.
2022-04-02 17:23:56 - CarbonTracker: 
Actual consumption for 1 epoch(s):
	Time:	0:00:07
	Energy:	0.001581 kWh
	CO2eq:	0.465260 g
	This is equivalent to:
	0.003864 km travelled by car
2022-04-02 17:23:56 - CarbonTracker: Live carbon intensity could not be fetched at detected location: Paris, Île-de-France, FR. Defaulted to average carbon intensity for EU-28 in 2017 of 294.21 gCO2/kWh.
2022-04-02 17:23:56 - CarbonTracker: 
Predicted consumption for 1 epoch(s):
	Time:	0:00:07
	Energy:	0.001581 kWh
	CO2eq:	0.465260 g
	This is equivalent to:
	0.003864 km travelled by car
2022-04-02 17:23:56 - CarbonTracker: Finished monitoring.
2022-04-02 17:24:28 - CarbonTracker: The following components were found: GPU with device(s) Tesla V100-SXM2-32GB, Tesla V100-SXM2-32GB, Tesla V100-SXM2-32GB, Tesla V100-SXM2-32GB, Tesla V100-SXM2-32GB, Tesla V100-SXM2-32GB, Tesla V100-SXM2-32GB, Tesla V100-SXM2-32GB. CPU with device(s) cpu:1, cpu:0.
2022-04-02 17:25:05 - CarbonTracker: Average carbon intensity during training was 294.21 gCO2/kWh at detected location: Paris, Île-de-France, FR.
2022-04-02 17:25:05 - CarbonTracker: 
Actual consumption for 1 epoch(s):
	Time:	0:00:07
	Energy:	0.001604 kWh
	CO2eq:	0.471819 g
	This is equivalent to:
	0.003919 km travelled by car
2022-04-02 17:25:06 - CarbonTracker: Live carbon intensity could not be fetched at detected location: Paris, Île-de-France, FR. Defaulted to average carbon intensity for EU-28 in 2017 of 294.21 gCO2/kWh.
2022-04-02 17:25:06 - CarbonTracker: 
Predicted consumption for 1 epoch(s):
	Time:	0:00:07
	Energy:	0.001604 kWh
	CO2eq:	0.471819 g
	This is equivalent to:
	0.003919 km travelled by car
2022-04-02 17:25:06 - CarbonTracker: Finished monitoring.
2022-04-02 17:25:36 - CarbonTracker: The following components were found: GPU with device(s) Tesla V100-SXM2-32GB, Tesla V100-SXM2-32GB, Tesla V100-SXM2-32GB, Tesla V100-SXM2-32GB, Tesla V100-SXM2-32GB, Tesla V100-SXM2-32GB, Tesla V100-SXM2-32GB, Tesla V100-SXM2-32GB. CPU with device(s) cpu:1, cpu:0.
2022-04-02 17:26:14 - CarbonTracker: Average carbon intensity during training was 294.21 gCO2/kWh at detected location: Paris, Île-de-France, FR.
2022-04-02 17:26:14 - CarbonTracker: 
Actual consumption for 1 epoch(s):
	Time:	0:00:07
	Energy:	0.001607 kWh
	CO2eq:	0.472682 g
	This is equivalent to:
	0.003926 km travelled by car
2022-04-02 17:26:14 - CarbonTracker: Live carbon intensity could not be fetched at detected location: Paris, Île-de-France, FR. Defaulted to average carbon intensity for EU-28 in 2017 of 294.21 gCO2/kWh.
2022-04-02 17:26:14 - CarbonTracker: 
Predicted consumption for 1 epoch(s):
	Time:	0:00:07
	Energy:	0.001607 kWh
	CO2eq:	0.472682 g
	This is equivalent to:
	0.003926 km travelled by car
2022-04-02 17:26:14 - CarbonTracker: Finished monitoring.
2022-04-02 17:26:46 - CarbonTracker: The following components were found: GPU with device(s) Tesla V100-SXM2-32GB, Tesla V100-SXM2-32GB, Tesla V100-SXM2-32GB, Tesla V100-SXM2-32GB, Tesla V100-SXM2-32GB, Tesla V100-SXM2-32GB, Tesla V100-SXM2-32GB, Tesla V100-SXM2-32GB. CPU with device(s) cpu:1, cpu:0.
2022-04-02 17:27:19 - CarbonTracker: Average carbon intensity during training was 294.21 gCO2/kWh at detected location: Paris, Île-de-France, FR.
2022-04-02 17:27:19 - CarbonTracker: 
Actual consumption for 1 epoch(s):
	Time:	0:00:03
	Energy:	0.000682 kWh
	CO2eq:	0.200627 g
	This is equivalent to:
	0.001666 km travelled by car
2022-04-02 17:27:19 - CarbonTracker: Live carbon intensity could not be fetched at detected location: Paris, Île-de-France, FR. Defaulted to average carbon intensity for EU-28 in 2017 of 294.21 gCO2/kWh.
2022-04-02 17:27:19 - CarbonTracker: 
Predicted consumption for 1 epoch(s):
	Time:	0:00:03
	Energy:	0.000682 kWh
	CO2eq:	0.200627 g
	This is equivalent to:
	0.001666 km travelled by car
2022-04-02 17:27:19 - CarbonTracker: Finished monitoring.
2022-04-02 17:27:53 - CarbonTracker: The following components were found: GPU with device(s) Tesla V100-SXM2-32GB, Tesla V100-SXM2-32GB, Tesla V100-SXM2-32GB, Tesla V100-SXM2-32GB, Tesla V100-SXM2-32GB, Tesla V100-SXM2-32GB, Tesla V100-SXM2-32GB, Tesla V100-SXM2-32GB. CPU with device(s) cpu:1, cpu:0.
2022-04-02 17:28:30 - CarbonTracker: Average carbon intensity during training was 294.21 gCO2/kWh at detected location: Paris, Île-de-France, FR.
2022-04-02 17:28:30 - CarbonTracker: 
Actual consumption for 1 epoch(s):
	Time:	0:00:07
	Energy:	0.001514 kWh
	CO2eq:	0.445430 g
	This is equivalent to:
	0.003700 km travelled by car
2022-04-02 17:28:30 - CarbonTracker: Live carbon intensity could not be fetched at detected location: Paris, Île-de-France, FR. Defaulted to average carbon intensity for EU-28 in 2017 of 294.21 gCO2/kWh.
2022-04-02 17:28:30 - CarbonTracker: 
Predicted consumption for 1 epoch(s):
	Time:	0:00:07
	Energy:	0.001514 kWh
	CO2eq:	0.445430 g
	This is equivalent to:
	0.003700 km travelled by car
2022-04-02 17:28:30 - CarbonTracker: Finished monitoring.
2022-04-02 17:29:03 - CarbonTracker: The following components were found: GPU with device(s) Tesla V100-SXM2-32GB, Tesla V100-SXM2-32GB, Tesla V100-SXM2-32GB, Tesla V100-SXM2-32GB, Tesla V100-SXM2-32GB, Tesla V100-SXM2-32GB, Tesla V100-SXM2-32GB, Tesla V100-SXM2-32GB. CPU with device(s) cpu:1, cpu:0.
2022-04-02 17:29:35 - CarbonTracker: Average carbon intensity during training was 294.21 gCO2/kWh at detected location: Paris, Île-de-France, FR.
2022-04-02 17:29:35 - CarbonTracker: 
Actual consumption for 1 epoch(s):
	Time:	0:00:03
	Energy:	0.000614 kWh
	CO2eq:	0.180646 g
	This is equivalent to:
	0.001500 km travelled by car
2022-04-02 17:29:36 - CarbonTracker: Live carbon intensity could not be fetched at detected location: Paris, Île-de-France, FR. Defaulted to average carbon intensity for EU-28 in 2017 of 294.21 gCO2/kWh.
2022-04-02 17:29:36 - CarbonTracker: 
Predicted consumption for 1 epoch(s):
	Time:	0:00:03
	Energy:	0.000614 kWh
	CO2eq:	0.180646 g
	This is equivalent to:
	0.001500 km travelled by car
2022-04-02 17:29:36 - CarbonTracker: Finished monitoring.
2022-04-02 17:30:11 - CarbonTracker: The following components were found: GPU with device(s) Tesla V100-SXM2-32GB, Tesla V100-SXM2-32GB, Tesla V100-SXM2-32GB, Tesla V100-SXM2-32GB, Tesla V100-SXM2-32GB, Tesla V100-SXM2-32GB, Tesla V100-SXM2-32GB, Tesla V100-SXM2-32GB. CPU with device(s) cpu:1, cpu:0.
2022-04-02 17:30:48 - CarbonTracker: Average carbon intensity during training was 294.21 gCO2/kWh at detected location: Paris, Île-de-France, FR.
2022-04-02 17:30:48 - CarbonTracker: 
Actual consumption for 1 epoch(s):
	Time:	0:00:07
	Energy:	0.001535 kWh
	CO2eq:	0.451721 g
	This is equivalent to:
	0.003752 km travelled by car
2022-04-02 17:30:48 - CarbonTracker: Live carbon intensity could not be fetched at detected location: Paris, Île-de-France, FR. Defaulted to average carbon intensity for EU-28 in 2017 of 294.21 gCO2/kWh.
2022-04-02 17:30:48 - CarbonTracker: 
Predicted consumption for 1 epoch(s):
	Time:	0:00:07
	Energy:	0.001535 kWh
	CO2eq:	0.451721 g
	This is equivalent to:
	0.003752 km travelled by car
2022-04-02 17:30:48 - CarbonTracker: Finished monitoring.
2022-04-02 17:31:19 - CarbonTracker: The following components were found: GPU with device(s) Tesla V100-SXM2-32GB, Tesla V100-SXM2-32GB, Tesla V100-SXM2-32GB, Tesla V100-SXM2-32GB, Tesla V100-SXM2-32GB, Tesla V100-SXM2-32GB, Tesla V100-SXM2-32GB, Tesla V100-SXM2-32GB. CPU with device(s) cpu:1, cpu:0.
2022-04-02 17:31:56 - CarbonTracker: Average carbon intensity during training was 294.21 gCO2/kWh at detected location: Paris, Île-de-France, FR.
2022-04-02 17:31:56 - CarbonTracker: 
Actual consumption for 1 epoch(s):
	Time:	0:00:07
	Energy:	0.001513 kWh
	CO2eq:	0.445077 g
	This is equivalent to:
	0.003697 km travelled by car
2022-04-02 17:31:56 - CarbonTracker: Live carbon intensity could not be fetched at detected location: Paris, Île-de-France, FR. Defaulted to average carbon intensity for EU-28 in 2017 of 294.21 gCO2/kWh.
2022-04-02 17:31:56 - CarbonTracker: 
Predicted consumption for 1 epoch(s):
	Time:	0:00:07
	Energy:	0.001513 kWh
	CO2eq:	0.445077 g
	This is equivalent to:
	0.003697 km travelled by car
2022-04-02 17:31:56 - CarbonTracker: Finished monitoring.
2022-04-02 17:32:28 - CarbonTracker: The following components were found: GPU with device(s) Tesla V100-SXM2-32GB, Tesla V100-SXM2-32GB, Tesla V100-SXM2-32GB, Tesla V100-SXM2-32GB, Tesla V100-SXM2-32GB, Tesla V100-SXM2-32GB, Tesla V100-SXM2-32GB, Tesla V100-SXM2-32GB. CPU with device(s) cpu:1, cpu:0.
2022-04-02 17:33:05 - CarbonTracker: Average carbon intensity during training was 294.21 gCO2/kWh at detected location: Paris, Île-de-France, FR.
2022-04-02 17:33:05 - CarbonTracker: 
Actual consumption for 1 epoch(s):
	Time:	0:00:07
	Energy:	0.001514 kWh
	CO2eq:	0.445345 g
	This is equivalent to:
	0.003699 km travelled by car
2022-04-02 17:33:05 - CarbonTracker: Live carbon intensity could not be fetched at detected location: Paris, Île-de-France, FR. Defaulted to average carbon intensity for EU-28 in 2017 of 294.21 gCO2/kWh.
2022-04-02 17:33:05 - CarbonTracker: 
Predicted consumption for 1 epoch(s):
	Time:	0:00:07
	Energy:	0.001514 kWh
	CO2eq:	0.445345 g
	This is equivalent to:
	0.003699 km travelled by car
2022-04-02 17:33:05 - CarbonTracker: Finished monitoring.
2022-04-02 17:33:36 - CarbonTracker: The following components were found: GPU with device(s) Tesla V100-SXM2-32GB, Tesla V100-SXM2-32GB, Tesla V100-SXM2-32GB, Tesla V100-SXM2-32GB, Tesla V100-SXM2-32GB, Tesla V100-SXM2-32GB, Tesla V100-SXM2-32GB, Tesla V100-SXM2-32GB. CPU with device(s) cpu:1, cpu:0.
2022-04-02 17:34:13 - CarbonTracker: Average carbon intensity during training was 294.21 gCO2/kWh at detected location: Paris, Île-de-France, FR.
2022-04-02 17:34:13 - CarbonTracker: 
Actual consumption for 1 epoch(s):
	Time:	0:00:07
	Energy:	0.001515 kWh
	CO2eq:	0.445617 g
	This is equivalent to:
	0.003701 km travelled by car
2022-04-02 17:34:13 - CarbonTracker: Live carbon intensity could not be fetched at detected location: Paris, Île-de-France, FR. Defaulted to average carbon intensity for EU-28 in 2017 of 294.21 gCO2/kWh.
2022-04-02 17:34:13 - CarbonTracker: 
Predicted consumption for 1 epoch(s):
	Time:	0:00:07
	Energy:	0.001515 kWh
	CO2eq:	0.445617 g
	This is equivalent to:
	0.003701 km travelled by car
2022-04-02 17:34:13 - CarbonTracker: Finished monitoring.
2022-04-02 17:34:45 - CarbonTracker: The following components were found: GPU with device(s) Tesla V100-SXM2-32GB, Tesla V100-SXM2-32GB, Tesla V100-SXM2-32GB, Tesla V100-SXM2-32GB, Tesla V100-SXM2-32GB, Tesla V100-SXM2-32GB, Tesla V100-SXM2-32GB, Tesla V100-SXM2-32GB. CPU with device(s) cpu:1, cpu:0.
2022-04-02 17:35:22 - CarbonTracker: Average carbon intensity during training was 294.21 gCO2/kWh at detected location: Paris, Île-de-France, FR.
2022-04-02 17:35:22 - CarbonTracker: 
Actual consumption for 1 epoch(s):
	Time:	0:00:07
	Energy:	0.001513 kWh
	CO2eq:	0.445091 g
	This is equivalent to:
	0.003697 km travelled by car
2022-04-02 17:35:22 - CarbonTracker: Live carbon intensity could not be fetched at detected location: Paris, Île-de-France, FR. Defaulted to average carbon intensity for EU-28 in 2017 of 294.21 gCO2/kWh.
2022-04-02 17:35:22 - CarbonTracker: 
Predicted consumption for 1 epoch(s):
	Time:	0:00:07
	Energy:	0.001513 kWh
	CO2eq:	0.445091 g
	This is equivalent to:
	0.003697 km travelled by car
2022-04-02 17:35:22 - CarbonTracker: Finished monitoring.
2022-04-02 17:35:54 - CarbonTracker: The following components were found: GPU with device(s) Tesla V100-SXM2-32GB, Tesla V100-SXM2-32GB, Tesla V100-SXM2-32GB, Tesla V100-SXM2-32GB, Tesla V100-SXM2-32GB, Tesla V100-SXM2-32GB, Tesla V100-SXM2-32GB, Tesla V100-SXM2-32GB. CPU with device(s) cpu:1, cpu:0.
2022-04-02 17:36:31 - CarbonTracker: Average carbon intensity during training was 294.21 gCO2/kWh at detected location: Paris, Île-de-France, FR.
2022-04-02 17:36:31 - CarbonTracker: 
Actual consumption for 1 epoch(s):
	Time:	0:00:07
	Energy:	0.001515 kWh
	CO2eq:	0.445602 g
	This is equivalent to:
	0.003701 km travelled by car
2022-04-02 17:36:31 - CarbonTracker: Live carbon intensity could not be fetched at detected location: Paris, Île-de-France, FR. Defaulted to average carbon intensity for EU-28 in 2017 of 294.21 gCO2/kWh.
2022-04-02 17:36:31 - CarbonTracker: 
Predicted consumption for 1 epoch(s):
	Time:	0:00:07
	Energy:	0.001515 kWh
	CO2eq:	0.445602 g
	This is equivalent to:
	0.003701 km travelled by car
2022-04-02 17:36:31 - CarbonTracker: Finished monitoring.
2022-04-02 17:37:03 - CarbonTracker: The following components were found: GPU with device(s) Tesla V100-SXM2-32GB, Tesla V100-SXM2-32GB, Tesla V100-SXM2-32GB, Tesla V100-SXM2-32GB, Tesla V100-SXM2-32GB, Tesla V100-SXM2-32GB, Tesla V100-SXM2-32GB, Tesla V100-SXM2-32GB. CPU with device(s) cpu:1, cpu:0.
2022-04-02 17:37:40 - CarbonTracker: Average carbon intensity during training was 294.21 gCO2/kWh at detected location: Paris, Île-de-France, FR.
2022-04-02 17:37:40 - CarbonTracker: 
Actual consumption for 1 epoch(s):
	Time:	0:00:07
	Energy:	0.001513 kWh
	CO2eq:	0.445267 g
	This is equivalent to:
	0.003698 km travelled by car
2022-04-02 17:37:40 - CarbonTracker: Live carbon intensity could not be fetched at detected location: Paris, Île-de-France, FR. Defaulted to average carbon intensity for EU-28 in 2017 of 294.21 gCO2/kWh.
2022-04-02 17:37:40 - CarbonTracker: 
Predicted consumption for 1 epoch(s):
	Time:	0:00:07
	Energy:	0.001513 kWh
	CO2eq:	0.445267 g
	This is equivalent to:
	0.003698 km travelled by car
2022-04-02 17:37:40 - CarbonTracker: Finished monitoring.
2022-04-02 17:38:12 - CarbonTracker: The following components were found: GPU with device(s) Tesla V100-SXM2-32GB, Tesla V100-SXM2-32GB, Tesla V100-SXM2-32GB, Tesla V100-SXM2-32GB, Tesla V100-SXM2-32GB, Tesla V100-SXM2-32GB, Tesla V100-SXM2-32GB, Tesla V100-SXM2-32GB. CPU with device(s) cpu:1, cpu:0.
2022-04-02 17:38:45 - CarbonTracker: Average carbon intensity during training was 294.21 gCO2/kWh at detected location: Paris, Île-de-France, FR.
2022-04-02 17:38:45 - CarbonTracker: 
Actual consumption for 1 epoch(s):
	Time:	0:00:03
	Energy:	0.000614 kWh
	CO2eq:	0.180636 g
	This is equivalent to:
	0.001500 km travelled by car
2022-04-02 17:38:45 - CarbonTracker: Live carbon intensity could not be fetched at detected location: Paris, Île-de-France, FR. Defaulted to average carbon intensity for EU-28 in 2017 of 294.21 gCO2/kWh.
2022-04-02 17:38:45 - CarbonTracker: 
Predicted consumption for 1 epoch(s):
	Time:	0:00:03
	Energy:	0.000614 kWh
	CO2eq:	0.180636 g
	This is equivalent to:
	0.001500 km travelled by car
2022-04-02 17:38:45 - CarbonTracker: Finished monitoring.
2022-04-02 17:39:20 - CarbonTracker: The following components were found: GPU with device(s) Tesla V100-SXM2-32GB, Tesla V100-SXM2-32GB, Tesla V100-SXM2-32GB, Tesla V100-SXM2-32GB, Tesla V100-SXM2-32GB, Tesla V100-SXM2-32GB, Tesla V100-SXM2-32GB, Tesla V100-SXM2-32GB. CPU with device(s) cpu:1, cpu:0.
2022-04-02 17:39:53 - CarbonTracker: Average carbon intensity during training was 294.21 gCO2/kWh at detected location: Paris, Île-de-France, FR.
2022-04-02 17:39:53 - CarbonTracker: 
Actual consumption for 1 epoch(s):
	Time:	0:00:03
	Energy:	0.000614 kWh
	CO2eq:	0.180593 g
	This is equivalent to:
	0.001500 km travelled by car
2022-04-02 17:39:53 - CarbonTracker: Live carbon intensity could not be fetched at detected location: Paris, Île-de-France, FR. Defaulted to average carbon intensity for EU-28 in 2017 of 294.21 gCO2/kWh.
2022-04-02 17:39:53 - CarbonTracker: 
Predicted consumption for 1 epoch(s):
	Time:	0:00:03
	Energy:	0.000614 kWh
	CO2eq:	0.180593 g
	This is equivalent to:
	0.001500 km travelled by car
2022-04-02 17:39:53 - CarbonTracker: Finished monitoring.
2022-04-02 17:40:28 - CarbonTracker: The following components were found: GPU with device(s) Tesla V100-SXM2-32GB, Tesla V100-SXM2-32GB, Tesla V100-SXM2-32GB, Tesla V100-SXM2-32GB, Tesla V100-SXM2-32GB, Tesla V100-SXM2-32GB, Tesla V100-SXM2-32GB, Tesla V100-SXM2-32GB. CPU with device(s) cpu:1, cpu:0.
2022-04-02 17:41:05 - CarbonTracker: Average carbon intensity during training was 294.21 gCO2/kWh at detected location: Paris, Île-de-France, FR.
2022-04-02 17:41:05 - CarbonTracker: 
Actual consumption for 1 epoch(s):
	Time:	0:00:07
	Energy:	0.001514 kWh
	CO2eq:	0.445313 g
	This is equivalent to:
	0.003699 km travelled by car
2022-04-02 17:41:05 - CarbonTracker: Live carbon intensity could not be fetched at detected location: Paris, Île-de-France, FR. Defaulted to average carbon intensity for EU-28 in 2017 of 294.21 gCO2/kWh.
2022-04-02 17:41:05 - CarbonTracker: 
Predicted consumption for 1 epoch(s):
	Time:	0:00:07
	Energy:	0.001514 kWh
	CO2eq:	0.445313 g
	This is equivalent to:
	0.003699 km travelled by car
2022-04-02 17:41:05 - CarbonTracker: Finished monitoring.
2022-04-02 17:41:37 - CarbonTracker: The following components were found: GPU with device(s) Tesla V100-SXM2-32GB, Tesla V100-SXM2-32GB, Tesla V100-SXM2-32GB, Tesla V100-SXM2-32GB, Tesla V100-SXM2-32GB, Tesla V100-SXM2-32GB, Tesla V100-SXM2-32GB, Tesla V100-SXM2-32GB. CPU with device(s) cpu:1, cpu:0.
2022-04-02 17:42:14 - CarbonTracker: Average carbon intensity during training was 294.21 gCO2/kWh at detected location: Paris, Île-de-France, FR.
2022-04-02 17:42:14 - CarbonTracker: 
Actual consumption for 1 epoch(s):
	Time:	0:00:07
	Energy:	0.001513 kWh
	CO2eq:	0.445046 g
	This is equivalent to:
	0.003696 km travelled by car
2022-04-02 17:42:14 - CarbonTracker: Live carbon intensity could not be fetched at detected location: Paris, Île-de-France, FR. Defaulted to average carbon intensity for EU-28 in 2017 of 294.21 gCO2/kWh.
2022-04-02 17:42:14 - CarbonTracker: 
Predicted consumption for 1 epoch(s):
	Time:	0:00:07
	Energy:	0.001513 kWh
	CO2eq:	0.445046 g
	This is equivalent to:
	0.003696 km travelled by car
2022-04-02 17:42:14 - CarbonTracker: Finished monitoring.
2022-04-02 17:42:46 - CarbonTracker: The following components were found: GPU with device(s) Tesla V100-SXM2-32GB, Tesla V100-SXM2-32GB, Tesla V100-SXM2-32GB, Tesla V100-SXM2-32GB, Tesla V100-SXM2-32GB, Tesla V100-SXM2-32GB, Tesla V100-SXM2-32GB, Tesla V100-SXM2-32GB. CPU with device(s) cpu:1, cpu:0.
2022-04-02 17:43:23 - CarbonTracker: Average carbon intensity during training was 294.21 gCO2/kWh at detected location: Paris, Île-de-France, FR.
2022-04-02 17:43:23 - CarbonTracker: 
Actual consumption for 1 epoch(s):
	Time:	0:00:07
	Energy:	0.001511 kWh
	CO2eq:	0.444464 g
	This is equivalent to:
	0.003692 km travelled by car
2022-04-02 17:43:24 - CarbonTracker: Live carbon intensity could not be fetched at detected location: Paris, Île-de-France, FR. Defaulted to average carbon intensity for EU-28 in 2017 of 294.21 gCO2/kWh.
2022-04-02 17:43:24 - CarbonTracker: 
Predicted consumption for 1 epoch(s):
	Time:	0:00:07
	Energy:	0.001511 kWh
	CO2eq:	0.444464 g
	This is equivalent to:
	0.003692 km travelled by car
2022-04-02 17:43:24 - CarbonTracker: Finished monitoring.
2022-04-02 17:43:56 - CarbonTracker: The following components were found: GPU with device(s) Tesla V100-SXM2-32GB, Tesla V100-SXM2-32GB, Tesla V100-SXM2-32GB, Tesla V100-SXM2-32GB, Tesla V100-SXM2-32GB, Tesla V100-SXM2-32GB, Tesla V100-SXM2-32GB, Tesla V100-SXM2-32GB. CPU with device(s) cpu:1, cpu:0.
2022-04-02 17:44:32 - CarbonTracker: Average carbon intensity during training was 294.21 gCO2/kWh at detected location: Paris, Île-de-France, FR.
2022-04-02 17:44:32 - CarbonTracker: 
Actual consumption for 1 epoch(s):
	Time:	0:00:07
	Energy:	0.001513 kWh
	CO2eq:	0.445168 g
	This is equivalent to:
	0.003697 km travelled by car
2022-04-02 17:44:33 - CarbonTracker: Live carbon intensity could not be fetched at detected location: Paris, Île-de-France, FR. Defaulted to average carbon intensity for EU-28 in 2017 of 294.21 gCO2/kWh.
2022-04-02 17:44:33 - CarbonTracker: 
Predicted consumption for 1 epoch(s):
	Time:	0:00:07
	Energy:	0.001513 kWh
	CO2eq:	0.445168 g
	This is equivalent to:
	0.003697 km travelled by car
2022-04-02 17:44:33 - CarbonTracker: Finished monitoring.
2022-04-02 17:45:04 - CarbonTracker: The following components were found: GPU with device(s) Tesla V100-SXM2-32GB, Tesla V100-SXM2-32GB, Tesla V100-SXM2-32GB, Tesla V100-SXM2-32GB, Tesla V100-SXM2-32GB, Tesla V100-SXM2-32GB, Tesla V100-SXM2-32GB, Tesla V100-SXM2-32GB. CPU with device(s) cpu:1, cpu:0.
2022-04-02 17:45:41 - CarbonTracker: Average carbon intensity during training was 294.21 gCO2/kWh at detected location: Paris, Île-de-France, FR.
2022-04-02 17:45:41 - CarbonTracker: 
Actual consumption for 1 epoch(s):
	Time:	0:00:07
	Energy:	0.001513 kWh
	CO2eq:	0.445255 g
	This is equivalent to:
	0.003698 km travelled by car
2022-04-02 17:45:41 - CarbonTracker: Live carbon intensity could not be fetched at detected location: Paris, Île-de-France, FR. Defaulted to average carbon intensity for EU-28 in 2017 of 294.21 gCO2/kWh.
2022-04-02 17:45:41 - CarbonTracker: 
Predicted consumption for 1 epoch(s):
	Time:	0:00:07
	Energy:	0.001513 kWh
	CO2eq:	0.445255 g
	This is equivalent to:
	0.003698 km travelled by car
2022-04-02 17:45:41 - CarbonTracker: Finished monitoring.
2022-04-02 17:46:13 - CarbonTracker: The following components were found: GPU with device(s) Tesla V100-SXM2-32GB, Tesla V100-SXM2-32GB, Tesla V100-SXM2-32GB, Tesla V100-SXM2-32GB, Tesla V100-SXM2-32GB, Tesla V100-SXM2-32GB, Tesla V100-SXM2-32GB, Tesla V100-SXM2-32GB. CPU with device(s) cpu:1, cpu:0.
2022-04-02 17:46:47 - CarbonTracker: Average carbon intensity during training was 294.21 gCO2/kWh at detected location: Paris, Île-de-France, FR.
2022-04-02 17:46:47 - CarbonTracker: 
Actual consumption for 1 epoch(s):
	Time:	0:00:03
	Energy:	0.000615 kWh
	CO2eq:	0.180932 g
	This is equivalent to:
	0.001503 km travelled by car
2022-04-02 17:46:47 - CarbonTracker: Live carbon intensity could not be fetched at detected location: Paris, Île-de-France, FR. Defaulted to average carbon intensity for EU-28 in 2017 of 294.21 gCO2/kWh.
2022-04-02 17:46:47 - CarbonTracker: 
Predicted consumption for 1 epoch(s):
	Time:	0:00:03
	Energy:	0.000615 kWh
	CO2eq:	0.180932 g
	This is equivalent to:
	0.001503 km travelled by car
2022-04-02 17:46:47 - CarbonTracker: Finished monitoring.
2022-04-02 17:47:21 - CarbonTracker: The following components were found: GPU with device(s) Tesla V100-SXM2-32GB, Tesla V100-SXM2-32GB, Tesla V100-SXM2-32GB, Tesla V100-SXM2-32GB, Tesla V100-SXM2-32GB, Tesla V100-SXM2-32GB, Tesla V100-SXM2-32GB, Tesla V100-SXM2-32GB. CPU with device(s) cpu:1, cpu:0.
2022-04-02 17:47:58 - CarbonTracker: Average carbon intensity during training was 294.21 gCO2/kWh at detected location: Paris, Île-de-France, FR.
2022-04-02 17:47:58 - CarbonTracker: 
Actual consumption for 1 epoch(s):
	Time:	0:00:07
	Energy:	0.001512 kWh
	CO2eq:	0.444936 g
	This is equivalent to:
	0.003695 km travelled by car
2022-04-02 17:47:58 - CarbonTracker: Live carbon intensity could not be fetched at detected location: Paris, Île-de-France, FR. Defaulted to average carbon intensity for EU-28 in 2017 of 294.21 gCO2/kWh.
2022-04-02 17:47:58 - CarbonTracker: 
Predicted consumption for 1 epoch(s):
	Time:	0:00:07
	Energy:	0.001512 kWh
	CO2eq:	0.444936 g
	This is equivalent to:
	0.003695 km travelled by car
2022-04-02 17:47:58 - CarbonTracker: Finished monitoring.
2022-04-02 17:48:31 - CarbonTracker: The following components were found: GPU with device(s) Tesla V100-SXM2-32GB, Tesla V100-SXM2-32GB, Tesla V100-SXM2-32GB, Tesla V100-SXM2-32GB, Tesla V100-SXM2-32GB, Tesla V100-SXM2-32GB, Tesla V100-SXM2-32GB, Tesla V100-SXM2-32GB. CPU with device(s) cpu:1, cpu:0.
2022-04-02 17:49:07 - CarbonTracker: Average carbon intensity during training was 294.21 gCO2/kWh at detected location: Paris, Île-de-France, FR.
2022-04-02 17:49:07 - CarbonTracker: 
Actual consumption for 1 epoch(s):
	Time:	0:00:07
	Energy:	0.001512 kWh
	CO2eq:	0.444964 g
	This is equivalent to:
	0.003696 km travelled by car
2022-04-02 17:49:08 - CarbonTracker: Live carbon intensity could not be fetched at detected location: Paris, Île-de-France, FR. Defaulted to average carbon intensity for EU-28 in 2017 of 294.21 gCO2/kWh.
2022-04-02 17:49:08 - CarbonTracker: 
Predicted consumption for 1 epoch(s):
	Time:	0:00:07
	Energy:	0.001512 kWh
	CO2eq:	0.444964 g
	This is equivalent to:
	0.003696 km travelled by car
2022-04-02 17:49:08 - CarbonTracker: Finished monitoring.
2022-04-02 17:49:50 - CarbonTracker: The following components were found: GPU with device(s) Tesla V100-SXM2-32GB, Tesla V100-SXM2-32GB, Tesla V100-SXM2-32GB, Tesla V100-SXM2-32GB, Tesla V100-SXM2-32GB, Tesla V100-SXM2-32GB, Tesla V100-SXM2-32GB, Tesla V100-SXM2-32GB. CPU with device(s) cpu:1, cpu:0.
2022-04-02 17:50:22 - CarbonTracker: Average carbon intensity during training was 294.21 gCO2/kWh at detected location: Paris, Île-de-France, FR.
2022-04-02 17:50:22 - CarbonTracker: 
Actual consumption for 1 epoch(s):
	Time:	0:00:07
	Energy:	0.001513 kWh
	CO2eq:	0.445278 g
	This is equivalent to:
	0.003698 km travelled by car
2022-04-02 17:50:22 - CarbonTracker: Live carbon intensity could not be fetched at detected location: Paris, Île-de-France, FR. Defaulted to average carbon intensity for EU-28 in 2017 of 294.21 gCO2/kWh.
2022-04-02 17:50:22 - CarbonTracker: 
Predicted consumption for 1 epoch(s):
	Time:	0:00:07
	Energy:	0.001513 kWh
	CO2eq:	0.445278 g
	This is equivalent to:
	0.003698 km travelled by car
2022-04-02 17:50:22 - CarbonTracker: Finished monitoring.
