2022-04-02 15:57:19 - carbontracker version 1.1.6
2022-04-02 15:57:19 - Only predicted and actual consumptions are multiplied by a PUE coefficient of 1.59 (Rhonda Ascierto, 2019, Uptime Institute Global Data Center Survey).
2022-04-02 15:57:31 - The following components were found: GPU with device(s) Tesla V100-SXM2-32GB, Tesla V100-SXM2-32GB, Tesla V100-SXM2-32GB, Tesla V100-SXM2-32GB, Tesla V100-SXM2-32GB, Tesla V100-SXM2-32GB, Tesla V100-SXM2-32GB, Tesla V100-SXM2-32GB. CPU with device(s) cpu:1, cpu:0.
2022-04-02 15:57:31 - Monitoring thread started.
2022-04-02 15:59:56 - Epoch 1:
2022-04-02 15:59:56 - Duration: 0:02:00.08
2022-04-02 15:59:56 - Average power usage (W) for gpu: [44.487      45.93863636 44.53081818 44.97445455 44.999      45.451
 46.05163636 44.77945455]
2022-04-02 15:59:56 - Average power usage (W) for cpu: [70.88589918 75.03182391]
2022-04-02 15:59:56 - Carbon intensities (gCO2/kWh) fetched every 900 s at detected location Paris, Île-de-France, FR: [294.2060978]
2022-04-02 15:59:56 - Average carbon intensity during training was 294.21 gCO2/kWh at detected location: Paris, Île-de-France, FR.
2022-04-02 15:59:56 - Live carbon intensity could not be fetched at detected location: Paris, Île-de-France, FR. Defaulted to average carbon intensity for EU-28 in 2017 of 294.21 gCO2/kWh.
2022-04-02 15:59:56 - Monitoring thread ended.
2022-04-02 16:00:26 - carbontracker version 1.1.6
2022-04-02 16:00:26 - Only predicted and actual consumptions are multiplied by a PUE coefficient of 1.59 (Rhonda Ascierto, 2019, Uptime Institute Global Data Center Survey).
2022-04-02 16:00:38 - The following components were found: GPU with device(s) Tesla V100-SXM2-32GB, Tesla V100-SXM2-32GB, Tesla V100-SXM2-32GB, Tesla V100-SXM2-32GB, Tesla V100-SXM2-32GB, Tesla V100-SXM2-32GB, Tesla V100-SXM2-32GB, Tesla V100-SXM2-32GB. CPU with device(s) cpu:1, cpu:0.
2022-04-02 16:00:38 - Monitoring thread started.
2022-04-02 16:03:04 - Epoch 1:
2022-04-02 16:03:04 - Duration: 0:02:00.08
2022-04-02 16:03:04 - Average power usage (W) for gpu: [44.487      45.89481818 44.48963636 44.969      44.999      45.53863636
 46.00781818 44.69163636]
2022-04-02 16:03:04 - Average power usage (W) for cpu: [70.77057627 75.21797482]
2022-04-02 16:03:04 - Carbon intensities (gCO2/kWh) fetched every 900 s at detected location Paris, Île-de-France, FR: [294.2060978]
2022-04-02 16:03:04 - Average carbon intensity during training was 294.21 gCO2/kWh at detected location: Paris, Île-de-France, FR.
2022-04-02 16:03:04 - Live carbon intensity could not be fetched at detected location: Paris, Île-de-France, FR. Defaulted to average carbon intensity for EU-28 in 2017 of 294.21 gCO2/kWh.
2022-04-02 16:03:04 - Monitoring thread ended.
2022-04-02 16:03:34 - carbontracker version 1.1.6
2022-04-02 16:03:34 - Only predicted and actual consumptions are multiplied by a PUE coefficient of 1.59 (Rhonda Ascierto, 2019, Uptime Institute Global Data Center Survey).
2022-04-02 16:03:46 - The following components were found: GPU with device(s) Tesla V100-SXM2-32GB, Tesla V100-SXM2-32GB, Tesla V100-SXM2-32GB, Tesla V100-SXM2-32GB, Tesla V100-SXM2-32GB, Tesla V100-SXM2-32GB, Tesla V100-SXM2-32GB, Tesla V100-SXM2-32GB. CPU with device(s) cpu:1, cpu:0.
2022-04-02 16:03:46 - Monitoring thread started.
2022-04-02 16:06:11 - Epoch 1:
2022-04-02 16:06:11 - Duration: 0:02:00.08
2022-04-02 16:06:11 - Average power usage (W) for gpu: [44.487      45.80718182 44.487      44.97172727 44.999      45.53863636
 45.964      44.69163636]
2022-04-02 16:06:11 - Average power usage (W) for cpu: [70.72616509 75.13631009]
2022-04-02 16:06:11 - Carbon intensities (gCO2/kWh) fetched every 900 s at detected location Paris, Île-de-France, FR: [294.2060978]
2022-04-02 16:06:11 - Average carbon intensity during training was 294.21 gCO2/kWh at detected location: Paris, Île-de-France, FR.
2022-04-02 16:06:11 - Live carbon intensity could not be fetched at detected location: Paris, Île-de-France, FR. Defaulted to average carbon intensity for EU-28 in 2017 of 294.21 gCO2/kWh.
2022-04-02 16:06:11 - Monitoring thread ended.
2022-04-02 16:06:41 - carbontracker version 1.1.6
2022-04-02 16:06:41 - Only predicted and actual consumptions are multiplied by a PUE coefficient of 1.59 (Rhonda Ascierto, 2019, Uptime Institute Global Data Center Survey).
2022-04-02 16:06:54 - The following components were found: GPU with device(s) Tesla V100-SXM2-32GB, Tesla V100-SXM2-32GB, Tesla V100-SXM2-32GB, Tesla V100-SXM2-32GB, Tesla V100-SXM2-32GB, Tesla V100-SXM2-32GB, Tesla V100-SXM2-32GB, Tesla V100-SXM2-32GB. CPU with device(s) cpu:1, cpu:0.
2022-04-02 16:06:54 - Monitoring thread started.
2022-04-02 16:09:19 - Epoch 1:
2022-04-02 16:09:19 - Duration: 0:02:00.08
2022-04-02 16:09:19 - Average power usage (W) for gpu: [44.487      45.76327273 44.487      44.969      44.999      45.451
 45.96118182 44.69163636]
2022-04-02 16:09:19 - Average power usage (W) for cpu: [70.74362118 75.24231682]
2022-04-02 16:09:19 - Carbon intensities (gCO2/kWh) fetched every 900 s at detected location Paris, Île-de-France, FR: [294.2060978]
2022-04-02 16:09:19 - Average carbon intensity during training was 294.21 gCO2/kWh at detected location: Paris, Île-de-France, FR.
2022-04-02 16:09:19 - Live carbon intensity could not be fetched at detected location: Paris, Île-de-France, FR. Defaulted to average carbon intensity for EU-28 in 2017 of 294.21 gCO2/kWh.
2022-04-02 16:09:19 - Monitoring thread ended.
2022-04-02 16:09:49 - carbontracker version 1.1.6
2022-04-02 16:09:49 - Only predicted and actual consumptions are multiplied by a PUE coefficient of 1.59 (Rhonda Ascierto, 2019, Uptime Institute Global Data Center Survey).
2022-04-02 16:10:01 - The following components were found: GPU with device(s) Tesla V100-SXM2-32GB, Tesla V100-SXM2-32GB, Tesla V100-SXM2-32GB, Tesla V100-SXM2-32GB, Tesla V100-SXM2-32GB, Tesla V100-SXM2-32GB, Tesla V100-SXM2-32GB, Tesla V100-SXM2-32GB. CPU with device(s) cpu:1, cpu:0.
2022-04-02 16:10:01 - Monitoring thread started.
2022-04-02 16:12:26 - Epoch 1:
2022-04-02 16:12:26 - Duration: 0:02:00.08
2022-04-02 16:12:26 - Average power usage (W) for gpu: [44.487      45.90036364 44.487      44.97718182 44.999      45.451
 45.96118182 44.69163636]
2022-04-02 16:12:26 - Average power usage (W) for cpu: [70.76521082 75.22122636]
2022-04-02 16:12:26 - Carbon intensities (gCO2/kWh) fetched every 900 s at detected location Paris, Île-de-France, FR: [294.2060978]
2022-04-02 16:12:26 - Average carbon intensity during training was 294.21 gCO2/kWh at detected location: Paris, Île-de-France, FR.
2022-04-02 16:12:27 - Live carbon intensity could not be fetched at detected location: Paris, Île-de-France, FR. Defaulted to average carbon intensity for EU-28 in 2017 of 294.21 gCO2/kWh.
2022-04-02 16:12:27 - Monitoring thread ended.
2022-04-02 16:12:57 - carbontracker version 1.1.6
2022-04-02 16:12:57 - Only predicted and actual consumptions are multiplied by a PUE coefficient of 1.59 (Rhonda Ascierto, 2019, Uptime Institute Global Data Center Survey).
2022-04-02 16:13:09 - The following components were found: GPU with device(s) Tesla V100-SXM2-32GB, Tesla V100-SXM2-32GB, Tesla V100-SXM2-32GB, Tesla V100-SXM2-32GB, Tesla V100-SXM2-32GB, Tesla V100-SXM2-32GB, Tesla V100-SXM2-32GB, Tesla V100-SXM2-32GB. CPU with device(s) cpu:1, cpu:0.
2022-04-02 16:13:09 - Monitoring thread started.
2022-04-02 16:15:34 - Epoch 1:
2022-04-02 16:15:34 - Duration: 0:02:00.08
2022-04-02 16:15:34 - Average power usage (W) for gpu: [44.487      45.89481818 44.487      44.97172727 44.999      45.53863636
 45.964      44.77945455]
2022-04-02 16:15:34 - Average power usage (W) for cpu: [70.74733882 75.16797055]
2022-04-02 16:15:34 - Carbon intensities (gCO2/kWh) fetched every 900 s at detected location Paris, Île-de-France, FR: [294.2060978]
2022-04-02 16:15:34 - Average carbon intensity during training was 294.21 gCO2/kWh at detected location: Paris, Île-de-France, FR.
2022-04-02 16:15:34 - Live carbon intensity could not be fetched at detected location: Paris, Île-de-France, FR. Defaulted to average carbon intensity for EU-28 in 2017 of 294.21 gCO2/kWh.
2022-04-02 16:15:34 - Monitoring thread ended.
2022-04-02 16:16:04 - carbontracker version 1.1.6
2022-04-02 16:16:04 - Only predicted and actual consumptions are multiplied by a PUE coefficient of 1.59 (Rhonda Ascierto, 2019, Uptime Institute Global Data Center Survey).
2022-04-02 16:16:16 - The following components were found: GPU with device(s) Tesla V100-SXM2-32GB, Tesla V100-SXM2-32GB, Tesla V100-SXM2-32GB, Tesla V100-SXM2-32GB, Tesla V100-SXM2-32GB, Tesla V100-SXM2-32GB, Tesla V100-SXM2-32GB, Tesla V100-SXM2-32GB. CPU with device(s) cpu:1, cpu:0.
2022-04-02 16:16:16 - Monitoring thread started.
2022-04-02 16:18:41 - Epoch 1:
2022-04-02 16:18:41 - Duration: 0:02:00.08
2022-04-02 16:18:41 - Average power usage (W) for gpu: [44.487      45.892      44.487      44.97172727 44.999      45.49481818
 45.964      44.77945455]
2022-04-02 16:18:41 - Average power usage (W) for cpu: [70.75228255 75.10180855]
2022-04-02 16:18:42 - Carbon intensities (gCO2/kWh) fetched every 900 s at detected location Paris, Île-de-France, FR: [294.2060978]
2022-04-02 16:18:42 - Average carbon intensity during training was 294.21 gCO2/kWh at detected location: Paris, Île-de-France, FR.
2022-04-02 16:18:42 - Live carbon intensity could not be fetched at detected location: Paris, Île-de-France, FR. Defaulted to average carbon intensity for EU-28 in 2017 of 294.21 gCO2/kWh.
2022-04-02 16:18:42 - Monitoring thread ended.
2022-04-02 16:19:12 - carbontracker version 1.1.6
2022-04-02 16:19:12 - Only predicted and actual consumptions are multiplied by a PUE coefficient of 1.59 (Rhonda Ascierto, 2019, Uptime Institute Global Data Center Survey).
2022-04-02 16:19:24 - The following components were found: GPU with device(s) Tesla V100-SXM2-32GB, Tesla V100-SXM2-32GB, Tesla V100-SXM2-32GB, Tesla V100-SXM2-32GB, Tesla V100-SXM2-32GB, Tesla V100-SXM2-32GB, Tesla V100-SXM2-32GB, Tesla V100-SXM2-32GB. CPU with device(s) cpu:1, cpu:0.
2022-04-02 16:19:24 - Monitoring thread started.
2022-04-02 16:21:49 - Epoch 1:
2022-04-02 16:21:49 - Duration: 0:02:00.08
2022-04-02 16:21:49 - Average power usage (W) for gpu: [44.487      45.84818182 44.487      44.97445455 44.999      45.451
 46.005      44.64772727]
2022-04-02 16:21:49 - Average power usage (W) for cpu: [70.73629691 75.16089609]
2022-04-02 16:21:49 - Carbon intensities (gCO2/kWh) fetched every 900 s at detected location Paris, Île-de-France, FR: [294.2060978]
2022-04-02 16:21:49 - Average carbon intensity during training was 294.21 gCO2/kWh at detected location: Paris, Île-de-France, FR.
2022-04-02 16:21:49 - Live carbon intensity could not be fetched at detected location: Paris, Île-de-France, FR. Defaulted to average carbon intensity for EU-28 in 2017 of 294.21 gCO2/kWh.
2022-04-02 16:21:49 - Monitoring thread ended.
2022-04-02 16:22:19 - carbontracker version 1.1.6
2022-04-02 16:22:19 - Only predicted and actual consumptions are multiplied by a PUE coefficient of 1.59 (Rhonda Ascierto, 2019, Uptime Institute Global Data Center Survey).
2022-04-02 16:22:31 - The following components were found: GPU with device(s) Tesla V100-SXM2-32GB, Tesla V100-SXM2-32GB, Tesla V100-SXM2-32GB, Tesla V100-SXM2-32GB, Tesla V100-SXM2-32GB, Tesla V100-SXM2-32GB, Tesla V100-SXM2-32GB, Tesla V100-SXM2-32GB. CPU with device(s) cpu:1, cpu:0.
2022-04-02 16:22:31 - Monitoring thread started.
2022-04-02 16:24:57 - Epoch 1:
2022-04-02 16:24:57 - Duration: 0:02:00.08
2022-04-02 16:24:57 - Average power usage (W) for gpu: [44.487      45.89763636 44.487      44.969      44.999      45.451
 45.964      44.69163636]
2022-04-02 16:24:57 - Average power usage (W) for cpu: [70.75647173 75.22458318]
2022-04-02 16:24:57 - Carbon intensities (gCO2/kWh) fetched every 900 s at detected location Paris, Île-de-France, FR: [294.2060978]
2022-04-02 16:24:57 - Average carbon intensity during training was 294.21 gCO2/kWh at detected location: Paris, Île-de-France, FR.
2022-04-02 16:24:57 - Live carbon intensity could not be fetched at detected location: Paris, Île-de-France, FR. Defaulted to average carbon intensity for EU-28 in 2017 of 294.21 gCO2/kWh.
2022-04-02 16:24:57 - Monitoring thread ended.
2022-04-02 16:25:27 - carbontracker version 1.1.6
2022-04-02 16:25:27 - Only predicted and actual consumptions are multiplied by a PUE coefficient of 1.59 (Rhonda Ascierto, 2019, Uptime Institute Global Data Center Survey).
2022-04-02 16:25:39 - The following components were found: GPU with device(s) Tesla V100-SXM2-32GB, Tesla V100-SXM2-32GB, Tesla V100-SXM2-32GB, Tesla V100-SXM2-32GB, Tesla V100-SXM2-32GB, Tesla V100-SXM2-32GB, Tesla V100-SXM2-32GB, Tesla V100-SXM2-32GB. CPU with device(s) cpu:1, cpu:0.
2022-04-02 16:25:39 - Monitoring thread started.
2022-04-02 16:28:04 - Epoch 1:
2022-04-02 16:28:04 - Duration: 0:02:00.08
2022-04-02 16:28:04 - Average power usage (W) for gpu: [44.487      45.85372727 44.487      44.97172727 44.999      45.451
 46.446      44.55990909]
2022-04-02 16:28:04 - Average power usage (W) for cpu: [70.85373918 75.14782336]
2022-04-02 16:28:04 - Carbon intensities (gCO2/kWh) fetched every 900 s at detected location Paris, Île-de-France, FR: [294.2060978]
2022-04-02 16:28:04 - Average carbon intensity during training was 294.21 gCO2/kWh at detected location: Paris, Île-de-France, FR.
2022-04-02 16:28:05 - Live carbon intensity could not be fetched at detected location: Paris, Île-de-France, FR. Defaulted to average carbon intensity for EU-28 in 2017 of 294.21 gCO2/kWh.
2022-04-02 16:28:05 - Monitoring thread ended.
2022-04-02 16:28:35 - carbontracker version 1.1.6
2022-04-02 16:28:35 - Only predicted and actual consumptions are multiplied by a PUE coefficient of 1.59 (Rhonda Ascierto, 2019, Uptime Institute Global Data Center Survey).
2022-04-02 16:28:47 - The following components were found: GPU with device(s) Tesla V100-SXM2-32GB, Tesla V100-SXM2-32GB, Tesla V100-SXM2-32GB, Tesla V100-SXM2-32GB, Tesla V100-SXM2-32GB, Tesla V100-SXM2-32GB, Tesla V100-SXM2-32GB, Tesla V100-SXM2-32GB. CPU with device(s) cpu:1, cpu:0.
2022-04-02 16:28:47 - Monitoring thread started.
2022-04-02 16:31:42 - Epoch 1:
2022-04-02 16:31:42 - Duration: 0:02:29.77
2022-04-02 16:31:42 - Average power usage (W) for gpu: [46.16514286 47.68971429 46.20278571 46.72128571 46.888      47.15057143
 47.62535714 46.40642857]
2022-04-02 16:31:42 - Average power usage (W) for cpu: [75.67220879 79.91534014]
2022-04-02 16:31:42 - Carbon intensities (gCO2/kWh) fetched every 900 s at detected location Paris, Île-de-France, FR: [294.2060978]
2022-04-02 16:31:42 - Average carbon intensity during training was 294.21 gCO2/kWh at detected location: Paris, Île-de-France, FR.
2022-04-02 16:31:42 - Live carbon intensity could not be fetched at detected location: Paris, Île-de-France, FR. Defaulted to average carbon intensity for EU-28 in 2017 of 294.21 gCO2/kWh.
2022-04-02 16:31:42 - Monitoring thread ended.
2022-04-02 16:32:12 - carbontracker version 1.1.6
2022-04-02 16:32:12 - Only predicted and actual consumptions are multiplied by a PUE coefficient of 1.59 (Rhonda Ascierto, 2019, Uptime Institute Global Data Center Survey).
2022-04-02 16:32:24 - The following components were found: GPU with device(s) Tesla V100-SXM2-32GB, Tesla V100-SXM2-32GB, Tesla V100-SXM2-32GB, Tesla V100-SXM2-32GB, Tesla V100-SXM2-32GB, Tesla V100-SXM2-32GB, Tesla V100-SXM2-32GB, Tesla V100-SXM2-32GB. CPU with device(s) cpu:1, cpu:0.
2022-04-02 16:32:24 - Monitoring thread started.
2022-04-02 16:35:16 - Epoch 1:
2022-04-02 16:35:16 - Duration: 0:02:26.57
2022-04-02 16:35:16 - Average power usage (W) for gpu: [46.16621429 47.71871429 46.20278571 46.41378571 46.40392857 48.38792857
 47.69757143 46.40321429]
2022-04-02 16:35:16 - Average power usage (W) for cpu: [75.68169093 79.79549807]
2022-04-02 16:35:16 - Carbon intensities (gCO2/kWh) fetched every 900 s at detected location Paris, Île-de-France, FR: [294.2060978]
2022-04-02 16:35:16 - Average carbon intensity during training was 294.21 gCO2/kWh at detected location: Paris, Île-de-France, FR.
2022-04-02 16:35:16 - Live carbon intensity could not be fetched at detected location: Paris, Île-de-France, FR. Defaulted to average carbon intensity for EU-28 in 2017 of 294.21 gCO2/kWh.
2022-04-02 16:35:16 - Monitoring thread ended.
2022-04-02 16:35:46 - carbontracker version 1.1.6
2022-04-02 16:35:46 - Only predicted and actual consumptions are multiplied by a PUE coefficient of 1.59 (Rhonda Ascierto, 2019, Uptime Institute Global Data Center Survey).
2022-04-02 16:35:58 - The following components were found: GPU with device(s) Tesla V100-SXM2-32GB, Tesla V100-SXM2-32GB, Tesla V100-SXM2-32GB, Tesla V100-SXM2-32GB, Tesla V100-SXM2-32GB, Tesla V100-SXM2-32GB, Tesla V100-SXM2-32GB, Tesla V100-SXM2-32GB. CPU with device(s) cpu:1, cpu:0.
2022-04-02 16:35:58 - Monitoring thread started.
2022-04-02 16:38:50 - Epoch 1:
2022-04-02 16:38:50 - Duration: 0:02:26.76
2022-04-02 16:38:50 - Average power usage (W) for gpu: [47.12728571 47.30785714 47.30221429 46.30721429 46.0625     46.60135714
 47.69757143 45.71971429]
2022-04-02 16:38:50 - Average power usage (W) for cpu: [75.88123315 79.94263346]
2022-04-02 16:38:50 - Carbon intensities (gCO2/kWh) fetched every 900 s at detected location Paris, Île-de-France, FR: [294.2060978]
2022-04-02 16:38:50 - Average carbon intensity during training was 294.21 gCO2/kWh at detected location: Paris, Île-de-France, FR.
2022-04-02 16:38:50 - Live carbon intensity could not be fetched at detected location: Paris, Île-de-France, FR. Defaulted to average carbon intensity for EU-28 in 2017 of 294.21 gCO2/kWh.
2022-04-02 16:38:50 - Monitoring thread ended.
2022-04-02 16:39:20 - carbontracker version 1.1.6
2022-04-02 16:39:20 - Only predicted and actual consumptions are multiplied by a PUE coefficient of 1.59 (Rhonda Ascierto, 2019, Uptime Institute Global Data Center Survey).
2022-04-02 16:39:32 - The following components were found: GPU with device(s) Tesla V100-SXM2-32GB, Tesla V100-SXM2-32GB, Tesla V100-SXM2-32GB, Tesla V100-SXM2-32GB, Tesla V100-SXM2-32GB, Tesla V100-SXM2-32GB, Tesla V100-SXM2-32GB, Tesla V100-SXM2-32GB. CPU with device(s) cpu:1, cpu:0.
2022-04-02 16:39:32 - Monitoring thread started.
2022-04-02 16:42:20 - Epoch 1:
2022-04-02 16:42:20 - Duration: 0:02:22.56
2022-04-02 16:42:20 - Average power usage (W) for gpu: [45.55676923 45.85884615 45.89338462 44.969      46.10653846 45.46961538
 47.01769231 46.47638462]
2022-04-02 16:42:20 - Average power usage (W) for cpu: [76.06910823 80.12617038]
2022-04-02 16:42:20 - Carbon intensities (gCO2/kWh) fetched every 900 s at detected location Paris, Île-de-France, FR: [294.2060978]
2022-04-02 16:42:20 - Average carbon intensity during training was 294.21 gCO2/kWh at detected location: Paris, Île-de-France, FR.
2022-04-02 16:42:20 - Live carbon intensity could not be fetched at detected location: Paris, Île-de-France, FR. Defaulted to average carbon intensity for EU-28 in 2017 of 294.21 gCO2/kWh.
2022-04-02 16:42:20 - Monitoring thread ended.
2022-04-02 16:42:50 - carbontracker version 1.1.6
2022-04-02 16:42:50 - Only predicted and actual consumptions are multiplied by a PUE coefficient of 1.59 (Rhonda Ascierto, 2019, Uptime Institute Global Data Center Survey).
2022-04-02 16:43:02 - The following components were found: GPU with device(s) Tesla V100-SXM2-32GB, Tesla V100-SXM2-32GB, Tesla V100-SXM2-32GB, Tesla V100-SXM2-32GB, Tesla V100-SXM2-32GB, Tesla V100-SXM2-32GB, Tesla V100-SXM2-32GB, Tesla V100-SXM2-32GB. CPU with device(s) cpu:1, cpu:0.
2022-04-02 16:43:02 - Monitoring thread started.
2022-04-02 16:46:09 - Epoch 1:
2022-04-02 16:46:09 - Duration: 0:02:41.49
2022-04-02 16:46:09 - Average power usage (W) for gpu: [45.8908     49.62293333 46.0884     46.2814     45.92733333 49.05773333
 47.80486667 47.75333333]
2022-04-02 16:46:09 - Average power usage (W) for cpu: [75.31539567 79.88855673]
2022-04-02 16:46:09 - Carbon intensities (gCO2/kWh) fetched every 900 s at detected location Paris, Île-de-France, FR: [294.2060978]
2022-04-02 16:46:09 - Average carbon intensity during training was 294.21 gCO2/kWh at detected location: Paris, Île-de-France, FR.
2022-04-02 16:46:10 - Live carbon intensity could not be fetched at detected location: Paris, Île-de-France, FR. Defaulted to average carbon intensity for EU-28 in 2017 of 294.21 gCO2/kWh.
2022-04-02 16:46:10 - Monitoring thread ended.
2022-04-02 16:46:40 - carbontracker version 1.1.6
2022-04-02 16:46:40 - Only predicted and actual consumptions are multiplied by a PUE coefficient of 1.59 (Rhonda Ascierto, 2019, Uptime Institute Global Data Center Survey).
2022-04-02 16:46:52 - The following components were found: GPU with device(s) Tesla V100-SXM2-32GB, Tesla V100-SXM2-32GB, Tesla V100-SXM2-32GB, Tesla V100-SXM2-32GB, Tesla V100-SXM2-32GB, Tesla V100-SXM2-32GB, Tesla V100-SXM2-32GB, Tesla V100-SXM2-32GB. CPU with device(s) cpu:1, cpu:0.
2022-04-02 16:46:52 - Monitoring thread started.
2022-04-02 16:49:58 - Epoch 1:
2022-04-02 16:49:58 - Duration: 0:02:40.79
2022-04-02 16:49:58 - Average power usage (W) for gpu: [45.92293333 47.28446667 46.05626667 47.14686667 48.6874     46.46433333
 47.0378     48.46193333]
2022-04-02 16:49:58 - Average power usage (W) for cpu: [75.11352833 79.81144527]
2022-04-02 16:49:58 - Carbon intensities (gCO2/kWh) fetched every 900 s at detected location Paris, Île-de-France, FR: [294.2060978]
2022-04-02 16:49:58 - Average carbon intensity during training was 294.21 gCO2/kWh at detected location: Paris, Île-de-France, FR.
2022-04-02 16:49:58 - Live carbon intensity could not be fetched at detected location: Paris, Île-de-France, FR. Defaulted to average carbon intensity for EU-28 in 2017 of 294.21 gCO2/kWh.
2022-04-02 16:49:58 - Monitoring thread ended.
2022-04-02 16:50:28 - carbontracker version 1.1.6
2022-04-02 16:50:28 - Only predicted and actual consumptions are multiplied by a PUE coefficient of 1.59 (Rhonda Ascierto, 2019, Uptime Institute Global Data Center Survey).
2022-04-02 16:50:30 - The following components were found: GPU with device(s) Tesla V100-SXM2-32GB, Tesla V100-SXM2-32GB, Tesla V100-SXM2-32GB, Tesla V100-SXM2-32GB, Tesla V100-SXM2-32GB, Tesla V100-SXM2-32GB, Tesla V100-SXM2-32GB, Tesla V100-SXM2-32GB. CPU with device(s) cpu:1, cpu:0.
2022-04-02 16:50:30 - Monitoring thread started.
2022-04-02 16:53:27 - Epoch 1:
2022-04-02 16:53:27 - Duration: 0:02:26.86
2022-04-02 16:53:27 - Average power usage (W) for gpu: [44.62042857 47.10128571 46.20385714 46.79014286 45.3415     47.3895
 47.59107143 47.50557143]
2022-04-02 16:53:27 - Average power usage (W) for cpu: [76.06249323 80.24671915]
2022-04-02 16:53:27 - Carbon intensities (gCO2/kWh) fetched every 900 s at detected location Paris, Île-de-France, FR: [294.2060978]
2022-04-02 16:53:27 - Average carbon intensity during training was 294.21 gCO2/kWh at detected location: Paris, Île-de-France, FR.
2022-04-02 16:53:27 - Live carbon intensity could not be fetched at detected location: Paris, Île-de-France, FR. Defaulted to average carbon intensity for EU-28 in 2017 of 294.21 gCO2/kWh.
2022-04-02 16:53:27 - Monitoring thread ended.
2022-04-02 16:53:57 - carbontracker version 1.1.6
2022-04-02 16:53:57 - Only predicted and actual consumptions are multiplied by a PUE coefficient of 1.59 (Rhonda Ascierto, 2019, Uptime Institute Global Data Center Survey).
2022-04-02 16:54:03 - The following components were found: GPU with device(s) Tesla V100-SXM2-32GB, Tesla V100-SXM2-32GB, Tesla V100-SXM2-32GB, Tesla V100-SXM2-32GB, Tesla V100-SXM2-32GB, Tesla V100-SXM2-32GB, Tesla V100-SXM2-32GB, Tesla V100-SXM2-32GB. CPU with device(s) cpu:1, cpu:0.
2022-04-02 16:54:03 - Monitoring thread started.
2022-04-02 16:57:17 - Epoch 1:
2022-04-02 16:57:17 - Duration: 0:02:44.99
2022-04-02 16:57:17 - Average power usage (W) for gpu: [47.49413333 48.23646667 47.30446667 47.7884     47.3712     48.05466667
 46.42193333 44.61066667]
2022-04-02 16:57:17 - Average power usage (W) for cpu: [75.46071567 80.110826  ]
2022-04-02 16:57:18 - Carbon intensities (gCO2/kWh) fetched every 900 s at detected location Paris, Île-de-France, FR: [294.2060978]
2022-04-02 16:57:18 - Average carbon intensity during training was 294.21 gCO2/kWh at detected location: Paris, Île-de-France, FR.
2022-04-02 16:57:18 - Live carbon intensity could not be fetched at detected location: Paris, Île-de-France, FR. Defaulted to average carbon intensity for EU-28 in 2017 of 294.21 gCO2/kWh.
2022-04-02 16:57:18 - Monitoring thread ended.
2022-04-02 16:57:48 - carbontracker version 1.1.6
2022-04-02 16:57:48 - Only predicted and actual consumptions are multiplied by a PUE coefficient of 1.59 (Rhonda Ascierto, 2019, Uptime Institute Global Data Center Survey).
2022-04-02 16:57:53 - The following components were found: GPU with device(s) Tesla V100-SXM2-32GB, Tesla V100-SXM2-32GB, Tesla V100-SXM2-32GB, Tesla V100-SXM2-32GB, Tesla V100-SXM2-32GB, Tesla V100-SXM2-32GB, Tesla V100-SXM2-32GB, Tesla V100-SXM2-32GB. CPU with device(s) cpu:1, cpu:0.
2022-04-02 16:57:53 - Monitoring thread started.
2022-04-02 17:00:49 - Epoch 1:
2022-04-02 17:00:49 - Duration: 0:02:26.26
2022-04-02 17:00:49 - Average power usage (W) for gpu: [47.67457143 49.09242857 46.20064286 46.373      48.536      46.77335714
 48.90157143 45.81785714]
2022-04-02 17:00:49 - Average power usage (W) for cpu: [75.79263529 79.82814293]
2022-04-02 17:00:50 - Carbon intensities (gCO2/kWh) fetched every 900 s at detected location Paris, Île-de-France, FR: [294.2060978]
2022-04-02 17:00:50 - Average carbon intensity during training was 294.21 gCO2/kWh at detected location: Paris, Île-de-France, FR.
2022-04-02 17:00:50 - Live carbon intensity could not be fetched at detected location: Paris, Île-de-France, FR. Defaulted to average carbon intensity for EU-28 in 2017 of 294.21 gCO2/kWh.
2022-04-02 17:00:50 - Monitoring thread ended.
2022-04-02 17:01:20 - carbontracker version 1.1.6
2022-04-02 17:01:20 - Only predicted and actual consumptions are multiplied by a PUE coefficient of 1.59 (Rhonda Ascierto, 2019, Uptime Institute Global Data Center Survey).
2022-04-02 17:01:25 - The following components were found: GPU with device(s) Tesla V100-SXM2-32GB, Tesla V100-SXM2-32GB, Tesla V100-SXM2-32GB, Tesla V100-SXM2-32GB, Tesla V100-SXM2-32GB, Tesla V100-SXM2-32GB, Tesla V100-SXM2-32GB, Tesla V100-SXM2-32GB. CPU with device(s) cpu:1, cpu:0.
2022-04-02 17:01:25 - Monitoring thread started.
2022-04-02 17:04:22 - Epoch 1:
2022-04-02 17:04:22 - Duration: 0:02:26.67
2022-04-02 17:04:22 - Average power usage (W) for gpu: [45.82221429 47.92742857 46.16942857 46.24692857 47.199      46.42864286
 47.6965     46.47421429]
2022-04-02 17:04:22 - Average power usage (W) for cpu: [76.01108769 80.45063723]
2022-04-02 17:04:22 - Carbon intensities (gCO2/kWh) fetched every 900 s at detected location Paris, Île-de-France, FR: [294.2060978]
2022-04-02 17:04:22 - Average carbon intensity during training was 294.21 gCO2/kWh at detected location: Paris, Île-de-France, FR.
2022-04-02 17:04:22 - Live carbon intensity could not be fetched at detected location: Paris, Île-de-France, FR. Defaulted to average carbon intensity for EU-28 in 2017 of 294.21 gCO2/kWh.
2022-04-02 17:04:22 - Monitoring thread ended.
2022-04-02 17:04:52 - carbontracker version 1.1.6
2022-04-02 17:04:52 - Only predicted and actual consumptions are multiplied by a PUE coefficient of 1.59 (Rhonda Ascierto, 2019, Uptime Institute Global Data Center Survey).
2022-04-02 17:04:57 - The following components were found: GPU with device(s) Tesla V100-SXM2-32GB, Tesla V100-SXM2-32GB, Tesla V100-SXM2-32GB, Tesla V100-SXM2-32GB, Tesla V100-SXM2-32GB, Tesla V100-SXM2-32GB, Tesla V100-SXM2-32GB, Tesla V100-SXM2-32GB. CPU with device(s) cpu:1, cpu:0.
2022-04-02 17:04:57 - Monitoring thread started.
2022-04-02 17:05:34 - Epoch 1:
2022-04-02 17:05:34 - Duration: 0:00:06.74
2022-04-02 17:05:34 - Average power usage (W) for gpu: [44.487 45.933 44.487 44.969 44.999 45.451 46.446 44.999]
2022-04-02 17:05:34 - Average power usage (W) for cpu: [71.757995 75.260916]
2022-04-02 17:05:34 - Carbon intensities (gCO2/kWh) fetched every 900 s at detected location Paris, Île-de-France, FR: [294.2060978]
2022-04-02 17:05:34 - Average carbon intensity during training was 294.21 gCO2/kWh at detected location: Paris, Île-de-France, FR.
2022-04-02 17:05:34 - Live carbon intensity could not be fetched at detected location: Paris, Île-de-France, FR. Defaulted to average carbon intensity for EU-28 in 2017 of 294.21 gCO2/kWh.
2022-04-02 17:05:34 - Monitoring thread ended.
2022-04-02 17:06:04 - carbontracker version 1.1.6
2022-04-02 17:06:04 - Only predicted and actual consumptions are multiplied by a PUE coefficient of 1.59 (Rhonda Ascierto, 2019, Uptime Institute Global Data Center Survey).
2022-04-02 17:06:06 - The following components were found: GPU with device(s) Tesla V100-SXM2-32GB, Tesla V100-SXM2-32GB, Tesla V100-SXM2-32GB, Tesla V100-SXM2-32GB, Tesla V100-SXM2-32GB, Tesla V100-SXM2-32GB, Tesla V100-SXM2-32GB, Tesla V100-SXM2-32GB. CPU with device(s) cpu:1, cpu:0.
2022-04-02 17:06:06 - Monitoring thread started.
2022-04-02 17:06:43 - Epoch 1:
2022-04-02 17:06:43 - Duration: 0:00:06.84
2022-04-02 17:06:43 - Average power usage (W) for gpu: [44.487 45.933 44.487 44.969 44.999 45.451 46.446 44.999]
2022-04-02 17:06:43 - Average power usage (W) for cpu: [71.44159 74.90319]
2022-04-02 17:06:43 - Carbon intensities (gCO2/kWh) fetched every 900 s at detected location Paris, Île-de-France, FR: [294.2060978]
2022-04-02 17:06:43 - Average carbon intensity during training was 294.21 gCO2/kWh at detected location: Paris, Île-de-France, FR.
2022-04-02 17:06:43 - Live carbon intensity could not be fetched at detected location: Paris, Île-de-France, FR. Defaulted to average carbon intensity for EU-28 in 2017 of 294.21 gCO2/kWh.
2022-04-02 17:06:43 - Monitoring thread ended.
2022-04-02 17:07:14 - carbontracker version 1.1.6
2022-04-02 17:07:14 - Only predicted and actual consumptions are multiplied by a PUE coefficient of 1.59 (Rhonda Ascierto, 2019, Uptime Institute Global Data Center Survey).
2022-04-02 17:07:15 - The following components were found: GPU with device(s) Tesla V100-SXM2-32GB, Tesla V100-SXM2-32GB, Tesla V100-SXM2-32GB, Tesla V100-SXM2-32GB, Tesla V100-SXM2-32GB, Tesla V100-SXM2-32GB, Tesla V100-SXM2-32GB, Tesla V100-SXM2-32GB. CPU with device(s) cpu:1, cpu:0.
2022-04-02 17:07:15 - Monitoring thread started.
2022-04-02 17:07:52 - Epoch 1:
2022-04-02 17:07:52 - Duration: 0:00:06.84
2022-04-02 17:07:52 - Average power usage (W) for gpu: [44.487 45.933 44.487 44.969 44.999 45.933 46.446 44.999]
2022-04-02 17:07:52 - Average power usage (W) for cpu: [71.557129 75.298513]
2022-04-02 17:07:52 - Carbon intensities (gCO2/kWh) fetched every 900 s at detected location Paris, Île-de-France, FR: [294.2060978]
2022-04-02 17:07:52 - Average carbon intensity during training was 294.21 gCO2/kWh at detected location: Paris, Île-de-France, FR.
2022-04-02 17:07:53 - Live carbon intensity could not be fetched at detected location: Paris, Île-de-France, FR. Defaulted to average carbon intensity for EU-28 in 2017 of 294.21 gCO2/kWh.
2022-04-02 17:07:53 - Monitoring thread ended.
2022-04-02 17:08:23 - carbontracker version 1.1.6
2022-04-02 17:08:23 - Only predicted and actual consumptions are multiplied by a PUE coefficient of 1.59 (Rhonda Ascierto, 2019, Uptime Institute Global Data Center Survey).
2022-04-02 17:08:24 - The following components were found: GPU with device(s) Tesla V100-SXM2-32GB, Tesla V100-SXM2-32GB, Tesla V100-SXM2-32GB, Tesla V100-SXM2-32GB, Tesla V100-SXM2-32GB, Tesla V100-SXM2-32GB, Tesla V100-SXM2-32GB, Tesla V100-SXM2-32GB. CPU with device(s) cpu:1, cpu:0.
2022-04-02 17:08:24 - Monitoring thread started.
2022-04-02 17:09:01 - Epoch 1:
2022-04-02 17:09:01 - Duration: 0:00:06.74
2022-04-02 17:09:01 - Average power usage (W) for gpu: [44.487 45.933 44.487 44.969 44.999 45.933 45.964 44.999]
2022-04-02 17:09:01 - Average power usage (W) for cpu: [71.423035 75.144217]
2022-04-02 17:09:01 - Carbon intensities (gCO2/kWh) fetched every 900 s at detected location Paris, Île-de-France, FR: [294.2060978]
2022-04-02 17:09:01 - Average carbon intensity during training was 294.21 gCO2/kWh at detected location: Paris, Île-de-France, FR.
2022-04-02 17:09:01 - Live carbon intensity could not be fetched at detected location: Paris, Île-de-France, FR. Defaulted to average carbon intensity for EU-28 in 2017 of 294.21 gCO2/kWh.
2022-04-02 17:09:01 - Monitoring thread ended.
2022-04-02 17:09:31 - carbontracker version 1.1.6
2022-04-02 17:09:31 - Only predicted and actual consumptions are multiplied by a PUE coefficient of 1.59 (Rhonda Ascierto, 2019, Uptime Institute Global Data Center Survey).
2022-04-02 17:09:33 - The following components were found: GPU with device(s) Tesla V100-SXM2-32GB, Tesla V100-SXM2-32GB, Tesla V100-SXM2-32GB, Tesla V100-SXM2-32GB, Tesla V100-SXM2-32GB, Tesla V100-SXM2-32GB, Tesla V100-SXM2-32GB, Tesla V100-SXM2-32GB. CPU with device(s) cpu:1, cpu:0.
2022-04-02 17:09:33 - Monitoring thread started.
2022-04-02 17:10:10 - Epoch 1:
2022-04-02 17:10:10 - Duration: 0:00:06.74
2022-04-02 17:10:10 - Average power usage (W) for gpu: [44.487 45.933 44.487 44.969 44.999 45.451 45.933 44.999]
2022-04-02 17:10:10 - Average power usage (W) for cpu: [71.374879 75.222952]
2022-04-02 17:10:10 - Carbon intensities (gCO2/kWh) fetched every 900 s at detected location Paris, Île-de-France, FR: [294.2060978]
2022-04-02 17:10:10 - Average carbon intensity during training was 294.21 gCO2/kWh at detected location: Paris, Île-de-France, FR.
2022-04-02 17:10:10 - Live carbon intensity could not be fetched at detected location: Paris, Île-de-France, FR. Defaulted to average carbon intensity for EU-28 in 2017 of 294.21 gCO2/kWh.
2022-04-02 17:10:10 - Monitoring thread ended.
2022-04-02 17:10:40 - carbontracker version 1.1.6
2022-04-02 17:10:40 - Only predicted and actual consumptions are multiplied by a PUE coefficient of 1.59 (Rhonda Ascierto, 2019, Uptime Institute Global Data Center Survey).
2022-04-02 17:10:43 - The following components were found: GPU with device(s) Tesla V100-SXM2-32GB, Tesla V100-SXM2-32GB, Tesla V100-SXM2-32GB, Tesla V100-SXM2-32GB, Tesla V100-SXM2-32GB, Tesla V100-SXM2-32GB, Tesla V100-SXM2-32GB, Tesla V100-SXM2-32GB. CPU with device(s) cpu:1, cpu:0.
2022-04-02 17:10:43 - Monitoring thread started.
2022-04-02 17:11:19 - Epoch 1:
2022-04-02 17:11:19 - Duration: 0:00:06.74
2022-04-02 17:11:19 - Average power usage (W) for gpu: [44.487 45.933 44.487 44.969 44.999 45.451 45.964 44.999]
2022-04-02 17:11:19 - Average power usage (W) for cpu: [71.24524  75.085501]
2022-04-02 17:11:19 - Carbon intensities (gCO2/kWh) fetched every 900 s at detected location Paris, Île-de-France, FR: [294.2060978]
2022-04-02 17:11:19 - Average carbon intensity during training was 294.21 gCO2/kWh at detected location: Paris, Île-de-France, FR.
2022-04-02 17:11:20 - Live carbon intensity could not be fetched at detected location: Paris, Île-de-France, FR. Defaulted to average carbon intensity for EU-28 in 2017 of 294.21 gCO2/kWh.
2022-04-02 17:11:20 - Monitoring thread ended.
2022-04-02 17:11:50 - carbontracker version 1.1.6
2022-04-02 17:11:50 - Only predicted and actual consumptions are multiplied by a PUE coefficient of 1.59 (Rhonda Ascierto, 2019, Uptime Institute Global Data Center Survey).
2022-04-02 17:11:52 - The following components were found: GPU with device(s) Tesla V100-SXM2-32GB, Tesla V100-SXM2-32GB, Tesla V100-SXM2-32GB, Tesla V100-SXM2-32GB, Tesla V100-SXM2-32GB, Tesla V100-SXM2-32GB, Tesla V100-SXM2-32GB, Tesla V100-SXM2-32GB. CPU with device(s) cpu:1, cpu:0.
2022-04-02 17:11:52 - Monitoring thread started.
2022-04-02 17:12:29 - Epoch 1:
2022-04-02 17:12:29 - Duration: 0:00:06.74
2022-04-02 17:12:29 - Average power usage (W) for gpu: [44.487 45.933 44.487 44.969 44.999 45.933 46.446 44.999]
2022-04-02 17:12:29 - Average power usage (W) for cpu: [71.366212 75.426137]
2022-04-02 17:12:29 - Carbon intensities (gCO2/kWh) fetched every 900 s at detected location Paris, Île-de-France, FR: [294.2060978]
2022-04-02 17:12:29 - Average carbon intensity during training was 294.21 gCO2/kWh at detected location: Paris, Île-de-France, FR.
2022-04-02 17:12:29 - Live carbon intensity could not be fetched at detected location: Paris, Île-de-France, FR. Defaulted to average carbon intensity for EU-28 in 2017 of 294.21 gCO2/kWh.
2022-04-02 17:12:29 - Monitoring thread ended.
2022-04-02 17:12:59 - carbontracker version 1.1.6
2022-04-02 17:12:59 - Only predicted and actual consumptions are multiplied by a PUE coefficient of 1.59 (Rhonda Ascierto, 2019, Uptime Institute Global Data Center Survey).
2022-04-02 17:13:01 - The following components were found: GPU with device(s) Tesla V100-SXM2-32GB, Tesla V100-SXM2-32GB, Tesla V100-SXM2-32GB, Tesla V100-SXM2-32GB, Tesla V100-SXM2-32GB, Tesla V100-SXM2-32GB, Tesla V100-SXM2-32GB, Tesla V100-SXM2-32GB. CPU with device(s) cpu:1, cpu:0.
2022-04-02 17:13:01 - Monitoring thread started.
2022-04-02 17:13:38 - Epoch 1:
2022-04-02 17:13:38 - Duration: 0:00:06.84
2022-04-02 17:13:38 - Average power usage (W) for gpu: [44.487 45.933 44.487 44.969 44.999 45.933 45.964 44.516]
2022-04-02 17:13:38 - Average power usage (W) for cpu: [71.319336 75.305837]
2022-04-02 17:13:38 - Carbon intensities (gCO2/kWh) fetched every 900 s at detected location Paris, Île-de-France, FR: [294.2060978]
2022-04-02 17:13:38 - Average carbon intensity during training was 294.21 gCO2/kWh at detected location: Paris, Île-de-France, FR.
2022-04-02 17:13:38 - Live carbon intensity could not be fetched at detected location: Paris, Île-de-France, FR. Defaulted to average carbon intensity for EU-28 in 2017 of 294.21 gCO2/kWh.
2022-04-02 17:13:38 - Monitoring thread ended.
2022-04-02 17:14:08 - carbontracker version 1.1.6
2022-04-02 17:14:08 - Only predicted and actual consumptions are multiplied by a PUE coefficient of 1.59 (Rhonda Ascierto, 2019, Uptime Institute Global Data Center Survey).
2022-04-02 17:14:10 - The following components were found: GPU with device(s) Tesla V100-SXM2-32GB, Tesla V100-SXM2-32GB, Tesla V100-SXM2-32GB, Tesla V100-SXM2-32GB, Tesla V100-SXM2-32GB, Tesla V100-SXM2-32GB, Tesla V100-SXM2-32GB, Tesla V100-SXM2-32GB. CPU with device(s) cpu:1, cpu:0.
2022-04-02 17:14:10 - Monitoring thread started.
2022-04-02 17:14:47 - Epoch 1:
2022-04-02 17:14:47 - Duration: 0:00:06.74
2022-04-02 17:14:47 - Average power usage (W) for gpu: [44.487 45.933 44.487 44.969 44.999 45.933 45.964 44.999]
2022-04-02 17:14:47 - Average power usage (W) for cpu: [71.333862 75.346792]
2022-04-02 17:14:47 - Carbon intensities (gCO2/kWh) fetched every 900 s at detected location Paris, Île-de-France, FR: [294.2060978]
2022-04-02 17:14:47 - Average carbon intensity during training was 294.21 gCO2/kWh at detected location: Paris, Île-de-France, FR.
2022-04-02 17:14:47 - Live carbon intensity could not be fetched at detected location: Paris, Île-de-France, FR. Defaulted to average carbon intensity for EU-28 in 2017 of 294.21 gCO2/kWh.
2022-04-02 17:14:47 - Monitoring thread ended.
2022-04-02 17:15:17 - carbontracker version 1.1.6
2022-04-02 17:15:17 - Only predicted and actual consumptions are multiplied by a PUE coefficient of 1.59 (Rhonda Ascierto, 2019, Uptime Institute Global Data Center Survey).
2022-04-02 17:15:19 - The following components were found: GPU with device(s) Tesla V100-SXM2-32GB, Tesla V100-SXM2-32GB, Tesla V100-SXM2-32GB, Tesla V100-SXM2-32GB, Tesla V100-SXM2-32GB, Tesla V100-SXM2-32GB, Tesla V100-SXM2-32GB, Tesla V100-SXM2-32GB. CPU with device(s) cpu:1, cpu:0.
2022-04-02 17:15:19 - Monitoring thread started.
2022-04-02 17:15:52 - Epoch 1:
2022-04-02 17:15:52 - Duration: 0:00:02.74
2022-04-02 17:15:52 - Average power usage (W) for gpu: [44.487 45.933 44.487 44.969 44.999 45.933 45.964 44.999]
2022-04-02 17:15:52 - Average power usage (W) for cpu: [71.465271 75.411062]
2022-04-02 17:15:52 - Carbon intensities (gCO2/kWh) fetched every 900 s at detected location Paris, Île-de-France, FR: [294.2060978]
2022-04-02 17:15:52 - Average carbon intensity during training was 294.21 gCO2/kWh at detected location: Paris, Île-de-France, FR.
2022-04-02 17:15:52 - Live carbon intensity could not be fetched at detected location: Paris, Île-de-France, FR. Defaulted to average carbon intensity for EU-28 in 2017 of 294.21 gCO2/kWh.
2022-04-02 17:15:52 - Monitoring thread ended.
2022-04-02 17:16:22 - carbontracker version 1.1.6
2022-04-02 17:16:22 - Only predicted and actual consumptions are multiplied by a PUE coefficient of 1.59 (Rhonda Ascierto, 2019, Uptime Institute Global Data Center Survey).
2022-04-02 17:16:27 - The following components were found: GPU with device(s) Tesla V100-SXM2-32GB, Tesla V100-SXM2-32GB, Tesla V100-SXM2-32GB, Tesla V100-SXM2-32GB, Tesla V100-SXM2-32GB, Tesla V100-SXM2-32GB, Tesla V100-SXM2-32GB, Tesla V100-SXM2-32GB. CPU with device(s) cpu:1, cpu:0.
2022-04-02 17:16:27 - Monitoring thread started.
2022-04-02 17:17:00 - Epoch 1:
2022-04-02 17:17:00 - Duration: 0:00:03.04
2022-04-02 17:17:00 - Average power usage (W) for gpu: [44.487 45.933 44.516 44.969 44.999 45.451 45.964 44.999]
2022-04-02 17:17:00 - Average power usage (W) for cpu: [71.233643 75.423696]
2022-04-02 17:17:01 - Carbon intensities (gCO2/kWh) fetched every 900 s at detected location Paris, Île-de-France, FR: [294.2060978]
2022-04-02 17:17:01 - Average carbon intensity during training was 294.21 gCO2/kWh at detected location: Paris, Île-de-France, FR.
2022-04-02 17:17:01 - Live carbon intensity could not be fetched at detected location: Paris, Île-de-France, FR. Defaulted to average carbon intensity for EU-28 in 2017 of 294.21 gCO2/kWh.
2022-04-02 17:17:01 - Monitoring thread ended.
2022-04-02 17:17:31 - carbontracker version 1.1.6
2022-04-02 17:17:31 - Only predicted and actual consumptions are multiplied by a PUE coefficient of 1.59 (Rhonda Ascierto, 2019, Uptime Institute Global Data Center Survey).
2022-04-02 17:17:35 - The following components were found: GPU with device(s) Tesla V100-SXM2-32GB, Tesla V100-SXM2-32GB, Tesla V100-SXM2-32GB, Tesla V100-SXM2-32GB, Tesla V100-SXM2-32GB, Tesla V100-SXM2-32GB, Tesla V100-SXM2-32GB, Tesla V100-SXM2-32GB. CPU with device(s) cpu:1, cpu:0.
2022-04-02 17:17:35 - Monitoring thread started.
2022-04-02 17:18:12 - Epoch 1:
2022-04-02 17:18:12 - Duration: 0:00:07.04
2022-04-02 17:18:12 - Average power usage (W) for gpu: [44.487 45.933 44.487 44.969 44.999 45.451 46.446 44.999]
2022-04-02 17:18:12 - Average power usage (W) for cpu: [71.219727 75.261892]
2022-04-02 17:18:12 - Carbon intensities (gCO2/kWh) fetched every 900 s at detected location Paris, Île-de-France, FR: [294.2060978]
2022-04-02 17:18:12 - Average carbon intensity during training was 294.21 gCO2/kWh at detected location: Paris, Île-de-France, FR.
2022-04-02 17:18:13 - Live carbon intensity could not be fetched at detected location: Paris, Île-de-France, FR. Defaulted to average carbon intensity for EU-28 in 2017 of 294.21 gCO2/kWh.
2022-04-02 17:18:13 - Monitoring thread ended.
2022-04-02 17:18:43 - carbontracker version 1.1.6
2022-04-02 17:18:43 - Only predicted and actual consumptions are multiplied by a PUE coefficient of 1.59 (Rhonda Ascierto, 2019, Uptime Institute Global Data Center Survey).
2022-04-02 17:18:44 - The following components were found: GPU with device(s) Tesla V100-SXM2-32GB, Tesla V100-SXM2-32GB, Tesla V100-SXM2-32GB, Tesla V100-SXM2-32GB, Tesla V100-SXM2-32GB, Tesla V100-SXM2-32GB, Tesla V100-SXM2-32GB, Tesla V100-SXM2-32GB. CPU with device(s) cpu:1, cpu:0.
2022-04-02 17:18:44 - Monitoring thread started.
2022-04-02 17:19:21 - Epoch 1:
2022-04-02 17:19:21 - Duration: 0:00:07.14
2022-04-02 17:19:21 - Average power usage (W) for gpu: [44.487 45.933 44.487 44.969 44.999 45.451 45.964 44.999]
2022-04-02 17:19:21 - Average power usage (W) for cpu: [71.258607 75.334097]
2022-04-02 17:19:22 - Carbon intensities (gCO2/kWh) fetched every 900 s at detected location Paris, Île-de-France, FR: [294.2060978]
2022-04-02 17:19:22 - Average carbon intensity during training was 294.21 gCO2/kWh at detected location: Paris, Île-de-France, FR.
2022-04-02 17:19:22 - Live carbon intensity could not be fetched at detected location: Paris, Île-de-France, FR. Defaulted to average carbon intensity for EU-28 in 2017 of 294.21 gCO2/kWh.
2022-04-02 17:19:22 - Monitoring thread ended.
2022-04-02 17:19:52 - carbontracker version 1.1.6
2022-04-02 17:19:52 - Only predicted and actual consumptions are multiplied by a PUE coefficient of 1.59 (Rhonda Ascierto, 2019, Uptime Institute Global Data Center Survey).
2022-04-02 17:19:52 - The following components were found: GPU with device(s) Tesla V100-SXM2-32GB, Tesla V100-SXM2-32GB, Tesla V100-SXM2-32GB, Tesla V100-SXM2-32GB, Tesla V100-SXM2-32GB, Tesla V100-SXM2-32GB, Tesla V100-SXM2-32GB, Tesla V100-SXM2-32GB. CPU with device(s) cpu:1, cpu:0.
2022-04-02 17:19:52 - Monitoring thread started.
2022-04-02 17:20:25 - Epoch 1:
2022-04-02 17:20:26 - Duration: 0:00:03.14
2022-04-02 17:20:26 - Average power usage (W) for gpu: [44.487 45.933 44.487 44.969 44.999 45.451 46.446 44.999]
2022-04-02 17:20:26 - Average power usage (W) for cpu: [71.450928 75.496328]
2022-04-02 17:20:26 - Carbon intensities (gCO2/kWh) fetched every 900 s at detected location Paris, Île-de-France, FR: [294.2060978]
2022-04-02 17:20:26 - Average carbon intensity during training was 294.21 gCO2/kWh at detected location: Paris, Île-de-France, FR.
2022-04-02 17:20:26 - Live carbon intensity could not be fetched at detected location: Paris, Île-de-France, FR. Defaulted to average carbon intensity for EU-28 in 2017 of 294.21 gCO2/kWh.
2022-04-02 17:20:26 - Monitoring thread ended.
2022-04-02 17:20:56 - carbontracker version 1.1.6
2022-04-02 17:20:56 - Only predicted and actual consumptions are multiplied by a PUE coefficient of 1.59 (Rhonda Ascierto, 2019, Uptime Institute Global Data Center Survey).
2022-04-02 17:21:00 - The following components were found: GPU with device(s) Tesla V100-SXM2-32GB, Tesla V100-SXM2-32GB, Tesla V100-SXM2-32GB, Tesla V100-SXM2-32GB, Tesla V100-SXM2-32GB, Tesla V100-SXM2-32GB, Tesla V100-SXM2-32GB, Tesla V100-SXM2-32GB. CPU with device(s) cpu:1, cpu:0.
2022-04-02 17:21:00 - Monitoring thread started.
2022-04-02 17:21:37 - Epoch 1:
2022-04-02 17:21:37 - Duration: 0:00:07.14
2022-04-02 17:21:37 - Average power usage (W) for gpu: [44.487 45.933 44.487 44.969 44.999 45.451 46.446 44.999]
2022-04-02 17:21:37 - Average power usage (W) for cpu: [71.405518 75.233389]
2022-04-02 17:21:37 - Carbon intensities (gCO2/kWh) fetched every 900 s at detected location Paris, Île-de-France, FR: [294.2060978]
2022-04-02 17:21:37 - Average carbon intensity during training was 294.21 gCO2/kWh at detected location: Paris, Île-de-France, FR.
2022-04-02 17:21:38 - Live carbon intensity could not be fetched at detected location: Paris, Île-de-France, FR. Defaulted to average carbon intensity for EU-28 in 2017 of 294.21 gCO2/kWh.
2022-04-02 17:21:38 - Monitoring thread ended.
2022-04-02 17:22:08 - carbontracker version 1.1.6
2022-04-02 17:22:08 - Only predicted and actual consumptions are multiplied by a PUE coefficient of 1.59 (Rhonda Ascierto, 2019, Uptime Institute Global Data Center Survey).
2022-04-02 17:22:09 - The following components were found: GPU with device(s) Tesla V100-SXM2-32GB, Tesla V100-SXM2-32GB, Tesla V100-SXM2-32GB, Tesla V100-SXM2-32GB, Tesla V100-SXM2-32GB, Tesla V100-SXM2-32GB, Tesla V100-SXM2-32GB, Tesla V100-SXM2-32GB. CPU with device(s) cpu:1, cpu:0.
2022-04-02 17:22:09 - Monitoring thread started.
2022-04-02 17:22:47 - Epoch 1:
2022-04-02 17:22:47 - Duration: 0:00:07.14
2022-04-02 17:22:47 - Average power usage (W) for gpu: [44.487 45.964 44.969 44.969 44.999 45.451 46.446 44.999]
2022-04-02 17:22:47 - Average power usage (W) for cpu: [71.484619 75.266531]
2022-04-02 17:22:47 - Carbon intensities (gCO2/kWh) fetched every 900 s at detected location Paris, Île-de-France, FR: [294.2060978]
2022-04-02 17:22:47 - Average carbon intensity during training was 294.21 gCO2/kWh at detected location: Paris, Île-de-France, FR.
2022-04-02 17:22:47 - Live carbon intensity could not be fetched at detected location: Paris, Île-de-France, FR. Defaulted to average carbon intensity for EU-28 in 2017 of 294.21 gCO2/kWh.
2022-04-02 17:22:47 - Monitoring thread ended.
2022-04-02 17:23:17 - carbontracker version 1.1.6
2022-04-02 17:23:17 - Only predicted and actual consumptions are multiplied by a PUE coefficient of 1.59 (Rhonda Ascierto, 2019, Uptime Institute Global Data Center Survey).
2022-04-02 17:23:19 - The following components were found: GPU with device(s) Tesla V100-SXM2-32GB, Tesla V100-SXM2-32GB, Tesla V100-SXM2-32GB, Tesla V100-SXM2-32GB, Tesla V100-SXM2-32GB, Tesla V100-SXM2-32GB, Tesla V100-SXM2-32GB, Tesla V100-SXM2-32GB. CPU with device(s) cpu:1, cpu:0.
2022-04-02 17:23:19 - Monitoring thread started.
2022-04-02 17:23:56 - Epoch 1:
2022-04-02 17:23:56 - Duration: 0:00:07.04
2022-04-02 17:23:56 - Average power usage (W) for gpu: [44.487 45.964 44.487 44.969 44.999 45.451 46.446 44.999]
2022-04-02 17:23:56 - Average power usage (W) for cpu: [71.54779  75.254263]
2022-04-02 17:23:56 - Carbon intensities (gCO2/kWh) fetched every 900 s at detected location Paris, Île-de-France, FR: [294.2060978]
2022-04-02 17:23:56 - Average carbon intensity during training was 294.21 gCO2/kWh at detected location: Paris, Île-de-France, FR.
2022-04-02 17:23:56 - Live carbon intensity could not be fetched at detected location: Paris, Île-de-France, FR. Defaulted to average carbon intensity for EU-28 in 2017 of 294.21 gCO2/kWh.
2022-04-02 17:23:56 - Monitoring thread ended.
2022-04-02 17:24:26 - carbontracker version 1.1.6
2022-04-02 17:24:26 - Only predicted and actual consumptions are multiplied by a PUE coefficient of 1.59 (Rhonda Ascierto, 2019, Uptime Institute Global Data Center Survey).
2022-04-02 17:24:28 - The following components were found: GPU with device(s) Tesla V100-SXM2-32GB, Tesla V100-SXM2-32GB, Tesla V100-SXM2-32GB, Tesla V100-SXM2-32GB, Tesla V100-SXM2-32GB, Tesla V100-SXM2-32GB, Tesla V100-SXM2-32GB, Tesla V100-SXM2-32GB. CPU with device(s) cpu:1, cpu:0.
2022-04-02 17:24:28 - Monitoring thread started.
2022-04-02 17:25:05 - Epoch 1:
2022-04-02 17:25:05 - Duration: 0:00:07.14
2022-04-02 17:25:05 - Average power usage (W) for gpu: [44.487 45.933 44.487 44.969 44.999 45.451 46.446 44.999]
2022-04-02 17:25:05 - Average power usage (W) for cpu: [71.489807 75.197867]
2022-04-02 17:25:05 - Carbon intensities (gCO2/kWh) fetched every 900 s at detected location Paris, Île-de-France, FR: [294.2060978]
2022-04-02 17:25:05 - Average carbon intensity during training was 294.21 gCO2/kWh at detected location: Paris, Île-de-France, FR.
2022-04-02 17:25:06 - Live carbon intensity could not be fetched at detected location: Paris, Île-de-France, FR. Defaulted to average carbon intensity for EU-28 in 2017 of 294.21 gCO2/kWh.
2022-04-02 17:25:06 - Monitoring thread ended.
2022-04-02 17:25:36 - carbontracker version 1.1.6
2022-04-02 17:25:36 - Only predicted and actual consumptions are multiplied by a PUE coefficient of 1.59 (Rhonda Ascierto, 2019, Uptime Institute Global Data Center Survey).
2022-04-02 17:25:36 - The following components were found: GPU with device(s) Tesla V100-SXM2-32GB, Tesla V100-SXM2-32GB, Tesla V100-SXM2-32GB, Tesla V100-SXM2-32GB, Tesla V100-SXM2-32GB, Tesla V100-SXM2-32GB, Tesla V100-SXM2-32GB, Tesla V100-SXM2-32GB. CPU with device(s) cpu:1, cpu:0.
2022-04-02 17:25:36 - Monitoring thread started.
2022-04-02 17:26:13 - Epoch 1:
2022-04-02 17:26:13 - Duration: 0:00:07.14
2022-04-02 17:26:13 - Average power usage (W) for gpu: [44.487 45.933 44.969 44.999 44.999 45.451 46.446 44.999]
2022-04-02 17:26:13 - Average power usage (W) for cpu: [71.514038 75.462087]
2022-04-02 17:26:14 - Carbon intensities (gCO2/kWh) fetched every 900 s at detected location Paris, Île-de-France, FR: [294.2060978]
2022-04-02 17:26:14 - Average carbon intensity during training was 294.21 gCO2/kWh at detected location: Paris, Île-de-France, FR.
2022-04-02 17:26:14 - Live carbon intensity could not be fetched at detected location: Paris, Île-de-France, FR. Defaulted to average carbon intensity for EU-28 in 2017 of 294.21 gCO2/kWh.
2022-04-02 17:26:14 - Monitoring thread ended.
2022-04-02 17:26:44 - carbontracker version 1.1.6
2022-04-02 17:26:44 - Only predicted and actual consumptions are multiplied by a PUE coefficient of 1.59 (Rhonda Ascierto, 2019, Uptime Institute Global Data Center Survey).
2022-04-02 17:26:46 - The following components were found: GPU with device(s) Tesla V100-SXM2-32GB, Tesla V100-SXM2-32GB, Tesla V100-SXM2-32GB, Tesla V100-SXM2-32GB, Tesla V100-SXM2-32GB, Tesla V100-SXM2-32GB, Tesla V100-SXM2-32GB, Tesla V100-SXM2-32GB. CPU with device(s) cpu:1, cpu:0.
2022-04-02 17:26:46 - Monitoring thread started.
2022-04-02 17:27:19 - Epoch 1:
2022-04-02 17:27:19 - Duration: 0:00:03.04
2022-04-02 17:27:19 - Average power usage (W) for gpu: [44.487 45.933 44.487 44.969 44.999 45.451 46.416 44.999]
2022-04-02 17:27:19 - Average power usage (W) for cpu: [71.229187 75.403188]
2022-04-02 17:27:19 - Carbon intensities (gCO2/kWh) fetched every 900 s at detected location Paris, Île-de-France, FR: [294.2060978]
2022-04-02 17:27:19 - Average carbon intensity during training was 294.21 gCO2/kWh at detected location: Paris, Île-de-France, FR.
2022-04-02 17:27:19 - Live carbon intensity could not be fetched at detected location: Paris, Île-de-France, FR. Defaulted to average carbon intensity for EU-28 in 2017 of 294.21 gCO2/kWh.
2022-04-02 17:27:19 - Monitoring thread ended.
2022-04-02 17:27:49 - carbontracker version 1.1.6
2022-04-02 17:27:49 - Only predicted and actual consumptions are multiplied by a PUE coefficient of 1.59 (Rhonda Ascierto, 2019, Uptime Institute Global Data Center Survey).
2022-04-02 17:27:53 - The following components were found: GPU with device(s) Tesla V100-SXM2-32GB, Tesla V100-SXM2-32GB, Tesla V100-SXM2-32GB, Tesla V100-SXM2-32GB, Tesla V100-SXM2-32GB, Tesla V100-SXM2-32GB, Tesla V100-SXM2-32GB, Tesla V100-SXM2-32GB. CPU with device(s) cpu:1, cpu:0.
2022-04-02 17:27:53 - Monitoring thread started.
2022-04-02 17:28:30 - Epoch 1:
2022-04-02 17:28:30 - Duration: 0:00:06.74
2022-04-02 17:28:30 - Average power usage (W) for gpu: [44.487 45.933 44.969 44.969 44.999 45.451 46.446 44.999]
2022-04-02 17:28:30 - Average power usage (W) for cpu: [71.201234 75.067435]
2022-04-02 17:28:30 - Carbon intensities (gCO2/kWh) fetched every 900 s at detected location Paris, Île-de-France, FR: [294.2060978]
2022-04-02 17:28:30 - Average carbon intensity during training was 294.21 gCO2/kWh at detected location: Paris, Île-de-France, FR.
2022-04-02 17:28:30 - Live carbon intensity could not be fetched at detected location: Paris, Île-de-France, FR. Defaulted to average carbon intensity for EU-28 in 2017 of 294.21 gCO2/kWh.
2022-04-02 17:28:30 - Monitoring thread ended.
2022-04-02 17:29:01 - carbontracker version 1.1.6
2022-04-02 17:29:01 - Only predicted and actual consumptions are multiplied by a PUE coefficient of 1.59 (Rhonda Ascierto, 2019, Uptime Institute Global Data Center Survey).
2022-04-02 17:29:03 - The following components were found: GPU with device(s) Tesla V100-SXM2-32GB, Tesla V100-SXM2-32GB, Tesla V100-SXM2-32GB, Tesla V100-SXM2-32GB, Tesla V100-SXM2-32GB, Tesla V100-SXM2-32GB, Tesla V100-SXM2-32GB, Tesla V100-SXM2-32GB. CPU with device(s) cpu:1, cpu:0.
2022-04-02 17:29:03 - Monitoring thread started.
2022-04-02 17:29:35 - Epoch 1:
2022-04-02 17:29:35 - Duration: 0:00:02.73
2022-04-02 17:29:35 - Average power usage (W) for gpu: [44.487 45.964 44.487 44.969 44.999 45.451 46.446 44.999]
2022-04-02 17:29:35 - Average power usage (W) for cpu: [71.312744 75.202688]
2022-04-02 17:29:35 - Carbon intensities (gCO2/kWh) fetched every 900 s at detected location Paris, Île-de-France, FR: [294.2060978]
2022-04-02 17:29:35 - Average carbon intensity during training was 294.21 gCO2/kWh at detected location: Paris, Île-de-France, FR.
2022-04-02 17:29:36 - Live carbon intensity could not be fetched at detected location: Paris, Île-de-France, FR. Defaulted to average carbon intensity for EU-28 in 2017 of 294.21 gCO2/kWh.
2022-04-02 17:29:36 - Monitoring thread ended.
2022-04-02 17:30:06 - carbontracker version 1.1.6
2022-04-02 17:30:06 - Only predicted and actual consumptions are multiplied by a PUE coefficient of 1.59 (Rhonda Ascierto, 2019, Uptime Institute Global Data Center Survey).
2022-04-02 17:30:11 - The following components were found: GPU with device(s) Tesla V100-SXM2-32GB, Tesla V100-SXM2-32GB, Tesla V100-SXM2-32GB, Tesla V100-SXM2-32GB, Tesla V100-SXM2-32GB, Tesla V100-SXM2-32GB, Tesla V100-SXM2-32GB, Tesla V100-SXM2-32GB. CPU with device(s) cpu:1, cpu:0.
2022-04-02 17:30:11 - Monitoring thread started.
2022-04-02 17:30:48 - Epoch 1:
2022-04-02 17:30:48 - Duration: 0:00:06.84
2022-04-02 17:30:48 - Average power usage (W) for gpu: [44.487 45.933 44.487 44.969 44.999 45.933 45.933 44.999]
2022-04-02 17:30:48 - Average power usage (W) for cpu: [71.331605 75.170522]
2022-04-02 17:30:48 - Carbon intensities (gCO2/kWh) fetched every 900 s at detected location Paris, Île-de-France, FR: [294.2060978]
2022-04-02 17:30:48 - Average carbon intensity during training was 294.21 gCO2/kWh at detected location: Paris, Île-de-France, FR.
2022-04-02 17:30:48 - Live carbon intensity could not be fetched at detected location: Paris, Île-de-France, FR. Defaulted to average carbon intensity for EU-28 in 2017 of 294.21 gCO2/kWh.
2022-04-02 17:30:48 - Monitoring thread ended.
2022-04-02 17:31:18 - carbontracker version 1.1.6
2022-04-02 17:31:18 - Only predicted and actual consumptions are multiplied by a PUE coefficient of 1.59 (Rhonda Ascierto, 2019, Uptime Institute Global Data Center Survey).
2022-04-02 17:31:19 - The following components were found: GPU with device(s) Tesla V100-SXM2-32GB, Tesla V100-SXM2-32GB, Tesla V100-SXM2-32GB, Tesla V100-SXM2-32GB, Tesla V100-SXM2-32GB, Tesla V100-SXM2-32GB, Tesla V100-SXM2-32GB, Tesla V100-SXM2-32GB. CPU with device(s) cpu:1, cpu:0.
2022-04-02 17:31:19 - Monitoring thread started.
2022-04-02 17:31:56 - Epoch 1:
2022-04-02 17:31:56 - Duration: 0:00:06.74
2022-04-02 17:31:56 - Average power usage (W) for gpu: [44.487 45.933 44.487 44.969 44.999 45.451 45.964 44.999]
2022-04-02 17:31:56 - Average power usage (W) for cpu: [71.637573 75.209281]
2022-04-02 17:31:56 - Carbon intensities (gCO2/kWh) fetched every 900 s at detected location Paris, Île-de-France, FR: [294.2060978]
2022-04-02 17:31:56 - Average carbon intensity during training was 294.21 gCO2/kWh at detected location: Paris, Île-de-France, FR.
2022-04-02 17:31:56 - Live carbon intensity could not be fetched at detected location: Paris, Île-de-France, FR. Defaulted to average carbon intensity for EU-28 in 2017 of 294.21 gCO2/kWh.
2022-04-02 17:31:56 - Monitoring thread ended.
2022-04-02 17:32:26 - carbontracker version 1.1.6
2022-04-02 17:32:26 - Only predicted and actual consumptions are multiplied by a PUE coefficient of 1.59 (Rhonda Ascierto, 2019, Uptime Institute Global Data Center Survey).
2022-04-02 17:32:28 - The following components were found: GPU with device(s) Tesla V100-SXM2-32GB, Tesla V100-SXM2-32GB, Tesla V100-SXM2-32GB, Tesla V100-SXM2-32GB, Tesla V100-SXM2-32GB, Tesla V100-SXM2-32GB, Tesla V100-SXM2-32GB, Tesla V100-SXM2-32GB. CPU with device(s) cpu:1, cpu:0.
2022-04-02 17:32:28 - Monitoring thread started.
2022-04-02 17:33:04 - Epoch 1:
2022-04-02 17:33:04 - Duration: 0:00:06.74
2022-04-02 17:33:04 - Average power usage (W) for gpu: [44.487 45.933 44.969 44.969 44.999 45.451 45.964 44.999]
2022-04-02 17:33:04 - Average power usage (W) for cpu: [71.429199 75.217825]
2022-04-02 17:33:05 - Carbon intensities (gCO2/kWh) fetched every 900 s at detected location Paris, Île-de-France, FR: [294.2060978]
2022-04-02 17:33:05 - Average carbon intensity during training was 294.21 gCO2/kWh at detected location: Paris, Île-de-France, FR.
2022-04-02 17:33:05 - Live carbon intensity could not be fetched at detected location: Paris, Île-de-France, FR. Defaulted to average carbon intensity for EU-28 in 2017 of 294.21 gCO2/kWh.
2022-04-02 17:33:05 - Monitoring thread ended.
2022-04-02 17:33:35 - carbontracker version 1.1.6
2022-04-02 17:33:35 - Only predicted and actual consumptions are multiplied by a PUE coefficient of 1.59 (Rhonda Ascierto, 2019, Uptime Institute Global Data Center Survey).
2022-04-02 17:33:36 - The following components were found: GPU with device(s) Tesla V100-SXM2-32GB, Tesla V100-SXM2-32GB, Tesla V100-SXM2-32GB, Tesla V100-SXM2-32GB, Tesla V100-SXM2-32GB, Tesla V100-SXM2-32GB, Tesla V100-SXM2-32GB, Tesla V100-SXM2-32GB. CPU with device(s) cpu:1, cpu:0.
2022-04-02 17:33:36 - Monitoring thread started.
2022-04-02 17:34:13 - Epoch 1:
2022-04-02 17:34:13 - Duration: 0:00:06.74
2022-04-02 17:34:13 - Average power usage (W) for gpu: [44.487 45.933 44.487 44.969 44.999 45.933 46.446 44.999]
2022-04-02 17:34:13 - Average power usage (W) for cpu: [71.383606 75.215323]
2022-04-02 17:34:13 - Carbon intensities (gCO2/kWh) fetched every 900 s at detected location Paris, Île-de-France, FR: [294.2060978]
2022-04-02 17:34:13 - Average carbon intensity during training was 294.21 gCO2/kWh at detected location: Paris, Île-de-France, FR.
2022-04-02 17:34:13 - Live carbon intensity could not be fetched at detected location: Paris, Île-de-France, FR. Defaulted to average carbon intensity for EU-28 in 2017 of 294.21 gCO2/kWh.
2022-04-02 17:34:13 - Monitoring thread ended.
2022-04-02 17:34:43 - carbontracker version 1.1.6
2022-04-02 17:34:43 - Only predicted and actual consumptions are multiplied by a PUE coefficient of 1.59 (Rhonda Ascierto, 2019, Uptime Institute Global Data Center Survey).
2022-04-02 17:34:45 - The following components were found: GPU with device(s) Tesla V100-SXM2-32GB, Tesla V100-SXM2-32GB, Tesla V100-SXM2-32GB, Tesla V100-SXM2-32GB, Tesla V100-SXM2-32GB, Tesla V100-SXM2-32GB, Tesla V100-SXM2-32GB, Tesla V100-SXM2-32GB. CPU with device(s) cpu:1, cpu:0.
2022-04-02 17:34:45 - Monitoring thread started.
2022-04-02 17:35:21 - Epoch 1:
2022-04-02 17:35:21 - Duration: 0:00:06.74
2022-04-02 17:35:21 - Average power usage (W) for gpu: [44.487 45.933 44.487 44.969 44.999 45.451 45.964 44.999]
2022-04-02 17:35:21 - Average power usage (W) for cpu: [71.2724   75.595449]
2022-04-02 17:35:22 - Carbon intensities (gCO2/kWh) fetched every 900 s at detected location Paris, Île-de-France, FR: [294.2060978]
2022-04-02 17:35:22 - Average carbon intensity during training was 294.21 gCO2/kWh at detected location: Paris, Île-de-France, FR.
2022-04-02 17:35:22 - Live carbon intensity could not be fetched at detected location: Paris, Île-de-France, FR. Defaulted to average carbon intensity for EU-28 in 2017 of 294.21 gCO2/kWh.
2022-04-02 17:35:22 - Monitoring thread ended.
2022-04-02 17:35:52 - carbontracker version 1.1.6
2022-04-02 17:35:52 - Only predicted and actual consumptions are multiplied by a PUE coefficient of 1.59 (Rhonda Ascierto, 2019, Uptime Institute Global Data Center Survey).
2022-04-02 17:35:54 - The following components were found: GPU with device(s) Tesla V100-SXM2-32GB, Tesla V100-SXM2-32GB, Tesla V100-SXM2-32GB, Tesla V100-SXM2-32GB, Tesla V100-SXM2-32GB, Tesla V100-SXM2-32GB, Tesla V100-SXM2-32GB, Tesla V100-SXM2-32GB. CPU with device(s) cpu:1, cpu:0.
2022-04-02 17:35:54 - Monitoring thread started.
2022-04-02 17:36:30 - Epoch 1:
2022-04-02 17:36:30 - Duration: 0:00:06.74
2022-04-02 17:36:30 - Average power usage (W) for gpu: [44.487 45.933 44.969 44.969 44.999 45.933 45.964 44.999]
2022-04-02 17:36:30 - Average power usage (W) for cpu: [71.348206 75.216788]
2022-04-02 17:36:31 - Carbon intensities (gCO2/kWh) fetched every 900 s at detected location Paris, Île-de-France, FR: [294.2060978]
2022-04-02 17:36:31 - Average carbon intensity during training was 294.21 gCO2/kWh at detected location: Paris, Île-de-France, FR.
2022-04-02 17:36:31 - Live carbon intensity could not be fetched at detected location: Paris, Île-de-France, FR. Defaulted to average carbon intensity for EU-28 in 2017 of 294.21 gCO2/kWh.
2022-04-02 17:36:31 - Monitoring thread ended.
2022-04-02 17:37:01 - carbontracker version 1.1.6
2022-04-02 17:37:01 - Only predicted and actual consumptions are multiplied by a PUE coefficient of 1.59 (Rhonda Ascierto, 2019, Uptime Institute Global Data Center Survey).
2022-04-02 17:37:03 - The following components were found: GPU with device(s) Tesla V100-SXM2-32GB, Tesla V100-SXM2-32GB, Tesla V100-SXM2-32GB, Tesla V100-SXM2-32GB, Tesla V100-SXM2-32GB, Tesla V100-SXM2-32GB, Tesla V100-SXM2-32GB, Tesla V100-SXM2-32GB. CPU with device(s) cpu:1, cpu:0.
2022-04-02 17:37:03 - Monitoring thread started.
2022-04-02 17:37:40 - Epoch 1:
2022-04-02 17:37:40 - Duration: 0:00:06.74
2022-04-02 17:37:40 - Average power usage (W) for gpu: [44.487 45.933 44.487 44.969 44.999 45.933 45.964 44.999]
2022-04-02 17:37:40 - Average power usage (W) for cpu: [71.501953 75.13323 ]
2022-04-02 17:37:40 - Carbon intensities (gCO2/kWh) fetched every 900 s at detected location Paris, Île-de-France, FR: [294.2060978]
2022-04-02 17:37:40 - Average carbon intensity during training was 294.21 gCO2/kWh at detected location: Paris, Île-de-France, FR.
2022-04-02 17:37:40 - Live carbon intensity could not be fetched at detected location: Paris, Île-de-France, FR. Defaulted to average carbon intensity for EU-28 in 2017 of 294.21 gCO2/kWh.
2022-04-02 17:37:40 - Monitoring thread ended.
2022-04-02 17:38:10 - carbontracker version 1.1.6
2022-04-02 17:38:10 - Only predicted and actual consumptions are multiplied by a PUE coefficient of 1.59 (Rhonda Ascierto, 2019, Uptime Institute Global Data Center Survey).
2022-04-02 17:38:12 - The following components were found: GPU with device(s) Tesla V100-SXM2-32GB, Tesla V100-SXM2-32GB, Tesla V100-SXM2-32GB, Tesla V100-SXM2-32GB, Tesla V100-SXM2-32GB, Tesla V100-SXM2-32GB, Tesla V100-SXM2-32GB, Tesla V100-SXM2-32GB. CPU with device(s) cpu:1, cpu:0.
2022-04-02 17:38:12 - Monitoring thread started.
2022-04-02 17:38:45 - Epoch 1:
2022-04-02 17:38:45 - Duration: 0:00:02.73
2022-04-02 17:38:45 - Average power usage (W) for gpu: [44.487 45.933 44.487 44.969 44.999 45.451 46.446 44.999]
2022-04-02 17:38:45 - Average power usage (W) for cpu: [71.366151 75.155814]
2022-04-02 17:38:45 - Carbon intensities (gCO2/kWh) fetched every 900 s at detected location Paris, Île-de-France, FR: [294.2060978]
2022-04-02 17:38:45 - Average carbon intensity during training was 294.21 gCO2/kWh at detected location: Paris, Île-de-France, FR.
2022-04-02 17:38:45 - Live carbon intensity could not be fetched at detected location: Paris, Île-de-France, FR. Defaulted to average carbon intensity for EU-28 in 2017 of 294.21 gCO2/kWh.
2022-04-02 17:38:45 - Monitoring thread ended.
2022-04-02 17:39:15 - carbontracker version 1.1.6
2022-04-02 17:39:15 - Only predicted and actual consumptions are multiplied by a PUE coefficient of 1.59 (Rhonda Ascierto, 2019, Uptime Institute Global Data Center Survey).
2022-04-02 17:39:20 - The following components were found: GPU with device(s) Tesla V100-SXM2-32GB, Tesla V100-SXM2-32GB, Tesla V100-SXM2-32GB, Tesla V100-SXM2-32GB, Tesla V100-SXM2-32GB, Tesla V100-SXM2-32GB, Tesla V100-SXM2-32GB, Tesla V100-SXM2-32GB. CPU with device(s) cpu:1, cpu:0.
2022-04-02 17:39:20 - Monitoring thread started.
2022-04-02 17:39:53 - Epoch 1:
2022-04-02 17:39:53 - Duration: 0:00:02.74
2022-04-02 17:39:53 - Average power usage (W) for gpu: [44.487 45.933 44.487 44.969 44.999 45.933 45.964 44.516]
2022-04-02 17:39:53 - Average power usage (W) for cpu: [71.296753 75.311148]
2022-04-02 17:39:53 - Carbon intensities (gCO2/kWh) fetched every 900 s at detected location Paris, Île-de-France, FR: [294.2060978]
2022-04-02 17:39:53 - Average carbon intensity during training was 294.21 gCO2/kWh at detected location: Paris, Île-de-France, FR.
2022-04-02 17:39:53 - Live carbon intensity could not be fetched at detected location: Paris, Île-de-France, FR. Defaulted to average carbon intensity for EU-28 in 2017 of 294.21 gCO2/kWh.
2022-04-02 17:39:53 - Monitoring thread ended.
2022-04-02 17:40:23 - carbontracker version 1.1.6
2022-04-02 17:40:23 - Only predicted and actual consumptions are multiplied by a PUE coefficient of 1.59 (Rhonda Ascierto, 2019, Uptime Institute Global Data Center Survey).
2022-04-02 17:40:28 - The following components were found: GPU with device(s) Tesla V100-SXM2-32GB, Tesla V100-SXM2-32GB, Tesla V100-SXM2-32GB, Tesla V100-SXM2-32GB, Tesla V100-SXM2-32GB, Tesla V100-SXM2-32GB, Tesla V100-SXM2-32GB, Tesla V100-SXM2-32GB. CPU with device(s) cpu:1, cpu:0.
2022-04-02 17:40:28 - Monitoring thread started.
2022-04-02 17:41:05 - Epoch 1:
2022-04-02 17:41:05 - Duration: 0:00:06.74
2022-04-02 17:41:05 - Average power usage (W) for gpu: [44.487 45.933 44.969 44.969 44.999 45.451 45.964 44.999]
2022-04-02 17:41:05 - Average power usage (W) for cpu: [71.390443 75.197623]
2022-04-02 17:41:05 - Carbon intensities (gCO2/kWh) fetched every 900 s at detected location Paris, Île-de-France, FR: [294.2060978]
2022-04-02 17:41:05 - Average carbon intensity during training was 294.21 gCO2/kWh at detected location: Paris, Île-de-France, FR.
2022-04-02 17:41:05 - Live carbon intensity could not be fetched at detected location: Paris, Île-de-France, FR. Defaulted to average carbon intensity for EU-28 in 2017 of 294.21 gCO2/kWh.
2022-04-02 17:41:05 - Monitoring thread ended.
2022-04-02 17:41:35 - carbontracker version 1.1.6
2022-04-02 17:41:35 - Only predicted and actual consumptions are multiplied by a PUE coefficient of 1.59 (Rhonda Ascierto, 2019, Uptime Institute Global Data Center Survey).
2022-04-02 17:41:37 - The following components were found: GPU with device(s) Tesla V100-SXM2-32GB, Tesla V100-SXM2-32GB, Tesla V100-SXM2-32GB, Tesla V100-SXM2-32GB, Tesla V100-SXM2-32GB, Tesla V100-SXM2-32GB, Tesla V100-SXM2-32GB, Tesla V100-SXM2-32GB. CPU with device(s) cpu:1, cpu:0.
2022-04-02 17:41:37 - Monitoring thread started.
2022-04-02 17:42:14 - Epoch 1:
2022-04-02 17:42:14 - Duration: 0:00:06.74
2022-04-02 17:42:14 - Average power usage (W) for gpu: [44.487 45.933 44.487 44.969 44.999 45.421 45.964 44.999]
2022-04-02 17:42:14 - Average power usage (W) for cpu: [71.389222 75.417166]
2022-04-02 17:42:14 - Carbon intensities (gCO2/kWh) fetched every 900 s at detected location Paris, Île-de-France, FR: [294.2060978]
2022-04-02 17:42:14 - Average carbon intensity during training was 294.21 gCO2/kWh at detected location: Paris, Île-de-France, FR.
2022-04-02 17:42:14 - Live carbon intensity could not be fetched at detected location: Paris, Île-de-France, FR. Defaulted to average carbon intensity for EU-28 in 2017 of 294.21 gCO2/kWh.
2022-04-02 17:42:14 - Monitoring thread ended.
2022-04-02 17:42:44 - carbontracker version 1.1.6
2022-04-02 17:42:44 - Only predicted and actual consumptions are multiplied by a PUE coefficient of 1.59 (Rhonda Ascierto, 2019, Uptime Institute Global Data Center Survey).
2022-04-02 17:42:46 - The following components were found: GPU with device(s) Tesla V100-SXM2-32GB, Tesla V100-SXM2-32GB, Tesla V100-SXM2-32GB, Tesla V100-SXM2-32GB, Tesla V100-SXM2-32GB, Tesla V100-SXM2-32GB, Tesla V100-SXM2-32GB, Tesla V100-SXM2-32GB. CPU with device(s) cpu:1, cpu:0.
2022-04-02 17:42:46 - Monitoring thread started.
2022-04-02 17:43:23 - Epoch 1:
2022-04-02 17:43:23 - Duration: 0:00:06.74
2022-04-02 17:43:23 - Average power usage (W) for gpu: [44.487 45.933 44.487 44.969 44.999 45.451 45.964 44.999]
2022-04-02 17:43:23 - Average power usage (W) for cpu: [71.193605 74.970756]
2022-04-02 17:43:23 - Carbon intensities (gCO2/kWh) fetched every 900 s at detected location Paris, Île-de-France, FR: [294.2060978]
2022-04-02 17:43:23 - Average carbon intensity during training was 294.21 gCO2/kWh at detected location: Paris, Île-de-France, FR.
2022-04-02 17:43:24 - Live carbon intensity could not be fetched at detected location: Paris, Île-de-France, FR. Defaulted to average carbon intensity for EU-28 in 2017 of 294.21 gCO2/kWh.
2022-04-02 17:43:24 - Monitoring thread ended.
2022-04-02 17:43:54 - carbontracker version 1.1.6
2022-04-02 17:43:54 - Only predicted and actual consumptions are multiplied by a PUE coefficient of 1.59 (Rhonda Ascierto, 2019, Uptime Institute Global Data Center Survey).
2022-04-02 17:43:56 - The following components were found: GPU with device(s) Tesla V100-SXM2-32GB, Tesla V100-SXM2-32GB, Tesla V100-SXM2-32GB, Tesla V100-SXM2-32GB, Tesla V100-SXM2-32GB, Tesla V100-SXM2-32GB, Tesla V100-SXM2-32GB, Tesla V100-SXM2-32GB. CPU with device(s) cpu:1, cpu:0.
2022-04-02 17:43:56 - Monitoring thread started.
2022-04-02 17:44:32 - Epoch 1:
2022-04-02 17:44:32 - Duration: 0:00:06.74
2022-04-02 17:44:32 - Average power usage (W) for gpu: [44.487 45.933 44.487 44.969 44.999 45.933 45.933 44.999]
2022-04-02 17:44:32 - Average power usage (W) for cpu: [71.488037 74.979483]
2022-04-02 17:44:32 - Carbon intensities (gCO2/kWh) fetched every 900 s at detected location Paris, Île-de-France, FR: [294.2060978]
2022-04-02 17:44:32 - Average carbon intensity during training was 294.21 gCO2/kWh at detected location: Paris, Île-de-France, FR.
2022-04-02 17:44:33 - Live carbon intensity could not be fetched at detected location: Paris, Île-de-France, FR. Defaulted to average carbon intensity for EU-28 in 2017 of 294.21 gCO2/kWh.
2022-04-02 17:44:33 - Monitoring thread ended.
2022-04-02 17:45:03 - carbontracker version 1.1.6
2022-04-02 17:45:03 - Only predicted and actual consumptions are multiplied by a PUE coefficient of 1.59 (Rhonda Ascierto, 2019, Uptime Institute Global Data Center Survey).
2022-04-02 17:45:04 - The following components were found: GPU with device(s) Tesla V100-SXM2-32GB, Tesla V100-SXM2-32GB, Tesla V100-SXM2-32GB, Tesla V100-SXM2-32GB, Tesla V100-SXM2-32GB, Tesla V100-SXM2-32GB, Tesla V100-SXM2-32GB, Tesla V100-SXM2-32GB. CPU with device(s) cpu:1, cpu:0.
2022-04-02 17:45:04 - Monitoring thread started.
2022-04-02 17:45:41 - Epoch 1:
2022-04-02 17:45:41 - Duration: 0:00:06.74
2022-04-02 17:45:41 - Average power usage (W) for gpu: [44.487 45.933 44.487 44.969 44.999 45.933 45.964 44.999]
2022-04-02 17:45:41 - Average power usage (W) for cpu: [71.396973 75.128409]
2022-04-02 17:45:41 - Carbon intensities (gCO2/kWh) fetched every 900 s at detected location Paris, Île-de-France, FR: [294.2060978]
2022-04-02 17:45:41 - Average carbon intensity during training was 294.21 gCO2/kWh at detected location: Paris, Île-de-France, FR.
2022-04-02 17:45:41 - Live carbon intensity could not be fetched at detected location: Paris, Île-de-France, FR. Defaulted to average carbon intensity for EU-28 in 2017 of 294.21 gCO2/kWh.
2022-04-02 17:45:41 - Monitoring thread ended.
2022-04-02 17:46:11 - carbontracker version 1.1.6
2022-04-02 17:46:11 - Only predicted and actual consumptions are multiplied by a PUE coefficient of 1.59 (Rhonda Ascierto, 2019, Uptime Institute Global Data Center Survey).
2022-04-02 17:46:13 - The following components were found: GPU with device(s) Tesla V100-SXM2-32GB, Tesla V100-SXM2-32GB, Tesla V100-SXM2-32GB, Tesla V100-SXM2-32GB, Tesla V100-SXM2-32GB, Tesla V100-SXM2-32GB, Tesla V100-SXM2-32GB, Tesla V100-SXM2-32GB. CPU with device(s) cpu:1, cpu:0.
2022-04-02 17:46:13 - Monitoring thread started.
2022-04-02 17:46:46 - Epoch 1:
2022-04-02 17:46:46 - Duration: 0:00:02.74
2022-04-02 17:46:46 - Average power usage (W) for gpu: [44.487 45.933 44.487 44.969 44.999 45.933 46.416 44.999]
2022-04-02 17:46:46 - Average power usage (W) for cpu: [71.555237 75.19158 ]
2022-04-02 17:46:47 - Carbon intensities (gCO2/kWh) fetched every 900 s at detected location Paris, Île-de-France, FR: [294.2060978]
2022-04-02 17:46:47 - Average carbon intensity during training was 294.21 gCO2/kWh at detected location: Paris, Île-de-France, FR.
2022-04-02 17:46:47 - Live carbon intensity could not be fetched at detected location: Paris, Île-de-France, FR. Defaulted to average carbon intensity for EU-28 in 2017 of 294.21 gCO2/kWh.
2022-04-02 17:46:47 - Monitoring thread ended.
2022-04-02 17:47:17 - carbontracker version 1.1.6
2022-04-02 17:47:17 - Only predicted and actual consumptions are multiplied by a PUE coefficient of 1.59 (Rhonda Ascierto, 2019, Uptime Institute Global Data Center Survey).
2022-04-02 17:47:21 - The following components were found: GPU with device(s) Tesla V100-SXM2-32GB, Tesla V100-SXM2-32GB, Tesla V100-SXM2-32GB, Tesla V100-SXM2-32GB, Tesla V100-SXM2-32GB, Tesla V100-SXM2-32GB, Tesla V100-SXM2-32GB, Tesla V100-SXM2-32GB. CPU with device(s) cpu:1, cpu:0.
2022-04-02 17:47:21 - Monitoring thread started.
2022-04-02 17:47:58 - Epoch 1:
2022-04-02 17:47:58 - Duration: 0:00:06.74
2022-04-02 17:47:58 - Average power usage (W) for gpu: [44.487 45.933 44.487 44.969 44.999 45.451 45.933 44.999]
2022-04-02 17:47:58 - Average power usage (W) for cpu: [71.341187 75.355215]
2022-04-02 17:47:58 - Carbon intensities (gCO2/kWh) fetched every 900 s at detected location Paris, Île-de-France, FR: [294.2060978]
2022-04-02 17:47:58 - Average carbon intensity during training was 294.21 gCO2/kWh at detected location: Paris, Île-de-France, FR.
2022-04-02 17:47:58 - Live carbon intensity could not be fetched at detected location: Paris, Île-de-France, FR. Defaulted to average carbon intensity for EU-28 in 2017 of 294.21 gCO2/kWh.
2022-04-02 17:47:58 - Monitoring thread ended.
2022-04-02 17:48:29 - carbontracker version 1.1.6
2022-04-02 17:48:29 - Only predicted and actual consumptions are multiplied by a PUE coefficient of 1.59 (Rhonda Ascierto, 2019, Uptime Institute Global Data Center Survey).
2022-04-02 17:48:31 - The following components were found: GPU with device(s) Tesla V100-SXM2-32GB, Tesla V100-SXM2-32GB, Tesla V100-SXM2-32GB, Tesla V100-SXM2-32GB, Tesla V100-SXM2-32GB, Tesla V100-SXM2-32GB, Tesla V100-SXM2-32GB, Tesla V100-SXM2-32GB. CPU with device(s) cpu:1, cpu:0.
2022-04-02 17:48:31 - Monitoring thread started.
2022-04-02 17:49:07 - Epoch 1:
2022-04-02 17:49:07 - Duration: 0:00:06.74
2022-04-02 17:49:07 - Average power usage (W) for gpu: [44.487 45.933 44.487 44.969 44.999 45.451 45.964 44.999]
2022-04-02 17:49:07 - Average power usage (W) for cpu: [71.561096 75.200125]
2022-04-02 17:49:07 - Carbon intensities (gCO2/kWh) fetched every 900 s at detected location Paris, Île-de-France, FR: [294.2060978]
2022-04-02 17:49:07 - Average carbon intensity during training was 294.21 gCO2/kWh at detected location: Paris, Île-de-France, FR.
2022-04-02 17:49:08 - Live carbon intensity could not be fetched at detected location: Paris, Île-de-France, FR. Defaulted to average carbon intensity for EU-28 in 2017 of 294.21 gCO2/kWh.
2022-04-02 17:49:08 - Monitoring thread ended.
2022-04-02 17:49:38 - carbontracker version 1.1.6
2022-04-02 17:49:38 - Only predicted and actual consumptions are multiplied by a PUE coefficient of 1.59 (Rhonda Ascierto, 2019, Uptime Institute Global Data Center Survey).
2022-04-02 17:49:50 - The following components were found: GPU with device(s) Tesla V100-SXM2-32GB, Tesla V100-SXM2-32GB, Tesla V100-SXM2-32GB, Tesla V100-SXM2-32GB, Tesla V100-SXM2-32GB, Tesla V100-SXM2-32GB, Tesla V100-SXM2-32GB, Tesla V100-SXM2-32GB. CPU with device(s) cpu:1, cpu:0.
2022-04-02 17:49:50 - Monitoring thread started.
2022-04-02 17:50:21 - Epoch 1:
2022-04-02 17:50:21 - Duration: 0:00:06.74
2022-04-02 17:50:21 - Average power usage (W) for gpu: [44.487 45.933 44.487 44.969 44.999 45.451 46.446 44.999]
2022-04-02 17:50:21 - Average power usage (W) for cpu: [71.070924 75.519643]
2022-04-02 17:50:22 - Carbon intensities (gCO2/kWh) fetched every 900 s at detected location Paris, Île-de-France, FR: [294.2060978]
2022-04-02 17:50:22 - Average carbon intensity during training was 294.21 gCO2/kWh at detected location: Paris, Île-de-France, FR.
2022-04-02 17:50:22 - Live carbon intensity could not be fetched at detected location: Paris, Île-de-France, FR. Defaulted to average carbon intensity for EU-28 in 2017 of 294.21 gCO2/kWh.
2022-04-02 17:50:22 - Monitoring thread ended.
