2022-04-20 23:35:07 - carbontracker version 1.1.6
2022-04-20 23:35:07 - Only predicted and actual consumptions are multiplied by a PUE coefficient of 1.59 (Rhonda Ascierto, 2019, Uptime Institute Global Data Center Survey).
2022-04-20 23:35:19 - The following components were found: GPU with device(s) Tesla V100-SXM2-32GB, Tesla V100-SXM2-32GB, Tesla V100-SXM2-32GB, Tesla V100-SXM2-32GB, Tesla V100-SXM2-32GB, Tesla V100-SXM2-32GB, Tesla V100-SXM2-32GB, Tesla V100-SXM2-32GB. CPU with device(s) cpu:1, cpu:0.
2022-04-20 23:35:19 - Monitoring thread started.
2022-04-20 23:36:50 - Epoch 1:
2022-04-20 23:36:50 - Duration: 0:01:06.63
2022-04-20 23:36:50 - Average power usage (W) for gpu: [203.937      211.73457143 204.39485714 206.62285714 210.96671429
 207.219      204.20985714 206.65557143]
2022-04-20 23:36:50 - Average power usage (W) for cpu: [73.86252233 76.304757  ]
2022-04-20 23:36:50 - Carbon intensities (gCO2/kWh) fetched every 900 s at detected location Paris, Île-de-France, FR: [294.2060978]
2022-04-20 23:36:50 - Average carbon intensity during training was 294.21 gCO2/kWh at detected location: Paris, Île-de-France, FR.
2022-04-20 23:36:51 - Live carbon intensity could not be fetched at detected location: Paris, Île-de-France, FR. Defaulted to average carbon intensity for EU-28 in 2017 of 294.21 gCO2/kWh.
2022-04-20 23:36:51 - Monitoring thread ended.
