timestamp,project_name,run_id,duration,emissions,emissions_rate,cpu_power,gpu_power,ram_power,cpu_energy,gpu_energy,ram_energy,energy_consumed,country_name,country_iso_code,region,cloud_provider,cloud_region,os,python_version,cpu_count,cpu_model,gpu_count,gpu_model,longitude,latitude,ram_total_size,tracking_mode,on_cloud
2022-04-13T14:08:13,959_0_0,9f9960c3-8308-4ca6-806f-541c32bc096f,61.38336658477783,0.0006583067410096,0.0107245134575738,175.39746597077493,533.986,188.9179372787476,0.0029066065177833,0.0063231615372518,0.0027394454178673,0.0119692134729024,France,FRA,grand est,,,Linux-5.4.0-105-generic-x86_64-with-Ubuntu-20.04-focal,3.7.13,40,Intel(R) Xeon(R) CPU E5-2698 v4 @ 2.20GHz,8,8 x Tesla V100-SXM2-32GB,7.7418,48.5855,503.78116607666016,machine,N
2022-04-13T14:11:18,959_0_1,0e8c4207-9aac-49d6-bcb2-e3542673ed59,120.05155658721924,0.0014000528049744,0.0116620962257766,154.90328542363068,361.288,188.9179372787476,0.0048431410597875,0.0135379086556091,0.0070744558295928,0.0254555055449895,France,FRA,grand est,,,Linux-5.4.0-105-generic-x86_64-with-Ubuntu-20.04-focal,3.7.13,40,Intel(R) Xeon(R) CPU E5-2698 v4 @ 2.20GHz,8,8 x Tesla V100-SXM2-32GB,7.7418,48.5855,503.78116607666016,machine,N
2022-04-13T14:19:38,959_0_2,885c8a3f-b23b-4387-bc57-bf738537d22f,435.9773268699646,-0.0031883376471131,-0.0073130813246719,148.9251737184971,386.726,188.9179372787476,-0.1264011625566824,0.0459520373394148,0.0224793498152106,-0.057969775402057,France,FRA,grand est,,,Linux-5.4.0-105-generic-x86_64-with-Ubuntu-20.04-focal,3.7.13,40,Intel(R) Xeon(R) CPU E5-2698 v4 @ 2.20GHz,8,8 x Tesla V100-SXM2-32GB,7.7418,48.5855,503.78116607666016,machine,N
2022-04-13T14:20:47,959_0_3,812814ce-417b-4936-8245-12f28f1d62b0,2.652658700942993,3.495385638755092e-05,0.0131769143068142,146.391826454098,534.5810000000001,188.9179372787476,0.0001078001034622,0.0003900306121905,0.000137693945939,0.0006355246615918,France,FRA,grand est,,,Linux-5.4.0-105-generic-x86_64-with-Ubuntu-20.04-focal,3.7.13,40,Intel(R) Xeon(R) CPU E5-2698 v4 @ 2.20GHz,8,8 x Tesla V100-SXM2-32GB,7.7418,48.5855,503.78116607666016,machine,N
2022-04-13T14:21:53,959_0_4,1bcdca78-4224-4449-aab2-762efcbd3133,1.321378231048584,1.7458762291289497e-05,0.0132125396658268,146.20827142770253,550.956,188.9179372787476,5.360545566210698e-05,0.0001965503556259,6.727623037175476e-05,0.0003174320416598,France,FRA,grand est,,,Linux-5.4.0-105-generic-x86_64-with-Ubuntu-20.04-focal,3.7.13,40,Intel(R) Xeon(R) CPU E5-2698 v4 @ 2.20GHz,8,8 x Tesla V100-SXM2-32GB,7.7418,48.5855,503.78116607666016,machine,N
2022-04-13T14:22:58,959_0_5,71fc1f4f-2f32-4b02-9b65-a9e1f7f2a2bf,0.910853624343872,1.0697094134282742e-05,0.0117440320248912,145.88349982023993,467.0,188.9179372787476,3.6850758647247184e-05,0.0001123222092787,4.531965269733291e-05,0.0001944926206233,France,FRA,grand est,,,Linux-5.4.0-105-generic-x86_64-with-Ubuntu-20.04-focal,3.7.13,40,Intel(R) Xeon(R) CPU E5-2698 v4 @ 2.20GHz,8,8 x Tesla V100-SXM2-32GB,7.7418,48.5855,503.78116607666016,machine,N
2022-04-13T14:24:04,959_0_6,60ce1138-1a06-47c8-a05d-f34f5eaf3e44,0.9936597347259521,1.193009622360745e-05,0.012006218835965742,146.0269578270753,472.765,188.91793727874756,4.024595164118204e-05,0.0001263088780707783,5.035601071726603e-05,0.00021691084042922638,France,FRA,grand est,,,Linux-5.4.0-105-generic-x86_64-with-Ubuntu-20.04-focal,3.7.13,40,Intel(R) Xeon(R) CPU E5-2698 v4 @ 2.20GHz,8,8 x Tesla V100-SXM2-32GB,7.7418,48.5855,503.78116607666016,machine,N
