2022-04-21 01:46:35 - CarbonTracker: The following components were found: GPU with device(s) Tesla V100-SXM2-32GB, Tesla V100-SXM2-32GB, Tesla V100-SXM2-32GB, Tesla V100-SXM2-32GB, Tesla V100-SXM2-32GB, Tesla V100-SXM2-32GB, Tesla V100-SXM2-32GB, Tesla V100-SXM2-32GB. CPU with device(s) cpu:1, cpu:0.
2022-04-21 01:48:07 - CarbonTracker: Average carbon intensity during training was 294.21 gCO2/kWh at detected location: Paris, Île-de-France, FR.
2022-04-21 01:48:07 - CarbonTracker: 
Actual consumption for 1 epoch(s):
	Time:	0:01:07
	Energy:	0.052759 kWh
	CO2eq:	15.522070 g
	This is equivalent to:
	0.128921 km travelled by car
2022-04-21 01:48:07 - CarbonTracker: Live carbon intensity could not be fetched at detected location: Paris, Île-de-France, FR. Defaulted to average carbon intensity for EU-28 in 2017 of 294.21 gCO2/kWh.
2022-04-21 01:48:07 - CarbonTracker: 
Predicted consumption for 1 epoch(s):
	Time:	0:01:07
	Energy:	0.052759 kWh
	CO2eq:	15.522070 g
	This is equivalent to:
	0.128921 km travelled by car
2022-04-21 01:48:07 - CarbonTracker: Finished monitoring.
