2022-04-04 04:35:03 - carbontracker version 1.1.6
2022-04-04 04:35:03 - Only predicted and actual consumptions are multiplied by a PUE coefficient of 1.59 (Rhonda Ascierto, 2019, Uptime Institute Global Data Center Survey).
2022-04-04 04:35:15 - The following components were found: GPU with device(s) Tesla V100-SXM2-32GB, Tesla V100-SXM2-32GB, Tesla V100-SXM2-32GB, Tesla V100-SXM2-32GB, Tesla V100-SXM2-32GB, Tesla V100-SXM2-32GB, Tesla V100-SXM2-32GB, Tesla V100-SXM2-32GB. CPU with device(s) cpu:1, cpu:0.
2022-04-04 04:35:15 - Monitoring thread started.
2022-04-04 04:37:40 - Epoch 1:
2022-04-04 04:37:40 - Duration: 0:02:00.02
2022-04-04 04:37:40 - Average power usage (W) for gpu: [44.487      45.50027273 44.487      44.98263636 44.91118182 45.44827273
 46.00781818 44.516     ]
2022-04-04 04:37:40 - Average power usage (W) for cpu: [70.71068418 74.94627473]
2022-04-04 04:37:41 - Carbon intensities (gCO2/kWh) fetched every 900 s at detected location Paris, Île-de-France, FR: [294.2060978]
2022-04-04 04:37:41 - Average carbon intensity during training was 294.21 gCO2/kWh at detected location: Paris, Île-de-France, FR.
2022-04-04 04:37:41 - Live carbon intensity could not be fetched at detected location: Paris, Île-de-France, FR. Defaulted to average carbon intensity for EU-28 in 2017 of 294.21 gCO2/kWh.
2022-04-04 04:37:41 - Monitoring thread ended.
