2022-04-04 05:10:25 - CarbonTracker: The following components were found: GPU with device(s) Tesla V100-SXM2-32GB, Tesla V100-SXM2-32GB, Tesla V100-SXM2-32GB, Tesla V100-SXM2-32GB, Tesla V100-SXM2-32GB, Tesla V100-SXM2-32GB, Tesla V100-SXM2-32GB, Tesla V100-SXM2-32GB. CPU with device(s) cpu:1, cpu:0.
2022-04-04 05:13:14 - CarbonTracker: Average carbon intensity during training was 294.21 gCO2/kWh at detected location: Paris, Île-de-France, FR.
2022-04-04 05:13:14 - CarbonTracker: 
Actual consumption for 1 epoch(s):
	Time:	0:02:24
	Energy:	0.033222 kWh
	CO2eq:	9.773970 g
	This is equivalent to:
	0.081179 km travelled by car
2022-04-04 05:13:14 - CarbonTracker: Live carbon intensity could not be fetched at detected location: Paris, Île-de-France, FR. Defaulted to average carbon intensity for EU-28 in 2017 of 294.21 gCO2/kWh.
2022-04-04 05:13:14 - CarbonTracker: 
Predicted consumption for 1 epoch(s):
	Time:	0:02:24
	Energy:	0.033222 kWh
	CO2eq:	9.773970 g
	This is equivalent to:
	0.081179 km travelled by car
2022-04-04 05:13:14 - CarbonTracker: Finished monitoring.
