2022-04-04 05:44:51 - CarbonTracker: The following components were found: GPU with device(s) Tesla V100-SXM2-32GB, Tesla V100-SXM2-32GB, Tesla V100-SXM2-32GB, Tesla V100-SXM2-32GB, Tesla V100-SXM2-32GB, Tesla V100-SXM2-32GB, Tesla V100-SXM2-32GB, Tesla V100-SXM2-32GB. CPU with device(s) cpu:1, cpu:0.
2022-04-04 05:45:17 - CarbonTracker: Average carbon intensity during training was 294.21 gCO2/kWh at detected location: Paris, Île-de-France, FR.
2022-04-04 05:45:17 - CarbonTracker: 
Actual consumption for 1 epoch(s):
	Time:	0:00:01
	Energy:	0.000141 kWh
	CO2eq:	0.041472 g
	This is equivalent to:
	0.000344 km travelled by car
2022-04-04 05:45:18 - CarbonTracker: Live carbon intensity could not be fetched at detected location: Paris, Île-de-France, FR. Defaulted to average carbon intensity for EU-28 in 2017 of 294.21 gCO2/kWh.
2022-04-04 05:45:18 - CarbonTracker: 
Predicted consumption for 1 epoch(s):
	Time:	0:00:01
	Energy:	0.000198 kWh
	CO2eq:	0.058125 g
	This is equivalent to:
	0.000483 km travelled by car
2022-04-04 05:45:18 - CarbonTracker: Finished monitoring.
