2022-04-02 22:44:28 - carbontracker version 1.1.6
2022-04-02 22:44:28 - Only predicted and actual consumptions are multiplied by a PUE coefficient of 1.59 (Rhonda Ascierto, 2019, Uptime Institute Global Data Center Survey).
2022-04-02 22:44:40 - The following components were found: GPU with device(s) Tesla V100-SXM2-32GB, Tesla V100-SXM2-32GB, Tesla V100-SXM2-32GB, Tesla V100-SXM2-32GB, Tesla V100-SXM2-32GB, Tesla V100-SXM2-32GB, Tesla V100-SXM2-32GB, Tesla V100-SXM2-32GB. CPU with device(s) cpu:1, cpu:0.
2022-04-02 22:44:40 - Monitoring thread started.
2022-04-02 22:45:12 - Epoch 1:
2022-04-02 22:45:12 - Duration: 0:00:06.74
2022-04-02 22:45:12 - Average power usage (W) for gpu: [44.487 45.933 44.487 44.969 44.999 45.451 46.416 44.999]
2022-04-02 22:45:12 - Average power usage (W) for cpu: [70.907351 75.557973]
2022-04-02 22:45:12 - Carbon intensities (gCO2/kWh) fetched every 900 s at detected location Paris, Île-de-France, FR: [294.2060978]
2022-04-02 22:45:12 - Average carbon intensity during training was 294.21 gCO2/kWh at detected location: Paris, Île-de-France, FR.
2022-04-02 22:45:12 - Live carbon intensity could not be fetched at detected location: Paris, Île-de-France, FR. Defaulted to average carbon intensity for EU-28 in 2017 of 294.21 gCO2/kWh.
2022-04-02 22:45:12 - Monitoring thread ended.
2022-04-02 22:45:42 - carbontracker version 1.1.6
2022-04-02 22:45:42 - Only predicted and actual consumptions are multiplied by a PUE coefficient of 1.59 (Rhonda Ascierto, 2019, Uptime Institute Global Data Center Survey).
2022-04-02 22:45:54 - The following components were found: GPU with device(s) Tesla V100-SXM2-32GB, Tesla V100-SXM2-32GB, Tesla V100-SXM2-32GB, Tesla V100-SXM2-32GB, Tesla V100-SXM2-32GB, Tesla V100-SXM2-32GB, Tesla V100-SXM2-32GB, Tesla V100-SXM2-32GB. CPU with device(s) cpu:1, cpu:0.
2022-04-02 22:45:54 - Monitoring thread started.
2022-04-02 22:46:26 - Epoch 1:
2022-04-02 22:46:26 - Duration: 0:00:06.74
2022-04-02 22:46:26 - Average power usage (W) for gpu: [44.487 45.933 44.516 44.969 44.999 45.451 45.964 44.999]
2022-04-02 22:46:26 - Average power usage (W) for cpu: [70.968996 75.393911]
2022-04-02 22:46:26 - Carbon intensities (gCO2/kWh) fetched every 900 s at detected location Paris, Île-de-France, FR: [294.2060978]
2022-04-02 22:46:26 - Average carbon intensity during training was 294.21 gCO2/kWh at detected location: Paris, Île-de-France, FR.
2022-04-02 22:46:26 - Live carbon intensity could not be fetched at detected location: Paris, Île-de-France, FR. Defaulted to average carbon intensity for EU-28 in 2017 of 294.21 gCO2/kWh.
2022-04-02 22:46:26 - Monitoring thread ended.
2022-04-02 22:46:57 - carbontracker version 1.1.6
2022-04-02 22:46:57 - Only predicted and actual consumptions are multiplied by a PUE coefficient of 1.59 (Rhonda Ascierto, 2019, Uptime Institute Global Data Center Survey).
2022-04-02 22:47:09 - The following components were found: GPU with device(s) Tesla V100-SXM2-32GB, Tesla V100-SXM2-32GB, Tesla V100-SXM2-32GB, Tesla V100-SXM2-32GB, Tesla V100-SXM2-32GB, Tesla V100-SXM2-32GB, Tesla V100-SXM2-32GB, Tesla V100-SXM2-32GB. CPU with device(s) cpu:1, cpu:0.
2022-04-02 22:47:09 - Monitoring thread started.
2022-04-02 22:47:40 - Epoch 1:
2022-04-02 22:47:40 - Duration: 0:00:06.74
2022-04-02 22:47:40 - Average power usage (W) for gpu: [44.487 45.933 44.487 44.969 44.999 45.451 45.964 44.999]
2022-04-02 22:47:40 - Average power usage (W) for cpu: [71.196718 75.385366]
2022-04-02 22:47:41 - Carbon intensities (gCO2/kWh) fetched every 900 s at detected location Paris, Île-de-France, FR: [294.2060978]
2022-04-02 22:47:41 - Average carbon intensity during training was 294.21 gCO2/kWh at detected location: Paris, Île-de-France, FR.
2022-04-02 22:47:41 - Live carbon intensity could not be fetched at detected location: Paris, Île-de-France, FR. Defaulted to average carbon intensity for EU-28 in 2017 of 294.21 gCO2/kWh.
2022-04-02 22:47:41 - Monitoring thread ended.
2022-04-02 22:48:11 - carbontracker version 1.1.6
2022-04-02 22:48:11 - Only predicted and actual consumptions are multiplied by a PUE coefficient of 1.59 (Rhonda Ascierto, 2019, Uptime Institute Global Data Center Survey).
2022-04-02 22:48:26 - The following components were found: GPU with device(s) Tesla V100-SXM2-32GB, Tesla V100-SXM2-32GB, Tesla V100-SXM2-32GB, Tesla V100-SXM2-32GB, Tesla V100-SXM2-32GB, Tesla V100-SXM2-32GB, Tesla V100-SXM2-32GB, Tesla V100-SXM2-32GB. CPU with device(s) cpu:1, cpu:0.
2022-04-02 22:48:26 - Monitoring thread started.
2022-04-02 22:48:57 - Epoch 1:
2022-04-02 22:48:57 - Duration: 0:00:06.84
2022-04-02 22:48:58 - Average power usage (W) for gpu: [44.487 45.964 44.487 44.969 44.999 45.451 46.446 44.999]
2022-04-02 22:48:58 - Average power usage (W) for cpu: [71.255677 76.302539]
2022-04-02 22:48:58 - Carbon intensities (gCO2/kWh) fetched every 900 s at detected location Paris, Île-de-France, FR: [294.2060978]
2022-04-02 22:48:58 - Average carbon intensity during training was 294.21 gCO2/kWh at detected location: Paris, Île-de-France, FR.
2022-04-02 22:48:58 - Live carbon intensity could not be fetched at detected location: Paris, Île-de-France, FR. Defaulted to average carbon intensity for EU-28 in 2017 of 294.21 gCO2/kWh.
2022-04-02 22:48:58 - Monitoring thread ended.
2022-04-02 22:49:28 - carbontracker version 1.1.6
2022-04-02 22:49:28 - Only predicted and actual consumptions are multiplied by a PUE coefficient of 1.59 (Rhonda Ascierto, 2019, Uptime Institute Global Data Center Survey).
2022-04-02 22:49:28 - The following components were found: GPU with device(s) Tesla V100-SXM2-32GB, Tesla V100-SXM2-32GB, Tesla V100-SXM2-32GB, Tesla V100-SXM2-32GB, Tesla V100-SXM2-32GB, Tesla V100-SXM2-32GB, Tesla V100-SXM2-32GB, Tesla V100-SXM2-32GB. CPU with device(s) cpu:1, cpu:0.
2022-04-02 22:49:28 - Monitoring thread started.
2022-04-02 22:50:05 - Epoch 1:
2022-04-02 22:50:05 - Duration: 0:00:06.74
2022-04-02 22:50:05 - Average power usage (W) for gpu: [44.487 45.964 44.487 44.969 44.999 45.451 46.416 44.516]
2022-04-02 22:50:05 - Average power usage (W) for cpu: [71.088014 75.431814]
2022-04-02 22:50:05 - Carbon intensities (gCO2/kWh) fetched every 900 s at detected location Paris, Île-de-France, FR: [294.2060978]
2022-04-02 22:50:05 - Average carbon intensity during training was 294.21 gCO2/kWh at detected location: Paris, Île-de-France, FR.
2022-04-02 22:50:05 - Live carbon intensity could not be fetched at detected location: Paris, Île-de-France, FR. Defaulted to average carbon intensity for EU-28 in 2017 of 294.21 gCO2/kWh.
2022-04-02 22:50:05 - Monitoring thread ended.
2022-04-02 22:50:35 - carbontracker version 1.1.6
2022-04-02 22:50:35 - Only predicted and actual consumptions are multiplied by a PUE coefficient of 1.59 (Rhonda Ascierto, 2019, Uptime Institute Global Data Center Survey).
2022-04-02 22:50:35 - The following components were found: GPU with device(s) Tesla V100-SXM2-32GB, Tesla V100-SXM2-32GB, Tesla V100-SXM2-32GB, Tesla V100-SXM2-32GB, Tesla V100-SXM2-32GB, Tesla V100-SXM2-32GB, Tesla V100-SXM2-32GB, Tesla V100-SXM2-32GB. CPU with device(s) cpu:1, cpu:0.
2022-04-02 22:50:35 - Monitoring thread started.
2022-04-02 22:51:13 - Epoch 1:
2022-04-02 22:51:13 - Duration: 0:00:08.14
2022-04-02 22:51:13 - Average power usage (W) for gpu: [44.487 45.933 44.487 44.969 44.999 45.421 46.446 44.516]
2022-04-02 22:51:13 - Average power usage (W) for cpu: [71.746887 76.268481]
2022-04-02 22:51:14 - Carbon intensities (gCO2/kWh) fetched every 900 s at detected location Paris, Île-de-France, FR: [294.2060978]
2022-04-02 22:51:14 - Average carbon intensity during training was 294.21 gCO2/kWh at detected location: Paris, Île-de-France, FR.
2022-04-02 22:51:14 - Live carbon intensity could not be fetched at detected location: Paris, Île-de-France, FR. Defaulted to average carbon intensity for EU-28 in 2017 of 294.21 gCO2/kWh.
2022-04-02 22:51:14 - Monitoring thread ended.
2022-04-02 22:51:44 - carbontracker version 1.1.6
2022-04-02 22:51:44 - Only predicted and actual consumptions are multiplied by a PUE coefficient of 1.59 (Rhonda Ascierto, 2019, Uptime Institute Global Data Center Survey).
2022-04-02 22:51:57 - The following components were found: GPU with device(s) Tesla V100-SXM2-32GB, Tesla V100-SXM2-32GB, Tesla V100-SXM2-32GB, Tesla V100-SXM2-32GB, Tesla V100-SXM2-32GB, Tesla V100-SXM2-32GB, Tesla V100-SXM2-32GB, Tesla V100-SXM2-32GB. CPU with device(s) cpu:1, cpu:0.
2022-04-02 22:51:57 - Monitoring thread started.
2022-04-02 22:52:31 - Epoch 1:
2022-04-02 22:52:31 - Duration: 0:00:07.04
2022-04-02 22:52:31 - Average power usage (W) for gpu: [44.487 45.933 44.516 44.969 44.999 45.451 45.964 44.999]
2022-04-02 22:52:31 - Average power usage (W) for cpu: [71.433533 75.98534 ]
2022-04-02 22:52:31 - Carbon intensities (gCO2/kWh) fetched every 900 s at detected location Paris, Île-de-France, FR: [294.2060978]
2022-04-02 22:52:31 - Average carbon intensity during training was 294.21 gCO2/kWh at detected location: Paris, Île-de-France, FR.
2022-04-02 22:52:31 - Live carbon intensity could not be fetched at detected location: Paris, Île-de-France, FR. Defaulted to average carbon intensity for EU-28 in 2017 of 294.21 gCO2/kWh.
2022-04-02 22:52:31 - Monitoring thread ended.
2022-04-02 22:53:01 - carbontracker version 1.1.6
2022-04-02 22:53:01 - Only predicted and actual consumptions are multiplied by a PUE coefficient of 1.59 (Rhonda Ascierto, 2019, Uptime Institute Global Data Center Survey).
2022-04-02 22:53:13 - The following components were found: GPU with device(s) Tesla V100-SXM2-32GB, Tesla V100-SXM2-32GB, Tesla V100-SXM2-32GB, Tesla V100-SXM2-32GB, Tesla V100-SXM2-32GB, Tesla V100-SXM2-32GB, Tesla V100-SXM2-32GB, Tesla V100-SXM2-32GB. CPU with device(s) cpu:1, cpu:0.
2022-04-02 22:53:13 - Monitoring thread started.
2022-04-02 22:53:41 - Epoch 1:
2022-04-02 22:53:41 - Duration: 0:00:02.73
2022-04-02 22:53:41 - Average power usage (W) for gpu: [44.487 45.933 44.487 44.969 44.999 45.451 45.964 44.999]
2022-04-02 22:53:41 - Average power usage (W) for cpu: [70.994081 76.45354 ]
2022-04-02 22:53:41 - Carbon intensities (gCO2/kWh) fetched every 900 s at detected location Paris, Île-de-France, FR: [294.2060978]
2022-04-02 22:53:41 - Average carbon intensity during training was 294.21 gCO2/kWh at detected location: Paris, Île-de-France, FR.
2022-04-02 22:53:41 - Live carbon intensity could not be fetched at detected location: Paris, Île-de-France, FR. Defaulted to average carbon intensity for EU-28 in 2017 of 294.21 gCO2/kWh.
2022-04-02 22:53:41 - Monitoring thread ended.
2022-04-02 22:54:11 - carbontracker version 1.1.6
2022-04-02 22:54:11 - Only predicted and actual consumptions are multiplied by a PUE coefficient of 1.59 (Rhonda Ascierto, 2019, Uptime Institute Global Data Center Survey).
2022-04-02 22:54:23 - The following components were found: GPU with device(s) Tesla V100-SXM2-32GB, Tesla V100-SXM2-32GB, Tesla V100-SXM2-32GB, Tesla V100-SXM2-32GB, Tesla V100-SXM2-32GB, Tesla V100-SXM2-32GB, Tesla V100-SXM2-32GB, Tesla V100-SXM2-32GB. CPU with device(s) cpu:1, cpu:0.
2022-04-02 22:54:23 - Monitoring thread started.
2022-04-02 22:54:55 - Epoch 1:
2022-04-02 22:54:55 - Duration: 0:00:06.74
2022-04-02 22:54:55 - Average power usage (W) for gpu: [44.487 45.933 44.487 44.969 44.999 45.451 45.964 44.999]
2022-04-02 22:54:55 - Average power usage (W) for cpu: [71.187317 76.301135]
2022-04-02 22:54:55 - Carbon intensities (gCO2/kWh) fetched every 900 s at detected location Paris, Île-de-France, FR: [294.2060978]
2022-04-02 22:54:55 - Average carbon intensity during training was 294.21 gCO2/kWh at detected location: Paris, Île-de-France, FR.
2022-04-02 22:54:56 - Live carbon intensity could not be fetched at detected location: Paris, Île-de-France, FR. Defaulted to average carbon intensity for EU-28 in 2017 of 294.21 gCO2/kWh.
2022-04-02 22:54:56 - Monitoring thread ended.
2022-04-02 22:55:26 - carbontracker version 1.1.6
2022-04-02 22:55:26 - Only predicted and actual consumptions are multiplied by a PUE coefficient of 1.59 (Rhonda Ascierto, 2019, Uptime Institute Global Data Center Survey).
2022-04-02 22:55:40 - The following components were found: GPU with device(s) Tesla V100-SXM2-32GB, Tesla V100-SXM2-32GB, Tesla V100-SXM2-32GB, Tesla V100-SXM2-32GB, Tesla V100-SXM2-32GB, Tesla V100-SXM2-32GB, Tesla V100-SXM2-32GB, Tesla V100-SXM2-32GB. CPU with device(s) cpu:1, cpu:0.
2022-04-02 22:55:40 - Monitoring thread started.
2022-04-02 22:56:08 - Epoch 1:
2022-04-02 22:56:08 - Duration: 0:00:02.74
2022-04-02 22:56:08 - Average power usage (W) for gpu: [44.487 45.933 44.487 44.969 44.999 45.451 45.964 44.999]
2022-04-02 22:56:08 - Average power usage (W) for cpu: [71.504212 76.605273]
2022-04-02 22:56:09 - Carbon intensities (gCO2/kWh) fetched every 900 s at detected location Paris, Île-de-France, FR: [294.2060978]
2022-04-02 22:56:09 - Average carbon intensity during training was 294.21 gCO2/kWh at detected location: Paris, Île-de-France, FR.
2022-04-02 22:56:09 - Live carbon intensity could not be fetched at detected location: Paris, Île-de-France, FR. Defaulted to average carbon intensity for EU-28 in 2017 of 294.21 gCO2/kWh.
2022-04-02 22:56:09 - Monitoring thread ended.
2022-04-02 22:56:39 - carbontracker version 1.1.6
2022-04-02 22:56:39 - Only predicted and actual consumptions are multiplied by a PUE coefficient of 1.59 (Rhonda Ascierto, 2019, Uptime Institute Global Data Center Survey).
2022-04-02 22:56:39 - The following components were found: GPU with device(s) Tesla V100-SXM2-32GB, Tesla V100-SXM2-32GB, Tesla V100-SXM2-32GB, Tesla V100-SXM2-32GB, Tesla V100-SXM2-32GB, Tesla V100-SXM2-32GB, Tesla V100-SXM2-32GB, Tesla V100-SXM2-32GB. CPU with device(s) cpu:1, cpu:0.
2022-04-02 22:56:39 - Monitoring thread started.
2022-04-02 22:57:16 - Epoch 1:
2022-04-02 22:57:16 - Duration: 0:00:07.04
2022-04-02 22:57:16 - Average power usage (W) for gpu: [44.487 45.933 44.516 44.969 44.999 45.451 45.964 44.999]
2022-04-02 22:57:16 - Average power usage (W) for cpu: [71.039796 75.871143]
2022-04-02 22:57:16 - Carbon intensities (gCO2/kWh) fetched every 900 s at detected location Paris, Île-de-France, FR: [294.2060978]
2022-04-02 22:57:16 - Average carbon intensity during training was 294.21 gCO2/kWh at detected location: Paris, Île-de-France, FR.
2022-04-02 22:57:16 - Live carbon intensity could not be fetched at detected location: Paris, Île-de-France, FR. Defaulted to average carbon intensity for EU-28 in 2017 of 294.21 gCO2/kWh.
2022-04-02 22:57:16 - Monitoring thread ended.
2022-04-02 22:57:46 - carbontracker version 1.1.6
2022-04-02 22:57:46 - Only predicted and actual consumptions are multiplied by a PUE coefficient of 1.59 (Rhonda Ascierto, 2019, Uptime Institute Global Data Center Survey).
2022-04-02 22:57:46 - The following components were found: GPU with device(s) Tesla V100-SXM2-32GB, Tesla V100-SXM2-32GB, Tesla V100-SXM2-32GB, Tesla V100-SXM2-32GB, Tesla V100-SXM2-32GB, Tesla V100-SXM2-32GB, Tesla V100-SXM2-32GB, Tesla V100-SXM2-32GB. CPU with device(s) cpu:1, cpu:0.
2022-04-02 22:57:46 - Monitoring thread started.
2022-04-02 22:58:23 - Epoch 1:
2022-04-02 22:58:23 - Duration: 0:00:06.94
2022-04-02 22:58:23 - Average power usage (W) for gpu: [67.981 70.916 44.457 69.471 69.999 69.906 69.952 69.517]
2022-04-02 22:58:23 - Average power usage (W) for cpu: [71.104005 75.693104]
2022-04-02 22:58:24 - Carbon intensities (gCO2/kWh) fetched every 900 s at detected location Paris, Île-de-France, FR: [294.2060978]
2022-04-02 22:58:24 - Average carbon intensity during training was 294.21 gCO2/kWh at detected location: Paris, Île-de-France, FR.
2022-04-02 22:58:24 - Live carbon intensity could not be fetched at detected location: Paris, Île-de-France, FR. Defaulted to average carbon intensity for EU-28 in 2017 of 294.21 gCO2/kWh.
2022-04-02 22:58:24 - Monitoring thread ended.
2022-04-02 22:58:54 - carbontracker version 1.1.6
2022-04-02 22:58:54 - Only predicted and actual consumptions are multiplied by a PUE coefficient of 1.59 (Rhonda Ascierto, 2019, Uptime Institute Global Data Center Survey).
2022-04-02 22:58:54 - The following components were found: GPU with device(s) Tesla V100-SXM2-32GB, Tesla V100-SXM2-32GB, Tesla V100-SXM2-32GB, Tesla V100-SXM2-32GB, Tesla V100-SXM2-32GB, Tesla V100-SXM2-32GB, Tesla V100-SXM2-32GB, Tesla V100-SXM2-32GB. CPU with device(s) cpu:1, cpu:0.
2022-04-02 22:58:54 - Monitoring thread started.
2022-04-02 22:59:31 - Epoch 1:
2022-04-02 22:59:31 - Duration: 0:00:07.56
2022-04-02 22:59:31 - Average power usage (W) for gpu: [44.487 45.933 44.487 44.969 44.999 45.421 46.416 44.999]
2022-04-02 22:59:31 - Average power usage (W) for cpu: [82.131503 86.982931]
2022-04-02 22:59:32 - Carbon intensities (gCO2/kWh) fetched every 900 s at detected location Paris, Île-de-France, FR: [294.2060978]
2022-04-02 22:59:32 - Average carbon intensity during training was 294.21 gCO2/kWh at detected location: Paris, Île-de-France, FR.
2022-04-02 22:59:32 - Live carbon intensity could not be fetched at detected location: Paris, Île-de-France, FR. Defaulted to average carbon intensity for EU-28 in 2017 of 294.21 gCO2/kWh.
2022-04-02 22:59:32 - Monitoring thread ended.
2022-04-02 23:00:02 - carbontracker version 1.1.6
2022-04-02 23:00:02 - Only predicted and actual consumptions are multiplied by a PUE coefficient of 1.59 (Rhonda Ascierto, 2019, Uptime Institute Global Data Center Survey).
2022-04-02 23:00:15 - The following components were found: GPU with device(s) Tesla V100-SXM2-32GB, Tesla V100-SXM2-32GB, Tesla V100-SXM2-32GB, Tesla V100-SXM2-32GB, Tesla V100-SXM2-32GB, Tesla V100-SXM2-32GB, Tesla V100-SXM2-32GB, Tesla V100-SXM2-32GB. CPU with device(s) cpu:1, cpu:0.
2022-04-02 23:00:15 - Monitoring thread started.
2022-04-02 23:00:44 - Epoch 1:
2022-04-02 23:00:44 - Duration: 0:00:07.14
2022-04-02 23:00:44 - Average power usage (W) for gpu: [44.487 45.964 44.969 44.969 44.999 45.933 46.446 44.999]
2022-04-02 23:00:44 - Average power usage (W) for cpu: [71.120241 76.583727]
2022-04-02 23:00:44 - Carbon intensities (gCO2/kWh) fetched every 900 s at detected location Paris, Île-de-France, FR: [294.2060978]
2022-04-02 23:00:44 - Average carbon intensity during training was 294.21 gCO2/kWh at detected location: Paris, Île-de-France, FR.
2022-04-02 23:00:44 - Live carbon intensity could not be fetched at detected location: Paris, Île-de-France, FR. Defaulted to average carbon intensity for EU-28 in 2017 of 294.21 gCO2/kWh.
2022-04-02 23:00:44 - Monitoring thread ended.
2022-04-02 23:01:14 - carbontracker version 1.1.6
2022-04-02 23:01:14 - Only predicted and actual consumptions are multiplied by a PUE coefficient of 1.59 (Rhonda Ascierto, 2019, Uptime Institute Global Data Center Survey).
2022-04-02 23:01:26 - The following components were found: GPU with device(s) Tesla V100-SXM2-32GB, Tesla V100-SXM2-32GB, Tesla V100-SXM2-32GB, Tesla V100-SXM2-32GB, Tesla V100-SXM2-32GB, Tesla V100-SXM2-32GB, Tesla V100-SXM2-32GB, Tesla V100-SXM2-32GB. CPU with device(s) cpu:1, cpu:0.
2022-04-02 23:01:26 - Monitoring thread started.
2022-04-02 23:01:59 - Epoch 1:
2022-04-02 23:01:59 - Duration: 0:00:07.14
2022-04-02 23:01:59 - Average power usage (W) for gpu: [44.487 45.964 44.516 44.969 44.999 45.451 46.446 44.999]
2022-04-02 23:01:59 - Average power usage (W) for cpu: [71.096071 76.60393 ]
2022-04-02 23:01:59 - Carbon intensities (gCO2/kWh) fetched every 900 s at detected location Paris, Île-de-France, FR: [294.2060978]
2022-04-02 23:01:59 - Average carbon intensity during training was 294.21 gCO2/kWh at detected location: Paris, Île-de-France, FR.
2022-04-02 23:01:59 - Live carbon intensity could not be fetched at detected location: Paris, Île-de-France, FR. Defaulted to average carbon intensity for EU-28 in 2017 of 294.21 gCO2/kWh.
2022-04-02 23:01:59 - Monitoring thread ended.
2022-04-02 23:02:29 - carbontracker version 1.1.6
2022-04-02 23:02:29 - Only predicted and actual consumptions are multiplied by a PUE coefficient of 1.59 (Rhonda Ascierto, 2019, Uptime Institute Global Data Center Survey).
2022-04-02 23:02:41 - The following components were found: GPU with device(s) Tesla V100-SXM2-32GB, Tesla V100-SXM2-32GB, Tesla V100-SXM2-32GB, Tesla V100-SXM2-32GB, Tesla V100-SXM2-32GB, Tesla V100-SXM2-32GB, Tesla V100-SXM2-32GB, Tesla V100-SXM2-32GB. CPU with device(s) cpu:1, cpu:0.
2022-04-02 23:02:41 - Monitoring thread started.
2022-04-02 23:03:13 - Epoch 1:
2022-04-02 23:03:13 - Duration: 0:00:07.04
2022-04-02 23:03:13 - Average power usage (W) for gpu: [44.487 45.964 44.487 44.999 44.999 45.451 46.416 44.999]
2022-04-02 23:03:13 - Average power usage (W) for cpu: [71.553955 76.277575]
2022-04-02 23:03:13 - Carbon intensities (gCO2/kWh) fetched every 900 s at detected location Paris, Île-de-France, FR: [294.2060978]
2022-04-02 23:03:13 - Average carbon intensity during training was 294.21 gCO2/kWh at detected location: Paris, Île-de-France, FR.
2022-04-02 23:03:14 - Live carbon intensity could not be fetched at detected location: Paris, Île-de-France, FR. Defaulted to average carbon intensity for EU-28 in 2017 of 294.21 gCO2/kWh.
2022-04-02 23:03:14 - Monitoring thread ended.
2022-04-02 23:03:44 - carbontracker version 1.1.6
2022-04-02 23:03:44 - Only predicted and actual consumptions are multiplied by a PUE coefficient of 1.59 (Rhonda Ascierto, 2019, Uptime Institute Global Data Center Survey).
2022-04-02 23:03:44 - The following components were found: GPU with device(s) Tesla V100-SXM2-32GB, Tesla V100-SXM2-32GB, Tesla V100-SXM2-32GB, Tesla V100-SXM2-32GB, Tesla V100-SXM2-32GB, Tesla V100-SXM2-32GB, Tesla V100-SXM2-32GB, Tesla V100-SXM2-32GB. CPU with device(s) cpu:1, cpu:0.
2022-04-02 23:03:44 - Monitoring thread started.
2022-04-02 23:04:21 - Epoch 1:
2022-04-02 23:04:21 - Duration: 0:00:07.04
2022-04-02 23:04:21 - Average power usage (W) for gpu: [44.487 45.933 44.487 44.969 44.999 45.451 45.964 44.999]
2022-04-02 23:04:21 - Average power usage (W) for cpu: [71.097108 75.611867]
2022-04-02 23:04:21 - Carbon intensities (gCO2/kWh) fetched every 900 s at detected location Paris, Île-de-France, FR: [294.2060978]
2022-04-02 23:04:21 - Average carbon intensity during training was 294.21 gCO2/kWh at detected location: Paris, Île-de-France, FR.
2022-04-02 23:04:21 - Live carbon intensity could not be fetched at detected location: Paris, Île-de-France, FR. Defaulted to average carbon intensity for EU-28 in 2017 of 294.21 gCO2/kWh.
2022-04-02 23:04:21 - Monitoring thread ended.
2022-04-02 23:04:51 - carbontracker version 1.1.6
2022-04-02 23:04:51 - Only predicted and actual consumptions are multiplied by a PUE coefficient of 1.59 (Rhonda Ascierto, 2019, Uptime Institute Global Data Center Survey).
2022-04-02 23:04:51 - The following components were found: GPU with device(s) Tesla V100-SXM2-32GB, Tesla V100-SXM2-32GB, Tesla V100-SXM2-32GB, Tesla V100-SXM2-32GB, Tesla V100-SXM2-32GB, Tesla V100-SXM2-32GB, Tesla V100-SXM2-32GB, Tesla V100-SXM2-32GB. CPU with device(s) cpu:1, cpu:0.
2022-04-02 23:04:51 - Monitoring thread started.
2022-04-02 23:05:28 - Epoch 1:
2022-04-02 23:05:28 - Duration: 0:00:07.04
2022-04-02 23:05:28 - Average power usage (W) for gpu: [44.487 45.933 44.487 44.969 44.999 45.451 45.964 44.516]
2022-04-02 23:05:28 - Average power usage (W) for cpu: [71.045594 75.383474]
2022-04-02 23:05:29 - Carbon intensities (gCO2/kWh) fetched every 900 s at detected location Paris, Île-de-France, FR: [294.2060978]
2022-04-02 23:05:29 - Average carbon intensity during training was 294.21 gCO2/kWh at detected location: Paris, Île-de-France, FR.
2022-04-02 23:05:29 - Live carbon intensity could not be fetched at detected location: Paris, Île-de-France, FR. Defaulted to average carbon intensity for EU-28 in 2017 of 294.21 gCO2/kWh.
2022-04-02 23:05:29 - Monitoring thread ended.
2022-04-02 23:05:59 - carbontracker version 1.1.6
2022-04-02 23:05:59 - Only predicted and actual consumptions are multiplied by a PUE coefficient of 1.59 (Rhonda Ascierto, 2019, Uptime Institute Global Data Center Survey).
2022-04-02 23:06:07 - The following components were found: GPU with device(s) Tesla V100-SXM2-32GB, Tesla V100-SXM2-32GB, Tesla V100-SXM2-32GB, Tesla V100-SXM2-32GB, Tesla V100-SXM2-32GB, Tesla V100-SXM2-32GB, Tesla V100-SXM2-32GB, Tesla V100-SXM2-32GB. CPU with device(s) cpu:1, cpu:0.
2022-04-02 23:06:07 - Monitoring thread started.
2022-04-02 23:06:38 - Epoch 1:
2022-04-02 23:06:38 - Duration: 0:00:03.04
2022-04-02 23:06:38 - Average power usage (W) for gpu: [44.487 45.933 44.487 44.969 44.999 45.451 45.964 44.999]
2022-04-02 23:06:38 - Average power usage (W) for cpu: [71.115052 75.330008]
2022-04-02 23:06:38 - Carbon intensities (gCO2/kWh) fetched every 900 s at detected location Paris, Île-de-France, FR: [294.2060978]
2022-04-02 23:06:38 - Average carbon intensity during training was 294.21 gCO2/kWh at detected location: Paris, Île-de-France, FR.
2022-04-02 23:06:38 - Live carbon intensity could not be fetched at detected location: Paris, Île-de-France, FR. Defaulted to average carbon intensity for EU-28 in 2017 of 294.21 gCO2/kWh.
2022-04-02 23:06:38 - Monitoring thread ended.
2022-04-02 23:07:08 - carbontracker version 1.1.6
2022-04-02 23:07:08 - Only predicted and actual consumptions are multiplied by a PUE coefficient of 1.59 (Rhonda Ascierto, 2019, Uptime Institute Global Data Center Survey).
2022-04-02 23:07:08 - The following components were found: GPU with device(s) Tesla V100-SXM2-32GB, Tesla V100-SXM2-32GB, Tesla V100-SXM2-32GB, Tesla V100-SXM2-32GB, Tesla V100-SXM2-32GB, Tesla V100-SXM2-32GB, Tesla V100-SXM2-32GB, Tesla V100-SXM2-32GB. CPU with device(s) cpu:1, cpu:0.
2022-04-02 23:07:08 - Monitoring thread started.
2022-04-02 23:07:45 - Epoch 1:
2022-04-02 23:07:45 - Duration: 0:00:07.04
2022-04-02 23:07:45 - Average power usage (W) for gpu: [44.487 45.964 44.487 44.969 44.999 45.451 45.964 44.999]
2022-04-02 23:07:45 - Average power usage (W) for cpu: [71.154176 75.374502]
2022-04-02 23:07:46 - Carbon intensities (gCO2/kWh) fetched every 900 s at detected location Paris, Île-de-France, FR: [294.2060978]
2022-04-02 23:07:46 - Average carbon intensity during training was 294.21 gCO2/kWh at detected location: Paris, Île-de-France, FR.
2022-04-02 23:07:46 - Live carbon intensity could not be fetched at detected location: Paris, Île-de-France, FR. Defaulted to average carbon intensity for EU-28 in 2017 of 294.21 gCO2/kWh.
2022-04-02 23:07:46 - Monitoring thread ended.
2022-04-02 23:08:16 - carbontracker version 1.1.6
2022-04-02 23:08:16 - Only predicted and actual consumptions are multiplied by a PUE coefficient of 1.59 (Rhonda Ascierto, 2019, Uptime Institute Global Data Center Survey).
2022-04-02 23:08:16 - The following components were found: GPU with device(s) Tesla V100-SXM2-32GB, Tesla V100-SXM2-32GB, Tesla V100-SXM2-32GB, Tesla V100-SXM2-32GB, Tesla V100-SXM2-32GB, Tesla V100-SXM2-32GB, Tesla V100-SXM2-32GB, Tesla V100-SXM2-32GB. CPU with device(s) cpu:1, cpu:0.
2022-04-02 23:08:16 - Monitoring thread started.
2022-04-02 23:08:53 - Epoch 1:
2022-04-02 23:08:53 - Duration: 0:00:06.74
2022-04-02 23:08:53 - Average power usage (W) for gpu: [44.487 45.451 44.487 44.969 44.999 45.451 45.964 44.516]
2022-04-02 23:08:53 - Average power usage (W) for cpu: [71.253358 75.399832]
2022-04-02 23:08:53 - Carbon intensities (gCO2/kWh) fetched every 900 s at detected location Paris, Île-de-France, FR: [294.2060978]
2022-04-02 23:08:53 - Average carbon intensity during training was 294.21 gCO2/kWh at detected location: Paris, Île-de-France, FR.
2022-04-02 23:08:53 - Live carbon intensity could not be fetched at detected location: Paris, Île-de-France, FR. Defaulted to average carbon intensity for EU-28 in 2017 of 294.21 gCO2/kWh.
2022-04-02 23:08:53 - Monitoring thread ended.
2022-04-02 23:09:23 - carbontracker version 1.1.6
2022-04-02 23:09:23 - Only predicted and actual consumptions are multiplied by a PUE coefficient of 1.59 (Rhonda Ascierto, 2019, Uptime Institute Global Data Center Survey).
2022-04-02 23:09:23 - The following components were found: GPU with device(s) Tesla V100-SXM2-32GB, Tesla V100-SXM2-32GB, Tesla V100-SXM2-32GB, Tesla V100-SXM2-32GB, Tesla V100-SXM2-32GB, Tesla V100-SXM2-32GB, Tesla V100-SXM2-32GB, Tesla V100-SXM2-32GB. CPU with device(s) cpu:1, cpu:0.
2022-04-02 23:09:23 - Monitoring thread started.
2022-04-02 23:10:00 - Epoch 1:
2022-04-02 23:10:00 - Duration: 0:00:06.74
2022-04-02 23:10:00 - Average power usage (W) for gpu: [44.487 45.451 44.487 44.969 44.999 45.451 46.416 44.516]
2022-04-02 23:10:00 - Average power usage (W) for cpu: [71.177491 75.385   ]
2022-04-02 23:10:00 - Carbon intensities (gCO2/kWh) fetched every 900 s at detected location Paris, Île-de-France, FR: [294.2060978]
2022-04-02 23:10:00 - Average carbon intensity during training was 294.21 gCO2/kWh at detected location: Paris, Île-de-France, FR.
2022-04-02 23:10:00 - Live carbon intensity could not be fetched at detected location: Paris, Île-de-France, FR. Defaulted to average carbon intensity for EU-28 in 2017 of 294.21 gCO2/kWh.
2022-04-02 23:10:00 - Monitoring thread ended.
2022-04-02 23:10:30 - carbontracker version 1.1.6
2022-04-02 23:10:30 - Only predicted and actual consumptions are multiplied by a PUE coefficient of 1.59 (Rhonda Ascierto, 2019, Uptime Institute Global Data Center Survey).
2022-04-02 23:10:30 - The following components were found: GPU with device(s) Tesla V100-SXM2-32GB, Tesla V100-SXM2-32GB, Tesla V100-SXM2-32GB, Tesla V100-SXM2-32GB, Tesla V100-SXM2-32GB, Tesla V100-SXM2-32GB, Tesla V100-SXM2-32GB, Tesla V100-SXM2-32GB. CPU with device(s) cpu:1, cpu:0.
2022-04-02 23:10:30 - Monitoring thread started.
2022-04-02 23:11:07 - Epoch 1:
2022-04-02 23:11:07 - Duration: 0:00:06.74
2022-04-02 23:11:07 - Average power usage (W) for gpu: [44.487 45.451 44.516 44.969 44.999 45.451 45.964 44.516]
2022-04-02 23:11:07 - Average power usage (W) for cpu: [71.169312 75.344778]
2022-04-02 23:11:07 - Carbon intensities (gCO2/kWh) fetched every 900 s at detected location Paris, Île-de-France, FR: [294.2060978]
2022-04-02 23:11:07 - Average carbon intensity during training was 294.21 gCO2/kWh at detected location: Paris, Île-de-France, FR.
2022-04-02 23:11:07 - Live carbon intensity could not be fetched at detected location: Paris, Île-de-France, FR. Defaulted to average carbon intensity for EU-28 in 2017 of 294.21 gCO2/kWh.
2022-04-02 23:11:07 - Monitoring thread ended.
2022-04-02 23:11:38 - carbontracker version 1.1.6
2022-04-02 23:11:38 - Only predicted and actual consumptions are multiplied by a PUE coefficient of 1.59 (Rhonda Ascierto, 2019, Uptime Institute Global Data Center Survey).
2022-04-02 23:11:38 - The following components were found: GPU with device(s) Tesla V100-SXM2-32GB, Tesla V100-SXM2-32GB, Tesla V100-SXM2-32GB, Tesla V100-SXM2-32GB, Tesla V100-SXM2-32GB, Tesla V100-SXM2-32GB, Tesla V100-SXM2-32GB, Tesla V100-SXM2-32GB. CPU with device(s) cpu:1, cpu:0.
2022-04-02 23:11:38 - Monitoring thread started.
2022-04-02 23:12:14 - Epoch 1:
2022-04-02 23:12:14 - Duration: 0:00:06.74
2022-04-02 23:12:14 - Average power usage (W) for gpu: [44.487 45.451 44.487 44.969 44.999 45.451 45.964 44.516]
2022-04-02 23:12:14 - Average power usage (W) for cpu: [71.165345 76.395923]
2022-04-02 23:12:15 - Carbon intensities (gCO2/kWh) fetched every 900 s at detected location Paris, Île-de-France, FR: [294.2060978]
2022-04-02 23:12:15 - Average carbon intensity during training was 294.21 gCO2/kWh at detected location: Paris, Île-de-France, FR.
2022-04-02 23:12:15 - Live carbon intensity could not be fetched at detected location: Paris, Île-de-France, FR. Defaulted to average carbon intensity for EU-28 in 2017 of 294.21 gCO2/kWh.
2022-04-02 23:12:15 - Monitoring thread ended.
2022-04-02 23:12:45 - carbontracker version 1.1.6
2022-04-02 23:12:45 - Only predicted and actual consumptions are multiplied by a PUE coefficient of 1.59 (Rhonda Ascierto, 2019, Uptime Institute Global Data Center Survey).
2022-04-02 23:12:45 - The following components were found: GPU with device(s) Tesla V100-SXM2-32GB, Tesla V100-SXM2-32GB, Tesla V100-SXM2-32GB, Tesla V100-SXM2-32GB, Tesla V100-SXM2-32GB, Tesla V100-SXM2-32GB, Tesla V100-SXM2-32GB, Tesla V100-SXM2-32GB. CPU with device(s) cpu:1, cpu:0.
2022-04-02 23:12:45 - Monitoring thread started.
2022-04-02 23:13:22 - Epoch 1:
2022-04-02 23:13:22 - Duration: 0:00:06.74
2022-04-02 23:13:22 - Average power usage (W) for gpu: [44.487 45.451 44.487 44.969 44.999 45.451 45.964 44.516]
2022-04-02 23:13:22 - Average power usage (W) for cpu: [71.169129 75.601858]
2022-04-02 23:13:22 - Carbon intensities (gCO2/kWh) fetched every 900 s at detected location Paris, Île-de-France, FR: [294.2060978]
2022-04-02 23:13:22 - Average carbon intensity during training was 294.21 gCO2/kWh at detected location: Paris, Île-de-France, FR.
2022-04-02 23:13:22 - Live carbon intensity could not be fetched at detected location: Paris, Île-de-France, FR. Defaulted to average carbon intensity for EU-28 in 2017 of 294.21 gCO2/kWh.
2022-04-02 23:13:22 - Monitoring thread ended.
2022-04-02 23:13:52 - carbontracker version 1.1.6
2022-04-02 23:13:52 - Only predicted and actual consumptions are multiplied by a PUE coefficient of 1.59 (Rhonda Ascierto, 2019, Uptime Institute Global Data Center Survey).
2022-04-02 23:13:52 - The following components were found: GPU with device(s) Tesla V100-SXM2-32GB, Tesla V100-SXM2-32GB, Tesla V100-SXM2-32GB, Tesla V100-SXM2-32GB, Tesla V100-SXM2-32GB, Tesla V100-SXM2-32GB, Tesla V100-SXM2-32GB, Tesla V100-SXM2-32GB. CPU with device(s) cpu:1, cpu:0.
2022-04-02 23:13:52 - Monitoring thread started.
2022-04-02 23:14:29 - Epoch 1:
2022-04-02 23:14:29 - Duration: 0:00:06.74
2022-04-02 23:14:29 - Average power usage (W) for gpu: [44.487 45.451 44.487 44.969 44.999 45.451 45.964 44.516]
2022-04-02 23:14:29 - Average power usage (W) for cpu: [71.09253  75.388113]
2022-04-02 23:14:29 - Carbon intensities (gCO2/kWh) fetched every 900 s at detected location Paris, Île-de-France, FR: [294.2060978]
2022-04-02 23:14:29 - Average carbon intensity during training was 294.21 gCO2/kWh at detected location: Paris, Île-de-France, FR.
2022-04-02 23:14:29 - Live carbon intensity could not be fetched at detected location: Paris, Île-de-France, FR. Defaulted to average carbon intensity for EU-28 in 2017 of 294.21 gCO2/kWh.
2022-04-02 23:14:29 - Monitoring thread ended.
2022-04-02 23:14:59 - carbontracker version 1.1.6
2022-04-02 23:14:59 - Only predicted and actual consumptions are multiplied by a PUE coefficient of 1.59 (Rhonda Ascierto, 2019, Uptime Institute Global Data Center Survey).
2022-04-02 23:15:11 - The following components were found: GPU with device(s) Tesla V100-SXM2-32GB, Tesla V100-SXM2-32GB, Tesla V100-SXM2-32GB, Tesla V100-SXM2-32GB, Tesla V100-SXM2-32GB, Tesla V100-SXM2-32GB, Tesla V100-SXM2-32GB, Tesla V100-SXM2-32GB. CPU with device(s) cpu:1, cpu:0.
2022-04-02 23:15:11 - Monitoring thread started.
2022-04-02 23:15:43 - Epoch 1:
2022-04-02 23:15:43 - Duration: 0:00:06.74
2022-04-02 23:15:43 - Average power usage (W) for gpu: [44.487 45.451 44.487 44.969 44.999 45.451 46.446 44.516]
2022-04-02 23:15:43 - Average power usage (W) for cpu: [71.1568   76.178882]
2022-04-02 23:15:43 - Carbon intensities (gCO2/kWh) fetched every 900 s at detected location Paris, Île-de-France, FR: [294.2060978]
2022-04-02 23:15:43 - Average carbon intensity during training was 294.21 gCO2/kWh at detected location: Paris, Île-de-France, FR.
2022-04-02 23:15:43 - Live carbon intensity could not be fetched at detected location: Paris, Île-de-France, FR. Defaulted to average carbon intensity for EU-28 in 2017 of 294.21 gCO2/kWh.
2022-04-02 23:15:44 - Monitoring thread ended.
2022-04-02 23:16:14 - carbontracker version 1.1.6
2022-04-02 23:16:14 - Only predicted and actual consumptions are multiplied by a PUE coefficient of 1.59 (Rhonda Ascierto, 2019, Uptime Institute Global Data Center Survey).
2022-04-02 23:16:14 - The following components were found: GPU with device(s) Tesla V100-SXM2-32GB, Tesla V100-SXM2-32GB, Tesla V100-SXM2-32GB, Tesla V100-SXM2-32GB, Tesla V100-SXM2-32GB, Tesla V100-SXM2-32GB, Tesla V100-SXM2-32GB, Tesla V100-SXM2-32GB. CPU with device(s) cpu:1, cpu:0.
2022-04-02 23:16:14 - Monitoring thread started.
2022-04-02 23:16:50 - Epoch 1:
2022-04-02 23:16:50 - Duration: 0:00:06.74
2022-04-02 23:16:50 - Average power usage (W) for gpu: [44.487 45.451 44.487 44.969 44.999 45.451 46.446 44.516]
2022-04-02 23:16:50 - Average power usage (W) for cpu: [71.203187 75.406667]
2022-04-02 23:16:51 - Carbon intensities (gCO2/kWh) fetched every 900 s at detected location Paris, Île-de-France, FR: [294.2060978]
2022-04-02 23:16:51 - Average carbon intensity during training was 294.21 gCO2/kWh at detected location: Paris, Île-de-France, FR.
2022-04-02 23:16:51 - Live carbon intensity could not be fetched at detected location: Paris, Île-de-France, FR. Defaulted to average carbon intensity for EU-28 in 2017 of 294.21 gCO2/kWh.
2022-04-02 23:16:51 - Monitoring thread ended.
2022-04-02 23:17:21 - carbontracker version 1.1.6
2022-04-02 23:17:21 - Only predicted and actual consumptions are multiplied by a PUE coefficient of 1.59 (Rhonda Ascierto, 2019, Uptime Institute Global Data Center Survey).
2022-04-02 23:17:21 - The following components were found: GPU with device(s) Tesla V100-SXM2-32GB, Tesla V100-SXM2-32GB, Tesla V100-SXM2-32GB, Tesla V100-SXM2-32GB, Tesla V100-SXM2-32GB, Tesla V100-SXM2-32GB, Tesla V100-SXM2-32GB, Tesla V100-SXM2-32GB. CPU with device(s) cpu:1, cpu:0.
2022-04-02 23:17:21 - Monitoring thread started.
2022-04-02 23:17:58 - Epoch 1:
2022-04-02 23:17:58 - Duration: 0:00:06.74
2022-04-02 23:17:58 - Average power usage (W) for gpu: [44.487 45.451 44.487 44.969 44.999 45.451 45.964 44.516]
2022-04-02 23:17:58 - Average power usage (W) for cpu: [71.108094 75.448293]
2022-04-02 23:17:58 - Carbon intensities (gCO2/kWh) fetched every 900 s at detected location Paris, Île-de-France, FR: [294.2060978]
2022-04-02 23:17:58 - Average carbon intensity during training was 294.21 gCO2/kWh at detected location: Paris, Île-de-France, FR.
2022-04-02 23:17:58 - Live carbon intensity could not be fetched at detected location: Paris, Île-de-France, FR. Defaulted to average carbon intensity for EU-28 in 2017 of 294.21 gCO2/kWh.
2022-04-02 23:17:58 - Monitoring thread ended.
2022-04-02 23:18:28 - carbontracker version 1.1.6
2022-04-02 23:18:28 - Only predicted and actual consumptions are multiplied by a PUE coefficient of 1.59 (Rhonda Ascierto, 2019, Uptime Institute Global Data Center Survey).
2022-04-02 23:18:28 - The following components were found: GPU with device(s) Tesla V100-SXM2-32GB, Tesla V100-SXM2-32GB, Tesla V100-SXM2-32GB, Tesla V100-SXM2-32GB, Tesla V100-SXM2-32GB, Tesla V100-SXM2-32GB, Tesla V100-SXM2-32GB, Tesla V100-SXM2-32GB. CPU with device(s) cpu:1, cpu:0.
2022-04-02 23:18:28 - Monitoring thread started.
2022-04-02 23:19:05 - Epoch 1:
2022-04-02 23:19:05 - Duration: 0:00:06.74
2022-04-02 23:19:05 - Average power usage (W) for gpu: [44.487 45.933 44.487 44.969 44.999 45.451 46.446 44.516]
2022-04-02 23:19:05 - Average power usage (W) for cpu: [71.132203 75.604054]
2022-04-02 23:19:05 - Carbon intensities (gCO2/kWh) fetched every 900 s at detected location Paris, Île-de-France, FR: [294.2060978]
2022-04-02 23:19:05 - Average carbon intensity during training was 294.21 gCO2/kWh at detected location: Paris, Île-de-France, FR.
2022-04-02 23:19:05 - Live carbon intensity could not be fetched at detected location: Paris, Île-de-France, FR. Defaulted to average carbon intensity for EU-28 in 2017 of 294.21 gCO2/kWh.
2022-04-02 23:19:05 - Monitoring thread ended.
2022-04-02 23:19:35 - carbontracker version 1.1.6
2022-04-02 23:19:35 - Only predicted and actual consumptions are multiplied by a PUE coefficient of 1.59 (Rhonda Ascierto, 2019, Uptime Institute Global Data Center Survey).
2022-04-02 23:19:36 - The following components were found: GPU with device(s) Tesla V100-SXM2-32GB, Tesla V100-SXM2-32GB, Tesla V100-SXM2-32GB, Tesla V100-SXM2-32GB, Tesla V100-SXM2-32GB, Tesla V100-SXM2-32GB, Tesla V100-SXM2-32GB, Tesla V100-SXM2-32GB. CPU with device(s) cpu:1, cpu:0.
2022-04-02 23:19:36 - Monitoring thread started.
2022-04-02 23:20:12 - Epoch 1:
2022-04-02 23:20:12 - Duration: 0:00:06.74
2022-04-02 23:20:12 - Average power usage (W) for gpu: [44.487 45.481 44.487 44.999 44.999 45.451 46.446 44.516]
2022-04-02 23:20:12 - Average power usage (W) for cpu: [71.042909 75.315237]
2022-04-02 23:20:12 - Carbon intensities (gCO2/kWh) fetched every 900 s at detected location Paris, Île-de-France, FR: [294.2060978]
2022-04-02 23:20:12 - Average carbon intensity during training was 294.21 gCO2/kWh at detected location: Paris, Île-de-France, FR.
2022-04-02 23:20:13 - Live carbon intensity could not be fetched at detected location: Paris, Île-de-France, FR. Defaulted to average carbon intensity for EU-28 in 2017 of 294.21 gCO2/kWh.
2022-04-02 23:20:13 - Monitoring thread ended.
2022-04-02 23:20:43 - carbontracker version 1.1.6
2022-04-02 23:20:43 - Only predicted and actual consumptions are multiplied by a PUE coefficient of 1.59 (Rhonda Ascierto, 2019, Uptime Institute Global Data Center Survey).
2022-04-02 23:20:43 - The following components were found: GPU with device(s) Tesla V100-SXM2-32GB, Tesla V100-SXM2-32GB, Tesla V100-SXM2-32GB, Tesla V100-SXM2-32GB, Tesla V100-SXM2-32GB, Tesla V100-SXM2-32GB, Tesla V100-SXM2-32GB, Tesla V100-SXM2-32GB. CPU with device(s) cpu:1, cpu:0.
2022-04-02 23:20:43 - Monitoring thread started.
2022-04-02 23:21:20 - Epoch 1:
2022-04-02 23:21:20 - Duration: 0:00:06.74
2022-04-02 23:21:20 - Average power usage (W) for gpu: [44.487 45.451 44.487 44.969 44.999 45.451 45.964 44.516]
2022-04-02 23:21:20 - Average power usage (W) for cpu: [71.162354 75.47582 ]
2022-04-02 23:21:20 - Carbon intensities (gCO2/kWh) fetched every 900 s at detected location Paris, Île-de-France, FR: [294.2060978]
2022-04-02 23:21:20 - Average carbon intensity during training was 294.21 gCO2/kWh at detected location: Paris, Île-de-France, FR.
2022-04-02 23:21:20 - Live carbon intensity could not be fetched at detected location: Paris, Île-de-France, FR. Defaulted to average carbon intensity for EU-28 in 2017 of 294.21 gCO2/kWh.
2022-04-02 23:21:20 - Monitoring thread ended.
2022-04-02 23:21:50 - carbontracker version 1.1.6
2022-04-02 23:21:50 - Only predicted and actual consumptions are multiplied by a PUE coefficient of 1.59 (Rhonda Ascierto, 2019, Uptime Institute Global Data Center Survey).
2022-04-02 23:21:50 - The following components were found: GPU with device(s) Tesla V100-SXM2-32GB, Tesla V100-SXM2-32GB, Tesla V100-SXM2-32GB, Tesla V100-SXM2-32GB, Tesla V100-SXM2-32GB, Tesla V100-SXM2-32GB, Tesla V100-SXM2-32GB, Tesla V100-SXM2-32GB. CPU with device(s) cpu:1, cpu:0.
2022-04-02 23:21:50 - Monitoring thread started.
2022-04-02 23:22:27 - Epoch 1:
2022-04-02 23:22:27 - Duration: 0:00:06.74
2022-04-02 23:22:27 - Average power usage (W) for gpu: [44.487 45.451 44.487 44.969 44.999 45.451 45.964 44.516]
2022-04-02 23:22:27 - Average power usage (W) for cpu: [70.986391 75.416006]
2022-04-02 23:22:27 - Carbon intensities (gCO2/kWh) fetched every 900 s at detected location Paris, Île-de-France, FR: [294.2060978]
2022-04-02 23:22:27 - Average carbon intensity during training was 294.21 gCO2/kWh at detected location: Paris, Île-de-France, FR.
2022-04-02 23:22:27 - Live carbon intensity could not be fetched at detected location: Paris, Île-de-France, FR. Defaulted to average carbon intensity for EU-28 in 2017 of 294.21 gCO2/kWh.
2022-04-02 23:22:27 - Monitoring thread ended.
2022-04-02 23:22:57 - carbontracker version 1.1.6
2022-04-02 23:22:57 - Only predicted and actual consumptions are multiplied by a PUE coefficient of 1.59 (Rhonda Ascierto, 2019, Uptime Institute Global Data Center Survey).
2022-04-02 23:22:57 - The following components were found: GPU with device(s) Tesla V100-SXM2-32GB, Tesla V100-SXM2-32GB, Tesla V100-SXM2-32GB, Tesla V100-SXM2-32GB, Tesla V100-SXM2-32GB, Tesla V100-SXM2-32GB, Tesla V100-SXM2-32GB, Tesla V100-SXM2-32GB. CPU with device(s) cpu:1, cpu:0.
2022-04-02 23:22:57 - Monitoring thread started.
2022-04-02 23:23:34 - Epoch 1:
2022-04-02 23:23:34 - Duration: 0:00:06.74
2022-04-02 23:23:34 - Average power usage (W) for gpu: [44.487 45.451 44.487 44.969 44.999 45.451 45.964 44.516]
2022-04-02 23:23:34 - Average power usage (W) for cpu: [71.029542 75.328726]
2022-04-02 23:23:34 - Carbon intensities (gCO2/kWh) fetched every 900 s at detected location Paris, Île-de-France, FR: [294.2060978]
2022-04-02 23:23:34 - Average carbon intensity during training was 294.21 gCO2/kWh at detected location: Paris, Île-de-France, FR.
2022-04-02 23:23:34 - Live carbon intensity could not be fetched at detected location: Paris, Île-de-France, FR. Defaulted to average carbon intensity for EU-28 in 2017 of 294.21 gCO2/kWh.
2022-04-02 23:23:34 - Monitoring thread ended.
2022-04-02 23:24:04 - carbontracker version 1.1.6
2022-04-02 23:24:04 - Only predicted and actual consumptions are multiplied by a PUE coefficient of 1.59 (Rhonda Ascierto, 2019, Uptime Institute Global Data Center Survey).
2022-04-02 23:24:17 - The following components were found: GPU with device(s) Tesla V100-SXM2-32GB, Tesla V100-SXM2-32GB, Tesla V100-SXM2-32GB, Tesla V100-SXM2-32GB, Tesla V100-SXM2-32GB, Tesla V100-SXM2-32GB, Tesla V100-SXM2-32GB, Tesla V100-SXM2-32GB. CPU with device(s) cpu:1, cpu:0.
2022-04-02 23:24:17 - Monitoring thread started.
2022-04-02 23:24:48 - Epoch 1:
2022-04-02 23:24:48 - Duration: 0:00:06.74
2022-04-02 23:24:48 - Average power usage (W) for gpu: [44.487 45.964 44.487 44.969 44.999 45.451 46.446 44.516]
2022-04-02 23:24:48 - Average power usage (W) for cpu: [71.198914 76.076587]
2022-04-02 23:24:48 - Carbon intensities (gCO2/kWh) fetched every 900 s at detected location Paris, Île-de-France, FR: [294.2060978]
2022-04-02 23:24:48 - Average carbon intensity during training was 294.21 gCO2/kWh at detected location: Paris, Île-de-France, FR.
2022-04-02 23:24:49 - Live carbon intensity could not be fetched at detected location: Paris, Île-de-France, FR. Defaulted to average carbon intensity for EU-28 in 2017 of 294.21 gCO2/kWh.
2022-04-02 23:24:49 - Monitoring thread ended.
2022-04-02 23:25:19 - carbontracker version 1.1.6
2022-04-02 23:25:19 - Only predicted and actual consumptions are multiplied by a PUE coefficient of 1.59 (Rhonda Ascierto, 2019, Uptime Institute Global Data Center Survey).
2022-04-02 23:25:19 - The following components were found: GPU with device(s) Tesla V100-SXM2-32GB, Tesla V100-SXM2-32GB, Tesla V100-SXM2-32GB, Tesla V100-SXM2-32GB, Tesla V100-SXM2-32GB, Tesla V100-SXM2-32GB, Tesla V100-SXM2-32GB, Tesla V100-SXM2-32GB. CPU with device(s) cpu:1, cpu:0.
2022-04-02 23:25:19 - Monitoring thread started.
2022-04-02 23:25:56 - Epoch 1:
2022-04-02 23:25:56 - Duration: 0:00:06.74
2022-04-02 23:25:56 - Average power usage (W) for gpu: [44.487 45.451 44.487 44.969 44.999 45.451 45.964 44.516]
2022-04-02 23:25:56 - Average power usage (W) for cpu: [71.044679 75.113517]
2022-04-02 23:25:56 - Carbon intensities (gCO2/kWh) fetched every 900 s at detected location Paris, Île-de-France, FR: [294.2060978]
2022-04-02 23:25:56 - Average carbon intensity during training was 294.21 gCO2/kWh at detected location: Paris, Île-de-France, FR.
2022-04-02 23:25:56 - Live carbon intensity could not be fetched at detected location: Paris, Île-de-France, FR. Defaulted to average carbon intensity for EU-28 in 2017 of 294.21 gCO2/kWh.
2022-04-02 23:25:56 - Monitoring thread ended.
2022-04-02 23:26:26 - carbontracker version 1.1.6
2022-04-02 23:26:26 - Only predicted and actual consumptions are multiplied by a PUE coefficient of 1.59 (Rhonda Ascierto, 2019, Uptime Institute Global Data Center Survey).
2022-04-02 23:26:26 - The following components were found: GPU with device(s) Tesla V100-SXM2-32GB, Tesla V100-SXM2-32GB, Tesla V100-SXM2-32GB, Tesla V100-SXM2-32GB, Tesla V100-SXM2-32GB, Tesla V100-SXM2-32GB, Tesla V100-SXM2-32GB, Tesla V100-SXM2-32GB. CPU with device(s) cpu:1, cpu:0.
2022-04-02 23:26:26 - Monitoring thread started.
2022-04-02 23:27:03 - Epoch 1:
2022-04-02 23:27:03 - Duration: 0:00:06.74
2022-04-02 23:27:03 - Average power usage (W) for gpu: [44.487 45.451 44.487 44.969 44.999 45.451 45.964 44.516]
2022-04-02 23:27:03 - Average power usage (W) for cpu: [71.091371 75.339956]
2022-04-02 23:27:03 - Carbon intensities (gCO2/kWh) fetched every 900 s at detected location Paris, Île-de-France, FR: [294.2060978]
2022-04-02 23:27:03 - Average carbon intensity during training was 294.21 gCO2/kWh at detected location: Paris, Île-de-France, FR.
2022-04-02 23:27:03 - Live carbon intensity could not be fetched at detected location: Paris, Île-de-France, FR. Defaulted to average carbon intensity for EU-28 in 2017 of 294.21 gCO2/kWh.
2022-04-02 23:27:04 - Monitoring thread ended.
2022-04-02 23:27:34 - carbontracker version 1.1.6
2022-04-02 23:27:34 - Only predicted and actual consumptions are multiplied by a PUE coefficient of 1.59 (Rhonda Ascierto, 2019, Uptime Institute Global Data Center Survey).
2022-04-02 23:27:34 - The following components were found: GPU with device(s) Tesla V100-SXM2-32GB, Tesla V100-SXM2-32GB, Tesla V100-SXM2-32GB, Tesla V100-SXM2-32GB, Tesla V100-SXM2-32GB, Tesla V100-SXM2-32GB, Tesla V100-SXM2-32GB, Tesla V100-SXM2-32GB. CPU with device(s) cpu:1, cpu:0.
2022-04-02 23:27:34 - Monitoring thread started.
2022-04-02 23:28:06 - Epoch 1:
2022-04-02 23:28:06 - Duration: 0:00:02.64
2022-04-02 23:28:06 - Average power usage (W) for gpu: [44.487 45.451 44.487 44.969 44.999 45.451 46.416 44.516]
2022-04-02 23:28:06 - Average power usage (W) for cpu: [71.062196 75.387808]
2022-04-02 23:28:07 - Carbon intensities (gCO2/kWh) fetched every 900 s at detected location Paris, Île-de-France, FR: [294.2060978]
2022-04-02 23:28:07 - Average carbon intensity during training was 294.21 gCO2/kWh at detected location: Paris, Île-de-France, FR.
2022-04-02 23:28:07 - Live carbon intensity could not be fetched at detected location: Paris, Île-de-France, FR. Defaulted to average carbon intensity for EU-28 in 2017 of 294.21 gCO2/kWh.
2022-04-02 23:28:07 - Monitoring thread ended.
2022-04-02 23:28:37 - carbontracker version 1.1.6
2022-04-02 23:28:37 - Only predicted and actual consumptions are multiplied by a PUE coefficient of 1.59 (Rhonda Ascierto, 2019, Uptime Institute Global Data Center Survey).
2022-04-02 23:28:37 - The following components were found: GPU with device(s) Tesla V100-SXM2-32GB, Tesla V100-SXM2-32GB, Tesla V100-SXM2-32GB, Tesla V100-SXM2-32GB, Tesla V100-SXM2-32GB, Tesla V100-SXM2-32GB, Tesla V100-SXM2-32GB, Tesla V100-SXM2-32GB. CPU with device(s) cpu:1, cpu:0.
2022-04-02 23:28:37 - Monitoring thread started.
2022-04-02 23:29:14 - Epoch 1:
2022-04-02 23:29:14 - Duration: 0:00:06.74
2022-04-02 23:29:14 - Average power usage (W) for gpu: [44.487 45.451 44.487 44.969 44.999 45.451 45.964 44.516]
2022-04-02 23:29:14 - Average power usage (W) for cpu: [70.850099 75.351065]
2022-04-02 23:29:14 - Carbon intensities (gCO2/kWh) fetched every 900 s at detected location Paris, Île-de-France, FR: [294.2060978]
2022-04-02 23:29:14 - Average carbon intensity during training was 294.21 gCO2/kWh at detected location: Paris, Île-de-France, FR.
2022-04-02 23:29:14 - Live carbon intensity could not be fetched at detected location: Paris, Île-de-France, FR. Defaulted to average carbon intensity for EU-28 in 2017 of 294.21 gCO2/kWh.
2022-04-02 23:29:14 - Monitoring thread ended.
2022-04-02 23:29:44 - carbontracker version 1.1.6
2022-04-02 23:29:44 - Only predicted and actual consumptions are multiplied by a PUE coefficient of 1.59 (Rhonda Ascierto, 2019, Uptime Institute Global Data Center Survey).
2022-04-02 23:29:44 - The following components were found: GPU with device(s) Tesla V100-SXM2-32GB, Tesla V100-SXM2-32GB, Tesla V100-SXM2-32GB, Tesla V100-SXM2-32GB, Tesla V100-SXM2-32GB, Tesla V100-SXM2-32GB, Tesla V100-SXM2-32GB, Tesla V100-SXM2-32GB. CPU with device(s) cpu:1, cpu:0.
2022-04-02 23:29:44 - Monitoring thread started.
2022-04-02 23:30:21 - Epoch 1:
2022-04-02 23:30:21 - Duration: 0:00:06.74
2022-04-02 23:30:21 - Average power usage (W) for gpu: [44.487 45.451 44.487 44.969 44.999 45.451 45.933 44.516]
2022-04-02 23:30:21 - Average power usage (W) for cpu: [71.036928 75.17272 ]
2022-04-02 23:30:21 - Carbon intensities (gCO2/kWh) fetched every 900 s at detected location Paris, Île-de-France, FR: [294.2060978]
2022-04-02 23:30:21 - Average carbon intensity during training was 294.21 gCO2/kWh at detected location: Paris, Île-de-France, FR.
2022-04-02 23:30:21 - Live carbon intensity could not be fetched at detected location: Paris, Île-de-France, FR. Defaulted to average carbon intensity for EU-28 in 2017 of 294.21 gCO2/kWh.
2022-04-02 23:30:21 - Monitoring thread ended.
