2022-04-02 23:24:17 - CarbonTracker: The following components were found: GPU with device(s) Tesla V100-SXM2-32GB, Tesla V100-SXM2-32GB, Tesla V100-SXM2-32GB, Tesla V100-SXM2-32GB, Tesla V100-SXM2-32GB, Tesla V100-SXM2-32GB, Tesla V100-SXM2-32GB, Tesla V100-SXM2-32GB. CPU with device(s) cpu:1, cpu:0.
2022-04-02 23:24:48 - CarbonTracker: Average carbon intensity during training was 294.21 gCO2/kWh at detected location: Paris, Île-de-France, FR.
2022-04-02 23:24:48 - CarbonTracker: 
Actual consumption for 1 epoch(s):
	Time:	0:00:07
	Energy:	0.001514 kWh
	CO2eq:	0.445503 g
	This is equivalent to:
	0.003700 km travelled by car
2022-04-02 23:24:49 - CarbonTracker: Live carbon intensity could not be fetched at detected location: Paris, Île-de-France, FR. Defaulted to average carbon intensity for EU-28 in 2017 of 294.21 gCO2/kWh.
2022-04-02 23:24:49 - CarbonTracker: 
Predicted consumption for 1 epoch(s):
	Time:	0:00:07
	Energy:	0.001514 kWh
	CO2eq:	0.445503 g
	This is equivalent to:
	0.003700 km travelled by car
2022-04-02 23:24:49 - CarbonTracker: Finished monitoring.
2022-04-02 23:25:19 - CarbonTracker: The following components were found: GPU with device(s) Tesla V100-SXM2-32GB, Tesla V100-SXM2-32GB, Tesla V100-SXM2-32GB, Tesla V100-SXM2-32GB, Tesla V100-SXM2-32GB, Tesla V100-SXM2-32GB, Tesla V100-SXM2-32GB, Tesla V100-SXM2-32GB. CPU with device(s) cpu:1, cpu:0.
2022-04-02 23:25:56 - CarbonTracker: Average carbon intensity during training was 294.21 gCO2/kWh at detected location: Paris, Île-de-France, FR.
2022-04-02 23:25:56 - CarbonTracker: 
Actual consumption for 1 epoch(s):
	Time:	0:00:07
	Energy:	0.001508 kWh
	CO2eq:	0.443603 g
	This is equivalent to:
	0.003684 km travelled by car
2022-04-02 23:25:56 - CarbonTracker: Live carbon intensity could not be fetched at detected location: Paris, Île-de-France, FR. Defaulted to average carbon intensity for EU-28 in 2017 of 294.21 gCO2/kWh.
2022-04-02 23:25:56 - CarbonTracker: 
Predicted consumption for 1 epoch(s):
	Time:	0:00:07
	Energy:	0.001508 kWh
	CO2eq:	0.443603 g
	This is equivalent to:
	0.003684 km travelled by car
2022-04-02 23:25:56 - CarbonTracker: Finished monitoring.
2022-04-02 23:26:26 - CarbonTracker: The following components were found: GPU with device(s) Tesla V100-SXM2-32GB, Tesla V100-SXM2-32GB, Tesla V100-SXM2-32GB, Tesla V100-SXM2-32GB, Tesla V100-SXM2-32GB, Tesla V100-SXM2-32GB, Tesla V100-SXM2-32GB, Tesla V100-SXM2-32GB. CPU with device(s) cpu:1, cpu:0.
2022-04-02 23:27:03 - CarbonTracker: Average carbon intensity during training was 294.21 gCO2/kWh at detected location: Paris, Île-de-France, FR.
2022-04-02 23:27:03 - CarbonTracker: 
Actual consumption for 1 epoch(s):
	Time:	0:00:07
	Energy:	0.001509 kWh
	CO2eq:	0.443848 g
	This is equivalent to:
	0.003686 km travelled by car
2022-04-02 23:27:03 - CarbonTracker: Live carbon intensity could not be fetched at detected location: Paris, Île-de-France, FR. Defaulted to average carbon intensity for EU-28 in 2017 of 294.21 gCO2/kWh.
2022-04-02 23:27:03 - CarbonTracker: 
Predicted consumption for 1 epoch(s):
	Time:	0:00:07
	Energy:	0.001509 kWh
	CO2eq:	0.443848 g
	This is equivalent to:
	0.003686 km travelled by car
2022-04-02 23:27:04 - CarbonTracker: Finished monitoring.
2022-04-02 23:27:34 - CarbonTracker: The following components were found: GPU with device(s) Tesla V100-SXM2-32GB, Tesla V100-SXM2-32GB, Tesla V100-SXM2-32GB, Tesla V100-SXM2-32GB, Tesla V100-SXM2-32GB, Tesla V100-SXM2-32GB, Tesla V100-SXM2-32GB, Tesla V100-SXM2-32GB. CPU with device(s) cpu:1, cpu:0.
2022-04-02 23:28:07 - CarbonTracker: Average carbon intensity during training was 294.21 gCO2/kWh at detected location: Paris, Île-de-France, FR.
2022-04-02 23:28:07 - CarbonTracker: 
Actual consumption for 1 epoch(s):
	Time:	0:00:03
	Energy:	0.000591 kWh
	CO2eq:	0.173732 g
	This is equivalent to:
	0.001443 km travelled by car
2022-04-02 23:28:07 - CarbonTracker: Live carbon intensity could not be fetched at detected location: Paris, Île-de-France, FR. Defaulted to average carbon intensity for EU-28 in 2017 of 294.21 gCO2/kWh.
2022-04-02 23:28:07 - CarbonTracker: 
Predicted consumption for 1 epoch(s):
	Time:	0:00:03
	Energy:	0.000591 kWh
	CO2eq:	0.173732 g
	This is equivalent to:
	0.001443 km travelled by car
2022-04-02 23:28:07 - CarbonTracker: Finished monitoring.
2022-04-02 23:28:37 - CarbonTracker: The following components were found: GPU with device(s) Tesla V100-SXM2-32GB, Tesla V100-SXM2-32GB, Tesla V100-SXM2-32GB, Tesla V100-SXM2-32GB, Tesla V100-SXM2-32GB, Tesla V100-SXM2-32GB, Tesla V100-SXM2-32GB, Tesla V100-SXM2-32GB. CPU with device(s) cpu:1, cpu:0.
2022-04-02 23:29:14 - CarbonTracker: Average carbon intensity during training was 294.21 gCO2/kWh at detected location: Paris, Île-de-France, FR.
2022-04-02 23:29:14 - CarbonTracker: 
Actual consumption for 1 epoch(s):
	Time:	0:00:07
	Energy:	0.001508 kWh
	CO2eq:	0.443658 g
	This is equivalent to:
	0.003685 km travelled by car
2022-04-02 23:29:14 - CarbonTracker: Live carbon intensity could not be fetched at detected location: Paris, Île-de-France, FR. Defaulted to average carbon intensity for EU-28 in 2017 of 294.21 gCO2/kWh.
2022-04-02 23:29:14 - CarbonTracker: 
Predicted consumption for 1 epoch(s):
	Time:	0:00:07
	Energy:	0.001508 kWh
	CO2eq:	0.443658 g
	This is equivalent to:
	0.003685 km travelled by car
2022-04-02 23:29:14 - CarbonTracker: Finished monitoring.
2022-04-02 23:29:44 - CarbonTracker: The following components were found: GPU with device(s) Tesla V100-SXM2-32GB, Tesla V100-SXM2-32GB, Tesla V100-SXM2-32GB, Tesla V100-SXM2-32GB, Tesla V100-SXM2-32GB, Tesla V100-SXM2-32GB, Tesla V100-SXM2-32GB, Tesla V100-SXM2-32GB. CPU with device(s) cpu:1, cpu:0.
2022-04-02 23:30:21 - CarbonTracker: Average carbon intensity during training was 294.21 gCO2/kWh at detected location: Paris, Île-de-France, FR.
2022-04-02 23:30:21 - CarbonTracker: 
Actual consumption for 1 epoch(s):
	Time:	0:00:07
	Energy:	0.001508 kWh
	CO2eq:	0.443602 g
	This is equivalent to:
	0.003684 km travelled by car
2022-04-02 23:30:21 - CarbonTracker: Live carbon intensity could not be fetched at detected location: Paris, Île-de-France, FR. Defaulted to average carbon intensity for EU-28 in 2017 of 294.21 gCO2/kWh.
2022-04-02 23:30:21 - CarbonTracker: 
Predicted consumption for 1 epoch(s):
	Time:	0:00:07
	Energy:	0.001508 kWh
	CO2eq:	0.443602 g
	This is equivalent to:
	0.003684 km travelled by car
2022-04-02 23:30:21 - CarbonTracker: Finished monitoring.
