2022-04-02 21:32:53 - carbontracker version 1.1.6
2022-04-02 21:32:53 - Only predicted and actual consumptions are multiplied by a PUE coefficient of 1.59 (Rhonda Ascierto, 2019, Uptime Institute Global Data Center Survey).
2022-04-02 21:33:05 - The following components were found: GPU with device(s) Tesla V100-SXM2-32GB, Tesla V100-SXM2-32GB, Tesla V100-SXM2-32GB, Tesla V100-SXM2-32GB, Tesla V100-SXM2-32GB, Tesla V100-SXM2-32GB, Tesla V100-SXM2-32GB, Tesla V100-SXM2-32GB. CPU with device(s) cpu:1, cpu:0.
2022-04-02 21:33:05 - Monitoring thread started.
2022-04-02 21:33:49 - Epoch 1:
2022-04-02 21:33:49 - Duration: 0:00:19.56
2022-04-02 21:33:49 - Average power usage (W) for gpu: [44.487 45.933 44.487 44.969 44.999 45.677 46.431 44.516]
2022-04-02 21:33:49 - Average power usage (W) for cpu: [76.8456895 78.992138 ]
2022-04-02 21:33:50 - Carbon intensities (gCO2/kWh) fetched every 900 s at detected location Paris, Île-de-France, FR: [294.2060978]
2022-04-02 21:33:50 - Average carbon intensity during training was 294.21 gCO2/kWh at detected location: Paris, Île-de-France, FR.
2022-04-02 21:33:50 - Live carbon intensity could not be fetched at detected location: Paris, Île-de-France, FR. Defaulted to average carbon intensity for EU-28 in 2017 of 294.21 gCO2/kWh.
2022-04-02 21:33:50 - Monitoring thread ended.
2022-04-02 21:34:20 - carbontracker version 1.1.6
2022-04-02 21:34:20 - Only predicted and actual consumptions are multiplied by a PUE coefficient of 1.59 (Rhonda Ascierto, 2019, Uptime Institute Global Data Center Survey).
2022-04-02 21:34:32 - The following components were found: GPU with device(s) Tesla V100-SXM2-32GB, Tesla V100-SXM2-32GB, Tesla V100-SXM2-32GB, Tesla V100-SXM2-32GB, Tesla V100-SXM2-32GB, Tesla V100-SXM2-32GB, Tesla V100-SXM2-32GB, Tesla V100-SXM2-32GB. CPU with device(s) cpu:1, cpu:0.
2022-04-02 21:34:32 - Monitoring thread started.
2022-04-02 21:35:17 - Epoch 1:
2022-04-02 21:35:17 - Duration: 0:00:19.66
2022-04-02 21:35:17 - Average power usage (W) for gpu: [44.487  45.9485 44.487  44.984  44.999  45.436  45.9485 44.7575]
2022-04-02 21:35:17 - Average power usage (W) for cpu: [76.6807425 79.266246 ]
2022-04-02 21:35:17 - Carbon intensities (gCO2/kWh) fetched every 900 s at detected location Paris, Île-de-France, FR: [294.2060978]
2022-04-02 21:35:17 - Average carbon intensity during training was 294.21 gCO2/kWh at detected location: Paris, Île-de-France, FR.
2022-04-02 21:35:17 - Live carbon intensity could not be fetched at detected location: Paris, Île-de-France, FR. Defaulted to average carbon intensity for EU-28 in 2017 of 294.21 gCO2/kWh.
2022-04-02 21:35:17 - Monitoring thread ended.
2022-04-02 21:35:47 - carbontracker version 1.1.6
2022-04-02 21:35:47 - Only predicted and actual consumptions are multiplied by a PUE coefficient of 1.59 (Rhonda Ascierto, 2019, Uptime Institute Global Data Center Survey).
2022-04-02 21:35:59 - The following components were found: GPU with device(s) Tesla V100-SXM2-32GB, Tesla V100-SXM2-32GB, Tesla V100-SXM2-32GB, Tesla V100-SXM2-32GB, Tesla V100-SXM2-32GB, Tesla V100-SXM2-32GB, Tesla V100-SXM2-32GB, Tesla V100-SXM2-32GB. CPU with device(s) cpu:1, cpu:0.
2022-04-02 21:35:59 - Monitoring thread started.
2022-04-02 21:36:44 - Epoch 1:
2022-04-02 21:36:44 - Duration: 0:00:19.86
2022-04-02 21:36:44 - Average power usage (W) for gpu: [44.487  45.933  44.487  44.969  44.999  45.436  45.9485 44.7575]
2022-04-02 21:36:44 - Average power usage (W) for cpu: [76.475451 79.033306]
2022-04-02 21:36:44 - Carbon intensities (gCO2/kWh) fetched every 900 s at detected location Paris, Île-de-France, FR: [294.2060978]
2022-04-02 21:36:44 - Average carbon intensity during training was 294.21 gCO2/kWh at detected location: Paris, Île-de-France, FR.
2022-04-02 21:36:44 - Live carbon intensity could not be fetched at detected location: Paris, Île-de-France, FR. Defaulted to average carbon intensity for EU-28 in 2017 of 294.21 gCO2/kWh.
2022-04-02 21:36:44 - Monitoring thread ended.
2022-04-02 21:37:14 - carbontracker version 1.1.6
2022-04-02 21:37:14 - Only predicted and actual consumptions are multiplied by a PUE coefficient of 1.59 (Rhonda Ascierto, 2019, Uptime Institute Global Data Center Survey).
2022-04-02 21:37:27 - The following components were found: GPU with device(s) Tesla V100-SXM2-32GB, Tesla V100-SXM2-32GB, Tesla V100-SXM2-32GB, Tesla V100-SXM2-32GB, Tesla V100-SXM2-32GB, Tesla V100-SXM2-32GB, Tesla V100-SXM2-32GB, Tesla V100-SXM2-32GB. CPU with device(s) cpu:1, cpu:0.
2022-04-02 21:37:27 - Monitoring thread started.
2022-04-02 21:39:52 - Epoch 1:
2022-04-02 21:39:52 - Duration: 0:02:00.08
2022-04-02 21:39:52 - Average power usage (W) for gpu: [44.487      45.58527273 44.487      44.97172727 44.999      45.451
 45.964      44.55990909]
2022-04-02 21:39:52 - Average power usage (W) for cpu: [70.91782582 74.83374255]
2022-04-02 21:39:52 - Carbon intensities (gCO2/kWh) fetched every 900 s at detected location Paris, Île-de-France, FR: [294.2060978]
2022-04-02 21:39:52 - Average carbon intensity during training was 294.21 gCO2/kWh at detected location: Paris, Île-de-France, FR.
2022-04-02 21:39:52 - Live carbon intensity could not be fetched at detected location: Paris, Île-de-France, FR. Defaulted to average carbon intensity for EU-28 in 2017 of 294.21 gCO2/kWh.
2022-04-02 21:39:52 - Monitoring thread ended.
2022-04-02 21:40:22 - carbontracker version 1.1.6
2022-04-02 21:40:22 - Only predicted and actual consumptions are multiplied by a PUE coefficient of 1.59 (Rhonda Ascierto, 2019, Uptime Institute Global Data Center Survey).
2022-04-02 21:40:34 - The following components were found: GPU with device(s) Tesla V100-SXM2-32GB, Tesla V100-SXM2-32GB, Tesla V100-SXM2-32GB, Tesla V100-SXM2-32GB, Tesla V100-SXM2-32GB, Tesla V100-SXM2-32GB, Tesla V100-SXM2-32GB, Tesla V100-SXM2-32GB. CPU with device(s) cpu:1, cpu:0.
2022-04-02 21:40:34 - Monitoring thread started.
2022-04-02 21:42:59 - Epoch 1:
2022-04-02 21:42:59 - Duration: 0:02:00.08
2022-04-02 21:42:59 - Average power usage (W) for gpu: [44.487      45.53863636 44.487      44.969      44.999      45.451
 46.18309091 44.516     ]
2022-04-02 21:42:59 - Average power usage (W) for cpu: [70.86211782 74.85480545]
2022-04-02 21:42:59 - Carbon intensities (gCO2/kWh) fetched every 900 s at detected location Paris, Île-de-France, FR: [294.2060978]
2022-04-02 21:42:59 - Average carbon intensity during training was 294.21 gCO2/kWh at detected location: Paris, Île-de-France, FR.
2022-04-02 21:43:00 - Live carbon intensity could not be fetched at detected location: Paris, Île-de-France, FR. Defaulted to average carbon intensity for EU-28 in 2017 of 294.21 gCO2/kWh.
2022-04-02 21:43:00 - Monitoring thread ended.
2022-04-02 21:43:30 - carbontracker version 1.1.6
2022-04-02 21:43:30 - Only predicted and actual consumptions are multiplied by a PUE coefficient of 1.59 (Rhonda Ascierto, 2019, Uptime Institute Global Data Center Survey).
2022-04-02 21:43:42 - The following components were found: GPU with device(s) Tesla V100-SXM2-32GB, Tesla V100-SXM2-32GB, Tesla V100-SXM2-32GB, Tesla V100-SXM2-32GB, Tesla V100-SXM2-32GB, Tesla V100-SXM2-32GB, Tesla V100-SXM2-32GB, Tesla V100-SXM2-32GB. CPU with device(s) cpu:1, cpu:0.
2022-04-02 21:43:42 - Monitoring thread started.
2022-04-02 21:46:07 - Epoch 1:
2022-04-02 21:46:07 - Duration: 0:02:00.08
2022-04-02 21:46:07 - Average power usage (W) for gpu: [44.487      45.58518182 44.487      44.969      44.999      45.451
 46.22690909 44.55990909]
2022-04-02 21:46:07 - Average power usage (W) for cpu: [70.75763155 74.77115427]
2022-04-02 21:46:07 - Carbon intensities (gCO2/kWh) fetched every 900 s at detected location Paris, Île-de-France, FR: [294.2060978]
2022-04-02 21:46:07 - Average carbon intensity during training was 294.21 gCO2/kWh at detected location: Paris, Île-de-France, FR.
2022-04-02 21:46:07 - Live carbon intensity could not be fetched at detected location: Paris, Île-de-France, FR. Defaulted to average carbon intensity for EU-28 in 2017 of 294.21 gCO2/kWh.
2022-04-02 21:46:07 - Monitoring thread ended.
2022-04-02 21:46:37 - carbontracker version 1.1.6
2022-04-02 21:46:37 - Only predicted and actual consumptions are multiplied by a PUE coefficient of 1.59 (Rhonda Ascierto, 2019, Uptime Institute Global Data Center Survey).
2022-04-02 21:46:49 - The following components were found: GPU with device(s) Tesla V100-SXM2-32GB, Tesla V100-SXM2-32GB, Tesla V100-SXM2-32GB, Tesla V100-SXM2-32GB, Tesla V100-SXM2-32GB, Tesla V100-SXM2-32GB, Tesla V100-SXM2-32GB, Tesla V100-SXM2-32GB. CPU with device(s) cpu:1, cpu:0.
2022-04-02 21:46:49 - Monitoring thread started.
2022-04-02 21:49:14 - Epoch 1:
2022-04-02 21:49:14 - Duration: 0:02:00.08
2022-04-02 21:49:14 - Average power usage (W) for gpu: [44.487      45.53863636 44.487      44.97718182 44.999      45.451
 46.18036364 44.516     ]
2022-04-02 21:49:14 - Average power usage (W) for cpu: [70.80553264 74.86475418]
2022-04-02 21:49:15 - Carbon intensities (gCO2/kWh) fetched every 900 s at detected location Paris, Île-de-France, FR: [294.2060978]
2022-04-02 21:49:15 - Average carbon intensity during training was 294.21 gCO2/kWh at detected location: Paris, Île-de-France, FR.
2022-04-02 21:49:15 - Live carbon intensity could not be fetched at detected location: Paris, Île-de-France, FR. Defaulted to average carbon intensity for EU-28 in 2017 of 294.21 gCO2/kWh.
2022-04-02 21:49:15 - Monitoring thread ended.
2022-04-02 21:49:45 - carbontracker version 1.1.6
2022-04-02 21:49:45 - Only predicted and actual consumptions are multiplied by a PUE coefficient of 1.59 (Rhonda Ascierto, 2019, Uptime Institute Global Data Center Survey).
2022-04-02 21:49:57 - The following components were found: GPU with device(s) Tesla V100-SXM2-32GB, Tesla V100-SXM2-32GB, Tesla V100-SXM2-32GB, Tesla V100-SXM2-32GB, Tesla V100-SXM2-32GB, Tesla V100-SXM2-32GB, Tesla V100-SXM2-32GB, Tesla V100-SXM2-32GB. CPU with device(s) cpu:1, cpu:0.
2022-04-02 21:49:57 - Monitoring thread started.
2022-04-02 21:52:22 - Epoch 1:
2022-04-02 21:52:22 - Duration: 0:02:00.08
2022-04-02 21:52:22 - Average power usage (W) for gpu: [44.487      45.58527273 44.487      44.97172727 44.999      45.451
 46.26236364 44.55990909]
2022-04-02 21:52:22 - Average power usage (W) for cpu: [70.78068045 74.84088927]
2022-04-02 21:52:22 - Carbon intensities (gCO2/kWh) fetched every 900 s at detected location Paris, Île-de-France, FR: [294.2060978]
2022-04-02 21:52:22 - Average carbon intensity during training was 294.21 gCO2/kWh at detected location: Paris, Île-de-France, FR.
2022-04-02 21:52:22 - Live carbon intensity could not be fetched at detected location: Paris, Île-de-France, FR. Defaulted to average carbon intensity for EU-28 in 2017 of 294.21 gCO2/kWh.
2022-04-02 21:52:22 - Monitoring thread ended.
2022-04-02 21:52:52 - carbontracker version 1.1.6
2022-04-02 21:52:52 - Only predicted and actual consumptions are multiplied by a PUE coefficient of 1.59 (Rhonda Ascierto, 2019, Uptime Institute Global Data Center Survey).
2022-04-02 21:53:04 - The following components were found: GPU with device(s) Tesla V100-SXM2-32GB, Tesla V100-SXM2-32GB, Tesla V100-SXM2-32GB, Tesla V100-SXM2-32GB, Tesla V100-SXM2-32GB, Tesla V100-SXM2-32GB, Tesla V100-SXM2-32GB, Tesla V100-SXM2-32GB. CPU with device(s) cpu:1, cpu:0.
2022-04-02 21:53:04 - Monitoring thread started.
2022-04-02 21:55:29 - Epoch 1:
2022-04-02 21:55:29 - Duration: 0:02:00.08
2022-04-02 21:55:29 - Average power usage (W) for gpu: [44.487      45.58527273 44.487      44.97172727 44.999      45.451
 46.13372727 44.516     ]
2022-04-02 21:55:29 - Average power usage (W) for cpu: [70.83726555 74.95161827]
2022-04-02 21:55:30 - Carbon intensities (gCO2/kWh) fetched every 900 s at detected location Paris, Île-de-France, FR: [294.2060978]
2022-04-02 21:55:30 - Average carbon intensity during training was 294.21 gCO2/kWh at detected location: Paris, Île-de-France, FR.
2022-04-02 21:55:30 - Live carbon intensity could not be fetched at detected location: Paris, Île-de-France, FR. Defaulted to average carbon intensity for EU-28 in 2017 of 294.21 gCO2/kWh.
2022-04-02 21:55:30 - Monitoring thread ended.
2022-04-02 21:56:00 - carbontracker version 1.1.6
2022-04-02 21:56:00 - Only predicted and actual consumptions are multiplied by a PUE coefficient of 1.59 (Rhonda Ascierto, 2019, Uptime Institute Global Data Center Survey).
2022-04-02 21:56:12 - The following components were found: GPU with device(s) Tesla V100-SXM2-32GB, Tesla V100-SXM2-32GB, Tesla V100-SXM2-32GB, Tesla V100-SXM2-32GB, Tesla V100-SXM2-32GB, Tesla V100-SXM2-32GB, Tesla V100-SXM2-32GB, Tesla V100-SXM2-32GB. CPU with device(s) cpu:1, cpu:0.
2022-04-02 21:56:12 - Monitoring thread started.
2022-04-02 21:58:37 - Epoch 1:
2022-04-02 21:58:37 - Duration: 0:02:00.08
2022-04-02 21:58:37 - Average power usage (W) for gpu: [44.487      45.53863636 44.487      44.969      44.999      45.44827273
 46.09263636 44.516     ]
2022-04-02 21:58:37 - Average power usage (W) for cpu: [70.82051427 74.75869209]
2022-04-02 21:58:37 - Carbon intensities (gCO2/kWh) fetched every 900 s at detected location Paris, Île-de-France, FR: [294.2060978]
2022-04-02 21:58:37 - Average carbon intensity during training was 294.21 gCO2/kWh at detected location: Paris, Île-de-France, FR.
2022-04-02 21:58:37 - Live carbon intensity could not be fetched at detected location: Paris, Île-de-France, FR. Defaulted to average carbon intensity for EU-28 in 2017 of 294.21 gCO2/kWh.
2022-04-02 21:58:37 - Monitoring thread ended.
2022-04-02 21:59:07 - carbontracker version 1.1.6
2022-04-02 21:59:07 - Only predicted and actual consumptions are multiplied by a PUE coefficient of 1.59 (Rhonda Ascierto, 2019, Uptime Institute Global Data Center Survey).
2022-04-02 21:59:20 - The following components were found: GPU with device(s) Tesla V100-SXM2-32GB, Tesla V100-SXM2-32GB, Tesla V100-SXM2-32GB, Tesla V100-SXM2-32GB, Tesla V100-SXM2-32GB, Tesla V100-SXM2-32GB, Tesla V100-SXM2-32GB, Tesla V100-SXM2-32GB. CPU with device(s) cpu:1, cpu:0.
2022-04-02 21:59:20 - Monitoring thread started.
2022-04-02 22:01:45 - Epoch 1:
2022-04-02 22:01:45 - Duration: 0:02:00.08
2022-04-02 22:01:45 - Average power usage (W) for gpu: [44.487      45.49754545 44.487      44.97172727 44.999      45.44827273
 46.18309091 44.516     ]
2022-04-02 22:01:45 - Average power usage (W) for cpu: [70.93281291 74.76524482]
2022-04-02 22:01:45 - Carbon intensities (gCO2/kWh) fetched every 900 s at detected location Paris, Île-de-France, FR: [294.2060978]
2022-04-02 22:01:45 - Average carbon intensity during training was 294.21 gCO2/kWh at detected location: Paris, Île-de-France, FR.
2022-04-02 22:01:45 - Live carbon intensity could not be fetched at detected location: Paris, Île-de-France, FR. Defaulted to average carbon intensity for EU-28 in 2017 of 294.21 gCO2/kWh.
2022-04-02 22:01:45 - Monitoring thread ended.
2022-04-02 22:02:15 - carbontracker version 1.1.6
2022-04-02 22:02:15 - Only predicted and actual consumptions are multiplied by a PUE coefficient of 1.59 (Rhonda Ascierto, 2019, Uptime Institute Global Data Center Survey).
2022-04-02 22:02:27 - The following components were found: GPU with device(s) Tesla V100-SXM2-32GB, Tesla V100-SXM2-32GB, Tesla V100-SXM2-32GB, Tesla V100-SXM2-32GB, Tesla V100-SXM2-32GB, Tesla V100-SXM2-32GB, Tesla V100-SXM2-32GB, Tesla V100-SXM2-32GB. CPU with device(s) cpu:1, cpu:0.
2022-04-02 22:02:27 - Monitoring thread started.
2022-04-02 22:04:52 - Epoch 1:
2022-04-02 22:04:52 - Duration: 0:02:00.08
2022-04-02 22:04:52 - Average power usage (W) for gpu: [44.487      45.58245455 44.487      44.97445455 44.999      45.451
 46.18036364 44.55990909]
2022-04-02 22:04:52 - Average power usage (W) for cpu: [70.86931982 74.767775  ]
2022-04-02 22:04:52 - Carbon intensities (gCO2/kWh) fetched every 900 s at detected location Paris, Île-de-France, FR: [294.2060978]
2022-04-02 22:04:52 - Average carbon intensity during training was 294.21 gCO2/kWh at detected location: Paris, Île-de-France, FR.
2022-04-02 22:04:53 - Live carbon intensity could not be fetched at detected location: Paris, Île-de-France, FR. Defaulted to average carbon intensity for EU-28 in 2017 of 294.21 gCO2/kWh.
2022-04-02 22:04:53 - Monitoring thread ended.
2022-04-02 22:05:23 - carbontracker version 1.1.6
2022-04-02 22:05:23 - Only predicted and actual consumptions are multiplied by a PUE coefficient of 1.59 (Rhonda Ascierto, 2019, Uptime Institute Global Data Center Survey).
2022-04-02 22:05:35 - The following components were found: GPU with device(s) Tesla V100-SXM2-32GB, Tesla V100-SXM2-32GB, Tesla V100-SXM2-32GB, Tesla V100-SXM2-32GB, Tesla V100-SXM2-32GB, Tesla V100-SXM2-32GB, Tesla V100-SXM2-32GB, Tesla V100-SXM2-32GB. CPU with device(s) cpu:1, cpu:0.
2022-04-02 22:05:35 - Monitoring thread started.
2022-04-02 22:08:00 - Epoch 1:
2022-04-02 22:08:00 - Duration: 0:02:00.08
2022-04-02 22:08:00 - Average power usage (W) for gpu: [44.487      45.53863636 44.48963636 44.97172727 44.95509091 45.44827273
 46.18309091 44.55990909]
2022-04-02 22:08:00 - Average power usage (W) for cpu: [70.86175709 74.60727536]
2022-04-02 22:08:00 - Carbon intensities (gCO2/kWh) fetched every 900 s at detected location Paris, Île-de-France, FR: [294.2060978]
2022-04-02 22:08:00 - Average carbon intensity during training was 294.21 gCO2/kWh at detected location: Paris, Île-de-France, FR.
2022-04-02 22:08:00 - Live carbon intensity could not be fetched at detected location: Paris, Île-de-France, FR. Defaulted to average carbon intensity for EU-28 in 2017 of 294.21 gCO2/kWh.
2022-04-02 22:08:00 - Monitoring thread ended.
2022-04-02 22:08:30 - carbontracker version 1.1.6
2022-04-02 22:08:30 - Only predicted and actual consumptions are multiplied by a PUE coefficient of 1.59 (Rhonda Ascierto, 2019, Uptime Institute Global Data Center Survey).
2022-04-02 22:08:42 - The following components were found: GPU with device(s) Tesla V100-SXM2-32GB, Tesla V100-SXM2-32GB, Tesla V100-SXM2-32GB, Tesla V100-SXM2-32GB, Tesla V100-SXM2-32GB, Tesla V100-SXM2-32GB, Tesla V100-SXM2-32GB, Tesla V100-SXM2-32GB. CPU with device(s) cpu:1, cpu:0.
2022-04-02 22:08:42 - Monitoring thread started.
2022-04-02 22:11:32 - Epoch 1:
2022-04-02 22:11:32 - Duration: 0:02:24.26
2022-04-02 22:11:32 - Average power usage (W) for gpu: [45.65314286 47.75307143 46.34242857 46.72128571 46.30592857 46.36757143
 46.15521429 45.61621429]
2022-04-02 22:11:32 - Average power usage (W) for cpu: [75.63158115 79.95377015]
2022-04-02 22:11:32 - Carbon intensities (gCO2/kWh) fetched every 900 s at detected location Paris, Île-de-France, FR: [294.2060978]
2022-04-02 22:11:32 - Average carbon intensity during training was 294.21 gCO2/kWh at detected location: Paris, Île-de-France, FR.
2022-04-02 22:11:32 - Live carbon intensity could not be fetched at detected location: Paris, Île-de-France, FR. Defaulted to average carbon intensity for EU-28 in 2017 of 294.21 gCO2/kWh.
2022-04-02 22:11:32 - Monitoring thread ended.
2022-04-02 22:12:02 - carbontracker version 1.1.6
2022-04-02 22:12:02 - Only predicted and actual consumptions are multiplied by a PUE coefficient of 1.59 (Rhonda Ascierto, 2019, Uptime Institute Global Data Center Survey).
2022-04-02 22:12:14 - The following components were found: GPU with device(s) Tesla V100-SXM2-32GB, Tesla V100-SXM2-32GB, Tesla V100-SXM2-32GB, Tesla V100-SXM2-32GB, Tesla V100-SXM2-32GB, Tesla V100-SXM2-32GB, Tesla V100-SXM2-32GB, Tesla V100-SXM2-32GB. CPU with device(s) cpu:1, cpu:0.
2022-04-02 22:12:14 - Monitoring thread started.
2022-04-02 22:15:05 - Epoch 1:
2022-04-02 22:15:05 - Duration: 0:02:25.86
2022-04-02 22:15:05 - Average power usage (W) for gpu: [47.29614286 47.06142857 47.1645     47.81564286 47.40285714 46.42928571
 48.42071429 45.78335714]
2022-04-02 22:15:05 - Average power usage (W) for cpu: [75.44458736 80.04062329]
2022-04-02 22:15:05 - Carbon intensities (gCO2/kWh) fetched every 900 s at detected location Paris, Île-de-France, FR: [294.2060978]
2022-04-02 22:15:05 - Average carbon intensity during training was 294.21 gCO2/kWh at detected location: Paris, Île-de-France, FR.
2022-04-02 22:15:05 - Live carbon intensity could not be fetched at detected location: Paris, Île-de-France, FR. Defaulted to average carbon intensity for EU-28 in 2017 of 294.21 gCO2/kWh.
2022-04-02 22:15:05 - Monitoring thread ended.
2022-04-02 22:15:35 - carbontracker version 1.1.6
2022-04-02 22:15:35 - Only predicted and actual consumptions are multiplied by a PUE coefficient of 1.59 (Rhonda Ascierto, 2019, Uptime Institute Global Data Center Survey).
2022-04-02 22:15:47 - The following components were found: GPU with device(s) Tesla V100-SXM2-32GB, Tesla V100-SXM2-32GB, Tesla V100-SXM2-32GB, Tesla V100-SXM2-32GB, Tesla V100-SXM2-32GB, Tesla V100-SXM2-32GB, Tesla V100-SXM2-32GB, Tesla V100-SXM2-32GB. CPU with device(s) cpu:1, cpu:0.
2022-04-02 22:15:47 - Monitoring thread started.
2022-04-02 22:18:42 - Epoch 1:
2022-04-02 22:18:42 - Duration: 0:02:29.57
2022-04-02 22:18:42 - Average power usage (W) for gpu: [46.40492857 47.34092857 46.16835714 46.72342857 45.95921429 48.32128571
 47.62864286 44.58071429]
2022-04-02 22:18:42 - Average power usage (W) for cpu: [75.55272407 79.94135407]
2022-04-02 22:18:42 - Carbon intensities (gCO2/kWh) fetched every 900 s at detected location Paris, Île-de-France, FR: [294.2060978]
2022-04-02 22:18:42 - Average carbon intensity during training was 294.21 gCO2/kWh at detected location: Paris, Île-de-France, FR.
2022-04-02 22:18:42 - Live carbon intensity could not be fetched at detected location: Paris, Île-de-France, FR. Defaulted to average carbon intensity for EU-28 in 2017 of 294.21 gCO2/kWh.
2022-04-02 22:18:42 - Monitoring thread ended.
2022-04-02 22:19:12 - carbontracker version 1.1.6
2022-04-02 22:19:12 - Only predicted and actual consumptions are multiplied by a PUE coefficient of 1.59 (Rhonda Ascierto, 2019, Uptime Institute Global Data Center Survey).
2022-04-02 22:19:24 - The following components were found: GPU with device(s) Tesla V100-SXM2-32GB, Tesla V100-SXM2-32GB, Tesla V100-SXM2-32GB, Tesla V100-SXM2-32GB, Tesla V100-SXM2-32GB, Tesla V100-SXM2-32GB, Tesla V100-SXM2-32GB, Tesla V100-SXM2-32GB. CPU with device(s) cpu:1, cpu:0.
2022-04-02 22:19:24 - Monitoring thread started.
2022-04-02 22:22:15 - Epoch 1:
2022-04-02 22:22:15 - Duration: 0:02:25.66
2022-04-02 22:22:15 - Average power usage (W) for gpu: [45.99107143 48.99       47.88735714 46.06764286 46.23178571 46.63785714
 49.00592857 45.71457143]
2022-04-02 22:22:15 - Average power usage (W) for cpu: [75.1893345  79.79355357]
2022-04-02 22:22:15 - Carbon intensities (gCO2/kWh) fetched every 900 s at detected location Paris, Île-de-France, FR: [294.2060978]
2022-04-02 22:22:15 - Average carbon intensity during training was 294.21 gCO2/kWh at detected location: Paris, Île-de-France, FR.
2022-04-02 22:22:15 - Live carbon intensity could not be fetched at detected location: Paris, Île-de-France, FR. Defaulted to average carbon intensity for EU-28 in 2017 of 294.21 gCO2/kWh.
2022-04-02 22:22:15 - Monitoring thread ended.
2022-04-02 22:22:46 - carbontracker version 1.1.6
2022-04-02 22:22:46 - Only predicted and actual consumptions are multiplied by a PUE coefficient of 1.59 (Rhonda Ascierto, 2019, Uptime Institute Global Data Center Survey).
2022-04-02 22:22:58 - The following components were found: GPU with device(s) Tesla V100-SXM2-32GB, Tesla V100-SXM2-32GB, Tesla V100-SXM2-32GB, Tesla V100-SXM2-32GB, Tesla V100-SXM2-32GB, Tesla V100-SXM2-32GB, Tesla V100-SXM2-32GB, Tesla V100-SXM2-32GB. CPU with device(s) cpu:1, cpu:0.
2022-04-02 22:22:58 - Monitoring thread started.
2022-04-02 22:26:04 - Epoch 1:
2022-04-02 22:26:04 - Duration: 0:02:40.88
2022-04-02 22:26:04 - Average power usage (W) for gpu: [48.51713333 48.9106     46.0864     49.13353333 46.85506667 48.2104
 49.72493333 47.7852    ]
2022-04-02 22:26:04 - Average power usage (W) for cpu: [75.3402286  79.61244667]
2022-04-02 22:26:04 - Carbon intensities (gCO2/kWh) fetched every 900 s at detected location Paris, Île-de-France, FR: [294.2060978]
2022-04-02 22:26:04 - Average carbon intensity during training was 294.21 gCO2/kWh at detected location: Paris, Île-de-France, FR.
2022-04-02 22:26:04 - Live carbon intensity could not be fetched at detected location: Paris, Île-de-France, FR. Defaulted to average carbon intensity for EU-28 in 2017 of 294.21 gCO2/kWh.
2022-04-02 22:26:04 - Monitoring thread ended.
2022-04-02 22:26:34 - carbontracker version 1.1.6
2022-04-02 22:26:34 - Only predicted and actual consumptions are multiplied by a PUE coefficient of 1.59 (Rhonda Ascierto, 2019, Uptime Institute Global Data Center Survey).
2022-04-02 22:26:47 - The following components were found: GPU with device(s) Tesla V100-SXM2-32GB, Tesla V100-SXM2-32GB, Tesla V100-SXM2-32GB, Tesla V100-SXM2-32GB, Tesla V100-SXM2-32GB, Tesla V100-SXM2-32GB, Tesla V100-SXM2-32GB, Tesla V100-SXM2-32GB. CPU with device(s) cpu:1, cpu:0.
2022-04-02 22:26:47 - Monitoring thread started.
2022-04-02 22:29:38 - Epoch 1:
2022-04-02 22:29:38 - Duration: 0:02:26.06
2022-04-02 22:29:38 - Average power usage (W) for gpu: [46.12864286 49.26435714 46.16835714 45.10885714 46.74814286 46.50021429
 47.6265     46.33421429]
2022-04-02 22:29:38 - Average power usage (W) for cpu: [75.62380364 79.88514979]
2022-04-02 22:29:38 - Carbon intensities (gCO2/kWh) fetched every 900 s at detected location Paris, Île-de-France, FR: [294.2060978]
2022-04-02 22:29:38 - Average carbon intensity during training was 294.21 gCO2/kWh at detected location: Paris, Île-de-France, FR.
2022-04-02 22:29:38 - Live carbon intensity could not be fetched at detected location: Paris, Île-de-France, FR. Defaulted to average carbon intensity for EU-28 in 2017 of 294.21 gCO2/kWh.
2022-04-02 22:29:38 - Monitoring thread ended.
2022-04-02 22:30:08 - carbontracker version 1.1.6
2022-04-02 22:30:08 - Only predicted and actual consumptions are multiplied by a PUE coefficient of 1.59 (Rhonda Ascierto, 2019, Uptime Institute Global Data Center Survey).
2022-04-02 22:30:20 - The following components were found: GPU with device(s) Tesla V100-SXM2-32GB, Tesla V100-SXM2-32GB, Tesla V100-SXM2-32GB, Tesla V100-SXM2-32GB, Tesla V100-SXM2-32GB, Tesla V100-SXM2-32GB, Tesla V100-SXM2-32GB, Tesla V100-SXM2-32GB. CPU with device(s) cpu:1, cpu:0.
2022-04-02 22:30:20 - Monitoring thread started.
2022-04-02 22:33:11 - Epoch 1:
2022-04-02 22:33:11 - Duration: 0:02:26.36
2022-04-02 22:33:11 - Average power usage (W) for gpu: [46.16835714 45.73078571 46.17157143 45.1455     46.13357143 45.47035714
 47.94321429 46.26735714]
2022-04-02 22:33:11 - Average power usage (W) for cpu: [75.49902285 79.97926408]
2022-04-02 22:33:12 - Carbon intensities (gCO2/kWh) fetched every 900 s at detected location Paris, Île-de-France, FR: [294.2060978]
2022-04-02 22:33:12 - Average carbon intensity during training was 294.21 gCO2/kWh at detected location: Paris, Île-de-France, FR.
2022-04-02 22:33:12 - Live carbon intensity could not be fetched at detected location: Paris, Île-de-France, FR. Defaulted to average carbon intensity for EU-28 in 2017 of 294.21 gCO2/kWh.
2022-04-02 22:33:12 - Monitoring thread ended.
2022-04-02 22:33:42 - carbontracker version 1.1.6
2022-04-02 22:33:42 - Only predicted and actual consumptions are multiplied by a PUE coefficient of 1.59 (Rhonda Ascierto, 2019, Uptime Institute Global Data Center Survey).
2022-04-02 22:33:54 - The following components were found: GPU with device(s) Tesla V100-SXM2-32GB, Tesla V100-SXM2-32GB, Tesla V100-SXM2-32GB, Tesla V100-SXM2-32GB, Tesla V100-SXM2-32GB, Tesla V100-SXM2-32GB, Tesla V100-SXM2-32GB, Tesla V100-SXM2-32GB. CPU with device(s) cpu:1, cpu:0.
2022-04-02 22:33:54 - Monitoring thread started.
2022-04-02 22:36:45 - Epoch 1:
2022-04-02 22:36:45 - Duration: 0:02:25.86
2022-04-02 22:36:45 - Average power usage (W) for gpu: [46.95492857 47.37542857 47.13007143 46.10207143 47.334      46.71092857
 47.18335714 46.75      ]
2022-04-02 22:36:45 - Average power usage (W) for cpu: [75.40999357 79.92596479]
2022-04-02 22:36:45 - Carbon intensities (gCO2/kWh) fetched every 900 s at detected location Paris, Île-de-France, FR: [294.2060978]
2022-04-02 22:36:45 - Average carbon intensity during training was 294.21 gCO2/kWh at detected location: Paris, Île-de-France, FR.
2022-04-02 22:36:45 - Live carbon intensity could not be fetched at detected location: Paris, Île-de-France, FR. Defaulted to average carbon intensity for EU-28 in 2017 of 294.21 gCO2/kWh.
2022-04-02 22:36:45 - Monitoring thread ended.
2022-04-02 22:37:15 - carbontracker version 1.1.6
2022-04-02 22:37:15 - Only predicted and actual consumptions are multiplied by a PUE coefficient of 1.59 (Rhonda Ascierto, 2019, Uptime Institute Global Data Center Survey).
2022-04-02 22:37:27 - The following components were found: GPU with device(s) Tesla V100-SXM2-32GB, Tesla V100-SXM2-32GB, Tesla V100-SXM2-32GB, Tesla V100-SXM2-32GB, Tesla V100-SXM2-32GB, Tesla V100-SXM2-32GB, Tesla V100-SXM2-32GB, Tesla V100-SXM2-32GB. CPU with device(s) cpu:1, cpu:0.
2022-04-02 22:37:27 - Monitoring thread started.
2022-04-02 22:40:20 - Epoch 1:
2022-04-02 22:40:20 - Duration: 0:02:27.16
2022-04-02 22:40:20 - Average power usage (W) for gpu: [46.163      47.30435714 47.6485     46.55035714 46.407      47.25485714
 48.52621429 45.85228571]
2022-04-02 22:40:20 - Average power usage (W) for cpu: [75.40140507 79.81590993]
2022-04-02 22:40:20 - Carbon intensities (gCO2/kWh) fetched every 900 s at detected location Paris, Île-de-France, FR: [294.2060978]
2022-04-02 22:40:20 - Average carbon intensity during training was 294.21 gCO2/kWh at detected location: Paris, Île-de-France, FR.
2022-04-02 22:40:20 - Live carbon intensity could not be fetched at detected location: Paris, Île-de-France, FR. Defaulted to average carbon intensity for EU-28 in 2017 of 294.21 gCO2/kWh.
2022-04-02 22:40:20 - Monitoring thread ended.
2022-04-02 22:40:50 - carbontracker version 1.1.6
2022-04-02 22:40:50 - Only predicted and actual consumptions are multiplied by a PUE coefficient of 1.59 (Rhonda Ascierto, 2019, Uptime Institute Global Data Center Survey).
2022-04-02 22:41:02 - The following components were found: GPU with device(s) Tesla V100-SXM2-32GB, Tesla V100-SXM2-32GB, Tesla V100-SXM2-32GB, Tesla V100-SXM2-32GB, Tesla V100-SXM2-32GB, Tesla V100-SXM2-32GB, Tesla V100-SXM2-32GB, Tesla V100-SXM2-32GB. CPU with device(s) cpu:1, cpu:0.
2022-04-02 22:41:02 - Monitoring thread started.
2022-04-02 22:43:58 - Epoch 1:
2022-04-02 22:43:58 - Duration: 0:02:30.57
2022-04-02 22:43:58 - Average power usage (W) for gpu: [45.61871429 46.62142857 46.206      46.27492857 46.78471429 45.5005
 47.11035714 46.26735714]
2022-04-02 22:43:58 - Average power usage (W) for cpu: [74.76351964 79.92661864]
2022-04-02 22:43:58 - Carbon intensities (gCO2/kWh) fetched every 900 s at detected location Paris, Île-de-France, FR: [294.2060978]
2022-04-02 22:43:58 - Average carbon intensity during training was 294.21 gCO2/kWh at detected location: Paris, Île-de-France, FR.
2022-04-02 22:43:58 - Live carbon intensity could not be fetched at detected location: Paris, Île-de-France, FR. Defaulted to average carbon intensity for EU-28 in 2017 of 294.21 gCO2/kWh.
2022-04-02 22:43:58 - Monitoring thread ended.
2022-04-02 22:44:28 - carbontracker version 1.1.6
2022-04-02 22:44:28 - Only predicted and actual consumptions are multiplied by a PUE coefficient of 1.59 (Rhonda Ascierto, 2019, Uptime Institute Global Data Center Survey).
2022-04-02 22:44:40 - The following components were found: GPU with device(s) Tesla V100-SXM2-32GB, Tesla V100-SXM2-32GB, Tesla V100-SXM2-32GB, Tesla V100-SXM2-32GB, Tesla V100-SXM2-32GB, Tesla V100-SXM2-32GB, Tesla V100-SXM2-32GB, Tesla V100-SXM2-32GB. CPU with device(s) cpu:1, cpu:0.
2022-04-02 22:44:40 - Monitoring thread started.
2022-04-02 22:45:12 - Epoch 1:
2022-04-02 22:45:12 - Duration: 0:00:06.74
2022-04-02 22:45:12 - Average power usage (W) for gpu: [44.487 45.933 44.487 44.969 44.999 45.451 46.416 44.999]
2022-04-02 22:45:12 - Average power usage (W) for cpu: [70.907351 75.557973]
2022-04-02 22:45:12 - Carbon intensities (gCO2/kWh) fetched every 900 s at detected location Paris, Île-de-France, FR: [294.2060978]
2022-04-02 22:45:12 - Average carbon intensity during training was 294.21 gCO2/kWh at detected location: Paris, Île-de-France, FR.
2022-04-02 22:45:12 - Live carbon intensity could not be fetched at detected location: Paris, Île-de-France, FR. Defaulted to average carbon intensity for EU-28 in 2017 of 294.21 gCO2/kWh.
2022-04-02 22:45:12 - Monitoring thread ended.
2022-04-02 22:45:42 - carbontracker version 1.1.6
2022-04-02 22:45:42 - Only predicted and actual consumptions are multiplied by a PUE coefficient of 1.59 (Rhonda Ascierto, 2019, Uptime Institute Global Data Center Survey).
2022-04-02 22:45:54 - The following components were found: GPU with device(s) Tesla V100-SXM2-32GB, Tesla V100-SXM2-32GB, Tesla V100-SXM2-32GB, Tesla V100-SXM2-32GB, Tesla V100-SXM2-32GB, Tesla V100-SXM2-32GB, Tesla V100-SXM2-32GB, Tesla V100-SXM2-32GB. CPU with device(s) cpu:1, cpu:0.
2022-04-02 22:45:54 - Monitoring thread started.
2022-04-02 22:46:26 - Epoch 1:
2022-04-02 22:46:26 - Duration: 0:00:06.74
2022-04-02 22:46:26 - Average power usage (W) for gpu: [44.487 45.933 44.516 44.969 44.999 45.451 45.964 44.999]
2022-04-02 22:46:26 - Average power usage (W) for cpu: [70.968996 75.393911]
2022-04-02 22:46:26 - Carbon intensities (gCO2/kWh) fetched every 900 s at detected location Paris, Île-de-France, FR: [294.2060978]
2022-04-02 22:46:26 - Average carbon intensity during training was 294.21 gCO2/kWh at detected location: Paris, Île-de-France, FR.
2022-04-02 22:46:26 - Live carbon intensity could not be fetched at detected location: Paris, Île-de-France, FR. Defaulted to average carbon intensity for EU-28 in 2017 of 294.21 gCO2/kWh.
2022-04-02 22:46:26 - Monitoring thread ended.
2022-04-02 22:46:57 - carbontracker version 1.1.6
2022-04-02 22:46:57 - Only predicted and actual consumptions are multiplied by a PUE coefficient of 1.59 (Rhonda Ascierto, 2019, Uptime Institute Global Data Center Survey).
2022-04-02 22:47:09 - The following components were found: GPU with device(s) Tesla V100-SXM2-32GB, Tesla V100-SXM2-32GB, Tesla V100-SXM2-32GB, Tesla V100-SXM2-32GB, Tesla V100-SXM2-32GB, Tesla V100-SXM2-32GB, Tesla V100-SXM2-32GB, Tesla V100-SXM2-32GB. CPU with device(s) cpu:1, cpu:0.
2022-04-02 22:47:09 - Monitoring thread started.
2022-04-02 22:47:40 - Epoch 1:
2022-04-02 22:47:40 - Duration: 0:00:06.74
2022-04-02 22:47:40 - Average power usage (W) for gpu: [44.487 45.933 44.487 44.969 44.999 45.451 45.964 44.999]
2022-04-02 22:47:40 - Average power usage (W) for cpu: [71.196718 75.385366]
2022-04-02 22:47:41 - Carbon intensities (gCO2/kWh) fetched every 900 s at detected location Paris, Île-de-France, FR: [294.2060978]
2022-04-02 22:47:41 - Average carbon intensity during training was 294.21 gCO2/kWh at detected location: Paris, Île-de-France, FR.
2022-04-02 22:47:41 - Live carbon intensity could not be fetched at detected location: Paris, Île-de-France, FR. Defaulted to average carbon intensity for EU-28 in 2017 of 294.21 gCO2/kWh.
2022-04-02 22:47:41 - Monitoring thread ended.
2022-04-02 22:48:11 - carbontracker version 1.1.6
2022-04-02 22:48:11 - Only predicted and actual consumptions are multiplied by a PUE coefficient of 1.59 (Rhonda Ascierto, 2019, Uptime Institute Global Data Center Survey).
2022-04-02 22:48:26 - The following components were found: GPU with device(s) Tesla V100-SXM2-32GB, Tesla V100-SXM2-32GB, Tesla V100-SXM2-32GB, Tesla V100-SXM2-32GB, Tesla V100-SXM2-32GB, Tesla V100-SXM2-32GB, Tesla V100-SXM2-32GB, Tesla V100-SXM2-32GB. CPU with device(s) cpu:1, cpu:0.
2022-04-02 22:48:26 - Monitoring thread started.
2022-04-02 22:48:57 - Epoch 1:
2022-04-02 22:48:57 - Duration: 0:00:06.84
2022-04-02 22:48:58 - Average power usage (W) for gpu: [44.487 45.964 44.487 44.969 44.999 45.451 46.446 44.999]
2022-04-02 22:48:58 - Average power usage (W) for cpu: [71.255677 76.302539]
2022-04-02 22:48:58 - Carbon intensities (gCO2/kWh) fetched every 900 s at detected location Paris, Île-de-France, FR: [294.2060978]
2022-04-02 22:48:58 - Average carbon intensity during training was 294.21 gCO2/kWh at detected location: Paris, Île-de-France, FR.
2022-04-02 22:48:58 - Live carbon intensity could not be fetched at detected location: Paris, Île-de-France, FR. Defaulted to average carbon intensity for EU-28 in 2017 of 294.21 gCO2/kWh.
2022-04-02 22:48:58 - Monitoring thread ended.
2022-04-02 22:49:28 - carbontracker version 1.1.6
2022-04-02 22:49:28 - Only predicted and actual consumptions are multiplied by a PUE coefficient of 1.59 (Rhonda Ascierto, 2019, Uptime Institute Global Data Center Survey).
2022-04-02 22:49:28 - The following components were found: GPU with device(s) Tesla V100-SXM2-32GB, Tesla V100-SXM2-32GB, Tesla V100-SXM2-32GB, Tesla V100-SXM2-32GB, Tesla V100-SXM2-32GB, Tesla V100-SXM2-32GB, Tesla V100-SXM2-32GB, Tesla V100-SXM2-32GB. CPU with device(s) cpu:1, cpu:0.
2022-04-02 22:49:28 - Monitoring thread started.
2022-04-02 22:50:05 - Epoch 1:
2022-04-02 22:50:05 - Duration: 0:00:06.74
2022-04-02 22:50:05 - Average power usage (W) for gpu: [44.487 45.964 44.487 44.969 44.999 45.451 46.416 44.516]
2022-04-02 22:50:05 - Average power usage (W) for cpu: [71.088014 75.431814]
2022-04-02 22:50:05 - Carbon intensities (gCO2/kWh) fetched every 900 s at detected location Paris, Île-de-France, FR: [294.2060978]
2022-04-02 22:50:05 - Average carbon intensity during training was 294.21 gCO2/kWh at detected location: Paris, Île-de-France, FR.
2022-04-02 22:50:05 - Live carbon intensity could not be fetched at detected location: Paris, Île-de-France, FR. Defaulted to average carbon intensity for EU-28 in 2017 of 294.21 gCO2/kWh.
2022-04-02 22:50:05 - Monitoring thread ended.
2022-04-02 22:50:35 - carbontracker version 1.1.6
2022-04-02 22:50:35 - Only predicted and actual consumptions are multiplied by a PUE coefficient of 1.59 (Rhonda Ascierto, 2019, Uptime Institute Global Data Center Survey).
2022-04-02 22:50:35 - The following components were found: GPU with device(s) Tesla V100-SXM2-32GB, Tesla V100-SXM2-32GB, Tesla V100-SXM2-32GB, Tesla V100-SXM2-32GB, Tesla V100-SXM2-32GB, Tesla V100-SXM2-32GB, Tesla V100-SXM2-32GB, Tesla V100-SXM2-32GB. CPU with device(s) cpu:1, cpu:0.
2022-04-02 22:50:35 - Monitoring thread started.
2022-04-02 22:51:13 - Epoch 1:
2022-04-02 22:51:13 - Duration: 0:00:08.14
2022-04-02 22:51:13 - Average power usage (W) for gpu: [44.487 45.933 44.487 44.969 44.999 45.421 46.446 44.516]
2022-04-02 22:51:13 - Average power usage (W) for cpu: [71.746887 76.268481]
2022-04-02 22:51:14 - Carbon intensities (gCO2/kWh) fetched every 900 s at detected location Paris, Île-de-France, FR: [294.2060978]
2022-04-02 22:51:14 - Average carbon intensity during training was 294.21 gCO2/kWh at detected location: Paris, Île-de-France, FR.
2022-04-02 22:51:14 - Live carbon intensity could not be fetched at detected location: Paris, Île-de-France, FR. Defaulted to average carbon intensity for EU-28 in 2017 of 294.21 gCO2/kWh.
2022-04-02 22:51:14 - Monitoring thread ended.
2022-04-02 22:51:44 - carbontracker version 1.1.6
2022-04-02 22:51:44 - Only predicted and actual consumptions are multiplied by a PUE coefficient of 1.59 (Rhonda Ascierto, 2019, Uptime Institute Global Data Center Survey).
2022-04-02 22:51:57 - The following components were found: GPU with device(s) Tesla V100-SXM2-32GB, Tesla V100-SXM2-32GB, Tesla V100-SXM2-32GB, Tesla V100-SXM2-32GB, Tesla V100-SXM2-32GB, Tesla V100-SXM2-32GB, Tesla V100-SXM2-32GB, Tesla V100-SXM2-32GB. CPU with device(s) cpu:1, cpu:0.
2022-04-02 22:51:57 - Monitoring thread started.
2022-04-02 22:52:31 - Epoch 1:
2022-04-02 22:52:31 - Duration: 0:00:07.04
2022-04-02 22:52:31 - Average power usage (W) for gpu: [44.487 45.933 44.516 44.969 44.999 45.451 45.964 44.999]
2022-04-02 22:52:31 - Average power usage (W) for cpu: [71.433533 75.98534 ]
2022-04-02 22:52:31 - Carbon intensities (gCO2/kWh) fetched every 900 s at detected location Paris, Île-de-France, FR: [294.2060978]
2022-04-02 22:52:31 - Average carbon intensity during training was 294.21 gCO2/kWh at detected location: Paris, Île-de-France, FR.
2022-04-02 22:52:31 - Live carbon intensity could not be fetched at detected location: Paris, Île-de-France, FR. Defaulted to average carbon intensity for EU-28 in 2017 of 294.21 gCO2/kWh.
2022-04-02 22:52:31 - Monitoring thread ended.
2022-04-02 22:53:01 - carbontracker version 1.1.6
2022-04-02 22:53:01 - Only predicted and actual consumptions are multiplied by a PUE coefficient of 1.59 (Rhonda Ascierto, 2019, Uptime Institute Global Data Center Survey).
2022-04-02 22:53:13 - The following components were found: GPU with device(s) Tesla V100-SXM2-32GB, Tesla V100-SXM2-32GB, Tesla V100-SXM2-32GB, Tesla V100-SXM2-32GB, Tesla V100-SXM2-32GB, Tesla V100-SXM2-32GB, Tesla V100-SXM2-32GB, Tesla V100-SXM2-32GB. CPU with device(s) cpu:1, cpu:0.
2022-04-02 22:53:13 - Monitoring thread started.
2022-04-02 22:53:41 - Epoch 1:
2022-04-02 22:53:41 - Duration: 0:00:02.73
2022-04-02 22:53:41 - Average power usage (W) for gpu: [44.487 45.933 44.487 44.969 44.999 45.451 45.964 44.999]
2022-04-02 22:53:41 - Average power usage (W) for cpu: [70.994081 76.45354 ]
2022-04-02 22:53:41 - Carbon intensities (gCO2/kWh) fetched every 900 s at detected location Paris, Île-de-France, FR: [294.2060978]
2022-04-02 22:53:41 - Average carbon intensity during training was 294.21 gCO2/kWh at detected location: Paris, Île-de-France, FR.
2022-04-02 22:53:41 - Live carbon intensity could not be fetched at detected location: Paris, Île-de-France, FR. Defaulted to average carbon intensity for EU-28 in 2017 of 294.21 gCO2/kWh.
2022-04-02 22:53:41 - Monitoring thread ended.
2022-04-02 22:54:11 - carbontracker version 1.1.6
2022-04-02 22:54:11 - Only predicted and actual consumptions are multiplied by a PUE coefficient of 1.59 (Rhonda Ascierto, 2019, Uptime Institute Global Data Center Survey).
2022-04-02 22:54:23 - The following components were found: GPU with device(s) Tesla V100-SXM2-32GB, Tesla V100-SXM2-32GB, Tesla V100-SXM2-32GB, Tesla V100-SXM2-32GB, Tesla V100-SXM2-32GB, Tesla V100-SXM2-32GB, Tesla V100-SXM2-32GB, Tesla V100-SXM2-32GB. CPU with device(s) cpu:1, cpu:0.
2022-04-02 22:54:23 - Monitoring thread started.
2022-04-02 22:54:55 - Epoch 1:
2022-04-02 22:54:55 - Duration: 0:00:06.74
2022-04-02 22:54:55 - Average power usage (W) for gpu: [44.487 45.933 44.487 44.969 44.999 45.451 45.964 44.999]
2022-04-02 22:54:55 - Average power usage (W) for cpu: [71.187317 76.301135]
2022-04-02 22:54:55 - Carbon intensities (gCO2/kWh) fetched every 900 s at detected location Paris, Île-de-France, FR: [294.2060978]
2022-04-02 22:54:55 - Average carbon intensity during training was 294.21 gCO2/kWh at detected location: Paris, Île-de-France, FR.
2022-04-02 22:54:56 - Live carbon intensity could not be fetched at detected location: Paris, Île-de-France, FR. Defaulted to average carbon intensity for EU-28 in 2017 of 294.21 gCO2/kWh.
2022-04-02 22:54:56 - Monitoring thread ended.
2022-04-02 22:55:26 - carbontracker version 1.1.6
2022-04-02 22:55:26 - Only predicted and actual consumptions are multiplied by a PUE coefficient of 1.59 (Rhonda Ascierto, 2019, Uptime Institute Global Data Center Survey).
2022-04-02 22:55:40 - The following components were found: GPU with device(s) Tesla V100-SXM2-32GB, Tesla V100-SXM2-32GB, Tesla V100-SXM2-32GB, Tesla V100-SXM2-32GB, Tesla V100-SXM2-32GB, Tesla V100-SXM2-32GB, Tesla V100-SXM2-32GB, Tesla V100-SXM2-32GB. CPU with device(s) cpu:1, cpu:0.
2022-04-02 22:55:40 - Monitoring thread started.
2022-04-02 22:56:08 - Epoch 1:
2022-04-02 22:56:08 - Duration: 0:00:02.74
2022-04-02 22:56:08 - Average power usage (W) for gpu: [44.487 45.933 44.487 44.969 44.999 45.451 45.964 44.999]
2022-04-02 22:56:08 - Average power usage (W) for cpu: [71.504212 76.605273]
2022-04-02 22:56:09 - Carbon intensities (gCO2/kWh) fetched every 900 s at detected location Paris, Île-de-France, FR: [294.2060978]
2022-04-02 22:56:09 - Average carbon intensity during training was 294.21 gCO2/kWh at detected location: Paris, Île-de-France, FR.
2022-04-02 22:56:09 - Live carbon intensity could not be fetched at detected location: Paris, Île-de-France, FR. Defaulted to average carbon intensity for EU-28 in 2017 of 294.21 gCO2/kWh.
2022-04-02 22:56:09 - Monitoring thread ended.
2022-04-02 22:56:39 - carbontracker version 1.1.6
2022-04-02 22:56:39 - Only predicted and actual consumptions are multiplied by a PUE coefficient of 1.59 (Rhonda Ascierto, 2019, Uptime Institute Global Data Center Survey).
2022-04-02 22:56:39 - The following components were found: GPU with device(s) Tesla V100-SXM2-32GB, Tesla V100-SXM2-32GB, Tesla V100-SXM2-32GB, Tesla V100-SXM2-32GB, Tesla V100-SXM2-32GB, Tesla V100-SXM2-32GB, Tesla V100-SXM2-32GB, Tesla V100-SXM2-32GB. CPU with device(s) cpu:1, cpu:0.
2022-04-02 22:56:39 - Monitoring thread started.
2022-04-02 22:57:16 - Epoch 1:
2022-04-02 22:57:16 - Duration: 0:00:07.04
2022-04-02 22:57:16 - Average power usage (W) for gpu: [44.487 45.933 44.516 44.969 44.999 45.451 45.964 44.999]
2022-04-02 22:57:16 - Average power usage (W) for cpu: [71.039796 75.871143]
2022-04-02 22:57:16 - Carbon intensities (gCO2/kWh) fetched every 900 s at detected location Paris, Île-de-France, FR: [294.2060978]
2022-04-02 22:57:16 - Average carbon intensity during training was 294.21 gCO2/kWh at detected location: Paris, Île-de-France, FR.
2022-04-02 22:57:16 - Live carbon intensity could not be fetched at detected location: Paris, Île-de-France, FR. Defaulted to average carbon intensity for EU-28 in 2017 of 294.21 gCO2/kWh.
2022-04-02 22:57:16 - Monitoring thread ended.
2022-04-02 22:57:46 - carbontracker version 1.1.6
2022-04-02 22:57:46 - Only predicted and actual consumptions are multiplied by a PUE coefficient of 1.59 (Rhonda Ascierto, 2019, Uptime Institute Global Data Center Survey).
2022-04-02 22:57:46 - The following components were found: GPU with device(s) Tesla V100-SXM2-32GB, Tesla V100-SXM2-32GB, Tesla V100-SXM2-32GB, Tesla V100-SXM2-32GB, Tesla V100-SXM2-32GB, Tesla V100-SXM2-32GB, Tesla V100-SXM2-32GB, Tesla V100-SXM2-32GB. CPU with device(s) cpu:1, cpu:0.
2022-04-02 22:57:46 - Monitoring thread started.
2022-04-02 22:58:23 - Epoch 1:
2022-04-02 22:58:23 - Duration: 0:00:06.94
2022-04-02 22:58:23 - Average power usage (W) for gpu: [67.981 70.916 44.457 69.471 69.999 69.906 69.952 69.517]
2022-04-02 22:58:23 - Average power usage (W) for cpu: [71.104005 75.693104]
2022-04-02 22:58:24 - Carbon intensities (gCO2/kWh) fetched every 900 s at detected location Paris, Île-de-France, FR: [294.2060978]
2022-04-02 22:58:24 - Average carbon intensity during training was 294.21 gCO2/kWh at detected location: Paris, Île-de-France, FR.
2022-04-02 22:58:24 - Live carbon intensity could not be fetched at detected location: Paris, Île-de-France, FR. Defaulted to average carbon intensity for EU-28 in 2017 of 294.21 gCO2/kWh.
2022-04-02 22:58:24 - Monitoring thread ended.
2022-04-02 22:58:54 - carbontracker version 1.1.6
2022-04-02 22:58:54 - Only predicted and actual consumptions are multiplied by a PUE coefficient of 1.59 (Rhonda Ascierto, 2019, Uptime Institute Global Data Center Survey).
2022-04-02 22:58:54 - The following components were found: GPU with device(s) Tesla V100-SXM2-32GB, Tesla V100-SXM2-32GB, Tesla V100-SXM2-32GB, Tesla V100-SXM2-32GB, Tesla V100-SXM2-32GB, Tesla V100-SXM2-32GB, Tesla V100-SXM2-32GB, Tesla V100-SXM2-32GB. CPU with device(s) cpu:1, cpu:0.
2022-04-02 22:58:54 - Monitoring thread started.
2022-04-02 22:59:31 - Epoch 1:
2022-04-02 22:59:31 - Duration: 0:00:07.56
2022-04-02 22:59:31 - Average power usage (W) for gpu: [44.487 45.933 44.487 44.969 44.999 45.421 46.416 44.999]
2022-04-02 22:59:31 - Average power usage (W) for cpu: [82.131503 86.982931]
2022-04-02 22:59:32 - Carbon intensities (gCO2/kWh) fetched every 900 s at detected location Paris, Île-de-France, FR: [294.2060978]
2022-04-02 22:59:32 - Average carbon intensity during training was 294.21 gCO2/kWh at detected location: Paris, Île-de-France, FR.
2022-04-02 22:59:32 - Live carbon intensity could not be fetched at detected location: Paris, Île-de-France, FR. Defaulted to average carbon intensity for EU-28 in 2017 of 294.21 gCO2/kWh.
2022-04-02 22:59:32 - Monitoring thread ended.
2022-04-02 23:00:02 - carbontracker version 1.1.6
2022-04-02 23:00:02 - Only predicted and actual consumptions are multiplied by a PUE coefficient of 1.59 (Rhonda Ascierto, 2019, Uptime Institute Global Data Center Survey).
2022-04-02 23:00:15 - The following components were found: GPU with device(s) Tesla V100-SXM2-32GB, Tesla V100-SXM2-32GB, Tesla V100-SXM2-32GB, Tesla V100-SXM2-32GB, Tesla V100-SXM2-32GB, Tesla V100-SXM2-32GB, Tesla V100-SXM2-32GB, Tesla V100-SXM2-32GB. CPU with device(s) cpu:1, cpu:0.
2022-04-02 23:00:15 - Monitoring thread started.
2022-04-02 23:00:44 - Epoch 1:
2022-04-02 23:00:44 - Duration: 0:00:07.14
2022-04-02 23:00:44 - Average power usage (W) for gpu: [44.487 45.964 44.969 44.969 44.999 45.933 46.446 44.999]
2022-04-02 23:00:44 - Average power usage (W) for cpu: [71.120241 76.583727]
2022-04-02 23:00:44 - Carbon intensities (gCO2/kWh) fetched every 900 s at detected location Paris, Île-de-France, FR: [294.2060978]
2022-04-02 23:00:44 - Average carbon intensity during training was 294.21 gCO2/kWh at detected location: Paris, Île-de-France, FR.
2022-04-02 23:00:44 - Live carbon intensity could not be fetched at detected location: Paris, Île-de-France, FR. Defaulted to average carbon intensity for EU-28 in 2017 of 294.21 gCO2/kWh.
2022-04-02 23:00:44 - Monitoring thread ended.
2022-04-02 23:01:14 - carbontracker version 1.1.6
2022-04-02 23:01:14 - Only predicted and actual consumptions are multiplied by a PUE coefficient of 1.59 (Rhonda Ascierto, 2019, Uptime Institute Global Data Center Survey).
2022-04-02 23:01:26 - The following components were found: GPU with device(s) Tesla V100-SXM2-32GB, Tesla V100-SXM2-32GB, Tesla V100-SXM2-32GB, Tesla V100-SXM2-32GB, Tesla V100-SXM2-32GB, Tesla V100-SXM2-32GB, Tesla V100-SXM2-32GB, Tesla V100-SXM2-32GB. CPU with device(s) cpu:1, cpu:0.
2022-04-02 23:01:26 - Monitoring thread started.
2022-04-02 23:01:59 - Epoch 1:
2022-04-02 23:01:59 - Duration: 0:00:07.14
2022-04-02 23:01:59 - Average power usage (W) for gpu: [44.487 45.964 44.516 44.969 44.999 45.451 46.446 44.999]
2022-04-02 23:01:59 - Average power usage (W) for cpu: [71.096071 76.60393 ]
2022-04-02 23:01:59 - Carbon intensities (gCO2/kWh) fetched every 900 s at detected location Paris, Île-de-France, FR: [294.2060978]
2022-04-02 23:01:59 - Average carbon intensity during training was 294.21 gCO2/kWh at detected location: Paris, Île-de-France, FR.
2022-04-02 23:01:59 - Live carbon intensity could not be fetched at detected location: Paris, Île-de-France, FR. Defaulted to average carbon intensity for EU-28 in 2017 of 294.21 gCO2/kWh.
2022-04-02 23:01:59 - Monitoring thread ended.
2022-04-02 23:02:29 - carbontracker version 1.1.6
2022-04-02 23:02:29 - Only predicted and actual consumptions are multiplied by a PUE coefficient of 1.59 (Rhonda Ascierto, 2019, Uptime Institute Global Data Center Survey).
2022-04-02 23:02:41 - The following components were found: GPU with device(s) Tesla V100-SXM2-32GB, Tesla V100-SXM2-32GB, Tesla V100-SXM2-32GB, Tesla V100-SXM2-32GB, Tesla V100-SXM2-32GB, Tesla V100-SXM2-32GB, Tesla V100-SXM2-32GB, Tesla V100-SXM2-32GB. CPU with device(s) cpu:1, cpu:0.
2022-04-02 23:02:41 - Monitoring thread started.
2022-04-02 23:03:13 - Epoch 1:
2022-04-02 23:03:13 - Duration: 0:00:07.04
2022-04-02 23:03:13 - Average power usage (W) for gpu: [44.487 45.964 44.487 44.999 44.999 45.451 46.416 44.999]
2022-04-02 23:03:13 - Average power usage (W) for cpu: [71.553955 76.277575]
2022-04-02 23:03:13 - Carbon intensities (gCO2/kWh) fetched every 900 s at detected location Paris, Île-de-France, FR: [294.2060978]
2022-04-02 23:03:13 - Average carbon intensity during training was 294.21 gCO2/kWh at detected location: Paris, Île-de-France, FR.
2022-04-02 23:03:14 - Live carbon intensity could not be fetched at detected location: Paris, Île-de-France, FR. Defaulted to average carbon intensity for EU-28 in 2017 of 294.21 gCO2/kWh.
2022-04-02 23:03:14 - Monitoring thread ended.
2022-04-02 23:03:44 - carbontracker version 1.1.6
2022-04-02 23:03:44 - Only predicted and actual consumptions are multiplied by a PUE coefficient of 1.59 (Rhonda Ascierto, 2019, Uptime Institute Global Data Center Survey).
2022-04-02 23:03:44 - The following components were found: GPU with device(s) Tesla V100-SXM2-32GB, Tesla V100-SXM2-32GB, Tesla V100-SXM2-32GB, Tesla V100-SXM2-32GB, Tesla V100-SXM2-32GB, Tesla V100-SXM2-32GB, Tesla V100-SXM2-32GB, Tesla V100-SXM2-32GB. CPU with device(s) cpu:1, cpu:0.
2022-04-02 23:03:44 - Monitoring thread started.
2022-04-02 23:04:21 - Epoch 1:
2022-04-02 23:04:21 - Duration: 0:00:07.04
2022-04-02 23:04:21 - Average power usage (W) for gpu: [44.487 45.933 44.487 44.969 44.999 45.451 45.964 44.999]
2022-04-02 23:04:21 - Average power usage (W) for cpu: [71.097108 75.611867]
2022-04-02 23:04:21 - Carbon intensities (gCO2/kWh) fetched every 900 s at detected location Paris, Île-de-France, FR: [294.2060978]
2022-04-02 23:04:21 - Average carbon intensity during training was 294.21 gCO2/kWh at detected location: Paris, Île-de-France, FR.
2022-04-02 23:04:21 - Live carbon intensity could not be fetched at detected location: Paris, Île-de-France, FR. Defaulted to average carbon intensity for EU-28 in 2017 of 294.21 gCO2/kWh.
2022-04-02 23:04:21 - Monitoring thread ended.
2022-04-02 23:04:51 - carbontracker version 1.1.6
2022-04-02 23:04:51 - Only predicted and actual consumptions are multiplied by a PUE coefficient of 1.59 (Rhonda Ascierto, 2019, Uptime Institute Global Data Center Survey).
2022-04-02 23:04:51 - The following components were found: GPU with device(s) Tesla V100-SXM2-32GB, Tesla V100-SXM2-32GB, Tesla V100-SXM2-32GB, Tesla V100-SXM2-32GB, Tesla V100-SXM2-32GB, Tesla V100-SXM2-32GB, Tesla V100-SXM2-32GB, Tesla V100-SXM2-32GB. CPU with device(s) cpu:1, cpu:0.
2022-04-02 23:04:51 - Monitoring thread started.
2022-04-02 23:05:28 - Epoch 1:
2022-04-02 23:05:28 - Duration: 0:00:07.04
2022-04-02 23:05:28 - Average power usage (W) for gpu: [44.487 45.933 44.487 44.969 44.999 45.451 45.964 44.516]
2022-04-02 23:05:28 - Average power usage (W) for cpu: [71.045594 75.383474]
2022-04-02 23:05:29 - Carbon intensities (gCO2/kWh) fetched every 900 s at detected location Paris, Île-de-France, FR: [294.2060978]
2022-04-02 23:05:29 - Average carbon intensity during training was 294.21 gCO2/kWh at detected location: Paris, Île-de-France, FR.
2022-04-02 23:05:29 - Live carbon intensity could not be fetched at detected location: Paris, Île-de-France, FR. Defaulted to average carbon intensity for EU-28 in 2017 of 294.21 gCO2/kWh.
2022-04-02 23:05:29 - Monitoring thread ended.
2022-04-02 23:05:59 - carbontracker version 1.1.6
2022-04-02 23:05:59 - Only predicted and actual consumptions are multiplied by a PUE coefficient of 1.59 (Rhonda Ascierto, 2019, Uptime Institute Global Data Center Survey).
2022-04-02 23:06:07 - The following components were found: GPU with device(s) Tesla V100-SXM2-32GB, Tesla V100-SXM2-32GB, Tesla V100-SXM2-32GB, Tesla V100-SXM2-32GB, Tesla V100-SXM2-32GB, Tesla V100-SXM2-32GB, Tesla V100-SXM2-32GB, Tesla V100-SXM2-32GB. CPU with device(s) cpu:1, cpu:0.
2022-04-02 23:06:07 - Monitoring thread started.
2022-04-02 23:06:38 - Epoch 1:
2022-04-02 23:06:38 - Duration: 0:00:03.04
2022-04-02 23:06:38 - Average power usage (W) for gpu: [44.487 45.933 44.487 44.969 44.999 45.451 45.964 44.999]
2022-04-02 23:06:38 - Average power usage (W) for cpu: [71.115052 75.330008]
2022-04-02 23:06:38 - Carbon intensities (gCO2/kWh) fetched every 900 s at detected location Paris, Île-de-France, FR: [294.2060978]
2022-04-02 23:06:38 - Average carbon intensity during training was 294.21 gCO2/kWh at detected location: Paris, Île-de-France, FR.
2022-04-02 23:06:38 - Live carbon intensity could not be fetched at detected location: Paris, Île-de-France, FR. Defaulted to average carbon intensity for EU-28 in 2017 of 294.21 gCO2/kWh.
2022-04-02 23:06:38 - Monitoring thread ended.
2022-04-02 23:07:08 - carbontracker version 1.1.6
2022-04-02 23:07:08 - Only predicted and actual consumptions are multiplied by a PUE coefficient of 1.59 (Rhonda Ascierto, 2019, Uptime Institute Global Data Center Survey).
2022-04-02 23:07:08 - The following components were found: GPU with device(s) Tesla V100-SXM2-32GB, Tesla V100-SXM2-32GB, Tesla V100-SXM2-32GB, Tesla V100-SXM2-32GB, Tesla V100-SXM2-32GB, Tesla V100-SXM2-32GB, Tesla V100-SXM2-32GB, Tesla V100-SXM2-32GB. CPU with device(s) cpu:1, cpu:0.
2022-04-02 23:07:08 - Monitoring thread started.
2022-04-02 23:07:45 - Epoch 1:
2022-04-02 23:07:45 - Duration: 0:00:07.04
2022-04-02 23:07:45 - Average power usage (W) for gpu: [44.487 45.964 44.487 44.969 44.999 45.451 45.964 44.999]
2022-04-02 23:07:45 - Average power usage (W) for cpu: [71.154176 75.374502]
2022-04-02 23:07:46 - Carbon intensities (gCO2/kWh) fetched every 900 s at detected location Paris, Île-de-France, FR: [294.2060978]
2022-04-02 23:07:46 - Average carbon intensity during training was 294.21 gCO2/kWh at detected location: Paris, Île-de-France, FR.
2022-04-02 23:07:46 - Live carbon intensity could not be fetched at detected location: Paris, Île-de-France, FR. Defaulted to average carbon intensity for EU-28 in 2017 of 294.21 gCO2/kWh.
2022-04-02 23:07:46 - Monitoring thread ended.
2022-04-02 23:08:16 - carbontracker version 1.1.6
2022-04-02 23:08:16 - Only predicted and actual consumptions are multiplied by a PUE coefficient of 1.59 (Rhonda Ascierto, 2019, Uptime Institute Global Data Center Survey).
2022-04-02 23:08:16 - The following components were found: GPU with device(s) Tesla V100-SXM2-32GB, Tesla V100-SXM2-32GB, Tesla V100-SXM2-32GB, Tesla V100-SXM2-32GB, Tesla V100-SXM2-32GB, Tesla V100-SXM2-32GB, Tesla V100-SXM2-32GB, Tesla V100-SXM2-32GB. CPU with device(s) cpu:1, cpu:0.
2022-04-02 23:08:16 - Monitoring thread started.
2022-04-02 23:08:53 - Epoch 1:
2022-04-02 23:08:53 - Duration: 0:00:06.74
2022-04-02 23:08:53 - Average power usage (W) for gpu: [44.487 45.451 44.487 44.969 44.999 45.451 45.964 44.516]
2022-04-02 23:08:53 - Average power usage (W) for cpu: [71.253358 75.399832]
2022-04-02 23:08:53 - Carbon intensities (gCO2/kWh) fetched every 900 s at detected location Paris, Île-de-France, FR: [294.2060978]
2022-04-02 23:08:53 - Average carbon intensity during training was 294.21 gCO2/kWh at detected location: Paris, Île-de-France, FR.
2022-04-02 23:08:53 - Live carbon intensity could not be fetched at detected location: Paris, Île-de-France, FR. Defaulted to average carbon intensity for EU-28 in 2017 of 294.21 gCO2/kWh.
2022-04-02 23:08:53 - Monitoring thread ended.
2022-04-02 23:09:23 - carbontracker version 1.1.6
2022-04-02 23:09:23 - Only predicted and actual consumptions are multiplied by a PUE coefficient of 1.59 (Rhonda Ascierto, 2019, Uptime Institute Global Data Center Survey).
2022-04-02 23:09:23 - The following components were found: GPU with device(s) Tesla V100-SXM2-32GB, Tesla V100-SXM2-32GB, Tesla V100-SXM2-32GB, Tesla V100-SXM2-32GB, Tesla V100-SXM2-32GB, Tesla V100-SXM2-32GB, Tesla V100-SXM2-32GB, Tesla V100-SXM2-32GB. CPU with device(s) cpu:1, cpu:0.
2022-04-02 23:09:23 - Monitoring thread started.
2022-04-02 23:10:00 - Epoch 1:
2022-04-02 23:10:00 - Duration: 0:00:06.74
2022-04-02 23:10:00 - Average power usage (W) for gpu: [44.487 45.451 44.487 44.969 44.999 45.451 46.416 44.516]
2022-04-02 23:10:00 - Average power usage (W) for cpu: [71.177491 75.385   ]
2022-04-02 23:10:00 - Carbon intensities (gCO2/kWh) fetched every 900 s at detected location Paris, Île-de-France, FR: [294.2060978]
2022-04-02 23:10:00 - Average carbon intensity during training was 294.21 gCO2/kWh at detected location: Paris, Île-de-France, FR.
2022-04-02 23:10:00 - Live carbon intensity could not be fetched at detected location: Paris, Île-de-France, FR. Defaulted to average carbon intensity for EU-28 in 2017 of 294.21 gCO2/kWh.
2022-04-02 23:10:00 - Monitoring thread ended.
2022-04-02 23:10:30 - carbontracker version 1.1.6
2022-04-02 23:10:30 - Only predicted and actual consumptions are multiplied by a PUE coefficient of 1.59 (Rhonda Ascierto, 2019, Uptime Institute Global Data Center Survey).
2022-04-02 23:10:30 - The following components were found: GPU with device(s) Tesla V100-SXM2-32GB, Tesla V100-SXM2-32GB, Tesla V100-SXM2-32GB, Tesla V100-SXM2-32GB, Tesla V100-SXM2-32GB, Tesla V100-SXM2-32GB, Tesla V100-SXM2-32GB, Tesla V100-SXM2-32GB. CPU with device(s) cpu:1, cpu:0.
2022-04-02 23:10:30 - Monitoring thread started.
2022-04-02 23:11:07 - Epoch 1:
2022-04-02 23:11:07 - Duration: 0:00:06.74
2022-04-02 23:11:07 - Average power usage (W) for gpu: [44.487 45.451 44.516 44.969 44.999 45.451 45.964 44.516]
2022-04-02 23:11:07 - Average power usage (W) for cpu: [71.169312 75.344778]
2022-04-02 23:11:07 - Carbon intensities (gCO2/kWh) fetched every 900 s at detected location Paris, Île-de-France, FR: [294.2060978]
2022-04-02 23:11:07 - Average carbon intensity during training was 294.21 gCO2/kWh at detected location: Paris, Île-de-France, FR.
2022-04-02 23:11:07 - Live carbon intensity could not be fetched at detected location: Paris, Île-de-France, FR. Defaulted to average carbon intensity for EU-28 in 2017 of 294.21 gCO2/kWh.
2022-04-02 23:11:07 - Monitoring thread ended.
2022-04-02 23:11:38 - carbontracker version 1.1.6
2022-04-02 23:11:38 - Only predicted and actual consumptions are multiplied by a PUE coefficient of 1.59 (Rhonda Ascierto, 2019, Uptime Institute Global Data Center Survey).
2022-04-02 23:11:38 - The following components were found: GPU with device(s) Tesla V100-SXM2-32GB, Tesla V100-SXM2-32GB, Tesla V100-SXM2-32GB, Tesla V100-SXM2-32GB, Tesla V100-SXM2-32GB, Tesla V100-SXM2-32GB, Tesla V100-SXM2-32GB, Tesla V100-SXM2-32GB. CPU with device(s) cpu:1, cpu:0.
2022-04-02 23:11:38 - Monitoring thread started.
2022-04-02 23:12:14 - Epoch 1:
2022-04-02 23:12:14 - Duration: 0:00:06.74
2022-04-02 23:12:14 - Average power usage (W) for gpu: [44.487 45.451 44.487 44.969 44.999 45.451 45.964 44.516]
2022-04-02 23:12:14 - Average power usage (W) for cpu: [71.165345 76.395923]
2022-04-02 23:12:15 - Carbon intensities (gCO2/kWh) fetched every 900 s at detected location Paris, Île-de-France, FR: [294.2060978]
2022-04-02 23:12:15 - Average carbon intensity during training was 294.21 gCO2/kWh at detected location: Paris, Île-de-France, FR.
2022-04-02 23:12:15 - Live carbon intensity could not be fetched at detected location: Paris, Île-de-France, FR. Defaulted to average carbon intensity for EU-28 in 2017 of 294.21 gCO2/kWh.
2022-04-02 23:12:15 - Monitoring thread ended.
2022-04-02 23:12:45 - carbontracker version 1.1.6
2022-04-02 23:12:45 - Only predicted and actual consumptions are multiplied by a PUE coefficient of 1.59 (Rhonda Ascierto, 2019, Uptime Institute Global Data Center Survey).
2022-04-02 23:12:45 - The following components were found: GPU with device(s) Tesla V100-SXM2-32GB, Tesla V100-SXM2-32GB, Tesla V100-SXM2-32GB, Tesla V100-SXM2-32GB, Tesla V100-SXM2-32GB, Tesla V100-SXM2-32GB, Tesla V100-SXM2-32GB, Tesla V100-SXM2-32GB. CPU with device(s) cpu:1, cpu:0.
2022-04-02 23:12:45 - Monitoring thread started.
2022-04-02 23:13:22 - Epoch 1:
2022-04-02 23:13:22 - Duration: 0:00:06.74
2022-04-02 23:13:22 - Average power usage (W) for gpu: [44.487 45.451 44.487 44.969 44.999 45.451 45.964 44.516]
2022-04-02 23:13:22 - Average power usage (W) for cpu: [71.169129 75.601858]
2022-04-02 23:13:22 - Carbon intensities (gCO2/kWh) fetched every 900 s at detected location Paris, Île-de-France, FR: [294.2060978]
2022-04-02 23:13:22 - Average carbon intensity during training was 294.21 gCO2/kWh at detected location: Paris, Île-de-France, FR.
2022-04-02 23:13:22 - Live carbon intensity could not be fetched at detected location: Paris, Île-de-France, FR. Defaulted to average carbon intensity for EU-28 in 2017 of 294.21 gCO2/kWh.
2022-04-02 23:13:22 - Monitoring thread ended.
2022-04-02 23:13:52 - carbontracker version 1.1.6
2022-04-02 23:13:52 - Only predicted and actual consumptions are multiplied by a PUE coefficient of 1.59 (Rhonda Ascierto, 2019, Uptime Institute Global Data Center Survey).
2022-04-02 23:13:52 - The following components were found: GPU with device(s) Tesla V100-SXM2-32GB, Tesla V100-SXM2-32GB, Tesla V100-SXM2-32GB, Tesla V100-SXM2-32GB, Tesla V100-SXM2-32GB, Tesla V100-SXM2-32GB, Tesla V100-SXM2-32GB, Tesla V100-SXM2-32GB. CPU with device(s) cpu:1, cpu:0.
2022-04-02 23:13:52 - Monitoring thread started.
2022-04-02 23:14:29 - Epoch 1:
2022-04-02 23:14:29 - Duration: 0:00:06.74
2022-04-02 23:14:29 - Average power usage (W) for gpu: [44.487 45.451 44.487 44.969 44.999 45.451 45.964 44.516]
2022-04-02 23:14:29 - Average power usage (W) for cpu: [71.09253  75.388113]
2022-04-02 23:14:29 - Carbon intensities (gCO2/kWh) fetched every 900 s at detected location Paris, Île-de-France, FR: [294.2060978]
2022-04-02 23:14:29 - Average carbon intensity during training was 294.21 gCO2/kWh at detected location: Paris, Île-de-France, FR.
2022-04-02 23:14:29 - Live carbon intensity could not be fetched at detected location: Paris, Île-de-France, FR. Defaulted to average carbon intensity for EU-28 in 2017 of 294.21 gCO2/kWh.
2022-04-02 23:14:29 - Monitoring thread ended.
2022-04-02 23:14:59 - carbontracker version 1.1.6
2022-04-02 23:14:59 - Only predicted and actual consumptions are multiplied by a PUE coefficient of 1.59 (Rhonda Ascierto, 2019, Uptime Institute Global Data Center Survey).
2022-04-02 23:15:11 - The following components were found: GPU with device(s) Tesla V100-SXM2-32GB, Tesla V100-SXM2-32GB, Tesla V100-SXM2-32GB, Tesla V100-SXM2-32GB, Tesla V100-SXM2-32GB, Tesla V100-SXM2-32GB, Tesla V100-SXM2-32GB, Tesla V100-SXM2-32GB. CPU with device(s) cpu:1, cpu:0.
2022-04-02 23:15:11 - Monitoring thread started.
2022-04-02 23:15:43 - Epoch 1:
2022-04-02 23:15:43 - Duration: 0:00:06.74
2022-04-02 23:15:43 - Average power usage (W) for gpu: [44.487 45.451 44.487 44.969 44.999 45.451 46.446 44.516]
2022-04-02 23:15:43 - Average power usage (W) for cpu: [71.1568   76.178882]
2022-04-02 23:15:43 - Carbon intensities (gCO2/kWh) fetched every 900 s at detected location Paris, Île-de-France, FR: [294.2060978]
2022-04-02 23:15:43 - Average carbon intensity during training was 294.21 gCO2/kWh at detected location: Paris, Île-de-France, FR.
2022-04-02 23:15:43 - Live carbon intensity could not be fetched at detected location: Paris, Île-de-France, FR. Defaulted to average carbon intensity for EU-28 in 2017 of 294.21 gCO2/kWh.
2022-04-02 23:15:44 - Monitoring thread ended.
2022-04-02 23:16:14 - carbontracker version 1.1.6
2022-04-02 23:16:14 - Only predicted and actual consumptions are multiplied by a PUE coefficient of 1.59 (Rhonda Ascierto, 2019, Uptime Institute Global Data Center Survey).
2022-04-02 23:16:14 - The following components were found: GPU with device(s) Tesla V100-SXM2-32GB, Tesla V100-SXM2-32GB, Tesla V100-SXM2-32GB, Tesla V100-SXM2-32GB, Tesla V100-SXM2-32GB, Tesla V100-SXM2-32GB, Tesla V100-SXM2-32GB, Tesla V100-SXM2-32GB. CPU with device(s) cpu:1, cpu:0.
2022-04-02 23:16:14 - Monitoring thread started.
2022-04-02 23:16:50 - Epoch 1:
2022-04-02 23:16:50 - Duration: 0:00:06.74
2022-04-02 23:16:50 - Average power usage (W) for gpu: [44.487 45.451 44.487 44.969 44.999 45.451 46.446 44.516]
2022-04-02 23:16:50 - Average power usage (W) for cpu: [71.203187 75.406667]
2022-04-02 23:16:51 - Carbon intensities (gCO2/kWh) fetched every 900 s at detected location Paris, Île-de-France, FR: [294.2060978]
2022-04-02 23:16:51 - Average carbon intensity during training was 294.21 gCO2/kWh at detected location: Paris, Île-de-France, FR.
2022-04-02 23:16:51 - Live carbon intensity could not be fetched at detected location: Paris, Île-de-France, FR. Defaulted to average carbon intensity for EU-28 in 2017 of 294.21 gCO2/kWh.
2022-04-02 23:16:51 - Monitoring thread ended.
2022-04-02 23:17:21 - carbontracker version 1.1.6
2022-04-02 23:17:21 - Only predicted and actual consumptions are multiplied by a PUE coefficient of 1.59 (Rhonda Ascierto, 2019, Uptime Institute Global Data Center Survey).
2022-04-02 23:17:21 - The following components were found: GPU with device(s) Tesla V100-SXM2-32GB, Tesla V100-SXM2-32GB, Tesla V100-SXM2-32GB, Tesla V100-SXM2-32GB, Tesla V100-SXM2-32GB, Tesla V100-SXM2-32GB, Tesla V100-SXM2-32GB, Tesla V100-SXM2-32GB. CPU with device(s) cpu:1, cpu:0.
2022-04-02 23:17:21 - Monitoring thread started.
2022-04-02 23:17:58 - Epoch 1:
2022-04-02 23:17:58 - Duration: 0:00:06.74
2022-04-02 23:17:58 - Average power usage (W) for gpu: [44.487 45.451 44.487 44.969 44.999 45.451 45.964 44.516]
2022-04-02 23:17:58 - Average power usage (W) for cpu: [71.108094 75.448293]
2022-04-02 23:17:58 - Carbon intensities (gCO2/kWh) fetched every 900 s at detected location Paris, Île-de-France, FR: [294.2060978]
2022-04-02 23:17:58 - Average carbon intensity during training was 294.21 gCO2/kWh at detected location: Paris, Île-de-France, FR.
2022-04-02 23:17:58 - Live carbon intensity could not be fetched at detected location: Paris, Île-de-France, FR. Defaulted to average carbon intensity for EU-28 in 2017 of 294.21 gCO2/kWh.
2022-04-02 23:17:58 - Monitoring thread ended.
2022-04-02 23:18:28 - carbontracker version 1.1.6
2022-04-02 23:18:28 - Only predicted and actual consumptions are multiplied by a PUE coefficient of 1.59 (Rhonda Ascierto, 2019, Uptime Institute Global Data Center Survey).
2022-04-02 23:18:28 - The following components were found: GPU with device(s) Tesla V100-SXM2-32GB, Tesla V100-SXM2-32GB, Tesla V100-SXM2-32GB, Tesla V100-SXM2-32GB, Tesla V100-SXM2-32GB, Tesla V100-SXM2-32GB, Tesla V100-SXM2-32GB, Tesla V100-SXM2-32GB. CPU with device(s) cpu:1, cpu:0.
2022-04-02 23:18:28 - Monitoring thread started.
2022-04-02 23:19:05 - Epoch 1:
2022-04-02 23:19:05 - Duration: 0:00:06.74
2022-04-02 23:19:05 - Average power usage (W) for gpu: [44.487 45.933 44.487 44.969 44.999 45.451 46.446 44.516]
2022-04-02 23:19:05 - Average power usage (W) for cpu: [71.132203 75.604054]
2022-04-02 23:19:05 - Carbon intensities (gCO2/kWh) fetched every 900 s at detected location Paris, Île-de-France, FR: [294.2060978]
2022-04-02 23:19:05 - Average carbon intensity during training was 294.21 gCO2/kWh at detected location: Paris, Île-de-France, FR.
2022-04-02 23:19:05 - Live carbon intensity could not be fetched at detected location: Paris, Île-de-France, FR. Defaulted to average carbon intensity for EU-28 in 2017 of 294.21 gCO2/kWh.
2022-04-02 23:19:05 - Monitoring thread ended.
2022-04-02 23:19:35 - carbontracker version 1.1.6
2022-04-02 23:19:35 - Only predicted and actual consumptions are multiplied by a PUE coefficient of 1.59 (Rhonda Ascierto, 2019, Uptime Institute Global Data Center Survey).
2022-04-02 23:19:36 - The following components were found: GPU with device(s) Tesla V100-SXM2-32GB, Tesla V100-SXM2-32GB, Tesla V100-SXM2-32GB, Tesla V100-SXM2-32GB, Tesla V100-SXM2-32GB, Tesla V100-SXM2-32GB, Tesla V100-SXM2-32GB, Tesla V100-SXM2-32GB. CPU with device(s) cpu:1, cpu:0.
2022-04-02 23:19:36 - Monitoring thread started.
2022-04-02 23:20:12 - Epoch 1:
2022-04-02 23:20:12 - Duration: 0:00:06.74
2022-04-02 23:20:12 - Average power usage (W) for gpu: [44.487 45.481 44.487 44.999 44.999 45.451 46.446 44.516]
2022-04-02 23:20:12 - Average power usage (W) for cpu: [71.042909 75.315237]
2022-04-02 23:20:12 - Carbon intensities (gCO2/kWh) fetched every 900 s at detected location Paris, Île-de-France, FR: [294.2060978]
2022-04-02 23:20:12 - Average carbon intensity during training was 294.21 gCO2/kWh at detected location: Paris, Île-de-France, FR.
2022-04-02 23:20:13 - Live carbon intensity could not be fetched at detected location: Paris, Île-de-France, FR. Defaulted to average carbon intensity for EU-28 in 2017 of 294.21 gCO2/kWh.
2022-04-02 23:20:13 - Monitoring thread ended.
2022-04-02 23:20:43 - carbontracker version 1.1.6
2022-04-02 23:20:43 - Only predicted and actual consumptions are multiplied by a PUE coefficient of 1.59 (Rhonda Ascierto, 2019, Uptime Institute Global Data Center Survey).
2022-04-02 23:20:43 - The following components were found: GPU with device(s) Tesla V100-SXM2-32GB, Tesla V100-SXM2-32GB, Tesla V100-SXM2-32GB, Tesla V100-SXM2-32GB, Tesla V100-SXM2-32GB, Tesla V100-SXM2-32GB, Tesla V100-SXM2-32GB, Tesla V100-SXM2-32GB. CPU with device(s) cpu:1, cpu:0.
2022-04-02 23:20:43 - Monitoring thread started.
2022-04-02 23:21:20 - Epoch 1:
2022-04-02 23:21:20 - Duration: 0:00:06.74
2022-04-02 23:21:20 - Average power usage (W) for gpu: [44.487 45.451 44.487 44.969 44.999 45.451 45.964 44.516]
2022-04-02 23:21:20 - Average power usage (W) for cpu: [71.162354 75.47582 ]
2022-04-02 23:21:20 - Carbon intensities (gCO2/kWh) fetched every 900 s at detected location Paris, Île-de-France, FR: [294.2060978]
2022-04-02 23:21:20 - Average carbon intensity during training was 294.21 gCO2/kWh at detected location: Paris, Île-de-France, FR.
2022-04-02 23:21:20 - Live carbon intensity could not be fetched at detected location: Paris, Île-de-France, FR. Defaulted to average carbon intensity for EU-28 in 2017 of 294.21 gCO2/kWh.
2022-04-02 23:21:20 - Monitoring thread ended.
2022-04-02 23:21:50 - carbontracker version 1.1.6
2022-04-02 23:21:50 - Only predicted and actual consumptions are multiplied by a PUE coefficient of 1.59 (Rhonda Ascierto, 2019, Uptime Institute Global Data Center Survey).
2022-04-02 23:21:50 - The following components were found: GPU with device(s) Tesla V100-SXM2-32GB, Tesla V100-SXM2-32GB, Tesla V100-SXM2-32GB, Tesla V100-SXM2-32GB, Tesla V100-SXM2-32GB, Tesla V100-SXM2-32GB, Tesla V100-SXM2-32GB, Tesla V100-SXM2-32GB. CPU with device(s) cpu:1, cpu:0.
2022-04-02 23:21:50 - Monitoring thread started.
2022-04-02 23:22:27 - Epoch 1:
2022-04-02 23:22:27 - Duration: 0:00:06.74
2022-04-02 23:22:27 - Average power usage (W) for gpu: [44.487 45.451 44.487 44.969 44.999 45.451 45.964 44.516]
2022-04-02 23:22:27 - Average power usage (W) for cpu: [70.986391 75.416006]
2022-04-02 23:22:27 - Carbon intensities (gCO2/kWh) fetched every 900 s at detected location Paris, Île-de-France, FR: [294.2060978]
2022-04-02 23:22:27 - Average carbon intensity during training was 294.21 gCO2/kWh at detected location: Paris, Île-de-France, FR.
2022-04-02 23:22:27 - Live carbon intensity could not be fetched at detected location: Paris, Île-de-France, FR. Defaulted to average carbon intensity for EU-28 in 2017 of 294.21 gCO2/kWh.
2022-04-02 23:22:27 - Monitoring thread ended.
2022-04-02 23:22:57 - carbontracker version 1.1.6
2022-04-02 23:22:57 - Only predicted and actual consumptions are multiplied by a PUE coefficient of 1.59 (Rhonda Ascierto, 2019, Uptime Institute Global Data Center Survey).
2022-04-02 23:22:57 - The following components were found: GPU with device(s) Tesla V100-SXM2-32GB, Tesla V100-SXM2-32GB, Tesla V100-SXM2-32GB, Tesla V100-SXM2-32GB, Tesla V100-SXM2-32GB, Tesla V100-SXM2-32GB, Tesla V100-SXM2-32GB, Tesla V100-SXM2-32GB. CPU with device(s) cpu:1, cpu:0.
2022-04-02 23:22:57 - Monitoring thread started.
2022-04-02 23:23:34 - Epoch 1:
2022-04-02 23:23:34 - Duration: 0:00:06.74
2022-04-02 23:23:34 - Average power usage (W) for gpu: [44.487 45.451 44.487 44.969 44.999 45.451 45.964 44.516]
2022-04-02 23:23:34 - Average power usage (W) for cpu: [71.029542 75.328726]
2022-04-02 23:23:34 - Carbon intensities (gCO2/kWh) fetched every 900 s at detected location Paris, Île-de-France, FR: [294.2060978]
2022-04-02 23:23:34 - Average carbon intensity during training was 294.21 gCO2/kWh at detected location: Paris, Île-de-France, FR.
2022-04-02 23:23:34 - Live carbon intensity could not be fetched at detected location: Paris, Île-de-France, FR. Defaulted to average carbon intensity for EU-28 in 2017 of 294.21 gCO2/kWh.
2022-04-02 23:23:34 - Monitoring thread ended.
2022-04-02 23:24:04 - carbontracker version 1.1.6
2022-04-02 23:24:04 - Only predicted and actual consumptions are multiplied by a PUE coefficient of 1.59 (Rhonda Ascierto, 2019, Uptime Institute Global Data Center Survey).
2022-04-02 23:24:17 - The following components were found: GPU with device(s) Tesla V100-SXM2-32GB, Tesla V100-SXM2-32GB, Tesla V100-SXM2-32GB, Tesla V100-SXM2-32GB, Tesla V100-SXM2-32GB, Tesla V100-SXM2-32GB, Tesla V100-SXM2-32GB, Tesla V100-SXM2-32GB. CPU with device(s) cpu:1, cpu:0.
2022-04-02 23:24:17 - Monitoring thread started.
2022-04-02 23:24:48 - Epoch 1:
2022-04-02 23:24:48 - Duration: 0:00:06.74
2022-04-02 23:24:48 - Average power usage (W) for gpu: [44.487 45.964 44.487 44.969 44.999 45.451 46.446 44.516]
2022-04-02 23:24:48 - Average power usage (W) for cpu: [71.198914 76.076587]
2022-04-02 23:24:48 - Carbon intensities (gCO2/kWh) fetched every 900 s at detected location Paris, Île-de-France, FR: [294.2060978]
2022-04-02 23:24:48 - Average carbon intensity during training was 294.21 gCO2/kWh at detected location: Paris, Île-de-France, FR.
2022-04-02 23:24:49 - Live carbon intensity could not be fetched at detected location: Paris, Île-de-France, FR. Defaulted to average carbon intensity for EU-28 in 2017 of 294.21 gCO2/kWh.
2022-04-02 23:24:49 - Monitoring thread ended.
2022-04-02 23:25:19 - carbontracker version 1.1.6
2022-04-02 23:25:19 - Only predicted and actual consumptions are multiplied by a PUE coefficient of 1.59 (Rhonda Ascierto, 2019, Uptime Institute Global Data Center Survey).
2022-04-02 23:25:19 - The following components were found: GPU with device(s) Tesla V100-SXM2-32GB, Tesla V100-SXM2-32GB, Tesla V100-SXM2-32GB, Tesla V100-SXM2-32GB, Tesla V100-SXM2-32GB, Tesla V100-SXM2-32GB, Tesla V100-SXM2-32GB, Tesla V100-SXM2-32GB. CPU with device(s) cpu:1, cpu:0.
2022-04-02 23:25:19 - Monitoring thread started.
2022-04-02 23:25:56 - Epoch 1:
2022-04-02 23:25:56 - Duration: 0:00:06.74
2022-04-02 23:25:56 - Average power usage (W) for gpu: [44.487 45.451 44.487 44.969 44.999 45.451 45.964 44.516]
2022-04-02 23:25:56 - Average power usage (W) for cpu: [71.044679 75.113517]
2022-04-02 23:25:56 - Carbon intensities (gCO2/kWh) fetched every 900 s at detected location Paris, Île-de-France, FR: [294.2060978]
2022-04-02 23:25:56 - Average carbon intensity during training was 294.21 gCO2/kWh at detected location: Paris, Île-de-France, FR.
2022-04-02 23:25:56 - Live carbon intensity could not be fetched at detected location: Paris, Île-de-France, FR. Defaulted to average carbon intensity for EU-28 in 2017 of 294.21 gCO2/kWh.
2022-04-02 23:25:56 - Monitoring thread ended.
2022-04-02 23:26:26 - carbontracker version 1.1.6
2022-04-02 23:26:26 - Only predicted and actual consumptions are multiplied by a PUE coefficient of 1.59 (Rhonda Ascierto, 2019, Uptime Institute Global Data Center Survey).
2022-04-02 23:26:26 - The following components were found: GPU with device(s) Tesla V100-SXM2-32GB, Tesla V100-SXM2-32GB, Tesla V100-SXM2-32GB, Tesla V100-SXM2-32GB, Tesla V100-SXM2-32GB, Tesla V100-SXM2-32GB, Tesla V100-SXM2-32GB, Tesla V100-SXM2-32GB. CPU with device(s) cpu:1, cpu:0.
2022-04-02 23:26:26 - Monitoring thread started.
2022-04-02 23:27:03 - Epoch 1:
2022-04-02 23:27:03 - Duration: 0:00:06.74
2022-04-02 23:27:03 - Average power usage (W) for gpu: [44.487 45.451 44.487 44.969 44.999 45.451 45.964 44.516]
2022-04-02 23:27:03 - Average power usage (W) for cpu: [71.091371 75.339956]
2022-04-02 23:27:03 - Carbon intensities (gCO2/kWh) fetched every 900 s at detected location Paris, Île-de-France, FR: [294.2060978]
2022-04-02 23:27:03 - Average carbon intensity during training was 294.21 gCO2/kWh at detected location: Paris, Île-de-France, FR.
2022-04-02 23:27:03 - Live carbon intensity could not be fetched at detected location: Paris, Île-de-France, FR. Defaulted to average carbon intensity for EU-28 in 2017 of 294.21 gCO2/kWh.
2022-04-02 23:27:04 - Monitoring thread ended.
2022-04-02 23:27:34 - carbontracker version 1.1.6
2022-04-02 23:27:34 - Only predicted and actual consumptions are multiplied by a PUE coefficient of 1.59 (Rhonda Ascierto, 2019, Uptime Institute Global Data Center Survey).
2022-04-02 23:27:34 - The following components were found: GPU with device(s) Tesla V100-SXM2-32GB, Tesla V100-SXM2-32GB, Tesla V100-SXM2-32GB, Tesla V100-SXM2-32GB, Tesla V100-SXM2-32GB, Tesla V100-SXM2-32GB, Tesla V100-SXM2-32GB, Tesla V100-SXM2-32GB. CPU with device(s) cpu:1, cpu:0.
2022-04-02 23:27:34 - Monitoring thread started.
2022-04-02 23:28:06 - Epoch 1:
2022-04-02 23:28:06 - Duration: 0:00:02.64
2022-04-02 23:28:06 - Average power usage (W) for gpu: [44.487 45.451 44.487 44.969 44.999 45.451 46.416 44.516]
2022-04-02 23:28:06 - Average power usage (W) for cpu: [71.062196 75.387808]
2022-04-02 23:28:07 - Carbon intensities (gCO2/kWh) fetched every 900 s at detected location Paris, Île-de-France, FR: [294.2060978]
2022-04-02 23:28:07 - Average carbon intensity during training was 294.21 gCO2/kWh at detected location: Paris, Île-de-France, FR.
2022-04-02 23:28:07 - Live carbon intensity could not be fetched at detected location: Paris, Île-de-France, FR. Defaulted to average carbon intensity for EU-28 in 2017 of 294.21 gCO2/kWh.
2022-04-02 23:28:07 - Monitoring thread ended.
2022-04-02 23:28:37 - carbontracker version 1.1.6
2022-04-02 23:28:37 - Only predicted and actual consumptions are multiplied by a PUE coefficient of 1.59 (Rhonda Ascierto, 2019, Uptime Institute Global Data Center Survey).
2022-04-02 23:28:37 - The following components were found: GPU with device(s) Tesla V100-SXM2-32GB, Tesla V100-SXM2-32GB, Tesla V100-SXM2-32GB, Tesla V100-SXM2-32GB, Tesla V100-SXM2-32GB, Tesla V100-SXM2-32GB, Tesla V100-SXM2-32GB, Tesla V100-SXM2-32GB. CPU with device(s) cpu:1, cpu:0.
2022-04-02 23:28:37 - Monitoring thread started.
2022-04-02 23:29:14 - Epoch 1:
2022-04-02 23:29:14 - Duration: 0:00:06.74
2022-04-02 23:29:14 - Average power usage (W) for gpu: [44.487 45.451 44.487 44.969 44.999 45.451 45.964 44.516]
2022-04-02 23:29:14 - Average power usage (W) for cpu: [70.850099 75.351065]
2022-04-02 23:29:14 - Carbon intensities (gCO2/kWh) fetched every 900 s at detected location Paris, Île-de-France, FR: [294.2060978]
2022-04-02 23:29:14 - Average carbon intensity during training was 294.21 gCO2/kWh at detected location: Paris, Île-de-France, FR.
2022-04-02 23:29:14 - Live carbon intensity could not be fetched at detected location: Paris, Île-de-France, FR. Defaulted to average carbon intensity for EU-28 in 2017 of 294.21 gCO2/kWh.
2022-04-02 23:29:14 - Monitoring thread ended.
2022-04-02 23:29:44 - carbontracker version 1.1.6
2022-04-02 23:29:44 - Only predicted and actual consumptions are multiplied by a PUE coefficient of 1.59 (Rhonda Ascierto, 2019, Uptime Institute Global Data Center Survey).
2022-04-02 23:29:44 - The following components were found: GPU with device(s) Tesla V100-SXM2-32GB, Tesla V100-SXM2-32GB, Tesla V100-SXM2-32GB, Tesla V100-SXM2-32GB, Tesla V100-SXM2-32GB, Tesla V100-SXM2-32GB, Tesla V100-SXM2-32GB, Tesla V100-SXM2-32GB. CPU with device(s) cpu:1, cpu:0.
2022-04-02 23:29:44 - Monitoring thread started.
2022-04-02 23:30:21 - Epoch 1:
2022-04-02 23:30:21 - Duration: 0:00:06.74
2022-04-02 23:30:21 - Average power usage (W) for gpu: [44.487 45.451 44.487 44.969 44.999 45.451 45.933 44.516]
2022-04-02 23:30:21 - Average power usage (W) for cpu: [71.036928 75.17272 ]
2022-04-02 23:30:21 - Carbon intensities (gCO2/kWh) fetched every 900 s at detected location Paris, Île-de-France, FR: [294.2060978]
2022-04-02 23:30:21 - Average carbon intensity during training was 294.21 gCO2/kWh at detected location: Paris, Île-de-France, FR.
2022-04-02 23:30:21 - Live carbon intensity could not be fetched at detected location: Paris, Île-de-France, FR. Defaulted to average carbon intensity for EU-28 in 2017 of 294.21 gCO2/kWh.
2022-04-02 23:30:21 - Monitoring thread ended.
