data.data.etotal(W),data.data.ecpu(W),data.data.edram(W),data.arch.gemini-2.arch.0.data.ecpu(W),data.arch.gemini-2.arch.0.data.edram(W),data.arch.gemini-2.arch.1.data.ecpu(W),data.arch.gemini-2.arch.1.data.edram(W),data.arch.gemini-2.arch.gpu-nvidia-0.data.ecpu(W),data.arch.gemini-2.arch.gpu-nvidia-0.data.edram(W),data.arch.gemini-2.arch.gpu-nvidia-1.data.ecpu(W),data.arch.gemini-2.arch.gpu-nvidia-1.data.edram(W),data.arch.gemini-2.arch.gpu-nvidia-2.data.ecpu(W),data.arch.gemini-2.arch.gpu-nvidia-2.data.edram(W),data.arch.gemini-2.arch.gpu-nvidia-3.data.ecpu(W),data.arch.gemini-2.arch.gpu-nvidia-3.data.edram(W),data.arch.gemini-2.arch.gpu-nvidia-4.data.ecpu(W),data.arch.gemini-2.arch.gpu-nvidia-4.data.edram(W),data.arch.gemini-2.arch.gpu-nvidia-5.data.ecpu(W),data.arch.gemini-2.arch.gpu-nvidia-5.data.edram(W),data.arch.gemini-2.arch.gpu-nvidia-6.data.ecpu(W),data.arch.gemini-2.arch.gpu-nvidia-6.data.edram(W),data.arch.gemini-2.arch.gpu-nvidia-7.data.ecpu(W),data.arch.gemini-2.arch.gpu-nvidia-7.data.edram(W)
0.0,0.0,0.0,0.0,0.0,0.0,0.0,0.0,0.0,0.0,0.0,0.0,0.0,0.0,0.0,0.0,0.0,0.0,0.0,0.0,0.0,0.0,0.0
531.667,425.795,105.872,41.23,55.263,32.884,50.609,46.027,0.0,43.236,0.0,44.594,0.0,43.569,0.0,42.749,0.0,44.161,0.0,42.836,0.0,44.509,0.0
531.667,425.795,105.872,41.23,55.263,32.884,50.609,46.027,0.0,43.236,0.0,44.594,0.0,43.569,0.0,42.749,0.0,44.161,0.0,42.836,0.0,44.509,0.0
531.667,425.795,105.872,41.23,55.263,32.884,50.609,46.027,0.0,43.236,0.0,44.594,0.0,43.569,0.0,42.749,0.0,44.161,0.0,42.836,0.0,44.509,0.0
531.667,425.795,105.872,41.23,55.263,32.884,50.609,46.027,0.0,43.236,0.0,44.594,0.0,43.569,0.0,42.749,0.0,44.161,0.0,42.836,0.0,44.509,0.0
531.667,425.795,105.872,41.23,55.263,32.884,50.609,46.027,0.0,43.236,0.0,44.594,0.0,43.569,0.0,42.749,0.0,44.161,0.0,42.836,0.0,44.509,0.0
504.453,398.797,105.656,27.594,54.686,24.69,50.97,44.768,0.0,43.09,0.0,43.718,0.0,42.747,0.0,42.654,0.0,43.292,0.0,42.576,0.0,43.668,0.0
498.881,393.269,105.612,24.801,54.568,23.012,51.044,44.51,0.0,43.06,0.0,43.539,0.0,42.579,0.0,42.635,0.0,43.114,0.0,42.523,0.0,43.496,0.0
498.881,393.269,105.612,24.801,54.568,23.012,51.044,44.51,0.0,43.06,0.0,43.539,0.0,42.579,0.0,42.635,0.0,43.114,0.0,42.523,0.0,43.496,0.0
498.881,393.269,105.612,24.801,54.568,23.012,51.044,44.51,0.0,43.06,0.0,43.539,0.0,42.579,0.0,42.635,0.0,43.114,0.0,42.523,0.0,43.496,0.0
498.881,393.269,105.612,24.801,54.568,23.012,51.044,44.51,0.0,43.06,0.0,43.539,0.0,42.579,0.0,42.635,0.0,43.114,0.0,42.523,0.0,43.496,0.0
491.697,390.236,101.461,23.014,51.054,21.398,50.407,44.552,0.0,43.107,0.0,43.582,0.0,42.616,0.0,42.647,0.0,43.124,0.0,42.604,0.0,43.592,0.0
487.832,388.607,99.225,22.052,49.162,20.529,50.063,44.575,0.0,43.133,0.0,43.606,0.0,42.637,0.0,42.654,0.0,43.129,0.0,42.648,0.0,43.644,0.0
487.832,388.607,99.225,22.052,49.162,20.529,50.063,44.575,0.0,43.133,0.0,43.606,0.0,42.637,0.0,42.654,0.0,43.129,0.0,42.648,0.0,43.644,0.0
487.832,388.607,99.225,22.052,49.162,20.529,50.063,44.575,0.0,43.133,0.0,43.606,0.0,42.637,0.0,42.654,0.0,43.129,0.0,42.648,0.0,43.644,0.0
487.832,388.607,99.225,22.052,49.162,20.529,50.063,44.575,0.0,43.133,0.0,43.606,0.0,42.637,0.0,42.654,0.0,43.129,0.0,42.648,0.0,43.644,0.0
489.533,388.384,101.149,22.036,51.519,20.483,49.63,44.551,0.0,43.104,0.0,43.578,0.0,42.613,0.0,42.639,0.0,43.112,0.0,42.63,0.0,43.638,0.0
491.611,388.112,103.499,22.017,54.399,20.426,49.1,44.522,0.0,43.069,0.0,43.543,0.0,42.583,0.0,42.622,0.0,43.092,0.0,42.608,0.0,43.63,0.0
491.611,388.112,103.499,22.017,54.399,20.426,49.1,44.522,0.0,43.069,0.0,43.543,0.0,42.583,0.0,42.622,0.0,43.092,0.0,42.608,0.0,43.63,0.0
491.611,388.112,103.499,22.017,54.399,20.426,49.1,44.522,0.0,43.069,0.0,43.543,0.0,42.583,0.0,42.622,0.0,43.092,0.0,42.608,0.0,43.63,0.0
491.611,388.112,103.499,22.017,54.399,20.426,49.1,44.522,0.0,43.069,0.0,43.543,0.0,42.583,0.0,42.622,0.0,43.092,0.0,42.608,0.0,43.63,0.0
492.276,388.232,104.044,22.3,54.567,20.475,49.477,44.354,0.0,43.046,0.0,43.523,0.0,42.567,0.0,42.608,0.0,43.084,0.0,42.633,0.0,43.642,0.0
494.374,388.606,105.768,23.195,55.098,20.628,50.67,43.822,0.0,42.973,0.0,43.458,0.0,42.515,0.0,42.565,0.0,43.059,0.0,42.711,0.0,43.68,0.0
494.374,388.606,105.768,23.195,55.098,20.628,50.67,43.822,0.0,42.973,0.0,43.458,0.0,42.515,0.0,42.565,0.0,43.059,0.0,42.711,0.0,43.68,0.0
494.374,388.606,105.768,23.195,55.098,20.628,50.67,43.822,0.0,42.973,0.0,43.458,0.0,42.515,0.0,42.565,0.0,43.059,0.0,42.711,0.0,43.68,0.0
494.374,388.606,105.768,23.195,55.098,20.628,50.67,43.822,0.0,42.973,0.0,43.458,0.0,42.515,0.0,42.565,0.0,43.059,0.0,42.711,0.0,43.68,0.0
494.925,389.162,105.763,23.484,55.098,20.828,50.665,43.854,0.0,42.981,0.0,43.465,0.0,42.522,0.0,42.571,0.0,43.064,0.0,42.712,0.0,43.681,0.0
521.79,416.252,105.538,37.607,55.137,30.632,50.401,45.414,0.0,43.351,0.0,43.807,0.0,42.825,0.0,42.855,0.0,43.308,0.0,42.75,0.0,43.703,0.0
521.79,416.252,105.538,37.607,55.137,30.632,50.401,45.414,0.0,43.351,0.0,43.807,0.0,42.825,0.0,42.855,0.0,43.308,0.0,42.75,0.0,43.703,0.0
521.79,416.252,105.538,37.607,55.137,30.632,50.401,45.414,0.0,43.351,0.0,43.807,0.0,42.825,0.0,42.855,0.0,43.308,0.0,42.75,0.0,43.703,0.0
521.79,416.252,105.538,37.607,55.137,30.632,50.401,45.414,0.0,43.351,0.0,43.807,0.0,42.825,0.0,42.855,0.0,43.308,0.0,42.75,0.0,43.703,0.0
521.79,416.252,105.538,37.607,55.137,30.632,50.401,45.414,0.0,43.351,0.0,43.807,0.0,42.825,0.0,42.855,0.0,43.308,0.0,42.75,0.0,43.703,0.0
516.471,405.146,111.325,32.728,59.718,26.248,51.607,44.687,0.0,43.131,0.0,43.603,0.0,42.64,0.0,42.651,0.0,43.132,0.0,42.675,0.0,43.651,0.0
515.384,402.874,112.51,31.729,60.656,25.35,51.854,44.538,0.0,43.087,0.0,43.562,0.0,42.602,0.0,42.61,0.0,43.096,0.0,42.66,0.0,43.64,0.0
515.384,402.874,112.51,31.729,60.656,25.35,51.854,44.538,0.0,43.087,0.0,43.562,0.0,42.602,0.0,42.61,0.0,43.096,0.0,42.66,0.0,43.64,0.0
515.384,402.874,112.51,31.729,60.656,25.35,51.854,44.538,0.0,43.087,0.0,43.562,0.0,42.602,0.0,42.61,0.0,43.096,0.0,42.66,0.0,43.64,0.0
515.384,402.874,112.51,31.729,60.656,25.35,51.854,44.538,0.0,43.087,0.0,43.562,0.0,42.602,0.0,42.61,0.0,43.096,0.0,42.66,0.0,43.64,0.0
518.802,410.145,108.657,34.357,57.279,29.915,51.378,44.56,0.0,43.114,0.0,43.585,0.0,42.63,0.0,42.646,0.0,43.133,0.0,42.615,0.0,43.59,0.0
520.808,414.414,106.394,35.901,55.295,32.596,51.099,44.573,0.0,43.13,0.0,43.598,0.0,42.646,0.0,42.667,0.0,43.154,0.0,42.589,0.0,43.56,0.0
520.808,414.414,106.394,35.901,55.295,32.596,51.099,44.573,0.0,43.13,0.0,43.598,0.0,42.646,0.0,42.667,0.0,43.154,0.0,42.589,0.0,43.56,0.0
520.808,414.414,106.394,35.901,55.295,32.596,51.099,44.573,0.0,43.13,0.0,43.598,0.0,42.646,0.0,42.667,0.0,43.154,0.0,42.589,0.0,43.56,0.0
520.808,414.414,106.394,35.901,55.295,32.596,51.099,44.573,0.0,43.13,0.0,43.598,0.0,42.646,0.0,42.667,0.0,43.154,0.0,42.589,0.0,43.56,0.0
509.903,404.278,105.625,30.642,54.621,28.079,51.004,44.511,0.0,43.066,0.0,43.537,0.0,42.58,0.0,42.625,0.0,43.107,0.0,42.578,0.0,43.553,0.0
492.111,387.741,104.37,22.061,53.521,20.709,50.849,44.408,0.0,42.962,0.0,43.437,0.0,42.473,0.0,42.557,0.0,43.031,0.0,42.561,0.0,43.542,0.0
492.111,387.741,104.37,22.061,53.521,20.709,50.849,44.408,0.0,42.962,0.0,43.437,0.0,42.473,0.0,42.557,0.0,43.031,0.0,42.561,0.0,43.542,0.0
492.111,387.741,104.37,22.061,53.521,20.709,50.849,44.408,0.0,42.962,0.0,43.437,0.0,42.473,0.0,42.557,0.0,43.031,0.0,42.561,0.0,43.542,0.0
492.111,387.741,104.37,22.061,53.521,20.709,50.849,44.408,0.0,42.962,0.0,43.437,0.0,42.473,0.0,42.557,0.0,43.031,0.0,42.561,0.0,43.542,0.0
493.743,389.22,104.523,22.934,53.76,21.176,50.763,44.43,0.0,42.987,0.0,43.483,0.0,42.526,0.0,42.596,0.0,43.073,0.0,42.605,0.0,43.41,0.0
502.311,396.982,105.329,27.514,55.015,23.631,50.314,44.547,0.0,43.122,0.0,43.725,0.0,42.801,0.0,42.799,0.0,43.294,0.0,42.836,0.0,42.713,0.0
502.311,396.982,105.329,27.514,55.015,23.631,50.314,44.547,0.0,43.122,0.0,43.725,0.0,42.801,0.0,42.799,0.0,43.294,0.0,42.836,0.0,42.713,0.0
502.311,396.982,105.329,27.514,55.015,23.631,50.314,44.547,0.0,43.122,0.0,43.725,0.0,42.801,0.0,42.799,0.0,43.294,0.0,42.836,0.0,42.713,0.0
502.311,396.982,105.329,27.514,55.015,23.631,50.314,44.547,0.0,43.122,0.0,43.725,0.0,42.801,0.0,42.799,0.0,43.294,0.0,42.836,0.0,42.713,0.0
502.311,396.982,105.329,27.514,55.015,23.631,50.314,44.547,0.0,43.122,0.0,43.725,0.0,42.801,0.0,42.799,0.0,43.294,0.0,42.836,0.0,42.713,0.0
516.491,410.573,105.918,35.03,54.566,29.276,51.352,44.622,0.0,43.154,0.0,43.52,0.0,42.527,0.0,42.531,0.0,42.996,0.0,42.496,0.0,44.421,0.0
517.557,411.595,105.962,35.595,54.532,29.701,51.43,44.628,0.0,43.156,0.0,43.505,0.0,42.507,0.0,42.511,0.0,42.973,0.0,42.47,0.0,44.549,0.0
517.557,411.595,105.962,35.595,54.532,29.701,51.43,44.628,0.0,43.156,0.0,43.505,0.0,42.507,0.0,42.511,0.0,42.973,0.0,42.47,0.0,44.549,0.0
517.557,411.595,105.962,35.595,54.532,29.701,51.43,44.628,0.0,43.156,0.0,43.505,0.0,42.507,0.0,42.511,0.0,42.973,0.0,42.47,0.0,44.549,0.0
517.557,411.595,105.962,35.595,54.532,29.701,51.43,44.628,0.0,43.156,0.0,43.505,0.0,42.507,0.0,42.511,0.0,42.973,0.0,42.47,0.0,44.549,0.0
501.336,395.311,106.025,25.294,54.678,23.899,51.347,44.487,0.0,43.038,0.0,43.566,0.0,42.632,0.0,42.662,0.0,43.136,0.0,42.657,0.0,43.94,0.0
495.635,389.587,106.048,21.674,54.73,21.86,51.318,44.437,0.0,42.996,0.0,43.588,0.0,42.676,0.0,42.715,0.0,43.193,0.0,42.722,0.0,43.726,0.0
495.635,389.587,106.048,21.674,54.73,21.86,51.318,44.437,0.0,42.996,0.0,43.588,0.0,42.676,0.0,42.715,0.0,43.193,0.0,42.722,0.0,43.726,0.0
495.635,389.587,106.048,21.674,54.73,21.86,51.318,44.437,0.0,42.996,0.0,43.588,0.0,42.676,0.0,42.715,0.0,43.193,0.0,42.722,0.0,43.726,0.0
495.635,389.587,106.048,21.674,54.73,21.86,51.318,44.437,0.0,42.996,0.0,43.588,0.0,42.676,0.0,42.715,0.0,43.193,0.0,42.722,0.0,43.726,0.0
494.387,389.229,105.158,21.531,54.275,21.585,50.883,44.584,0.0,43.123,0.0,43.603,0.0,42.636,0.0,42.67,0.0,43.154,0.0,42.674,0.0,43.669,0.0
493.235,388.897,104.338,21.399,53.856,21.33,50.482,44.72,0.0,43.24,0.0,43.616,0.0,42.599,0.0,42.63,0.0,43.117,0.0,42.63,0.0,43.616,0.0
493.235,388.897,104.338,21.399,53.856,21.33,50.482,44.72,0.0,43.24,0.0,43.616,0.0,42.599,0.0,42.63,0.0,43.117,0.0,42.63,0.0,43.616,0.0
493.235,388.897,104.338,21.399,53.856,21.33,50.482,44.72,0.0,43.24,0.0,43.616,0.0,42.599,0.0,42.63,0.0,43.117,0.0,42.63,0.0,43.616,0.0
493.235,388.897,104.338,21.399,53.856,21.33,50.482,44.72,0.0,43.24,0.0,43.616,0.0,42.599,0.0,42.63,0.0,43.117,0.0,42.63,0.0,43.616,0.0
493.213,388.536,104.677,21.555,54.089,21.047,50.588,44.647,0.0,43.176,0.0,43.584,0.0,42.585,0.0,42.616,0.0,43.097,0.0,42.61,0.0,43.619,0.0
493.163,387.732,105.431,21.9,54.607,20.418,50.824,44.485,0.0,43.034,0.0,43.511,0.0,42.554,0.0,42.586,0.0,43.052,0.0,42.567,0.0,43.625,0.0
493.163,387.732,105.431,21.9,54.607,20.418,50.824,44.485,0.0,43.034,0.0,43.511,0.0,42.554,0.0,42.586,0.0,43.052,0.0,42.567,0.0,43.625,0.0
493.163,387.732,105.431,21.9,54.607,20.418,50.824,44.485,0.0,43.034,0.0,43.511,0.0,42.554,0.0,42.586,0.0,43.052,0.0,42.567,0.0,43.625,0.0
493.163,387.732,105.431,21.9,54.607,20.418,50.824,44.485,0.0,43.034,0.0,43.511,0.0,42.554,0.0,42.586,0.0,43.052,0.0,42.567,0.0,43.625,0.0
491.835,386.414,105.421,22.801,54.71,20.943,50.711,43.508,0.0,42.285,0.0,42.955,0.0,42.195,0.0,42.412,0.0,43.076,0.0,42.595,0.0,43.644,0.0
478.41,373.09,105.32,31.908,55.748,26.255,49.572,33.63,0.0,34.704,0.0,37.333,0.0,38.573,0.0,40.647,0.0,43.317,0.0,42.881,0.0,43.842,0.0
478.41,373.09,105.32,31.908,55.748,26.255,49.572,33.63,0.0,34.704,0.0,37.333,0.0,38.573,0.0,40.647,0.0,43.317,0.0,42.881,0.0,43.842,0.0
478.41,373.09,105.32,31.908,55.748,26.255,49.572,33.63,0.0,34.704,0.0,37.333,0.0,38.573,0.0,40.647,0.0,43.317,0.0,42.881,0.0,43.842,0.0
478.41,373.09,105.32,31.908,55.748,26.255,49.572,33.63,0.0,34.704,0.0,37.333,0.0,38.573,0.0,40.647,0.0,43.317,0.0,42.881,0.0,43.842,0.0
478.41,373.09,105.32,31.908,55.748,26.255,49.572,33.63,0.0,34.704,0.0,37.333,0.0,38.573,0.0,40.647,0.0,43.317,0.0,42.881,0.0,43.842,0.0
478.41,373.09,105.32,31.908,55.748,26.255,49.572,33.63,0.0,34.704,0.0,37.333,0.0,38.573,0.0,40.647,0.0,43.317,0.0,42.881,0.0,43.842,0.0
482.072,376.867,105.205,31.48,55.55,26.048,49.655,35.149,0.0,35.901,0.0,38.225,0.0,39.153,0.0,40.939,0.0,43.298,0.0,42.857,0.0,43.817,0.0
539.453,436.047,103.406,24.774,52.45,22.815,50.956,58.948,0.0,54.656,0.0,52.197,0.0,48.241,0.0,45.508,0.0,43.004,0.0,42.483,0.0,43.421,0.0
539.453,436.047,103.406,24.774,52.45,22.815,50.956,58.948,0.0,54.656,0.0,52.197,0.0,48.241,0.0,45.508,0.0,43.004,0.0,42.483,0.0,43.421,0.0
539.453,436.047,103.406,24.774,52.45,22.815,50.956,58.948,0.0,54.656,0.0,52.197,0.0,48.241,0.0,45.508,0.0,43.004,0.0,42.483,0.0,43.421,0.0
539.453,436.047,103.406,24.774,52.45,22.815,50.956,58.948,0.0,54.656,0.0,52.197,0.0,48.241,0.0,45.508,0.0,43.004,0.0,42.483,0.0,43.421,0.0
539.453,436.047,103.406,24.774,52.45,22.815,50.956,58.948,0.0,54.656,0.0,52.197,0.0,48.241,0.0,45.508,0.0,43.004,0.0,42.483,0.0,43.421,0.0
495.2,393.458,101.742,22.402,54.616,20.563,47.126,46.801,0.0,44.499,0.0,44.62,0.0,43.375,0.0,41.742,0.0,43.141,0.0,42.669,0.0,43.646,0.0
489.167,387.651,101.516,22.079,54.912,20.256,46.604,45.144,0.0,43.113,0.0,43.587,0.0,42.712,0.0,41.229,0.0,43.16,0.0,42.694,0.0,43.677,0.0
489.167,387.651,101.516,22.079,54.912,20.256,46.604,45.144,0.0,43.113,0.0,43.587,0.0,42.712,0.0,41.229,0.0,43.16,0.0,42.694,0.0,43.677,0.0
489.167,387.651,101.516,22.079,54.912,20.256,46.604,45.144,0.0,43.113,0.0,43.587,0.0,42.712,0.0,41.229,0.0,43.16,0.0,42.694,0.0,43.677,0.0
489.167,387.651,101.516,22.079,54.912,20.256,46.604,45.144,0.0,43.113,0.0,43.587,0.0,42.712,0.0,41.229,0.0,43.16,0.0,42.694,0.0,43.677,0.0
517.051,411.016,106.035,35.56,55.622,28.915,50.413,44.685,0.0,43.065,0.0,43.536,0.0,42.576,0.0,43.185,0.0,43.151,0.0,42.678,0.0,43.665,0.0
530.17,422.009,108.161,41.904,55.956,32.99,52.205,44.469,0.0,43.042,0.0,43.511,0.0,42.511,0.0,44.105,0.0,43.148,0.0,42.67,0.0,43.659,0.0
530.17,422.009,108.161,41.904,55.956,32.99,52.205,44.469,0.0,43.042,0.0,43.511,0.0,42.511,0.0,44.105,0.0,43.148,0.0,42.67,0.0,43.659,0.0
530.17,422.009,108.161,41.904,55.956,32.99,52.205,44.469,0.0,43.042,0.0,43.511,0.0,42.511,0.0,44.105,0.0,43.148,0.0,42.67,0.0,43.659,0.0
530.17,422.009,108.161,41.904,55.956,32.99,52.205,44.469,0.0,43.042,0.0,43.511,0.0,42.511,0.0,44.105,0.0,43.148,0.0,42.67,0.0,43.659,0.0
534.344,426.37,107.974,46.195,55.819,33.255,52.155,44.58,0.0,43.131,0.0,43.605,0.0,42.596,0.0,43.458,0.0,43.182,0.0,42.699,0.0,43.669,0.0
539.237,431.482,107.755,51.231,55.659,33.565,52.096,44.709,0.0,43.235,0.0,43.715,0.0,42.696,0.0,42.697,0.0,43.222,0.0,42.732,0.0,43.68,0.0
539.237,431.482,107.755,51.231,55.659,33.565,52.096,44.709,0.0,43.235,0.0,43.715,0.0,42.696,0.0,42.697,0.0,43.222,0.0,42.732,0.0,43.68,0.0
539.237,431.482,107.755,51.231,55.659,33.565,52.096,44.709,0.0,43.235,0.0,43.715,0.0,42.696,0.0,42.697,0.0,43.222,0.0,42.732,0.0,43.68,0.0
539.237,431.482,107.755,51.231,55.659,33.565,52.096,44.709,0.0,43.235,0.0,43.715,0.0,42.696,0.0,42.697,0.0,43.222,0.0,42.732,0.0,43.68,0.0
536.156,428.626,107.53,48.748,55.548,33.258,51.982,44.693,0.0,43.227,0.0,43.704,0.0,42.701,0.0,42.695,0.0,43.208,0.0,42.72,0.0,43.672,0.0
527.829,420.907,106.922,42.035,55.248,32.43,51.674,44.649,0.0,43.203,0.0,43.676,0.0,42.717,0.0,42.688,0.0,43.172,0.0,42.688,0.0,43.649,0.0
527.829,420.907,106.922,42.035,55.248,32.43,51.674,44.649,0.0,43.203,0.0,43.676,0.0,42.717,0.0,42.688,0.0,43.172,0.0,42.688,0.0,43.649,0.0
527.829,420.907,106.922,42.035,55.248,32.43,51.674,44.649,0.0,43.203,0.0,43.676,0.0,42.717,0.0,42.688,0.0,43.172,0.0,42.688,0.0,43.649,0.0
527.829,420.907,106.922,42.035,55.248,32.43,51.674,44.649,0.0,43.203,0.0,43.676,0.0,42.717,0.0,42.688,0.0,43.172,0.0,42.688,0.0,43.649,0.0
523.992,417.562,106.43,40.051,55.104,31.249,51.326,44.619,0.0,43.178,0.0,43.651,0.0,42.691,0.0,42.668,0.0,43.154,0.0,42.668,0.0,43.633,0.0
492.936,390.493,102.443,24.0,53.938,21.694,48.505,44.376,0.0,42.973,0.0,43.447,0.0,42.484,0.0,42.511,0.0,43.0,0.0,42.509,0.0,43.499,0.0
492.936,390.493,102.443,24.0,53.938,21.694,48.505,44.376,0.0,42.973,0.0,43.447,0.0,42.484,0.0,42.511,0.0,43.0,0.0,42.509,0.0,43.499,0.0
492.936,390.493,102.443,24.0,53.938,21.694,48.505,44.376,0.0,42.973,0.0,43.447,0.0,42.484,0.0,42.511,0.0,43.0,0.0,42.509,0.0,43.499,0.0
492.936,390.493,102.443,24.0,53.938,21.694,48.505,44.376,0.0,42.973,0.0,43.447,0.0,42.484,0.0,42.511,0.0,43.0,0.0,42.509,0.0,43.499,0.0
492.936,390.493,102.443,24.0,53.938,21.694,48.505,44.376,0.0,42.973,0.0,43.447,0.0,42.484,0.0,42.511,0.0,43.0,0.0,42.509,0.0,43.499,0.0
493.541,388.056,105.485,22.065,54.912,20.291,50.573,44.562,0.0,43.074,0.0,43.544,0.0,42.586,0.0,42.622,0.0,43.092,0.0,42.613,0.0,43.607,0.0
493.591,387.843,105.748,21.896,54.996,20.169,50.752,44.578,0.0,43.083,0.0,43.553,0.0,42.595,0.0,42.631,0.0,43.1,0.0,42.622,0.0,43.616,0.0
493.591,387.843,105.748,21.896,54.996,20.169,50.752,44.578,0.0,43.083,0.0,43.553,0.0,42.595,0.0,42.631,0.0,43.1,0.0,42.622,0.0,43.616,0.0
493.591,387.843,105.748,21.896,54.996,20.169,50.752,44.578,0.0,43.083,0.0,43.553,0.0,42.595,0.0,42.631,0.0,43.1,0.0,42.622,0.0,43.616,0.0
493.591,387.843,105.748,21.896,54.996,20.169,50.752,44.578,0.0,43.083,0.0,43.553,0.0,42.595,0.0,42.631,0.0,43.1,0.0,42.622,0.0,43.616,0.0
493.495,388.474,105.021,22.007,54.707,20.211,50.314,44.609,0.0,43.145,0.0,43.617,0.0,42.656,0.0,42.696,0.0,43.175,0.0,42.686,0.0,43.672,0.0
493.454,388.731,104.723,22.052,54.589,20.228,50.134,44.622,0.0,43.171,0.0,43.643,0.0,42.681,0.0,42.722,0.0,43.205,0.0,42.712,0.0,43.695,0.0
493.454,388.731,104.723,22.052,54.589,20.228,50.134,44.622,0.0,43.171,0.0,43.643,0.0,42.681,0.0,42.722,0.0,43.205,0.0,42.712,0.0,43.695,0.0
493.454,388.731,104.723,22.052,54.589,20.228,50.134,44.622,0.0,43.171,0.0,43.643,0.0,42.681,0.0,42.722,0.0,43.205,0.0,42.712,0.0,43.695,0.0
493.454,388.731,104.723,22.052,54.589,20.228,50.134,44.622,0.0,43.171,0.0,43.643,0.0,42.681,0.0,42.722,0.0,43.205,0.0,42.712,0.0,43.695,0.0
493.851,389.501,104.35,22.891,54.338,20.512,50.012,44.557,0.0,43.108,0.0,43.588,0.0,42.633,0.0,42.679,0.0,43.164,0.0,42.688,0.0,43.681,0.0
494.249,390.272,103.977,23.729,54.086,20.797,49.891,44.491,0.0,43.046,0.0,43.534,0.0,42.585,0.0,42.635,0.0,43.123,0.0,42.664,0.0,43.668,0.0
494.249,390.272,103.977,23.729,54.086,20.797,49.891,44.491,0.0,43.046,0.0,43.534,0.0,42.585,0.0,42.635,0.0,43.123,0.0,42.664,0.0,43.668,0.0
494.249,390.272,103.977,23.729,54.086,20.797,49.891,44.491,0.0,43.046,0.0,43.534,0.0,42.585,0.0,42.635,0.0,43.123,0.0,42.664,0.0,43.668,0.0
494.249,390.272,103.977,23.729,54.086,20.797,49.891,44.491,0.0,43.046,0.0,43.534,0.0,42.585,0.0,42.635,0.0,43.123,0.0,42.664,0.0,43.668,0.0
501.303,397.219,104.084,27.547,53.933,23.663,50.151,44.551,0.0,43.1,0.0,43.58,0.0,42.623,0.0,42.664,0.0,43.144,0.0,42.676,0.0,43.671,0.0
518.577,414.231,104.346,36.894,53.558,30.681,50.788,44.697,0.0,43.234,0.0,43.695,0.0,42.714,0.0,42.736,0.0,43.195,0.0,42.705,0.0,43.68,0.0
518.577,414.231,104.346,36.894,53.558,30.681,50.788,44.697,0.0,43.234,0.0,43.695,0.0,42.714,0.0,42.736,0.0,43.195,0.0,42.705,0.0,43.68,0.0
518.577,414.231,104.346,36.894,53.558,30.681,50.788,44.697,0.0,43.234,0.0,43.695,0.0,42.714,0.0,42.736,0.0,43.195,0.0,42.705,0.0,43.68,0.0
518.577,414.231,104.346,36.894,53.558,30.681,50.788,44.697,0.0,43.234,0.0,43.695,0.0,42.714,0.0,42.736,0.0,43.195,0.0,42.705,0.0,43.68,0.0
515.655,411.328,104.327,35.253,53.63,29.601,50.697,44.667,0.0,43.206,0.0,43.669,0.0,42.69,0.0,42.712,0.0,43.174,0.0,42.687,0.0,43.669,0.0
492.006,387.835,104.171,21.973,54.211,20.856,49.96,44.426,0.0,42.985,0.0,43.457,0.0,42.491,0.0,42.524,0.0,43.0,0.0,42.541,0.0,43.582,0.0
492.006,387.835,104.171,21.973,54.211,20.856,49.96,44.426,0.0,42.985,0.0,43.457,0.0,42.491,0.0,42.524,0.0,43.0,0.0,42.541,0.0,43.582,0.0
492.006,387.835,104.171,21.973,54.211,20.856,49.96,44.426,0.0,42.985,0.0,43.457,0.0,42.491,0.0,42.524,0.0,43.0,0.0,42.541,0.0,43.582,0.0
492.006,387.835,104.171,21.973,54.211,20.856,49.96,44.426,0.0,42.985,0.0,43.457,0.0,42.491,0.0,42.524,0.0,43.0,0.0,42.541,0.0,43.582,0.0
492.006,387.835,104.171,21.973,54.211,20.856,49.96,44.426,0.0,42.985,0.0,43.457,0.0,42.491,0.0,42.524,0.0,43.0,0.0,42.541,0.0,43.582,0.0
492.541,388.455,104.086,21.68,54.106,20.655,49.98,44.534,0.0,43.129,0.0,43.618,0.0,42.651,0.0,42.683,0.0,43.174,0.0,42.704,0.0,43.627,0.0
492.602,388.525,104.077,21.648,54.094,20.632,49.983,44.546,0.0,43.146,0.0,43.636,0.0,42.669,0.0,42.701,0.0,43.193,0.0,42.722,0.0,43.632,0.0
492.602,388.525,104.077,21.648,54.094,20.632,49.983,44.546,0.0,43.146,0.0,43.636,0.0,42.669,0.0,42.701,0.0,43.193,0.0,42.722,0.0,43.632,0.0
492.602,388.525,104.077,21.648,54.094,20.632,49.983,44.546,0.0,43.146,0.0,43.636,0.0,42.669,0.0,42.701,0.0,43.193,0.0,42.722,0.0,43.632,0.0
492.602,388.525,104.077,21.648,54.094,20.632,49.983,44.546,0.0,43.146,0.0,43.636,0.0,42.669,0.0,42.701,0.0,43.193,0.0,42.722,0.0,43.632,0.0
492.316,388.285,104.031,21.954,53.605,20.397,50.426,44.575,0.0,43.111,0.0,43.577,0.0,42.619,0.0,42.654,0.0,43.127,0.0,42.654,0.0,43.617,0.0
492.179,388.17,104.009,22.098,53.374,20.286,50.635,44.589,0.0,43.094,0.0,43.549,0.0,42.595,0.0,42.631,0.0,43.096,0.0,42.622,0.0,43.61,0.0
492.179,388.17,104.009,22.098,53.374,20.286,50.635,44.589,0.0,43.094,0.0,43.549,0.0,42.595,0.0,42.631,0.0,43.096,0.0,42.622,0.0,43.61,0.0
492.179,388.17,104.009,22.098,53.374,20.286,50.635,44.589,0.0,43.094,0.0,43.549,0.0,42.595,0.0,42.631,0.0,43.096,0.0,42.622,0.0,43.61,0.0
492.179,388.17,104.009,22.098,53.374,20.286,50.635,44.589,0.0,43.094,0.0,43.549,0.0,42.595,0.0,42.631,0.0,43.096,0.0,42.622,0.0,43.61,0.0
260.856,205.731,55.125,11.712,28.288,10.752,26.837,23.632,0.0,22.84,0.0,23.081,0.0,22.575,0.0,22.595,0.0,22.841,0.0,22.59,0.0,23.113,0.0
