timestamp,wattmetre_power_watt
2022-03-15T11:13:22+01:00,365.673
2022-03-15T11:13:23+01:00,369.874
2022-03-15T11:13:24+01:00,365.12
2022-03-15T11:13:25+01:00,351.579
2022-03-15T11:13:26+01:00,360.171717171717
2022-03-15T11:13:27+01:00,368.14
2022-03-15T11:13:28+01:00,355.641584158416
2022-03-15T11:13:29+01:00,364.641
2022-03-15T11:13:30+01:00,354.019191919192
2022-03-15T11:13:31+01:00,359.135
2022-03-15T11:13:32+01:00,354.799
2022-03-15T11:13:33+01:00,376.126
2022-03-15T11:13:34+01:00,367.157
2022-03-15T11:13:35+01:00,352.444
2022-03-15T11:13:36+01:00,358.75
2022-03-15T11:13:37+01:00,355.659405940594
2022-03-15T11:13:38+01:00,352.598
2022-03-15T11:13:39+01:00,362.024
2022-03-15T11:13:40+01:00,351.796
2022-03-15T11:13:41+01:00,364.218181818182
2022-03-15T11:13:42+01:00,372.8
