timestamp,project_name,run_id,duration,emissions,emissions_rate,cpu_power,gpu_power,ram_power,cpu_energy,gpu_energy,ram_energy,energy_consumed,country_name,country_iso_code,region,cloud_provider,cloud_region,os,python_version,cpu_count,cpu_model,gpu_count,gpu_model,longitude,latitude,ram_total_size,tracking_mode,on_cloud
2022-04-13T14:08:15,353_0_0,dd3cfae7-cd19-419a-a9e5-db4db52d0b95,62.3890323638916,0.0008279727103129,0.0132711260127218,151.82644046277443,531.236,188.9179372787476,0.0029474566654634,0.0085572122763044,0.00354938033665,0.0150540492784179,France,FRA,grand est,,,Linux-5.4.0-105-generic-x86_64-with-Ubuntu-20.04-focal,3.7.13,40,Intel(R) Xeon(R) CPU E5-2698 v4 @ 2.20GHz,8,8 x Tesla V100-SXM2-32GB,7.7418,48.5855,503.78116607666016,machine,N
2022-04-13T14:11:20,353_0_1,d2c5d664-821a-440c-b24c-64073fdace4e,120.06508564949036,0.0013997139652477,0.0116579599945817,149.555533739904,360.806,188.9179372787476,0.0048431008275331,0.0135318184935356,0.0070744255016184,0.0254493448226871,France,FRA,grand est,,,Linux-5.4.0-105-generic-x86_64-with-Ubuntu-20.04-focal,3.7.13,40,Intel(R) Xeon(R) CPU E5-2698 v4 @ 2.20GHz,8,8 x Tesla V100-SXM2-32GB,7.7418,48.5855,503.78116607666016,machine,N
2022-04-13T14:18:09,353_0_2,b403e997-23ce-4462-aea6-9b215b04466d,343.8180482387543,-0.0042957123456477,-0.0124941444105478,166.79388161374487,482.7580000000001,188.9179372787476,-0.13034403901987,0.0346118714232193,0.0176283067666924,-0.0781038608299581,France,FRA,grand est,,,Linux-5.4.0-105-generic-x86_64-with-Ubuntu-20.04-focal,3.7.13,40,Intel(R) Xeon(R) CPU E5-2698 v4 @ 2.20GHz,8,8 x Tesla V100-SXM2-32GB,7.7418,48.5855,503.78116607666016,machine,N
2022-04-13T14:19:28,353_0_3,ff9dd205-4c9c-417d-8bcd-53f571c4f4e6,0.4297490119934082,4.536305793002093e-06,0.0105557096500588,148.55421963359868,393.503,188.9179372787476,1.765198051046019e-05,4.388093669527106e-05,2.0945369939761347e-05,8.24782871454926e-05,France,FRA,grand est,,,Linux-5.4.0-105-generic-x86_64-with-Ubuntu-20.04-focal,3.7.13,40,Intel(R) Xeon(R) CPU E5-2698 v4 @ 2.20GHz,8,8 x Tesla V100-SXM2-32GB,7.7418,48.5855,503.78116607666016,machine,N
2022-04-13T14:20:35,353_0_4,fe68575b-6ecb-40ef-9b21-8d7dbf1b0c0e,1.0385234355926514,1.3188095279589436e-05,0.0126988903934203,146.1998130451462,515.36,188.9179372787476,4.211489563633528e-05,0.0001447320638656,5.293659103599282e-05,0.0002397835505379,France,FRA,grand est,,,Linux-5.4.0-105-generic-x86_64-with-Ubuntu-20.04-focal,3.7.13,40,Intel(R) Xeon(R) CPU E5-2698 v4 @ 2.20GHz,8,8 x Tesla V100-SXM2-32GB,7.7418,48.5855,503.78116607666016,machine,N
2022-04-13T14:21:41,353_0_5,9525edd9-be04-4fd4-a941-534582d36f68,0.8696839809417725,1.1015562493952226e-05,0.0126661669472439,146.39877045190897,512.5,188.9179372787476,3.530662241194114e-05,0.0001206283130579,4.434801896560145e-05,0.0002002829544354,France,FRA,grand est,,,Linux-5.4.0-105-generic-x86_64-with-Ubuntu-20.04-focal,3.7.13,40,Intel(R) Xeon(R) CPU E5-2698 v4 @ 2.20GHz,8,8 x Tesla V100-SXM2-32GB,7.7418,48.5855,503.78116607666016,machine,N
2022-04-13T14:22:47,353_0_6,2767b31f-8367-405e-8bc8-07934849cd43,0.8466858863830566,9.05257016925832e-06,0.01069176930293458,145.90696081519758,382.921,188.91793727874756,3.425456462585394e-05,8.735747552679646e-05,4.298014474295542e-05,0.00016459218489560582,France,FRA,grand est,,,Linux-5.4.0-105-generic-x86_64-with-Ubuntu-20.04-focal,3.7.13,40,Intel(R) Xeon(R) CPU E5-2698 v4 @ 2.20GHz,8,8 x Tesla V100-SXM2-32GB,7.7418,48.5855,503.78116607666016,machine,N
