2022-04-02 23:55:05 - carbontracker version 1.1.6
2022-04-02 23:55:05 - Only predicted and actual consumptions are multiplied by a PUE coefficient of 1.59 (Rhonda Ascierto, 2019, Uptime Institute Global Data Center Survey).
2022-04-02 23:55:17 - The following components were found: GPU with device(s) Tesla V100-SXM2-32GB, Tesla V100-SXM2-32GB, Tesla V100-SXM2-32GB, Tesla V100-SXM2-32GB, Tesla V100-SXM2-32GB, Tesla V100-SXM2-32GB, Tesla V100-SXM2-32GB, Tesla V100-SXM2-32GB. CPU with device(s) cpu:1, cpu:0.
2022-04-02 23:55:17 - Monitoring thread started.
2022-04-02 23:58:08 - Epoch 1:
2022-04-02 23:58:08 - Duration: 0:02:25.67
2022-04-02 23:58:08 - Average power usage (W) for gpu: [46.16085714 47.341      47.8185     48.09942857 47.40285714 46.73678571
 48.52592857 46.33428571]
2022-04-02 23:58:08 - Average power usage (W) for cpu: [75.64549729 79.95350457]
2022-04-02 23:58:08 - Carbon intensities (gCO2/kWh) fetched every 900 s at detected location Paris, Île-de-France, FR: [294.2060978]
2022-04-02 23:58:08 - Average carbon intensity during training was 294.21 gCO2/kWh at detected location: Paris, Île-de-France, FR.
2022-04-02 23:58:08 - Live carbon intensity could not be fetched at detected location: Paris, Île-de-France, FR. Defaulted to average carbon intensity for EU-28 in 2017 of 294.21 gCO2/kWh.
2022-04-02 23:58:08 - Monitoring thread ended.
2022-04-02 23:58:38 - carbontracker version 1.1.6
2022-04-02 23:58:38 - Only predicted and actual consumptions are multiplied by a PUE coefficient of 1.59 (Rhonda Ascierto, 2019, Uptime Institute Global Data Center Survey).
2022-04-02 23:58:51 - The following components were found: GPU with device(s) Tesla V100-SXM2-32GB, Tesla V100-SXM2-32GB, Tesla V100-SXM2-32GB, Tesla V100-SXM2-32GB, Tesla V100-SXM2-32GB, Tesla V100-SXM2-32GB, Tesla V100-SXM2-32GB, Tesla V100-SXM2-32GB. CPU with device(s) cpu:1, cpu:0.
2022-04-02 23:58:51 - Monitoring thread started.
2022-04-03 00:02:03 - Epoch 1:
2022-04-03 00:02:03 - Duration: 0:02:47.30
2022-04-03 00:02:03 - Average power usage (W) for gpu: [46.977125  47.256375  45.9581875 45.8105    49.599     46.9635625
 49.2504375 49.1133125]
2022-04-03 00:02:03 - Average power usage (W) for cpu: [74.88779744 79.47213606]
2022-04-03 00:02:03 - Carbon intensities (gCO2/kWh) fetched every 900 s at detected location Paris, Île-de-France, FR: [294.2060978]
2022-04-03 00:02:03 - Average carbon intensity during training was 294.21 gCO2/kWh at detected location: Paris, Île-de-France, FR.
2022-04-03 00:02:03 - Live carbon intensity could not be fetched at detected location: Paris, Île-de-France, FR. Defaulted to average carbon intensity for EU-28 in 2017 of 294.21 gCO2/kWh.
2022-04-03 00:02:03 - Monitoring thread ended.
2022-04-03 00:02:33 - carbontracker version 1.1.6
2022-04-03 00:02:33 - Only predicted and actual consumptions are multiplied by a PUE coefficient of 1.59 (Rhonda Ascierto, 2019, Uptime Institute Global Data Center Survey).
2022-04-03 00:02:45 - The following components were found: GPU with device(s) Tesla V100-SXM2-32GB, Tesla V100-SXM2-32GB, Tesla V100-SXM2-32GB, Tesla V100-SXM2-32GB, Tesla V100-SXM2-32GB, Tesla V100-SXM2-32GB, Tesla V100-SXM2-32GB, Tesla V100-SXM2-32GB. CPU with device(s) cpu:1, cpu:0.
2022-04-03 00:02:45 - Monitoring thread started.
2022-04-03 00:05:37 - Epoch 1:
2022-04-03 00:05:37 - Duration: 0:02:26.17
2022-04-03 00:05:37 - Average power usage (W) for gpu: [45.99321429 47.13464286 46.16835714 46.1365     46.88878571 47.12157143
 47.11671429 45.64771429]
2022-04-03 00:05:37 - Average power usage (W) for cpu: [75.28574371 79.63236029]
2022-04-03 00:05:37 - Carbon intensities (gCO2/kWh) fetched every 900 s at detected location Paris, Île-de-France, FR: [294.2060978]
2022-04-03 00:05:37 - Average carbon intensity during training was 294.21 gCO2/kWh at detected location: Paris, Île-de-France, FR.
2022-04-03 00:05:37 - Live carbon intensity could not be fetched at detected location: Paris, Île-de-France, FR. Defaulted to average carbon intensity for EU-28 in 2017 of 294.21 gCO2/kWh.
2022-04-03 00:05:37 - Monitoring thread ended.
2022-04-03 00:06:07 - carbontracker version 1.1.6
2022-04-03 00:06:07 - Only predicted and actual consumptions are multiplied by a PUE coefficient of 1.59 (Rhonda Ascierto, 2019, Uptime Institute Global Data Center Survey).
2022-04-03 00:06:19 - The following components were found: GPU with device(s) Tesla V100-SXM2-32GB, Tesla V100-SXM2-32GB, Tesla V100-SXM2-32GB, Tesla V100-SXM2-32GB, Tesla V100-SXM2-32GB, Tesla V100-SXM2-32GB, Tesla V100-SXM2-32GB, Tesla V100-SXM2-32GB. CPU with device(s) cpu:1, cpu:0.
2022-04-03 00:06:19 - Monitoring thread started.
2022-04-03 00:09:27 - Epoch 1:
2022-04-03 00:09:27 - Duration: 0:02:42.89
2022-04-03 00:09:27 - Average power usage (W) for gpu: [48.45586667 47.24913333 48.46186667 45.868      46.63353333 46.3968
 49.34926667 44.61046667]
2022-04-03 00:09:27 - Average power usage (W) for cpu: [75.33858067 79.81953047]
2022-04-03 00:09:28 - Carbon intensities (gCO2/kWh) fetched every 900 s at detected location Paris, Île-de-France, FR: [294.2060978]
2022-04-03 00:09:28 - Average carbon intensity during training was 294.21 gCO2/kWh at detected location: Paris, Île-de-France, FR.
2022-04-03 00:09:28 - Live carbon intensity could not be fetched at detected location: Paris, Île-de-France, FR. Defaulted to average carbon intensity for EU-28 in 2017 of 294.21 gCO2/kWh.
2022-04-03 00:09:28 - Monitoring thread ended.
2022-04-03 00:09:58 - carbontracker version 1.1.6
2022-04-03 00:09:58 - Only predicted and actual consumptions are multiplied by a PUE coefficient of 1.59 (Rhonda Ascierto, 2019, Uptime Institute Global Data Center Survey).
2022-04-03 00:10:10 - The following components were found: GPU with device(s) Tesla V100-SXM2-32GB, Tesla V100-SXM2-32GB, Tesla V100-SXM2-32GB, Tesla V100-SXM2-32GB, Tesla V100-SXM2-32GB, Tesla V100-SXM2-32GB, Tesla V100-SXM2-32GB, Tesla V100-SXM2-32GB. CPU with device(s) cpu:1, cpu:0.
2022-04-03 00:10:10 - Monitoring thread started.
2022-04-03 00:10:42 - Epoch 1:
2022-04-03 00:10:42 - Duration: 0:00:06.74
2022-04-03 00:10:42 - Average power usage (W) for gpu: [44.487 45.933 44.487 44.969 44.999 45.451 45.964 44.516]
2022-04-03 00:10:42 - Average power usage (W) for cpu: [71.306458 75.234061]
2022-04-03 00:10:42 - Carbon intensities (gCO2/kWh) fetched every 900 s at detected location Paris, Île-de-France, FR: [294.2060978]
2022-04-03 00:10:42 - Average carbon intensity during training was 294.21 gCO2/kWh at detected location: Paris, Île-de-France, FR.
2022-04-03 00:10:42 - Live carbon intensity could not be fetched at detected location: Paris, Île-de-France, FR. Defaulted to average carbon intensity for EU-28 in 2017 of 294.21 gCO2/kWh.
2022-04-03 00:10:42 - Monitoring thread ended.
2022-04-03 00:11:12 - carbontracker version 1.1.6
2022-04-03 00:11:12 - Only predicted and actual consumptions are multiplied by a PUE coefficient of 1.59 (Rhonda Ascierto, 2019, Uptime Institute Global Data Center Survey).
2022-04-03 00:11:24 - The following components were found: GPU with device(s) Tesla V100-SXM2-32GB, Tesla V100-SXM2-32GB, Tesla V100-SXM2-32GB, Tesla V100-SXM2-32GB, Tesla V100-SXM2-32GB, Tesla V100-SXM2-32GB, Tesla V100-SXM2-32GB, Tesla V100-SXM2-32GB. CPU with device(s) cpu:1, cpu:0.
2022-04-03 00:11:24 - Monitoring thread started.
2022-04-03 00:11:56 - Epoch 1:
2022-04-03 00:11:56 - Duration: 0:00:06.74
2022-04-03 00:11:56 - Average power usage (W) for gpu: [44.487 45.933 44.487 44.969 44.999 45.451 45.964 44.516]
2022-04-03 00:11:56 - Average power usage (W) for cpu: [71.456177 74.875296]
2022-04-03 00:11:56 - Carbon intensities (gCO2/kWh) fetched every 900 s at detected location Paris, Île-de-France, FR: [294.2060978]
2022-04-03 00:11:56 - Average carbon intensity during training was 294.21 gCO2/kWh at detected location: Paris, Île-de-France, FR.
2022-04-03 00:11:56 - Live carbon intensity could not be fetched at detected location: Paris, Île-de-France, FR. Defaulted to average carbon intensity for EU-28 in 2017 of 294.21 gCO2/kWh.
2022-04-03 00:11:56 - Monitoring thread ended.
2022-04-03 00:12:26 - carbontracker version 1.1.6
2022-04-03 00:12:26 - Only predicted and actual consumptions are multiplied by a PUE coefficient of 1.59 (Rhonda Ascierto, 2019, Uptime Institute Global Data Center Survey).
2022-04-03 00:12:38 - The following components were found: GPU with device(s) Tesla V100-SXM2-32GB, Tesla V100-SXM2-32GB, Tesla V100-SXM2-32GB, Tesla V100-SXM2-32GB, Tesla V100-SXM2-32GB, Tesla V100-SXM2-32GB, Tesla V100-SXM2-32GB, Tesla V100-SXM2-32GB. CPU with device(s) cpu:1, cpu:0.
2022-04-03 00:12:38 - Monitoring thread started.
2022-04-03 00:13:10 - Epoch 1:
2022-04-03 00:13:10 - Duration: 0:00:06.74
2022-04-03 00:13:10 - Average power usage (W) for gpu: [44.487 45.933 44.487 44.999 44.999 45.451 46.446 44.999]
2022-04-03 00:13:10 - Average power usage (W) for cpu: [71.222962 74.741081]
2022-04-03 00:13:11 - Carbon intensities (gCO2/kWh) fetched every 900 s at detected location Paris, Île-de-France, FR: [294.2060978]
2022-04-03 00:13:11 - Average carbon intensity during training was 294.21 gCO2/kWh at detected location: Paris, Île-de-France, FR.
2022-04-03 00:13:11 - Live carbon intensity could not be fetched at detected location: Paris, Île-de-France, FR. Defaulted to average carbon intensity for EU-28 in 2017 of 294.21 gCO2/kWh.
2022-04-03 00:13:11 - Monitoring thread ended.
2022-04-03 00:13:41 - carbontracker version 1.1.6
2022-04-03 00:13:41 - Only predicted and actual consumptions are multiplied by a PUE coefficient of 1.59 (Rhonda Ascierto, 2019, Uptime Institute Global Data Center Survey).
2022-04-03 00:13:53 - The following components were found: GPU with device(s) Tesla V100-SXM2-32GB, Tesla V100-SXM2-32GB, Tesla V100-SXM2-32GB, Tesla V100-SXM2-32GB, Tesla V100-SXM2-32GB, Tesla V100-SXM2-32GB, Tesla V100-SXM2-32GB, Tesla V100-SXM2-32GB. CPU with device(s) cpu:1, cpu:0.
2022-04-03 00:13:53 - Monitoring thread started.
2022-04-03 00:14:25 - Epoch 1:
2022-04-03 00:14:25 - Duration: 0:00:06.74
2022-04-03 00:14:25 - Average power usage (W) for gpu: [44.487 45.933 44.487 44.969 44.999 45.451 46.446 44.999]
2022-04-03 00:14:25 - Average power usage (W) for cpu: [71.386475 74.941092]
2022-04-03 00:14:25 - Carbon intensities (gCO2/kWh) fetched every 900 s at detected location Paris, Île-de-France, FR: [294.2060978]
2022-04-03 00:14:25 - Average carbon intensity during training was 294.21 gCO2/kWh at detected location: Paris, Île-de-France, FR.
2022-04-03 00:14:25 - Live carbon intensity could not be fetched at detected location: Paris, Île-de-France, FR. Defaulted to average carbon intensity for EU-28 in 2017 of 294.21 gCO2/kWh.
2022-04-03 00:14:25 - Monitoring thread ended.
2022-04-03 00:14:55 - carbontracker version 1.1.6
2022-04-03 00:14:55 - Only predicted and actual consumptions are multiplied by a PUE coefficient of 1.59 (Rhonda Ascierto, 2019, Uptime Institute Global Data Center Survey).
2022-04-03 00:15:07 - The following components were found: GPU with device(s) Tesla V100-SXM2-32GB, Tesla V100-SXM2-32GB, Tesla V100-SXM2-32GB, Tesla V100-SXM2-32GB, Tesla V100-SXM2-32GB, Tesla V100-SXM2-32GB, Tesla V100-SXM2-32GB, Tesla V100-SXM2-32GB. CPU with device(s) cpu:1, cpu:0.
2022-04-03 00:15:07 - Monitoring thread started.
2022-04-03 00:15:39 - Epoch 1:
2022-04-03 00:15:39 - Duration: 0:00:06.74
2022-04-03 00:15:39 - Average power usage (W) for gpu: [44.487 45.933 44.487 44.969 44.999 45.451 45.964 44.516]
2022-04-03 00:15:39 - Average power usage (W) for cpu: [71.347351 74.790519]
2022-04-03 00:15:39 - Carbon intensities (gCO2/kWh) fetched every 900 s at detected location Paris, Île-de-France, FR: [294.2060978]
2022-04-03 00:15:39 - Average carbon intensity during training was 294.21 gCO2/kWh at detected location: Paris, Île-de-France, FR.
2022-04-03 00:15:39 - Live carbon intensity could not be fetched at detected location: Paris, Île-de-France, FR. Defaulted to average carbon intensity for EU-28 in 2017 of 294.21 gCO2/kWh.
2022-04-03 00:15:39 - Monitoring thread ended.
2022-04-03 00:16:10 - carbontracker version 1.1.6
2022-04-03 00:16:10 - Only predicted and actual consumptions are multiplied by a PUE coefficient of 1.59 (Rhonda Ascierto, 2019, Uptime Institute Global Data Center Survey).
2022-04-03 00:16:22 - The following components were found: GPU with device(s) Tesla V100-SXM2-32GB, Tesla V100-SXM2-32GB, Tesla V100-SXM2-32GB, Tesla V100-SXM2-32GB, Tesla V100-SXM2-32GB, Tesla V100-SXM2-32GB, Tesla V100-SXM2-32GB, Tesla V100-SXM2-32GB. CPU with device(s) cpu:1, cpu:0.
2022-04-03 00:16:22 - Monitoring thread started.
2022-04-03 00:16:53 - Epoch 1:
2022-04-03 00:16:53 - Duration: 0:00:06.74
2022-04-03 00:16:53 - Average power usage (W) for gpu: [44.487 45.933 44.487 44.969 44.999 45.451 45.964 44.516]
2022-04-03 00:16:53 - Average power usage (W) for cpu: [71.331177 74.579032]
2022-04-03 00:16:54 - Carbon intensities (gCO2/kWh) fetched every 900 s at detected location Paris, Île-de-France, FR: [294.2060978]
2022-04-03 00:16:54 - Average carbon intensity during training was 294.21 gCO2/kWh at detected location: Paris, Île-de-France, FR.
2022-04-03 00:16:54 - Live carbon intensity could not be fetched at detected location: Paris, Île-de-France, FR. Defaulted to average carbon intensity for EU-28 in 2017 of 294.21 gCO2/kWh.
2022-04-03 00:16:54 - Monitoring thread ended.
2022-04-03 00:17:24 - carbontracker version 1.1.6
2022-04-03 00:17:24 - Only predicted and actual consumptions are multiplied by a PUE coefficient of 1.59 (Rhonda Ascierto, 2019, Uptime Institute Global Data Center Survey).
2022-04-03 00:17:36 - The following components were found: GPU with device(s) Tesla V100-SXM2-32GB, Tesla V100-SXM2-32GB, Tesla V100-SXM2-32GB, Tesla V100-SXM2-32GB, Tesla V100-SXM2-32GB, Tesla V100-SXM2-32GB, Tesla V100-SXM2-32GB, Tesla V100-SXM2-32GB. CPU with device(s) cpu:1, cpu:0.
2022-04-03 00:17:36 - Monitoring thread started.
2022-04-03 00:18:08 - Epoch 1:
2022-04-03 00:18:08 - Duration: 0:00:06.74
2022-04-03 00:18:08 - Average power usage (W) for gpu: [44.487 45.933 44.487 44.969 44.999 45.451 45.964 44.999]
2022-04-03 00:18:08 - Average power usage (W) for cpu: [71.485962 74.620964]
2022-04-03 00:18:08 - Carbon intensities (gCO2/kWh) fetched every 900 s at detected location Paris, Île-de-France, FR: [294.2060978]
2022-04-03 00:18:08 - Average carbon intensity during training was 294.21 gCO2/kWh at detected location: Paris, Île-de-France, FR.
2022-04-03 00:18:08 - Live carbon intensity could not be fetched at detected location: Paris, Île-de-France, FR. Defaulted to average carbon intensity for EU-28 in 2017 of 294.21 gCO2/kWh.
2022-04-03 00:18:08 - Monitoring thread ended.
2022-04-03 00:18:38 - carbontracker version 1.1.6
2022-04-03 00:18:38 - Only predicted and actual consumptions are multiplied by a PUE coefficient of 1.59 (Rhonda Ascierto, 2019, Uptime Institute Global Data Center Survey).
2022-04-03 00:18:50 - The following components were found: GPU with device(s) Tesla V100-SXM2-32GB, Tesla V100-SXM2-32GB, Tesla V100-SXM2-32GB, Tesla V100-SXM2-32GB, Tesla V100-SXM2-32GB, Tesla V100-SXM2-32GB, Tesla V100-SXM2-32GB, Tesla V100-SXM2-32GB. CPU with device(s) cpu:1, cpu:0.
2022-04-03 00:18:50 - Monitoring thread started.
2022-04-03 00:19:22 - Epoch 1:
2022-04-03 00:19:22 - Duration: 0:00:06.74
2022-04-03 00:19:22 - Average power usage (W) for gpu: [44.487 45.451 44.487 44.999 44.999 45.451 46.446 44.516]
2022-04-03 00:19:22 - Average power usage (W) for cpu: [71.437501 74.447502]
2022-04-03 00:19:22 - Carbon intensities (gCO2/kWh) fetched every 900 s at detected location Paris, Île-de-France, FR: [294.2060978]
2022-04-03 00:19:22 - Average carbon intensity during training was 294.21 gCO2/kWh at detected location: Paris, Île-de-France, FR.
2022-04-03 00:19:23 - Live carbon intensity could not be fetched at detected location: Paris, Île-de-France, FR. Defaulted to average carbon intensity for EU-28 in 2017 of 294.21 gCO2/kWh.
2022-04-03 00:19:23 - Monitoring thread ended.
2022-04-03 00:19:53 - carbontracker version 1.1.6
2022-04-03 00:19:53 - Only predicted and actual consumptions are multiplied by a PUE coefficient of 1.59 (Rhonda Ascierto, 2019, Uptime Institute Global Data Center Survey).
2022-04-03 00:20:05 - The following components were found: GPU with device(s) Tesla V100-SXM2-32GB, Tesla V100-SXM2-32GB, Tesla V100-SXM2-32GB, Tesla V100-SXM2-32GB, Tesla V100-SXM2-32GB, Tesla V100-SXM2-32GB, Tesla V100-SXM2-32GB, Tesla V100-SXM2-32GB. CPU with device(s) cpu:1, cpu:0.
2022-04-03 00:20:05 - Monitoring thread started.
2022-04-03 00:20:37 - Epoch 1:
2022-04-03 00:20:37 - Duration: 0:00:06.74
2022-04-03 00:20:37 - Average power usage (W) for gpu: [44.487 45.933 44.487 44.999 44.999 45.451 46.446 44.516]
2022-04-03 00:20:37 - Average power usage (W) for cpu: [71.286622 74.849113]
2022-04-03 00:20:37 - Carbon intensities (gCO2/kWh) fetched every 900 s at detected location Paris, Île-de-France, FR: [294.2060978]
2022-04-03 00:20:37 - Average carbon intensity during training was 294.21 gCO2/kWh at detected location: Paris, Île-de-France, FR.
2022-04-03 00:20:37 - Live carbon intensity could not be fetched at detected location: Paris, Île-de-France, FR. Defaulted to average carbon intensity for EU-28 in 2017 of 294.21 gCO2/kWh.
2022-04-03 00:20:37 - Monitoring thread ended.
2022-04-03 00:21:07 - carbontracker version 1.1.6
2022-04-03 00:21:07 - Only predicted and actual consumptions are multiplied by a PUE coefficient of 1.59 (Rhonda Ascierto, 2019, Uptime Institute Global Data Center Survey).
2022-04-03 00:21:19 - The following components were found: GPU with device(s) Tesla V100-SXM2-32GB, Tesla V100-SXM2-32GB, Tesla V100-SXM2-32GB, Tesla V100-SXM2-32GB, Tesla V100-SXM2-32GB, Tesla V100-SXM2-32GB, Tesla V100-SXM2-32GB, Tesla V100-SXM2-32GB. CPU with device(s) cpu:1, cpu:0.
2022-04-03 00:21:19 - Monitoring thread started.
2022-04-03 00:21:51 - Epoch 1:
2022-04-03 00:21:51 - Duration: 0:00:06.74
2022-04-03 00:21:51 - Average power usage (W) for gpu: [44.487 45.933 44.487 44.969 44.999 45.451 46.446 44.516]
2022-04-03 00:21:51 - Average power usage (W) for cpu: [71.297975 74.684868]
2022-04-03 00:21:51 - Carbon intensities (gCO2/kWh) fetched every 900 s at detected location Paris, Île-de-France, FR: [294.2060978]
2022-04-03 00:21:51 - Average carbon intensity during training was 294.21 gCO2/kWh at detected location: Paris, Île-de-France, FR.
2022-04-03 00:21:51 - Live carbon intensity could not be fetched at detected location: Paris, Île-de-France, FR. Defaulted to average carbon intensity for EU-28 in 2017 of 294.21 gCO2/kWh.
2022-04-03 00:21:51 - Monitoring thread ended.
2022-04-03 00:22:21 - carbontracker version 1.1.6
2022-04-03 00:22:21 - Only predicted and actual consumptions are multiplied by a PUE coefficient of 1.59 (Rhonda Ascierto, 2019, Uptime Institute Global Data Center Survey).
2022-04-03 00:22:33 - The following components were found: GPU with device(s) Tesla V100-SXM2-32GB, Tesla V100-SXM2-32GB, Tesla V100-SXM2-32GB, Tesla V100-SXM2-32GB, Tesla V100-SXM2-32GB, Tesla V100-SXM2-32GB, Tesla V100-SXM2-32GB, Tesla V100-SXM2-32GB. CPU with device(s) cpu:1, cpu:0.
2022-04-03 00:22:33 - Monitoring thread started.
2022-04-03 00:23:01 - Epoch 1:
2022-04-03 00:23:01 - Duration: 0:00:03.04
2022-04-03 00:23:01 - Average power usage (W) for gpu: [44.487 45.964 44.487 44.969 44.999 45.451 46.446 44.516]
2022-04-03 00:23:01 - Average power usage (W) for cpu: [71.117067 74.34295 ]
2022-04-03 00:23:01 - Carbon intensities (gCO2/kWh) fetched every 900 s at detected location Paris, Île-de-France, FR: [294.2060978]
2022-04-03 00:23:01 - Average carbon intensity during training was 294.21 gCO2/kWh at detected location: Paris, Île-de-France, FR.
2022-04-03 00:23:02 - Live carbon intensity could not be fetched at detected location: Paris, Île-de-France, FR. Defaulted to average carbon intensity for EU-28 in 2017 of 294.21 gCO2/kWh.
2022-04-03 00:23:02 - Monitoring thread ended.
2022-04-03 00:23:32 - carbontracker version 1.1.6
2022-04-03 00:23:32 - Only predicted and actual consumptions are multiplied by a PUE coefficient of 1.59 (Rhonda Ascierto, 2019, Uptime Institute Global Data Center Survey).
2022-04-03 00:23:44 - The following components were found: GPU with device(s) Tesla V100-SXM2-32GB, Tesla V100-SXM2-32GB, Tesla V100-SXM2-32GB, Tesla V100-SXM2-32GB, Tesla V100-SXM2-32GB, Tesla V100-SXM2-32GB, Tesla V100-SXM2-32GB, Tesla V100-SXM2-32GB. CPU with device(s) cpu:1, cpu:0.
2022-04-03 00:23:44 - Monitoring thread started.
2022-04-03 00:24:16 - Epoch 1:
2022-04-03 00:24:16 - Duration: 0:00:07.04
2022-04-03 00:24:16 - Average power usage (W) for gpu: [44.487 45.933 44.487 44.969 44.999 45.451 46.446 44.999]
2022-04-03 00:24:16 - Average power usage (W) for cpu: [71.304261 74.808891]
2022-04-03 00:24:16 - Carbon intensities (gCO2/kWh) fetched every 900 s at detected location Paris, Île-de-France, FR: [294.2060978]
2022-04-03 00:24:16 - Average carbon intensity during training was 294.21 gCO2/kWh at detected location: Paris, Île-de-France, FR.
2022-04-03 00:24:16 - Live carbon intensity could not be fetched at detected location: Paris, Île-de-France, FR. Defaulted to average carbon intensity for EU-28 in 2017 of 294.21 gCO2/kWh.
2022-04-03 00:24:16 - Monitoring thread ended.
2022-04-03 00:24:46 - carbontracker version 1.1.6
2022-04-03 00:24:46 - Only predicted and actual consumptions are multiplied by a PUE coefficient of 1.59 (Rhonda Ascierto, 2019, Uptime Institute Global Data Center Survey).
2022-04-03 00:24:58 - The following components were found: GPU with device(s) Tesla V100-SXM2-32GB, Tesla V100-SXM2-32GB, Tesla V100-SXM2-32GB, Tesla V100-SXM2-32GB, Tesla V100-SXM2-32GB, Tesla V100-SXM2-32GB, Tesla V100-SXM2-32GB, Tesla V100-SXM2-32GB. CPU with device(s) cpu:1, cpu:0.
2022-04-03 00:24:58 - Monitoring thread started.
2022-04-03 00:25:30 - Epoch 1:
2022-04-03 00:25:30 - Duration: 0:00:07.04
2022-04-03 00:25:30 - Average power usage (W) for gpu: [44.487 45.964 44.487 44.969 44.999 45.451 46.446 44.999]
2022-04-03 00:25:30 - Average power usage (W) for cpu: [71.332276 74.634514]
2022-04-03 00:25:31 - Carbon intensities (gCO2/kWh) fetched every 900 s at detected location Paris, Île-de-France, FR: [294.2060978]
2022-04-03 00:25:31 - Average carbon intensity during training was 294.21 gCO2/kWh at detected location: Paris, Île-de-France, FR.
2022-04-03 00:25:31 - Live carbon intensity could not be fetched at detected location: Paris, Île-de-France, FR. Defaulted to average carbon intensity for EU-28 in 2017 of 294.21 gCO2/kWh.
2022-04-03 00:25:31 - Monitoring thread ended.
2022-04-03 00:26:01 - carbontracker version 1.1.6
2022-04-03 00:26:01 - Only predicted and actual consumptions are multiplied by a PUE coefficient of 1.59 (Rhonda Ascierto, 2019, Uptime Institute Global Data Center Survey).
2022-04-03 00:26:13 - The following components were found: GPU with device(s) Tesla V100-SXM2-32GB, Tesla V100-SXM2-32GB, Tesla V100-SXM2-32GB, Tesla V100-SXM2-32GB, Tesla V100-SXM2-32GB, Tesla V100-SXM2-32GB, Tesla V100-SXM2-32GB, Tesla V100-SXM2-32GB. CPU with device(s) cpu:1, cpu:0.
2022-04-03 00:26:13 - Monitoring thread started.
2022-04-03 00:26:45 - Epoch 1:
2022-04-03 00:26:45 - Duration: 0:00:07.04
2022-04-03 00:26:45 - Average power usage (W) for gpu: [44.487 45.933 44.487 44.969 44.999 45.451 46.446 44.999]
2022-04-03 00:26:45 - Average power usage (W) for cpu: [71.288941 74.841971]
2022-04-03 00:26:45 - Carbon intensities (gCO2/kWh) fetched every 900 s at detected location Paris, Île-de-France, FR: [294.2060978]
2022-04-03 00:26:45 - Average carbon intensity during training was 294.21 gCO2/kWh at detected location: Paris, Île-de-France, FR.
2022-04-03 00:26:45 - Live carbon intensity could not be fetched at detected location: Paris, Île-de-France, FR. Defaulted to average carbon intensity for EU-28 in 2017 of 294.21 gCO2/kWh.
2022-04-03 00:26:45 - Monitoring thread ended.
2022-04-03 00:27:15 - carbontracker version 1.1.6
2022-04-03 00:27:15 - Only predicted and actual consumptions are multiplied by a PUE coefficient of 1.59 (Rhonda Ascierto, 2019, Uptime Institute Global Data Center Survey).
2022-04-03 00:27:27 - The following components were found: GPU with device(s) Tesla V100-SXM2-32GB, Tesla V100-SXM2-32GB, Tesla V100-SXM2-32GB, Tesla V100-SXM2-32GB, Tesla V100-SXM2-32GB, Tesla V100-SXM2-32GB, Tesla V100-SXM2-32GB, Tesla V100-SXM2-32GB. CPU with device(s) cpu:1, cpu:0.
2022-04-03 00:27:27 - Monitoring thread started.
2022-04-03 00:27:59 - Epoch 1:
2022-04-03 00:27:59 - Duration: 0:00:07.04
2022-04-03 00:27:59 - Average power usage (W) for gpu: [44.487 45.933 44.487 44.969 44.999 45.451 46.446 44.516]
2022-04-03 00:27:59 - Average power usage (W) for cpu: [71.356934 74.572624]
2022-04-03 00:28:00 - Carbon intensities (gCO2/kWh) fetched every 900 s at detected location Paris, Île-de-France, FR: [294.2060978]
2022-04-03 00:28:00 - Average carbon intensity during training was 294.21 gCO2/kWh at detected location: Paris, Île-de-France, FR.
2022-04-03 00:28:01 - Live carbon intensity could not be fetched at detected location: Paris, Île-de-France, FR. Defaulted to average carbon intensity for EU-28 in 2017 of 294.21 gCO2/kWh.
2022-04-03 00:28:01 - Monitoring thread ended.
2022-04-03 00:28:31 - carbontracker version 1.1.6
2022-04-03 00:28:31 - Only predicted and actual consumptions are multiplied by a PUE coefficient of 1.59 (Rhonda Ascierto, 2019, Uptime Institute Global Data Center Survey).
2022-04-03 00:28:43 - The following components were found: GPU with device(s) Tesla V100-SXM2-32GB, Tesla V100-SXM2-32GB, Tesla V100-SXM2-32GB, Tesla V100-SXM2-32GB, Tesla V100-SXM2-32GB, Tesla V100-SXM2-32GB, Tesla V100-SXM2-32GB, Tesla V100-SXM2-32GB. CPU with device(s) cpu:1, cpu:0.
2022-04-03 00:28:43 - Monitoring thread started.
2022-04-03 00:29:15 - Epoch 1:
2022-04-03 00:29:15 - Duration: 0:00:07.04
2022-04-03 00:29:15 - Average power usage (W) for gpu: [44.487 45.933 44.487 44.969 44.999 45.933 46.446 44.999]
2022-04-03 00:29:15 - Average power usage (W) for cpu: [71.315003 74.868949]
2022-04-03 00:29:15 - Carbon intensities (gCO2/kWh) fetched every 900 s at detected location Paris, Île-de-France, FR: [294.2060978]
2022-04-03 00:29:15 - Average carbon intensity during training was 294.21 gCO2/kWh at detected location: Paris, Île-de-France, FR.
2022-04-03 00:29:15 - Live carbon intensity could not be fetched at detected location: Paris, Île-de-France, FR. Defaulted to average carbon intensity for EU-28 in 2017 of 294.21 gCO2/kWh.
2022-04-03 00:29:15 - Monitoring thread ended.
2022-04-03 00:29:45 - carbontracker version 1.1.6
2022-04-03 00:29:45 - Only predicted and actual consumptions are multiplied by a PUE coefficient of 1.59 (Rhonda Ascierto, 2019, Uptime Institute Global Data Center Survey).
2022-04-03 00:29:57 - The following components were found: GPU with device(s) Tesla V100-SXM2-32GB, Tesla V100-SXM2-32GB, Tesla V100-SXM2-32GB, Tesla V100-SXM2-32GB, Tesla V100-SXM2-32GB, Tesla V100-SXM2-32GB, Tesla V100-SXM2-32GB, Tesla V100-SXM2-32GB. CPU with device(s) cpu:1, cpu:0.
2022-04-03 00:29:57 - Monitoring thread started.
2022-04-03 00:30:30 - Epoch 1:
2022-04-03 00:30:30 - Duration: 0:00:07.04
2022-04-03 00:30:30 - Average power usage (W) for gpu: [44.487 45.933 44.487 44.969 44.999 45.451 46.416 44.516]
2022-04-03 00:30:30 - Average power usage (W) for cpu: [71.379456 74.828117]
2022-04-03 00:30:30 - Carbon intensities (gCO2/kWh) fetched every 900 s at detected location Paris, Île-de-France, FR: [294.2060978]
2022-04-03 00:30:30 - Average carbon intensity during training was 294.21 gCO2/kWh at detected location: Paris, Île-de-France, FR.
2022-04-03 00:30:30 - Live carbon intensity could not be fetched at detected location: Paris, Île-de-France, FR. Defaulted to average carbon intensity for EU-28 in 2017 of 294.21 gCO2/kWh.
2022-04-03 00:30:30 - Monitoring thread ended.
2022-04-03 00:31:01 - carbontracker version 1.1.6
2022-04-03 00:31:01 - Only predicted and actual consumptions are multiplied by a PUE coefficient of 1.59 (Rhonda Ascierto, 2019, Uptime Institute Global Data Center Survey).
2022-04-03 00:31:13 - The following components were found: GPU with device(s) Tesla V100-SXM2-32GB, Tesla V100-SXM2-32GB, Tesla V100-SXM2-32GB, Tesla V100-SXM2-32GB, Tesla V100-SXM2-32GB, Tesla V100-SXM2-32GB, Tesla V100-SXM2-32GB, Tesla V100-SXM2-32GB. CPU with device(s) cpu:1, cpu:0.
2022-04-03 00:31:13 - Monitoring thread started.
2022-04-03 00:31:45 - Epoch 1:
2022-04-03 00:31:45 - Duration: 0:00:07.04
2022-04-03 00:31:45 - Average power usage (W) for gpu: [44.487 45.933 44.487 44.969 44.999 45.451 46.446 44.999]
2022-04-03 00:31:45 - Average power usage (W) for cpu: [71.393067 74.562737]
2022-04-03 00:31:45 - Carbon intensities (gCO2/kWh) fetched every 900 s at detected location Paris, Île-de-France, FR: [294.2060978]
2022-04-03 00:31:45 - Average carbon intensity during training was 294.21 gCO2/kWh at detected location: Paris, Île-de-France, FR.
2022-04-03 00:31:45 - Live carbon intensity could not be fetched at detected location: Paris, Île-de-France, FR. Defaulted to average carbon intensity for EU-28 in 2017 of 294.21 gCO2/kWh.
2022-04-03 00:31:45 - Monitoring thread ended.
2022-04-03 00:32:15 - carbontracker version 1.1.6
2022-04-03 00:32:15 - Only predicted and actual consumptions are multiplied by a PUE coefficient of 1.59 (Rhonda Ascierto, 2019, Uptime Institute Global Data Center Survey).
2022-04-03 00:32:27 - The following components were found: GPU with device(s) Tesla V100-SXM2-32GB, Tesla V100-SXM2-32GB, Tesla V100-SXM2-32GB, Tesla V100-SXM2-32GB, Tesla V100-SXM2-32GB, Tesla V100-SXM2-32GB, Tesla V100-SXM2-32GB, Tesla V100-SXM2-32GB. CPU with device(s) cpu:1, cpu:0.
2022-04-03 00:32:27 - Monitoring thread started.
2022-04-03 00:32:55 - Epoch 1:
2022-04-03 00:32:55 - Duration: 0:00:03.04
2022-04-03 00:32:55 - Average power usage (W) for gpu: [44.487 45.933 44.487 44.969 44.999 45.451 46.446 44.516]
2022-04-03 00:32:55 - Average power usage (W) for cpu: [71.488709 74.277642]
2022-04-03 00:32:56 - Carbon intensities (gCO2/kWh) fetched every 900 s at detected location Paris, Île-de-France, FR: [294.2060978]
2022-04-03 00:32:56 - Average carbon intensity during training was 294.21 gCO2/kWh at detected location: Paris, Île-de-France, FR.
2022-04-03 00:32:56 - Live carbon intensity could not be fetched at detected location: Paris, Île-de-France, FR. Defaulted to average carbon intensity for EU-28 in 2017 of 294.21 gCO2/kWh.
2022-04-03 00:32:56 - Monitoring thread ended.
2022-04-03 00:33:26 - carbontracker version 1.1.6
2022-04-03 00:33:26 - Only predicted and actual consumptions are multiplied by a PUE coefficient of 1.59 (Rhonda Ascierto, 2019, Uptime Institute Global Data Center Survey).
2022-04-03 00:33:38 - The following components were found: GPU with device(s) Tesla V100-SXM2-32GB, Tesla V100-SXM2-32GB, Tesla V100-SXM2-32GB, Tesla V100-SXM2-32GB, Tesla V100-SXM2-32GB, Tesla V100-SXM2-32GB, Tesla V100-SXM2-32GB, Tesla V100-SXM2-32GB. CPU with device(s) cpu:1, cpu:0.
2022-04-03 00:33:38 - Monitoring thread started.
2022-04-03 00:34:10 - Epoch 1:
2022-04-03 00:34:10 - Duration: 0:00:07.04
2022-04-03 00:34:10 - Average power usage (W) for gpu: [44.487 45.964 44.487 44.969 44.999 45.451 46.416 44.516]
2022-04-03 00:34:10 - Average power usage (W) for cpu: [71.346924 74.480278]
2022-04-03 00:34:11 - Carbon intensities (gCO2/kWh) fetched every 900 s at detected location Paris, Île-de-France, FR: [294.2060978]
2022-04-03 00:34:11 - Average carbon intensity during training was 294.21 gCO2/kWh at detected location: Paris, Île-de-France, FR.
2022-04-03 00:34:11 - Live carbon intensity could not be fetched at detected location: Paris, Île-de-France, FR. Defaulted to average carbon intensity for EU-28 in 2017 of 294.21 gCO2/kWh.
2022-04-03 00:34:11 - Monitoring thread ended.
2022-04-03 00:34:41 - carbontracker version 1.1.6
2022-04-03 00:34:41 - Only predicted and actual consumptions are multiplied by a PUE coefficient of 1.59 (Rhonda Ascierto, 2019, Uptime Institute Global Data Center Survey).
2022-04-03 00:34:53 - The following components were found: GPU with device(s) Tesla V100-SXM2-32GB, Tesla V100-SXM2-32GB, Tesla V100-SXM2-32GB, Tesla V100-SXM2-32GB, Tesla V100-SXM2-32GB, Tesla V100-SXM2-32GB, Tesla V100-SXM2-32GB, Tesla V100-SXM2-32GB. CPU with device(s) cpu:1, cpu:0.
2022-04-03 00:34:53 - Monitoring thread started.
2022-04-03 00:35:25 - Epoch 1:
2022-04-03 00:35:25 - Duration: 0:00:06.74
2022-04-03 00:35:25 - Average power usage (W) for gpu: [44.487 45.933 44.487 44.969 44.999 45.933 46.416 44.516]
2022-04-03 00:35:25 - Average power usage (W) for cpu: [71.445739 74.547356]
2022-04-03 00:35:25 - Carbon intensities (gCO2/kWh) fetched every 900 s at detected location Paris, Île-de-France, FR: [294.2060978]
2022-04-03 00:35:25 - Average carbon intensity during training was 294.21 gCO2/kWh at detected location: Paris, Île-de-France, FR.
2022-04-03 00:35:25 - Live carbon intensity could not be fetched at detected location: Paris, Île-de-France, FR. Defaulted to average carbon intensity for EU-28 in 2017 of 294.21 gCO2/kWh.
2022-04-03 00:35:25 - Monitoring thread ended.
2022-04-03 00:35:55 - carbontracker version 1.1.6
2022-04-03 00:35:55 - Only predicted and actual consumptions are multiplied by a PUE coefficient of 1.59 (Rhonda Ascierto, 2019, Uptime Institute Global Data Center Survey).
2022-04-03 00:36:07 - The following components were found: GPU with device(s) Tesla V100-SXM2-32GB, Tesla V100-SXM2-32GB, Tesla V100-SXM2-32GB, Tesla V100-SXM2-32GB, Tesla V100-SXM2-32GB, Tesla V100-SXM2-32GB, Tesla V100-SXM2-32GB, Tesla V100-SXM2-32GB. CPU with device(s) cpu:1, cpu:0.
2022-04-03 00:36:07 - Monitoring thread started.
2022-04-03 00:36:35 - Epoch 1:
2022-04-03 00:36:35 - Duration: 0:00:02.74
2022-04-03 00:36:35 - Average power usage (W) for gpu: [44.487 45.933 44.487 44.969 44.999 45.451 46.446 44.516]
2022-04-03 00:36:35 - Average power usage (W) for cpu: [71.383789 74.406181]
2022-04-03 00:36:35 - Carbon intensities (gCO2/kWh) fetched every 900 s at detected location Paris, Île-de-France, FR: [294.2060978]
2022-04-03 00:36:35 - Average carbon intensity during training was 294.21 gCO2/kWh at detected location: Paris, Île-de-France, FR.
2022-04-03 00:36:36 - Live carbon intensity could not be fetched at detected location: Paris, Île-de-France, FR. Defaulted to average carbon intensity for EU-28 in 2017 of 294.21 gCO2/kWh.
2022-04-03 00:36:36 - Monitoring thread ended.
2022-04-03 00:37:06 - carbontracker version 1.1.6
2022-04-03 00:37:06 - Only predicted and actual consumptions are multiplied by a PUE coefficient of 1.59 (Rhonda Ascierto, 2019, Uptime Institute Global Data Center Survey).
2022-04-03 00:37:18 - The following components were found: GPU with device(s) Tesla V100-SXM2-32GB, Tesla V100-SXM2-32GB, Tesla V100-SXM2-32GB, Tesla V100-SXM2-32GB, Tesla V100-SXM2-32GB, Tesla V100-SXM2-32GB, Tesla V100-SXM2-32GB, Tesla V100-SXM2-32GB. CPU with device(s) cpu:1, cpu:0.
2022-04-03 00:37:18 - Monitoring thread started.
2022-04-03 00:37:46 - Epoch 1:
2022-04-03 00:37:46 - Duration: 0:00:02.74
2022-04-03 00:37:46 - Average power usage (W) for gpu: [44.487 45.933 44.487 44.969 44.999 45.451 46.446 44.516]
2022-04-03 00:37:46 - Average power usage (W) for cpu: [71.283875 74.481987]
2022-04-03 00:37:46 - Carbon intensities (gCO2/kWh) fetched every 900 s at detected location Paris, Île-de-France, FR: [294.2060978]
2022-04-03 00:37:46 - Average carbon intensity during training was 294.21 gCO2/kWh at detected location: Paris, Île-de-France, FR.
2022-04-03 00:37:47 - Live carbon intensity could not be fetched at detected location: Paris, Île-de-France, FR. Defaulted to average carbon intensity for EU-28 in 2017 of 294.21 gCO2/kWh.
2022-04-03 00:37:47 - Monitoring thread ended.
2022-04-03 00:38:17 - carbontracker version 1.1.6
2022-04-03 00:38:17 - Only predicted and actual consumptions are multiplied by a PUE coefficient of 1.59 (Rhonda Ascierto, 2019, Uptime Institute Global Data Center Survey).
2022-04-03 00:38:29 - The following components were found: GPU with device(s) Tesla V100-SXM2-32GB, Tesla V100-SXM2-32GB, Tesla V100-SXM2-32GB, Tesla V100-SXM2-32GB, Tesla V100-SXM2-32GB, Tesla V100-SXM2-32GB, Tesla V100-SXM2-32GB, Tesla V100-SXM2-32GB. CPU with device(s) cpu:1, cpu:0.
2022-04-03 00:38:29 - Monitoring thread started.
2022-04-03 00:39:01 - Epoch 1:
2022-04-03 00:39:01 - Duration: 0:00:06.74
2022-04-03 00:39:01 - Average power usage (W) for gpu: [44.487 45.933 44.487 44.969 44.999 45.451 46.446 44.516]
2022-04-03 00:39:01 - Average power usage (W) for cpu: [71.318299 74.364556]
2022-04-03 00:39:01 - Carbon intensities (gCO2/kWh) fetched every 900 s at detected location Paris, Île-de-France, FR: [294.2060978]
2022-04-03 00:39:01 - Average carbon intensity during training was 294.21 gCO2/kWh at detected location: Paris, Île-de-France, FR.
2022-04-03 00:39:02 - Live carbon intensity could not be fetched at detected location: Paris, Île-de-France, FR. Defaulted to average carbon intensity for EU-28 in 2017 of 294.21 gCO2/kWh.
2022-04-03 00:39:02 - Monitoring thread ended.
2022-04-03 00:39:32 - carbontracker version 1.1.6
2022-04-03 00:39:32 - Only predicted and actual consumptions are multiplied by a PUE coefficient of 1.59 (Rhonda Ascierto, 2019, Uptime Institute Global Data Center Survey).
2022-04-03 00:39:44 - The following components were found: GPU with device(s) Tesla V100-SXM2-32GB, Tesla V100-SXM2-32GB, Tesla V100-SXM2-32GB, Tesla V100-SXM2-32GB, Tesla V100-SXM2-32GB, Tesla V100-SXM2-32GB, Tesla V100-SXM2-32GB, Tesla V100-SXM2-32GB. CPU with device(s) cpu:1, cpu:0.
2022-04-03 00:39:44 - Monitoring thread started.
2022-04-03 00:40:11 - Epoch 1:
2022-04-03 00:40:11 - Duration: 0:00:02.74
2022-04-03 00:40:11 - Average power usage (W) for gpu: [44.487 45.933 44.487 44.969 44.999 45.451 46.446 44.516]
2022-04-03 00:40:11 - Average power usage (W) for cpu: [71.217286 74.437309]
2022-04-03 00:40:12 - Carbon intensities (gCO2/kWh) fetched every 900 s at detected location Paris, Île-de-France, FR: [294.2060978]
2022-04-03 00:40:12 - Average carbon intensity during training was 294.21 gCO2/kWh at detected location: Paris, Île-de-France, FR.
2022-04-03 00:40:13 - Live carbon intensity could not be fetched at detected location: Paris, Île-de-France, FR. Defaulted to average carbon intensity for EU-28 in 2017 of 294.21 gCO2/kWh.
2022-04-03 00:40:13 - Monitoring thread ended.
2022-04-03 00:40:43 - carbontracker version 1.1.6
2022-04-03 00:40:43 - Only predicted and actual consumptions are multiplied by a PUE coefficient of 1.59 (Rhonda Ascierto, 2019, Uptime Institute Global Data Center Survey).
2022-04-03 00:40:55 - The following components were found: GPU with device(s) Tesla V100-SXM2-32GB, Tesla V100-SXM2-32GB, Tesla V100-SXM2-32GB, Tesla V100-SXM2-32GB, Tesla V100-SXM2-32GB, Tesla V100-SXM2-32GB, Tesla V100-SXM2-32GB, Tesla V100-SXM2-32GB. CPU with device(s) cpu:1, cpu:0.
2022-04-03 00:40:55 - Monitoring thread started.
2022-04-03 00:41:27 - Epoch 1:
2022-04-03 00:41:27 - Duration: 0:00:06.74
2022-04-03 00:41:27 - Average power usage (W) for gpu: [44.487 45.964 44.487 44.969 44.999 45.451 46.446 44.999]
2022-04-03 00:41:27 - Average power usage (W) for cpu: [71.418579 74.579704]
2022-04-03 00:41:27 - Carbon intensities (gCO2/kWh) fetched every 900 s at detected location Paris, Île-de-France, FR: [294.2060978]
2022-04-03 00:41:27 - Average carbon intensity during training was 294.21 gCO2/kWh at detected location: Paris, Île-de-France, FR.
2022-04-03 00:41:28 - Live carbon intensity could not be fetched at detected location: Paris, Île-de-France, FR. Defaulted to average carbon intensity for EU-28 in 2017 of 294.21 gCO2/kWh.
2022-04-03 00:41:28 - Monitoring thread ended.
2022-04-03 00:41:58 - carbontracker version 1.1.6
2022-04-03 00:41:58 - Only predicted and actual consumptions are multiplied by a PUE coefficient of 1.59 (Rhonda Ascierto, 2019, Uptime Institute Global Data Center Survey).
2022-04-03 00:42:10 - The following components were found: GPU with device(s) Tesla V100-SXM2-32GB, Tesla V100-SXM2-32GB, Tesla V100-SXM2-32GB, Tesla V100-SXM2-32GB, Tesla V100-SXM2-32GB, Tesla V100-SXM2-32GB, Tesla V100-SXM2-32GB, Tesla V100-SXM2-32GB. CPU with device(s) cpu:1, cpu:0.
2022-04-03 00:42:10 - Monitoring thread started.
2022-04-03 00:42:42 - Epoch 1:
2022-04-03 00:42:42 - Duration: 0:00:06.74
2022-04-03 00:42:42 - Average power usage (W) for gpu: [44.487 45.964 44.487 44.969 44.999 45.451 46.446 44.516]
2022-04-03 00:42:42 - Average power usage (W) for cpu: [71.375977 74.816337]
2022-04-03 00:42:42 - Carbon intensities (gCO2/kWh) fetched every 900 s at detected location Paris, Île-de-France, FR: [294.2060978]
2022-04-03 00:42:42 - Average carbon intensity during training was 294.21 gCO2/kWh at detected location: Paris, Île-de-France, FR.
2022-04-03 00:42:43 - Live carbon intensity could not be fetched at detected location: Paris, Île-de-France, FR. Defaulted to average carbon intensity for EU-28 in 2017 of 294.21 gCO2/kWh.
2022-04-03 00:42:43 - Monitoring thread ended.
2022-04-03 00:43:13 - carbontracker version 1.1.6
2022-04-03 00:43:13 - Only predicted and actual consumptions are multiplied by a PUE coefficient of 1.59 (Rhonda Ascierto, 2019, Uptime Institute Global Data Center Survey).
2022-04-03 00:43:25 - The following components were found: GPU with device(s) Tesla V100-SXM2-32GB, Tesla V100-SXM2-32GB, Tesla V100-SXM2-32GB, Tesla V100-SXM2-32GB, Tesla V100-SXM2-32GB, Tesla V100-SXM2-32GB, Tesla V100-SXM2-32GB, Tesla V100-SXM2-32GB. CPU with device(s) cpu:1, cpu:0.
2022-04-03 00:43:25 - Monitoring thread started.
2022-04-03 00:43:57 - Epoch 1:
2022-04-03 00:43:57 - Duration: 0:00:06.74
2022-04-03 00:43:57 - Average power usage (W) for gpu: [44.487 45.933 44.487 44.969 44.999 45.451 46.416 44.516]
2022-04-03 00:43:57 - Average power usage (W) for cpu: [71.341736 74.499504]
2022-04-03 00:43:57 - Carbon intensities (gCO2/kWh) fetched every 900 s at detected location Paris, Île-de-France, FR: [294.2060978]
2022-04-03 00:43:57 - Average carbon intensity during training was 294.21 gCO2/kWh at detected location: Paris, Île-de-France, FR.
2022-04-03 00:43:57 - Live carbon intensity could not be fetched at detected location: Paris, Île-de-France, FR. Defaulted to average carbon intensity for EU-28 in 2017 of 294.21 gCO2/kWh.
2022-04-03 00:43:57 - Monitoring thread ended.
2022-04-03 00:44:28 - carbontracker version 1.1.6
2022-04-03 00:44:28 - Only predicted and actual consumptions are multiplied by a PUE coefficient of 1.59 (Rhonda Ascierto, 2019, Uptime Institute Global Data Center Survey).
2022-04-03 00:44:40 - The following components were found: GPU with device(s) Tesla V100-SXM2-32GB, Tesla V100-SXM2-32GB, Tesla V100-SXM2-32GB, Tesla V100-SXM2-32GB, Tesla V100-SXM2-32GB, Tesla V100-SXM2-32GB, Tesla V100-SXM2-32GB, Tesla V100-SXM2-32GB. CPU with device(s) cpu:1, cpu:0.
2022-04-03 00:44:40 - Monitoring thread started.
2022-04-03 00:45:11 - Epoch 1:
2022-04-03 00:45:11 - Duration: 0:00:06.74
2022-04-03 00:45:11 - Average power usage (W) for gpu: [44.487 45.933 44.487 44.969 44.999 45.451 46.446 44.516]
2022-04-03 00:45:11 - Average power usage (W) for cpu: [71.258302 74.909659]
2022-04-03 00:45:12 - Carbon intensities (gCO2/kWh) fetched every 900 s at detected location Paris, Île-de-France, FR: [294.2060978]
2022-04-03 00:45:12 - Average carbon intensity during training was 294.21 gCO2/kWh at detected location: Paris, Île-de-France, FR.
2022-04-03 00:45:12 - Live carbon intensity could not be fetched at detected location: Paris, Île-de-France, FR. Defaulted to average carbon intensity for EU-28 in 2017 of 294.21 gCO2/kWh.
2022-04-03 00:45:12 - Monitoring thread ended.
2022-04-03 00:45:42 - carbontracker version 1.1.6
2022-04-03 00:45:42 - Only predicted and actual consumptions are multiplied by a PUE coefficient of 1.59 (Rhonda Ascierto, 2019, Uptime Institute Global Data Center Survey).
2022-04-03 00:45:54 - The following components were found: GPU with device(s) Tesla V100-SXM2-32GB, Tesla V100-SXM2-32GB, Tesla V100-SXM2-32GB, Tesla V100-SXM2-32GB, Tesla V100-SXM2-32GB, Tesla V100-SXM2-32GB, Tesla V100-SXM2-32GB, Tesla V100-SXM2-32GB. CPU with device(s) cpu:1, cpu:0.
2022-04-03 00:45:54 - Monitoring thread started.
2022-04-03 00:46:26 - Epoch 1:
2022-04-03 00:46:26 - Duration: 0:00:06.74
2022-04-03 00:46:26 - Average power usage (W) for gpu: [44.487 45.933 44.487 44.969 44.999 45.451 46.446 44.999]
2022-04-03 00:46:26 - Average power usage (W) for cpu: [71.26764  74.692192]
2022-04-03 00:46:26 - Carbon intensities (gCO2/kWh) fetched every 900 s at detected location Paris, Île-de-France, FR: [294.2060978]
2022-04-03 00:46:26 - Average carbon intensity during training was 294.21 gCO2/kWh at detected location: Paris, Île-de-France, FR.
2022-04-03 00:46:27 - Live carbon intensity could not be fetched at detected location: Paris, Île-de-France, FR. Defaulted to average carbon intensity for EU-28 in 2017 of 294.21 gCO2/kWh.
2022-04-03 00:46:27 - Monitoring thread ended.
2022-04-03 00:46:57 - carbontracker version 1.1.6
2022-04-03 00:46:57 - Only predicted and actual consumptions are multiplied by a PUE coefficient of 1.59 (Rhonda Ascierto, 2019, Uptime Institute Global Data Center Survey).
2022-04-03 00:47:09 - The following components were found: GPU with device(s) Tesla V100-SXM2-32GB, Tesla V100-SXM2-32GB, Tesla V100-SXM2-32GB, Tesla V100-SXM2-32GB, Tesla V100-SXM2-32GB, Tesla V100-SXM2-32GB, Tesla V100-SXM2-32GB, Tesla V100-SXM2-32GB. CPU with device(s) cpu:1, cpu:0.
2022-04-03 00:47:09 - Monitoring thread started.
2022-04-03 00:47:41 - Epoch 1:
2022-04-03 00:47:41 - Duration: 0:00:06.74
2022-04-03 00:47:41 - Average power usage (W) for gpu: [44.487 45.933 44.487 44.969 44.999 45.451 46.446 44.516]
2022-04-03 00:47:41 - Average power usage (W) for cpu: [71.214356 74.737663]
2022-04-03 00:47:41 - Carbon intensities (gCO2/kWh) fetched every 900 s at detected location Paris, Île-de-France, FR: [294.2060978]
2022-04-03 00:47:41 - Average carbon intensity during training was 294.21 gCO2/kWh at detected location: Paris, Île-de-France, FR.
2022-04-03 00:47:42 - Live carbon intensity could not be fetched at detected location: Paris, Île-de-France, FR. Defaulted to average carbon intensity for EU-28 in 2017 of 294.21 gCO2/kWh.
2022-04-03 00:47:42 - Monitoring thread ended.
2022-04-03 00:48:12 - carbontracker version 1.1.6
2022-04-03 00:48:12 - Only predicted and actual consumptions are multiplied by a PUE coefficient of 1.59 (Rhonda Ascierto, 2019, Uptime Institute Global Data Center Survey).
2022-04-03 00:48:24 - The following components were found: GPU with device(s) Tesla V100-SXM2-32GB, Tesla V100-SXM2-32GB, Tesla V100-SXM2-32GB, Tesla V100-SXM2-32GB, Tesla V100-SXM2-32GB, Tesla V100-SXM2-32GB, Tesla V100-SXM2-32GB, Tesla V100-SXM2-32GB. CPU with device(s) cpu:1, cpu:0.
2022-04-03 00:48:24 - Monitoring thread started.
2022-04-03 00:48:55 - Epoch 1:
2022-04-03 00:48:55 - Duration: 0:00:06.64
2022-04-03 00:48:55 - Average power usage (W) for gpu: [44.487 45.933 44.487 44.969 44.999 45.421 46.446 44.999]
2022-04-03 00:48:55 - Average power usage (W) for cpu: [71.249451 74.631095]
2022-04-03 00:48:56 - Carbon intensities (gCO2/kWh) fetched every 900 s at detected location Paris, Île-de-France, FR: [294.2060978]
2022-04-03 00:48:56 - Average carbon intensity during training was 294.21 gCO2/kWh at detected location: Paris, Île-de-France, FR.
2022-04-03 00:48:56 - Live carbon intensity could not be fetched at detected location: Paris, Île-de-France, FR. Defaulted to average carbon intensity for EU-28 in 2017 of 294.21 gCO2/kWh.
2022-04-03 00:48:56 - Monitoring thread ended.
2022-04-03 00:49:26 - carbontracker version 1.1.6
2022-04-03 00:49:26 - Only predicted and actual consumptions are multiplied by a PUE coefficient of 1.59 (Rhonda Ascierto, 2019, Uptime Institute Global Data Center Survey).
2022-04-03 00:49:38 - The following components were found: GPU with device(s) Tesla V100-SXM2-32GB, Tesla V100-SXM2-32GB, Tesla V100-SXM2-32GB, Tesla V100-SXM2-32GB, Tesla V100-SXM2-32GB, Tesla V100-SXM2-32GB, Tesla V100-SXM2-32GB, Tesla V100-SXM2-32GB. CPU with device(s) cpu:1, cpu:0.
2022-04-03 00:49:38 - Monitoring thread started.
2022-04-03 00:50:10 - Epoch 1:
2022-04-03 00:50:10 - Duration: 0:00:06.74
2022-04-03 00:50:10 - Average power usage (W) for gpu: [44.487 45.933 44.487 44.969 44.999 45.451 46.446 44.516]
2022-04-03 00:50:10 - Average power usage (W) for cpu: [71.274536 74.665946]
2022-04-03 00:50:11 - Carbon intensities (gCO2/kWh) fetched every 900 s at detected location Paris, Île-de-France, FR: [294.2060978]
2022-04-03 00:50:11 - Average carbon intensity during training was 294.21 gCO2/kWh at detected location: Paris, Île-de-France, FR.
2022-04-03 00:50:11 - Live carbon intensity could not be fetched at detected location: Paris, Île-de-France, FR. Defaulted to average carbon intensity for EU-28 in 2017 of 294.21 gCO2/kWh.
2022-04-03 00:50:11 - Monitoring thread ended.
2022-04-03 00:50:41 - carbontracker version 1.1.6
2022-04-03 00:50:41 - Only predicted and actual consumptions are multiplied by a PUE coefficient of 1.59 (Rhonda Ascierto, 2019, Uptime Institute Global Data Center Survey).
2022-04-03 00:50:53 - The following components were found: GPU with device(s) Tesla V100-SXM2-32GB, Tesla V100-SXM2-32GB, Tesla V100-SXM2-32GB, Tesla V100-SXM2-32GB, Tesla V100-SXM2-32GB, Tesla V100-SXM2-32GB, Tesla V100-SXM2-32GB, Tesla V100-SXM2-32GB. CPU with device(s) cpu:1, cpu:0.
2022-04-03 00:50:53 - Monitoring thread started.
2022-04-03 00:51:25 - Epoch 1:
2022-04-03 00:51:25 - Duration: 0:00:06.74
2022-04-03 00:51:25 - Average power usage (W) for gpu: [44.487 45.933 44.487 44.969 44.999 45.451 46.446 44.516]
2022-04-03 00:51:25 - Average power usage (W) for cpu: [71.302185 74.772941]
2022-04-03 00:51:25 - Carbon intensities (gCO2/kWh) fetched every 900 s at detected location Paris, Île-de-France, FR: [294.2060978]
2022-04-03 00:51:25 - Average carbon intensity during training was 294.21 gCO2/kWh at detected location: Paris, Île-de-France, FR.
2022-04-03 00:51:25 - Live carbon intensity could not be fetched at detected location: Paris, Île-de-France, FR. Defaulted to average carbon intensity for EU-28 in 2017 of 294.21 gCO2/kWh.
2022-04-03 00:51:25 - Monitoring thread ended.
2022-04-03 00:51:55 - carbontracker version 1.1.6
2022-04-03 00:51:55 - Only predicted and actual consumptions are multiplied by a PUE coefficient of 1.59 (Rhonda Ascierto, 2019, Uptime Institute Global Data Center Survey).
2022-04-03 00:52:07 - The following components were found: GPU with device(s) Tesla V100-SXM2-32GB, Tesla V100-SXM2-32GB, Tesla V100-SXM2-32GB, Tesla V100-SXM2-32GB, Tesla V100-SXM2-32GB, Tesla V100-SXM2-32GB, Tesla V100-SXM2-32GB, Tesla V100-SXM2-32GB. CPU with device(s) cpu:1, cpu:0.
2022-04-03 00:52:07 - Monitoring thread started.
2022-04-03 00:52:39 - Epoch 1:
2022-04-03 00:52:39 - Duration: 0:00:06.74
2022-04-03 00:52:39 - Average power usage (W) for gpu: [44.487 45.933 44.487 44.969 44.999 45.451 46.446 44.516]
2022-04-03 00:52:39 - Average power usage (W) for cpu: [71.423279 74.811759]
2022-04-03 00:52:40 - Carbon intensities (gCO2/kWh) fetched every 900 s at detected location Paris, Île-de-France, FR: [294.2060978]
2022-04-03 00:52:40 - Average carbon intensity during training was 294.21 gCO2/kWh at detected location: Paris, Île-de-France, FR.
2022-04-03 00:52:40 - Live carbon intensity could not be fetched at detected location: Paris, Île-de-France, FR. Defaulted to average carbon intensity for EU-28 in 2017 of 294.21 gCO2/kWh.
2022-04-03 00:52:40 - Monitoring thread ended.
2022-04-03 00:53:10 - carbontracker version 1.1.6
2022-04-03 00:53:10 - Only predicted and actual consumptions are multiplied by a PUE coefficient of 1.59 (Rhonda Ascierto, 2019, Uptime Institute Global Data Center Survey).
2022-04-03 00:53:22 - The following components were found: GPU with device(s) Tesla V100-SXM2-32GB, Tesla V100-SXM2-32GB, Tesla V100-SXM2-32GB, Tesla V100-SXM2-32GB, Tesla V100-SXM2-32GB, Tesla V100-SXM2-32GB, Tesla V100-SXM2-32GB, Tesla V100-SXM2-32GB. CPU with device(s) cpu:1, cpu:0.
2022-04-03 00:53:22 - Monitoring thread started.
2022-04-03 00:53:54 - Epoch 1:
2022-04-03 00:53:54 - Duration: 0:00:06.74
2022-04-03 00:53:54 - Average power usage (W) for gpu: [44.487 45.933 44.487 44.969 44.999 45.451 46.446 44.516]
2022-04-03 00:53:54 - Average power usage (W) for cpu: [71.365662 74.521904]
2022-04-03 00:53:54 - Carbon intensities (gCO2/kWh) fetched every 900 s at detected location Paris, Île-de-France, FR: [294.2060978]
2022-04-03 00:53:54 - Average carbon intensity during training was 294.21 gCO2/kWh at detected location: Paris, Île-de-France, FR.
2022-04-03 00:53:54 - Live carbon intensity could not be fetched at detected location: Paris, Île-de-France, FR. Defaulted to average carbon intensity for EU-28 in 2017 of 294.21 gCO2/kWh.
2022-04-03 00:53:54 - Monitoring thread ended.
2022-04-03 00:54:24 - carbontracker version 1.1.6
2022-04-03 00:54:24 - Only predicted and actual consumptions are multiplied by a PUE coefficient of 1.59 (Rhonda Ascierto, 2019, Uptime Institute Global Data Center Survey).
2022-04-03 00:54:36 - The following components were found: GPU with device(s) Tesla V100-SXM2-32GB, Tesla V100-SXM2-32GB, Tesla V100-SXM2-32GB, Tesla V100-SXM2-32GB, Tesla V100-SXM2-32GB, Tesla V100-SXM2-32GB, Tesla V100-SXM2-32GB, Tesla V100-SXM2-32GB. CPU with device(s) cpu:1, cpu:0.
2022-04-03 00:54:36 - Monitoring thread started.
2022-04-03 00:55:04 - Epoch 1:
2022-04-03 00:55:04 - Duration: 0:00:02.64
2022-04-03 00:55:04 - Average power usage (W) for gpu: [44.487 45.933 44.487 44.969 44.999 45.451 46.416 44.516]
2022-04-03 00:55:04 - Average power usage (W) for cpu: [71.401063 74.922721]
2022-04-03 00:55:05 - Carbon intensities (gCO2/kWh) fetched every 900 s at detected location Paris, Île-de-France, FR: [294.2060978]
2022-04-03 00:55:05 - Average carbon intensity during training was 294.21 gCO2/kWh at detected location: Paris, Île-de-France, FR.
2022-04-03 00:55:05 - Live carbon intensity could not be fetched at detected location: Paris, Île-de-France, FR. Defaulted to average carbon intensity for EU-28 in 2017 of 294.21 gCO2/kWh.
2022-04-03 00:55:05 - Monitoring thread ended.
2022-04-03 00:55:35 - carbontracker version 1.1.6
2022-04-03 00:55:35 - Only predicted and actual consumptions are multiplied by a PUE coefficient of 1.59 (Rhonda Ascierto, 2019, Uptime Institute Global Data Center Survey).
2022-04-03 00:55:47 - The following components were found: GPU with device(s) Tesla V100-SXM2-32GB, Tesla V100-SXM2-32GB, Tesla V100-SXM2-32GB, Tesla V100-SXM2-32GB, Tesla V100-SXM2-32GB, Tesla V100-SXM2-32GB, Tesla V100-SXM2-32GB, Tesla V100-SXM2-32GB. CPU with device(s) cpu:1, cpu:0.
2022-04-03 00:55:47 - Monitoring thread started.
2022-04-03 00:56:19 - Epoch 1:
2022-04-03 00:56:19 - Duration: 0:00:06.74
2022-04-03 00:56:19 - Average power usage (W) for gpu: [44.487 45.451 44.487 44.969 44.999 45.451 46.446 44.999]
2022-04-03 00:56:19 - Average power usage (W) for cpu: [71.357361 74.710929]
2022-04-03 00:56:19 - Carbon intensities (gCO2/kWh) fetched every 900 s at detected location Paris, Île-de-France, FR: [294.2060978]
2022-04-03 00:56:19 - Average carbon intensity during training was 294.21 gCO2/kWh at detected location: Paris, Île-de-France, FR.
2022-04-03 00:56:19 - Live carbon intensity could not be fetched at detected location: Paris, Île-de-France, FR. Defaulted to average carbon intensity for EU-28 in 2017 of 294.21 gCO2/kWh.
2022-04-03 00:56:19 - Monitoring thread ended.
2022-04-03 00:56:49 - carbontracker version 1.1.6
2022-04-03 00:56:49 - Only predicted and actual consumptions are multiplied by a PUE coefficient of 1.59 (Rhonda Ascierto, 2019, Uptime Institute Global Data Center Survey).
2022-04-03 00:57:01 - The following components were found: GPU with device(s) Tesla V100-SXM2-32GB, Tesla V100-SXM2-32GB, Tesla V100-SXM2-32GB, Tesla V100-SXM2-32GB, Tesla V100-SXM2-32GB, Tesla V100-SXM2-32GB, Tesla V100-SXM2-32GB, Tesla V100-SXM2-32GB. CPU with device(s) cpu:1, cpu:0.
2022-04-03 00:57:01 - Monitoring thread started.
2022-04-03 00:57:33 - Epoch 1:
2022-04-03 00:57:33 - Duration: 0:00:06.74
2022-04-03 00:57:33 - Average power usage (W) for gpu: [44.487 45.933 44.487 44.969 44.999 45.451 46.446 44.516]
2022-04-03 00:57:33 - Average power usage (W) for cpu: [71.172486 74.87847 ]
2022-04-03 00:57:34 - Carbon intensities (gCO2/kWh) fetched every 900 s at detected location Paris, Île-de-France, FR: [294.2060978]
2022-04-03 00:57:34 - Average carbon intensity during training was 294.21 gCO2/kWh at detected location: Paris, Île-de-France, FR.
2022-04-03 00:57:34 - Live carbon intensity could not be fetched at detected location: Paris, Île-de-France, FR. Defaulted to average carbon intensity for EU-28 in 2017 of 294.21 gCO2/kWh.
2022-04-03 00:57:34 - Monitoring thread ended.
2022-04-03 00:58:04 - carbontracker version 1.1.6
2022-04-03 00:58:04 - Only predicted and actual consumptions are multiplied by a PUE coefficient of 1.59 (Rhonda Ascierto, 2019, Uptime Institute Global Data Center Survey).
2022-04-03 00:58:16 - The following components were found: GPU with device(s) Tesla V100-SXM2-32GB, Tesla V100-SXM2-32GB, Tesla V100-SXM2-32GB, Tesla V100-SXM2-32GB, Tesla V100-SXM2-32GB, Tesla V100-SXM2-32GB, Tesla V100-SXM2-32GB, Tesla V100-SXM2-32GB. CPU with device(s) cpu:1, cpu:0.
2022-04-03 00:58:16 - Monitoring thread started.
2022-04-03 00:58:48 - Epoch 1:
2022-04-03 00:58:48 - Duration: 0:00:06.74
2022-04-03 00:58:48 - Average power usage (W) for gpu: [44.487 45.933 44.487 44.969 44.999 45.933 46.446 44.999]
2022-04-03 00:58:48 - Average power usage (W) for cpu: [71.264649 74.650138]
2022-04-03 00:58:48 - Carbon intensities (gCO2/kWh) fetched every 900 s at detected location Paris, Île-de-France, FR: [294.2060978]
2022-04-03 00:58:48 - Average carbon intensity during training was 294.21 gCO2/kWh at detected location: Paris, Île-de-France, FR.
2022-04-03 00:58:48 - Live carbon intensity could not be fetched at detected location: Paris, Île-de-France, FR. Defaulted to average carbon intensity for EU-28 in 2017 of 294.21 gCO2/kWh.
2022-04-03 00:58:48 - Monitoring thread ended.
