2022-04-03 00:50:53 - CarbonTracker: The following components were found: GPU with device(s) Tesla V100-SXM2-32GB, Tesla V100-SXM2-32GB, Tesla V100-SXM2-32GB, Tesla V100-SXM2-32GB, Tesla V100-SXM2-32GB, Tesla V100-SXM2-32GB, Tesla V100-SXM2-32GB, Tesla V100-SXM2-32GB. CPU with device(s) cpu:1, cpu:0.
2022-04-03 00:51:25 - CarbonTracker: Average carbon intensity during training was 294.21 gCO2/kWh at detected location: Paris, Île-de-France, FR.
2022-04-03 00:51:25 - CarbonTracker: 
Actual consumption for 1 epoch(s):
	Time:	0:00:07
	Energy:	0.001511 kWh
	CO2eq:	0.444439 g
	This is equivalent to:
	0.003691 km travelled by car
2022-04-03 00:51:25 - CarbonTracker: Live carbon intensity could not be fetched at detected location: Paris, Île-de-France, FR. Defaulted to average carbon intensity for EU-28 in 2017 of 294.21 gCO2/kWh.
2022-04-03 00:51:25 - CarbonTracker: 
Predicted consumption for 1 epoch(s):
	Time:	0:00:07
	Energy:	0.001511 kWh
	CO2eq:	0.444439 g
	This is equivalent to:
	0.003691 km travelled by car
2022-04-03 00:51:25 - CarbonTracker: Finished monitoring.
2022-04-03 00:52:07 - CarbonTracker: The following components were found: GPU with device(s) Tesla V100-SXM2-32GB, Tesla V100-SXM2-32GB, Tesla V100-SXM2-32GB, Tesla V100-SXM2-32GB, Tesla V100-SXM2-32GB, Tesla V100-SXM2-32GB, Tesla V100-SXM2-32GB, Tesla V100-SXM2-32GB. CPU with device(s) cpu:1, cpu:0.
2022-04-03 00:52:40 - CarbonTracker: Average carbon intensity during training was 294.21 gCO2/kWh at detected location: Paris, Île-de-France, FR.
2022-04-03 00:52:40 - CarbonTracker: 
Actual consumption for 1 epoch(s):
	Time:	0:00:07
	Energy:	0.001511 kWh
	CO2eq:	0.444532 g
	This is equivalent to:
	0.003692 km travelled by car
2022-04-03 00:52:40 - CarbonTracker: Live carbon intensity could not be fetched at detected location: Paris, Île-de-France, FR. Defaulted to average carbon intensity for EU-28 in 2017 of 294.21 gCO2/kWh.
2022-04-03 00:52:40 - CarbonTracker: 
Predicted consumption for 1 epoch(s):
	Time:	0:00:07
	Energy:	0.001511 kWh
	CO2eq:	0.444532 g
	This is equivalent to:
	0.003692 km travelled by car
2022-04-03 00:52:40 - CarbonTracker: Finished monitoring.
2022-04-03 00:53:22 - CarbonTracker: The following components were found: GPU with device(s) Tesla V100-SXM2-32GB, Tesla V100-SXM2-32GB, Tesla V100-SXM2-32GB, Tesla V100-SXM2-32GB, Tesla V100-SXM2-32GB, Tesla V100-SXM2-32GB, Tesla V100-SXM2-32GB, Tesla V100-SXM2-32GB. CPU with device(s) cpu:1, cpu:0.
2022-04-03 00:53:54 - CarbonTracker: Average carbon intensity during training was 294.21 gCO2/kWh at detected location: Paris, Île-de-France, FR.
2022-04-03 00:53:54 - CarbonTracker: 
Actual consumption for 1 epoch(s):
	Time:	0:00:07
	Energy:	0.001510 kWh
	CO2eq:	0.444232 g
	This is equivalent to:
	0.003690 km travelled by car
2022-04-03 00:53:54 - CarbonTracker: Live carbon intensity could not be fetched at detected location: Paris, Île-de-France, FR. Defaulted to average carbon intensity for EU-28 in 2017 of 294.21 gCO2/kWh.
2022-04-03 00:53:54 - CarbonTracker: 
Predicted consumption for 1 epoch(s):
	Time:	0:00:07
	Energy:	0.001510 kWh
	CO2eq:	0.444232 g
	This is equivalent to:
	0.003690 km travelled by car
2022-04-03 00:53:54 - CarbonTracker: Finished monitoring.
2022-04-03 00:54:36 - CarbonTracker: The following components were found: GPU with device(s) Tesla V100-SXM2-32GB, Tesla V100-SXM2-32GB, Tesla V100-SXM2-32GB, Tesla V100-SXM2-32GB, Tesla V100-SXM2-32GB, Tesla V100-SXM2-32GB, Tesla V100-SXM2-32GB, Tesla V100-SXM2-32GB. CPU with device(s) cpu:1, cpu:0.
2022-04-03 00:55:05 - CarbonTracker: Average carbon intensity during training was 294.21 gCO2/kWh at detected location: Paris, Île-de-France, FR.
2022-04-03 00:55:05 - CarbonTracker: 
Actual consumption for 1 epoch(s):
	Time:	0:00:03
	Energy:	0.000591 kWh
	CO2eq:	0.173814 g
	This is equivalent to:
	0.001444 km travelled by car
2022-04-03 00:55:05 - CarbonTracker: Live carbon intensity could not be fetched at detected location: Paris, Île-de-France, FR. Defaulted to average carbon intensity for EU-28 in 2017 of 294.21 gCO2/kWh.
2022-04-03 00:55:05 - CarbonTracker: 
Predicted consumption for 1 epoch(s):
	Time:	0:00:03
	Energy:	0.000591 kWh
	CO2eq:	0.173814 g
	This is equivalent to:
	0.001444 km travelled by car
2022-04-03 00:55:05 - CarbonTracker: Finished monitoring.
2022-04-03 00:55:47 - CarbonTracker: The following components were found: GPU with device(s) Tesla V100-SXM2-32GB, Tesla V100-SXM2-32GB, Tesla V100-SXM2-32GB, Tesla V100-SXM2-32GB, Tesla V100-SXM2-32GB, Tesla V100-SXM2-32GB, Tesla V100-SXM2-32GB, Tesla V100-SXM2-32GB. CPU with device(s) cpu:1, cpu:0.
2022-04-03 00:56:19 - CarbonTracker: Average carbon intensity during training was 294.21 gCO2/kWh at detected location: Paris, Île-de-France, FR.
2022-04-03 00:56:19 - CarbonTracker: 
Actual consumption for 1 epoch(s):
	Time:	0:00:07
	Energy:	0.001510 kWh
	CO2eq:	0.444365 g
	This is equivalent to:
	0.003691 km travelled by car
2022-04-03 00:56:19 - CarbonTracker: Live carbon intensity could not be fetched at detected location: Paris, Île-de-France, FR. Defaulted to average carbon intensity for EU-28 in 2017 of 294.21 gCO2/kWh.
2022-04-03 00:56:19 - CarbonTracker: 
Predicted consumption for 1 epoch(s):
	Time:	0:00:07
	Energy:	0.001510 kWh
	CO2eq:	0.444365 g
	This is equivalent to:
	0.003691 km travelled by car
2022-04-03 00:56:19 - CarbonTracker: Finished monitoring.
2022-04-03 00:57:01 - CarbonTracker: The following components were found: GPU with device(s) Tesla V100-SXM2-32GB, Tesla V100-SXM2-32GB, Tesla V100-SXM2-32GB, Tesla V100-SXM2-32GB, Tesla V100-SXM2-32GB, Tesla V100-SXM2-32GB, Tesla V100-SXM2-32GB, Tesla V100-SXM2-32GB. CPU with device(s) cpu:1, cpu:0.
2022-04-03 00:57:34 - CarbonTracker: Average carbon intensity during training was 294.21 gCO2/kWh at detected location: Paris, Île-de-France, FR.
2022-04-03 00:57:34 - CarbonTracker: 
Actual consumption for 1 epoch(s):
	Time:	0:00:07
	Energy:	0.001510 kWh
	CO2eq:	0.444362 g
	This is equivalent to:
	0.003691 km travelled by car
2022-04-03 00:57:34 - CarbonTracker: Live carbon intensity could not be fetched at detected location: Paris, Île-de-France, FR. Defaulted to average carbon intensity for EU-28 in 2017 of 294.21 gCO2/kWh.
2022-04-03 00:57:34 - CarbonTracker: 
Predicted consumption for 1 epoch(s):
	Time:	0:00:07
	Energy:	0.001510 kWh
	CO2eq:	0.444362 g
	This is equivalent to:
	0.003691 km travelled by car
2022-04-03 00:57:34 - CarbonTracker: Finished monitoring.
2022-04-03 00:58:16 - CarbonTracker: The following components were found: GPU with device(s) Tesla V100-SXM2-32GB, Tesla V100-SXM2-32GB, Tesla V100-SXM2-32GB, Tesla V100-SXM2-32GB, Tesla V100-SXM2-32GB, Tesla V100-SXM2-32GB, Tesla V100-SXM2-32GB, Tesla V100-SXM2-32GB. CPU with device(s) cpu:1, cpu:0.
2022-04-03 00:58:48 - CarbonTracker: Average carbon intensity during training was 294.21 gCO2/kWh at detected location: Paris, Île-de-France, FR.
2022-04-03 00:58:48 - CarbonTracker: 
Actual consumption for 1 epoch(s):
	Time:	0:00:07
	Energy:	0.001513 kWh
	CO2eq:	0.445061 g
	This is equivalent to:
	0.003697 km travelled by car
2022-04-03 00:58:48 - CarbonTracker: Live carbon intensity could not be fetched at detected location: Paris, Île-de-France, FR. Defaulted to average carbon intensity for EU-28 in 2017 of 294.21 gCO2/kWh.
2022-04-03 00:58:48 - CarbonTracker: 
Predicted consumption for 1 epoch(s):
	Time:	0:00:07
	Energy:	0.001513 kWh
	CO2eq:	0.445061 g
	This is equivalent to:
	0.003697 km travelled by car
2022-04-03 00:58:48 - CarbonTracker: Finished monitoring.
