2022-04-03 00:17:36 - CarbonTracker: The following components were found: GPU with device(s) Tesla V100-SXM2-32GB, Tesla V100-SXM2-32GB, Tesla V100-SXM2-32GB, Tesla V100-SXM2-32GB, Tesla V100-SXM2-32GB, Tesla V100-SXM2-32GB, Tesla V100-SXM2-32GB, Tesla V100-SXM2-32GB. CPU with device(s) cpu:1, cpu:0.
2022-04-03 00:18:08 - CarbonTracker: Average carbon intensity during training was 294.21 gCO2/kWh at detected location: Paris, Île-de-France, FR.
2022-04-03 00:18:08 - CarbonTracker: 
Actual consumption for 1 epoch(s):
	Time:	0:00:07
	Energy:	0.001510 kWh
	CO2eq:	0.444357 g
	This is equivalent to:
	0.003691 km travelled by car
2022-04-03 00:18:08 - CarbonTracker: Live carbon intensity could not be fetched at detected location: Paris, Île-de-France, FR. Defaulted to average carbon intensity for EU-28 in 2017 of 294.21 gCO2/kWh.
2022-04-03 00:18:08 - CarbonTracker: 
Predicted consumption for 1 epoch(s):
	Time:	0:00:07
	Energy:	0.001510 kWh
	CO2eq:	0.444357 g
	This is equivalent to:
	0.003691 km travelled by car
2022-04-03 00:18:08 - CarbonTracker: Finished monitoring.
2022-04-03 00:18:50 - CarbonTracker: The following components were found: GPU with device(s) Tesla V100-SXM2-32GB, Tesla V100-SXM2-32GB, Tesla V100-SXM2-32GB, Tesla V100-SXM2-32GB, Tesla V100-SXM2-32GB, Tesla V100-SXM2-32GB, Tesla V100-SXM2-32GB, Tesla V100-SXM2-32GB. CPU with device(s) cpu:1, cpu:0.
2022-04-03 00:19:22 - CarbonTracker: Average carbon intensity during training was 294.21 gCO2/kWh at detected location: Paris, Île-de-France, FR.
2022-04-03 00:19:22 - CarbonTracker: 
Actual consumption for 1 epoch(s):
	Time:	0:00:07
	Energy:	0.001508 kWh
	CO2eq:	0.443784 g
	This is equivalent to:
	0.003686 km travelled by car
2022-04-03 00:19:23 - CarbonTracker: Live carbon intensity could not be fetched at detected location: Paris, Île-de-France, FR. Defaulted to average carbon intensity for EU-28 in 2017 of 294.21 gCO2/kWh.
2022-04-03 00:19:23 - CarbonTracker: 
Predicted consumption for 1 epoch(s):
	Time:	0:00:07
	Energy:	0.001508 kWh
	CO2eq:	0.443784 g
	This is equivalent to:
	0.003686 km travelled by car
2022-04-03 00:19:23 - CarbonTracker: Finished monitoring.
2022-04-03 00:20:05 - CarbonTracker: The following components were found: GPU with device(s) Tesla V100-SXM2-32GB, Tesla V100-SXM2-32GB, Tesla V100-SXM2-32GB, Tesla V100-SXM2-32GB, Tesla V100-SXM2-32GB, Tesla V100-SXM2-32GB, Tesla V100-SXM2-32GB, Tesla V100-SXM2-32GB. CPU with device(s) cpu:1, cpu:0.
2022-04-03 00:20:37 - CarbonTracker: Average carbon intensity during training was 294.21 gCO2/kWh at detected location: Paris, Île-de-France, FR.
2022-04-03 00:20:37 - CarbonTracker: 
Actual consumption for 1 epoch(s):
	Time:	0:00:07
	Energy:	0.001511 kWh
	CO2eq:	0.444439 g
	This is equivalent to:
	0.003691 km travelled by car
2022-04-03 00:20:37 - CarbonTracker: Live carbon intensity could not be fetched at detected location: Paris, Île-de-France, FR. Defaulted to average carbon intensity for EU-28 in 2017 of 294.21 gCO2/kWh.
2022-04-03 00:20:37 - CarbonTracker: 
Predicted consumption for 1 epoch(s):
	Time:	0:00:07
	Energy:	0.001511 kWh
	CO2eq:	0.444439 g
	This is equivalent to:
	0.003691 km travelled by car
2022-04-03 00:20:37 - CarbonTracker: Finished monitoring.
2022-04-03 00:21:19 - CarbonTracker: The following components were found: GPU with device(s) Tesla V100-SXM2-32GB, Tesla V100-SXM2-32GB, Tesla V100-SXM2-32GB, Tesla V100-SXM2-32GB, Tesla V100-SXM2-32GB, Tesla V100-SXM2-32GB, Tesla V100-SXM2-32GB, Tesla V100-SXM2-32GB. CPU with device(s) cpu:1, cpu:0.
2022-04-03 00:21:51 - CarbonTracker: Average carbon intensity during training was 294.21 gCO2/kWh at detected location: Paris, Île-de-France, FR.
2022-04-03 00:21:51 - CarbonTracker: 
Actual consumption for 1 epoch(s):
	Time:	0:00:07
	Energy:	0.001510 kWh
	CO2eq:	0.444254 g
	This is equivalent to:
	0.003690 km travelled by car
2022-04-03 00:21:51 - CarbonTracker: Live carbon intensity could not be fetched at detected location: Paris, Île-de-France, FR. Defaulted to average carbon intensity for EU-28 in 2017 of 294.21 gCO2/kWh.
2022-04-03 00:21:51 - CarbonTracker: 
Predicted consumption for 1 epoch(s):
	Time:	0:00:07
	Energy:	0.001510 kWh
	CO2eq:	0.444254 g
	This is equivalent to:
	0.003690 km travelled by car
2022-04-03 00:21:51 - CarbonTracker: Finished monitoring.
2022-04-03 00:22:33 - CarbonTracker: The following components were found: GPU with device(s) Tesla V100-SXM2-32GB, Tesla V100-SXM2-32GB, Tesla V100-SXM2-32GB, Tesla V100-SXM2-32GB, Tesla V100-SXM2-32GB, Tesla V100-SXM2-32GB, Tesla V100-SXM2-32GB, Tesla V100-SXM2-32GB. CPU with device(s) cpu:1, cpu:0.
2022-04-03 00:23:01 - CarbonTracker: Average carbon intensity during training was 294.21 gCO2/kWh at detected location: Paris, Île-de-France, FR.
2022-04-03 00:23:01 - CarbonTracker: 
Actual consumption for 1 epoch(s):
	Time:	0:00:03
	Energy:	0.000680 kWh
	CO2eq:	0.199995 g
	This is equivalent to:
	0.001661 km travelled by car
2022-04-03 00:23:02 - CarbonTracker: Live carbon intensity could not be fetched at detected location: Paris, Île-de-France, FR. Defaulted to average carbon intensity for EU-28 in 2017 of 294.21 gCO2/kWh.
2022-04-03 00:23:02 - CarbonTracker: 
Predicted consumption for 1 epoch(s):
	Time:	0:00:03
	Energy:	0.000680 kWh
	CO2eq:	0.199995 g
	This is equivalent to:
	0.001661 km travelled by car
2022-04-03 00:23:02 - CarbonTracker: Finished monitoring.
2022-04-03 00:23:44 - CarbonTracker: The following components were found: GPU with device(s) Tesla V100-SXM2-32GB, Tesla V100-SXM2-32GB, Tesla V100-SXM2-32GB, Tesla V100-SXM2-32GB, Tesla V100-SXM2-32GB, Tesla V100-SXM2-32GB, Tesla V100-SXM2-32GB, Tesla V100-SXM2-32GB. CPU with device(s) cpu:1, cpu:0.
2022-04-03 00:24:16 - CarbonTracker: Average carbon intensity during training was 294.21 gCO2/kWh at detected location: Paris, Île-de-France, FR.
2022-04-03 00:24:16 - CarbonTracker: 
Actual consumption for 1 epoch(s):
	Time:	0:00:07
	Energy:	0.001579 kWh
	CO2eq:	0.464624 g
	This is equivalent to:
	0.003859 km travelled by car
2022-04-03 00:24:16 - CarbonTracker: Live carbon intensity could not be fetched at detected location: Paris, Île-de-France, FR. Defaulted to average carbon intensity for EU-28 in 2017 of 294.21 gCO2/kWh.
2022-04-03 00:24:16 - CarbonTracker: 
Predicted consumption for 1 epoch(s):
	Time:	0:00:07
	Energy:	0.001579 kWh
	CO2eq:	0.464624 g
	This is equivalent to:
	0.003859 km travelled by car
2022-04-03 00:24:16 - CarbonTracker: Finished monitoring.
2022-04-03 00:24:58 - CarbonTracker: The following components were found: GPU with device(s) Tesla V100-SXM2-32GB, Tesla V100-SXM2-32GB, Tesla V100-SXM2-32GB, Tesla V100-SXM2-32GB, Tesla V100-SXM2-32GB, Tesla V100-SXM2-32GB, Tesla V100-SXM2-32GB, Tesla V100-SXM2-32GB. CPU with device(s) cpu:1, cpu:0.
2022-04-03 00:25:31 - CarbonTracker: Average carbon intensity during training was 294.21 gCO2/kWh at detected location: Paris, Île-de-France, FR.
2022-04-03 00:25:31 - CarbonTracker: 
Actual consumption for 1 epoch(s):
	Time:	0:00:07
	Energy:	0.001579 kWh
	CO2eq:	0.464517 g
	This is equivalent to:
	0.003858 km travelled by car
2022-04-03 00:25:31 - CarbonTracker: Live carbon intensity could not be fetched at detected location: Paris, Île-de-France, FR. Defaulted to average carbon intensity for EU-28 in 2017 of 294.21 gCO2/kWh.
2022-04-03 00:25:31 - CarbonTracker: 
Predicted consumption for 1 epoch(s):
	Time:	0:00:07
	Energy:	0.001579 kWh
	CO2eq:	0.464517 g
	This is equivalent to:
	0.003858 km travelled by car
2022-04-03 00:25:31 - CarbonTracker: Finished monitoring.
2022-04-03 00:26:13 - CarbonTracker: The following components were found: GPU with device(s) Tesla V100-SXM2-32GB, Tesla V100-SXM2-32GB, Tesla V100-SXM2-32GB, Tesla V100-SXM2-32GB, Tesla V100-SXM2-32GB, Tesla V100-SXM2-32GB, Tesla V100-SXM2-32GB, Tesla V100-SXM2-32GB. CPU with device(s) cpu:1, cpu:0.
2022-04-03 00:26:45 - CarbonTracker: Average carbon intensity during training was 294.21 gCO2/kWh at detected location: Paris, Île-de-France, FR.
2022-04-03 00:26:45 - CarbonTracker: 
Actual consumption for 1 epoch(s):
	Time:	0:00:07
	Energy:	0.001579 kWh
	CO2eq:	0.464695 g
	This is equivalent to:
	0.003860 km travelled by car
2022-04-03 00:26:45 - CarbonTracker: Live carbon intensity could not be fetched at detected location: Paris, Île-de-France, FR. Defaulted to average carbon intensity for EU-28 in 2017 of 294.21 gCO2/kWh.
2022-04-03 00:26:45 - CarbonTracker: 
Predicted consumption for 1 epoch(s):
	Time:	0:00:07
	Energy:	0.001579 kWh
	CO2eq:	0.464695 g
	This is equivalent to:
	0.003860 km travelled by car
2022-04-03 00:26:45 - CarbonTracker: Finished monitoring.
2022-04-03 00:27:27 - CarbonTracker: The following components were found: GPU with device(s) Tesla V100-SXM2-32GB, Tesla V100-SXM2-32GB, Tesla V100-SXM2-32GB, Tesla V100-SXM2-32GB, Tesla V100-SXM2-32GB, Tesla V100-SXM2-32GB, Tesla V100-SXM2-32GB, Tesla V100-SXM2-32GB. CPU with device(s) cpu:1, cpu:0.
2022-04-03 00:28:00 - CarbonTracker: Average carbon intensity during training was 294.21 gCO2/kWh at detected location: Paris, Île-de-France, FR.
2022-04-03 00:28:00 - CarbonTracker: 
Actual consumption for 1 epoch(s):
	Time:	0:00:07
	Energy:	0.001577 kWh
	CO2eq:	0.464015 g
	This is equivalent to:
	0.003854 km travelled by car
2022-04-03 00:28:01 - CarbonTracker: Live carbon intensity could not be fetched at detected location: Paris, Île-de-France, FR. Defaulted to average carbon intensity for EU-28 in 2017 of 294.21 gCO2/kWh.
2022-04-03 00:28:01 - CarbonTracker: 
Predicted consumption for 1 epoch(s):
	Time:	0:00:07
	Energy:	0.001577 kWh
	CO2eq:	0.464015 g
	This is equivalent to:
	0.003854 km travelled by car
2022-04-03 00:28:01 - CarbonTracker: Finished monitoring.
2022-04-03 00:28:43 - CarbonTracker: The following components were found: GPU with device(s) Tesla V100-SXM2-32GB, Tesla V100-SXM2-32GB, Tesla V100-SXM2-32GB, Tesla V100-SXM2-32GB, Tesla V100-SXM2-32GB, Tesla V100-SXM2-32GB, Tesla V100-SXM2-32GB, Tesla V100-SXM2-32GB. CPU with device(s) cpu:1, cpu:0.
2022-04-03 00:29:15 - CarbonTracker: Average carbon intensity during training was 294.21 gCO2/kWh at detected location: Paris, Île-de-France, FR.
2022-04-03 00:29:15 - CarbonTracker: 
Actual consumption for 1 epoch(s):
	Time:	0:00:07
	Energy:	0.001581 kWh
	CO2eq:	0.465132 g
	This is equivalent to:
	0.003863 km travelled by car
2022-04-03 00:29:15 - CarbonTracker: Live carbon intensity could not be fetched at detected location: Paris, Île-de-France, FR. Defaulted to average carbon intensity for EU-28 in 2017 of 294.21 gCO2/kWh.
2022-04-03 00:29:15 - CarbonTracker: 
Predicted consumption for 1 epoch(s):
	Time:	0:00:07
	Energy:	0.001581 kWh
	CO2eq:	0.465132 g
	This is equivalent to:
	0.003863 km travelled by car
2022-04-03 00:29:15 - CarbonTracker: Finished monitoring.
2022-04-03 00:29:57 - CarbonTracker: The following components were found: GPU with device(s) Tesla V100-SXM2-32GB, Tesla V100-SXM2-32GB, Tesla V100-SXM2-32GB, Tesla V100-SXM2-32GB, Tesla V100-SXM2-32GB, Tesla V100-SXM2-32GB, Tesla V100-SXM2-32GB, Tesla V100-SXM2-32GB. CPU with device(s) cpu:1, cpu:0.
2022-04-03 00:30:30 - CarbonTracker: Average carbon intensity during training was 294.21 gCO2/kWh at detected location: Paris, Île-de-France, FR.
2022-04-03 00:30:30 - CarbonTracker: 
Actual consumption for 1 epoch(s):
	Time:	0:00:07
	Energy:	0.001578 kWh
	CO2eq:	0.464309 g
	This is equivalent to:
	0.003856 km travelled by car
2022-04-03 00:30:30 - CarbonTracker: Live carbon intensity could not be fetched at detected location: Paris, Île-de-France, FR. Defaulted to average carbon intensity for EU-28 in 2017 of 294.21 gCO2/kWh.
2022-04-03 00:30:30 - CarbonTracker: 
Predicted consumption for 1 epoch(s):
	Time:	0:00:07
	Energy:	0.001578 kWh
	CO2eq:	0.464309 g
	This is equivalent to:
	0.003856 km travelled by car
2022-04-03 00:30:30 - CarbonTracker: Finished monitoring.
2022-04-03 00:31:13 - CarbonTracker: The following components were found: GPU with device(s) Tesla V100-SXM2-32GB, Tesla V100-SXM2-32GB, Tesla V100-SXM2-32GB, Tesla V100-SXM2-32GB, Tesla V100-SXM2-32GB, Tesla V100-SXM2-32GB, Tesla V100-SXM2-32GB, Tesla V100-SXM2-32GB. CPU with device(s) cpu:1, cpu:0.
2022-04-03 00:31:45 - CarbonTracker: Average carbon intensity during training was 294.21 gCO2/kWh at detected location: Paris, Île-de-France, FR.
2022-04-03 00:31:45 - CarbonTracker: 
Actual consumption for 1 epoch(s):
	Time:	0:00:07
	Energy:	0.001579 kWh
	CO2eq:	0.464549 g
	This is equivalent to:
	0.003858 km travelled by car
2022-04-03 00:31:45 - CarbonTracker: Live carbon intensity could not be fetched at detected location: Paris, Île-de-France, FR. Defaulted to average carbon intensity for EU-28 in 2017 of 294.21 gCO2/kWh.
2022-04-03 00:31:45 - CarbonTracker: 
Predicted consumption for 1 epoch(s):
	Time:	0:00:07
	Energy:	0.001579 kWh
	CO2eq:	0.464549 g
	This is equivalent to:
	0.003858 km travelled by car
2022-04-03 00:31:45 - CarbonTracker: Finished monitoring.
2022-04-03 00:32:27 - CarbonTracker: The following components were found: GPU with device(s) Tesla V100-SXM2-32GB, Tesla V100-SXM2-32GB, Tesla V100-SXM2-32GB, Tesla V100-SXM2-32GB, Tesla V100-SXM2-32GB, Tesla V100-SXM2-32GB, Tesla V100-SXM2-32GB, Tesla V100-SXM2-32GB. CPU with device(s) cpu:1, cpu:0.
2022-04-03 00:32:56 - CarbonTracker: Average carbon intensity during training was 294.21 gCO2/kWh at detected location: Paris, Île-de-France, FR.
2022-04-03 00:32:56 - CarbonTracker: 
Actual consumption for 1 epoch(s):
	Time:	0:00:03
	Energy:	0.000680 kWh
	CO2eq:	0.200006 g
	This is equivalent to:
	0.001661 km travelled by car
2022-04-03 00:32:56 - CarbonTracker: Live carbon intensity could not be fetched at detected location: Paris, Île-de-France, FR. Defaulted to average carbon intensity for EU-28 in 2017 of 294.21 gCO2/kWh.
2022-04-03 00:32:56 - CarbonTracker: 
Predicted consumption for 1 epoch(s):
	Time:	0:00:03
	Energy:	0.000680 kWh
	CO2eq:	0.200006 g
	This is equivalent to:
	0.001661 km travelled by car
2022-04-03 00:32:56 - CarbonTracker: Finished monitoring.
2022-04-03 00:33:38 - CarbonTracker: The following components were found: GPU with device(s) Tesla V100-SXM2-32GB, Tesla V100-SXM2-32GB, Tesla V100-SXM2-32GB, Tesla V100-SXM2-32GB, Tesla V100-SXM2-32GB, Tesla V100-SXM2-32GB, Tesla V100-SXM2-32GB, Tesla V100-SXM2-32GB. CPU with device(s) cpu:1, cpu:0.
2022-04-03 00:34:11 - CarbonTracker: Average carbon intensity during training was 294.21 gCO2/kWh at detected location: Paris, Île-de-France, FR.
2022-04-03 00:34:11 - CarbonTracker: 
Actual consumption for 1 epoch(s):
	Time:	0:00:07
	Energy:	0.001577 kWh
	CO2eq:	0.463917 g
	This is equivalent to:
	0.003853 km travelled by car
2022-04-03 00:34:11 - CarbonTracker: Live carbon intensity could not be fetched at detected location: Paris, Île-de-France, FR. Defaulted to average carbon intensity for EU-28 in 2017 of 294.21 gCO2/kWh.
2022-04-03 00:34:11 - CarbonTracker: 
Predicted consumption for 1 epoch(s):
	Time:	0:00:07
	Energy:	0.001577 kWh
	CO2eq:	0.463917 g
	This is equivalent to:
	0.003853 km travelled by car
2022-04-03 00:34:11 - CarbonTracker: Finished monitoring.
2022-04-03 00:34:53 - CarbonTracker: The following components were found: GPU with device(s) Tesla V100-SXM2-32GB, Tesla V100-SXM2-32GB, Tesla V100-SXM2-32GB, Tesla V100-SXM2-32GB, Tesla V100-SXM2-32GB, Tesla V100-SXM2-32GB, Tesla V100-SXM2-32GB, Tesla V100-SXM2-32GB. CPU with device(s) cpu:1, cpu:0.
2022-04-03 00:35:25 - CarbonTracker: Average carbon intensity during training was 294.21 gCO2/kWh at detected location: Paris, Île-de-France, FR.
2022-04-03 00:35:25 - CarbonTracker: 
Actual consumption for 1 epoch(s):
	Time:	0:00:07
	Energy:	0.001511 kWh
	CO2eq:	0.444663 g
	This is equivalent to:
	0.003693 km travelled by car
2022-04-03 00:35:25 - CarbonTracker: Live carbon intensity could not be fetched at detected location: Paris, Île-de-France, FR. Defaulted to average carbon intensity for EU-28 in 2017 of 294.21 gCO2/kWh.
2022-04-03 00:35:25 - CarbonTracker: 
Predicted consumption for 1 epoch(s):
	Time:	0:00:07
	Energy:	0.001511 kWh
	CO2eq:	0.444663 g
	This is equivalent to:
	0.003693 km travelled by car
2022-04-03 00:35:25 - CarbonTracker: Finished monitoring.
2022-04-03 00:36:07 - CarbonTracker: The following components were found: GPU with device(s) Tesla V100-SXM2-32GB, Tesla V100-SXM2-32GB, Tesla V100-SXM2-32GB, Tesla V100-SXM2-32GB, Tesla V100-SXM2-32GB, Tesla V100-SXM2-32GB, Tesla V100-SXM2-32GB, Tesla V100-SXM2-32GB. CPU with device(s) cpu:1, cpu:0.
2022-04-03 00:36:35 - CarbonTracker: Average carbon intensity during training was 294.21 gCO2/kWh at detected location: Paris, Île-de-France, FR.
2022-04-03 00:36:35 - CarbonTracker: 
Actual consumption for 1 epoch(s):
	Time:	0:00:03
	Energy:	0.000613 kWh
	CO2eq:	0.180238 g
	This is equivalent to:
	0.001497 km travelled by car
2022-04-03 00:36:36 - CarbonTracker: Live carbon intensity could not be fetched at detected location: Paris, Île-de-France, FR. Defaulted to average carbon intensity for EU-28 in 2017 of 294.21 gCO2/kWh.
2022-04-03 00:36:36 - CarbonTracker: 
Predicted consumption for 1 epoch(s):
	Time:	0:00:03
	Energy:	0.000613 kWh
	CO2eq:	0.180238 g
	This is equivalent to:
	0.001497 km travelled by car
2022-04-03 00:36:36 - CarbonTracker: Finished monitoring.
2022-04-03 00:37:18 - CarbonTracker: The following components were found: GPU with device(s) Tesla V100-SXM2-32GB, Tesla V100-SXM2-32GB, Tesla V100-SXM2-32GB, Tesla V100-SXM2-32GB, Tesla V100-SXM2-32GB, Tesla V100-SXM2-32GB, Tesla V100-SXM2-32GB, Tesla V100-SXM2-32GB. CPU with device(s) cpu:1, cpu:0.
2022-04-03 00:37:46 - CarbonTracker: Average carbon intensity during training was 294.21 gCO2/kWh at detected location: Paris, Île-de-France, FR.
2022-04-03 00:37:46 - CarbonTracker: 
Actual consumption for 1 epoch(s):
	Time:	0:00:03
	Energy:	0.000613 kWh
	CO2eq:	0.180271 g
	This is equivalent to:
	0.001497 km travelled by car
2022-04-03 00:37:47 - CarbonTracker: Live carbon intensity could not be fetched at detected location: Paris, Île-de-France, FR. Defaulted to average carbon intensity for EU-28 in 2017 of 294.21 gCO2/kWh.
2022-04-03 00:37:47 - CarbonTracker: 
Predicted consumption for 1 epoch(s):
	Time:	0:00:03
	Energy:	0.000613 kWh
	CO2eq:	0.180271 g
	This is equivalent to:
	0.001497 km travelled by car
2022-04-03 00:37:47 - CarbonTracker: Finished monitoring.
2022-04-03 00:38:29 - CarbonTracker: The following components were found: GPU with device(s) Tesla V100-SXM2-32GB, Tesla V100-SXM2-32GB, Tesla V100-SXM2-32GB, Tesla V100-SXM2-32GB, Tesla V100-SXM2-32GB, Tesla V100-SXM2-32GB, Tesla V100-SXM2-32GB, Tesla V100-SXM2-32GB. CPU with device(s) cpu:1, cpu:0.
2022-04-03 00:39:01 - CarbonTracker: Average carbon intensity during training was 294.21 gCO2/kWh at detected location: Paris, Île-de-France, FR.
2022-04-03 00:39:01 - CarbonTracker: 
Actual consumption for 1 epoch(s):
	Time:	0:00:07
	Energy:	0.001509 kWh
	CO2eq:	0.444033 g
	This is equivalent to:
	0.003688 km travelled by car
2022-04-03 00:39:02 - CarbonTracker: Live carbon intensity could not be fetched at detected location: Paris, Île-de-France, FR. Defaulted to average carbon intensity for EU-28 in 2017 of 294.21 gCO2/kWh.
2022-04-03 00:39:02 - CarbonTracker: 
Predicted consumption for 1 epoch(s):
	Time:	0:00:07
	Energy:	0.001509 kWh
	CO2eq:	0.444033 g
	This is equivalent to:
	0.003688 km travelled by car
2022-04-03 00:39:02 - CarbonTracker: Finished monitoring.
2022-04-03 00:39:44 - CarbonTracker: The following components were found: GPU with device(s) Tesla V100-SXM2-32GB, Tesla V100-SXM2-32GB, Tesla V100-SXM2-32GB, Tesla V100-SXM2-32GB, Tesla V100-SXM2-32GB, Tesla V100-SXM2-32GB, Tesla V100-SXM2-32GB, Tesla V100-SXM2-32GB. CPU with device(s) cpu:1, cpu:0.
2022-04-03 00:40:12 - CarbonTracker: Average carbon intensity during training was 294.21 gCO2/kWh at detected location: Paris, Île-de-France, FR.
2022-04-03 00:40:12 - CarbonTracker: 
Actual consumption for 1 epoch(s):
	Time:	0:00:03
	Energy:	0.000612 kWh
	CO2eq:	0.180192 g
	This is equivalent to:
	0.001497 km travelled by car
2022-04-03 00:40:13 - CarbonTracker: Live carbon intensity could not be fetched at detected location: Paris, Île-de-France, FR. Defaulted to average carbon intensity for EU-28 in 2017 of 294.21 gCO2/kWh.
2022-04-03 00:40:13 - CarbonTracker: 
Predicted consumption for 1 epoch(s):
	Time:	0:00:03
	Energy:	0.000612 kWh
	CO2eq:	0.180192 g
	This is equivalent to:
	0.001497 km travelled by car
2022-04-03 00:40:13 - CarbonTracker: Finished monitoring.
2022-04-03 00:40:55 - CarbonTracker: The following components were found: GPU with device(s) Tesla V100-SXM2-32GB, Tesla V100-SXM2-32GB, Tesla V100-SXM2-32GB, Tesla V100-SXM2-32GB, Tesla V100-SXM2-32GB, Tesla V100-SXM2-32GB, Tesla V100-SXM2-32GB, Tesla V100-SXM2-32GB. CPU with device(s) cpu:1, cpu:0.
2022-04-03 00:41:27 - CarbonTracker: Average carbon intensity during training was 294.21 gCO2/kWh at detected location: Paris, Île-de-France, FR.
2022-04-03 00:41:27 - CarbonTracker: 
Actual consumption for 1 epoch(s):
	Time:	0:00:07
	Energy:	0.001512 kWh
	CO2eq:	0.444762 g
	This is equivalent to:
	0.003694 km travelled by car
2022-04-03 00:41:28 - CarbonTracker: Live carbon intensity could not be fetched at detected location: Paris, Île-de-France, FR. Defaulted to average carbon intensity for EU-28 in 2017 of 294.21 gCO2/kWh.
2022-04-03 00:41:28 - CarbonTracker: 
Predicted consumption for 1 epoch(s):
	Time:	0:00:07
	Energy:	0.001512 kWh
	CO2eq:	0.444762 g
	This is equivalent to:
	0.003694 km travelled by car
2022-04-03 00:41:28 - CarbonTracker: Finished monitoring.
2022-04-03 00:42:10 - CarbonTracker: The following components were found: GPU with device(s) Tesla V100-SXM2-32GB, Tesla V100-SXM2-32GB, Tesla V100-SXM2-32GB, Tesla V100-SXM2-32GB, Tesla V100-SXM2-32GB, Tesla V100-SXM2-32GB, Tesla V100-SXM2-32GB, Tesla V100-SXM2-32GB. CPU with device(s) cpu:1, cpu:0.
2022-04-03 00:42:42 - CarbonTracker: Average carbon intensity during training was 294.21 gCO2/kWh at detected location: Paris, Île-de-France, FR.
2022-04-03 00:42:42 - CarbonTracker: 
Actual consumption for 1 epoch(s):
	Time:	0:00:07
	Energy:	0.001511 kWh
	CO2eq:	0.444531 g
	This is equivalent to:
	0.003692 km travelled by car
2022-04-03 00:42:43 - CarbonTracker: Live carbon intensity could not be fetched at detected location: Paris, Île-de-France, FR. Defaulted to average carbon intensity for EU-28 in 2017 of 294.21 gCO2/kWh.
2022-04-03 00:42:43 - CarbonTracker: 
Predicted consumption for 1 epoch(s):
	Time:	0:00:07
	Energy:	0.001511 kWh
	CO2eq:	0.444531 g
	This is equivalent to:
	0.003692 km travelled by car
2022-04-03 00:42:43 - CarbonTracker: Finished monitoring.
2022-04-03 00:43:25 - CarbonTracker: The following components were found: GPU with device(s) Tesla V100-SXM2-32GB, Tesla V100-SXM2-32GB, Tesla V100-SXM2-32GB, Tesla V100-SXM2-32GB, Tesla V100-SXM2-32GB, Tesla V100-SXM2-32GB, Tesla V100-SXM2-32GB, Tesla V100-SXM2-32GB. CPU with device(s) cpu:1, cpu:0.
2022-04-03 00:43:57 - CarbonTracker: Average carbon intensity during training was 294.21 gCO2/kWh at detected location: Paris, Île-de-France, FR.
2022-04-03 00:43:57 - CarbonTracker: 
Actual consumption for 1 epoch(s):
	Time:	0:00:07
	Energy:	0.001510 kWh
	CO2eq:	0.444121 g
	This is equivalent to:
	0.003689 km travelled by car
2022-04-03 00:43:57 - CarbonTracker: Live carbon intensity could not be fetched at detected location: Paris, Île-de-France, FR. Defaulted to average carbon intensity for EU-28 in 2017 of 294.21 gCO2/kWh.
2022-04-03 00:43:57 - CarbonTracker: 
Predicted consumption for 1 epoch(s):
	Time:	0:00:07
	Energy:	0.001510 kWh
	CO2eq:	0.444121 g
	This is equivalent to:
	0.003689 km travelled by car
2022-04-03 00:43:57 - CarbonTracker: Finished monitoring.
2022-04-03 00:44:40 - CarbonTracker: The following components were found: GPU with device(s) Tesla V100-SXM2-32GB, Tesla V100-SXM2-32GB, Tesla V100-SXM2-32GB, Tesla V100-SXM2-32GB, Tesla V100-SXM2-32GB, Tesla V100-SXM2-32GB, Tesla V100-SXM2-32GB, Tesla V100-SXM2-32GB. CPU with device(s) cpu:1, cpu:0.
2022-04-03 00:45:12 - CarbonTracker: Average carbon intensity during training was 294.21 gCO2/kWh at detected location: Paris, Île-de-France, FR.
2022-04-03 00:45:12 - CarbonTracker: 
Actual consumption for 1 epoch(s):
	Time:	0:00:07
	Energy:	0.001511 kWh
	CO2eq:	0.444437 g
	This is equivalent to:
	0.003691 km travelled by car
2022-04-03 00:45:12 - CarbonTracker: Live carbon intensity could not be fetched at detected location: Paris, Île-de-France, FR. Defaulted to average carbon intensity for EU-28 in 2017 of 294.21 gCO2/kWh.
2022-04-03 00:45:12 - CarbonTracker: 
Predicted consumption for 1 epoch(s):
	Time:	0:00:07
	Energy:	0.001511 kWh
	CO2eq:	0.444437 g
	This is equivalent to:
	0.003691 km travelled by car
2022-04-03 00:45:12 - CarbonTracker: Finished monitoring.
2022-04-03 00:45:54 - CarbonTracker: The following components were found: GPU with device(s) Tesla V100-SXM2-32GB, Tesla V100-SXM2-32GB, Tesla V100-SXM2-32GB, Tesla V100-SXM2-32GB, Tesla V100-SXM2-32GB, Tesla V100-SXM2-32GB, Tesla V100-SXM2-32GB, Tesla V100-SXM2-32GB. CPU with device(s) cpu:1, cpu:0.
2022-04-03 00:46:26 - CarbonTracker: Average carbon intensity during training was 294.21 gCO2/kWh at detected location: Paris, Île-de-France, FR.
2022-04-03 00:46:26 - CarbonTracker: 
Actual consumption for 1 epoch(s):
	Time:	0:00:07
	Energy:	0.001512 kWh
	CO2eq:	0.444702 g
	This is equivalent to:
	0.003694 km travelled by car
2022-04-03 00:46:27 - CarbonTracker: Live carbon intensity could not be fetched at detected location: Paris, Île-de-France, FR. Defaulted to average carbon intensity for EU-28 in 2017 of 294.21 gCO2/kWh.
2022-04-03 00:46:27 - CarbonTracker: 
Predicted consumption for 1 epoch(s):
	Time:	0:00:07
	Energy:	0.001512 kWh
	CO2eq:	0.444702 g
	This is equivalent to:
	0.003694 km travelled by car
2022-04-03 00:46:27 - CarbonTracker: Finished monitoring.
2022-04-03 00:47:09 - CarbonTracker: The following components were found: GPU with device(s) Tesla V100-SXM2-32GB, Tesla V100-SXM2-32GB, Tesla V100-SXM2-32GB, Tesla V100-SXM2-32GB, Tesla V100-SXM2-32GB, Tesla V100-SXM2-32GB, Tesla V100-SXM2-32GB, Tesla V100-SXM2-32GB. CPU with device(s) cpu:1, cpu:0.
2022-04-03 00:47:41 - CarbonTracker: Average carbon intensity during training was 294.21 gCO2/kWh at detected location: Paris, Île-de-France, FR.
2022-04-03 00:47:41 - CarbonTracker: 
Actual consumption for 1 epoch(s):
	Time:	0:00:07
	Energy:	0.001510 kWh
	CO2eq:	0.444256 g
	This is equivalent to:
	0.003690 km travelled by car
2022-04-03 00:47:42 - CarbonTracker: Live carbon intensity could not be fetched at detected location: Paris, Île-de-France, FR. Defaulted to average carbon intensity for EU-28 in 2017 of 294.21 gCO2/kWh.
2022-04-03 00:47:42 - CarbonTracker: 
Predicted consumption for 1 epoch(s):
	Time:	0:00:07
	Energy:	0.001510 kWh
	CO2eq:	0.444256 g
	This is equivalent to:
	0.003690 km travelled by car
2022-04-03 00:47:42 - CarbonTracker: Finished monitoring.
2022-04-03 00:48:24 - CarbonTracker: The following components were found: GPU with device(s) Tesla V100-SXM2-32GB, Tesla V100-SXM2-32GB, Tesla V100-SXM2-32GB, Tesla V100-SXM2-32GB, Tesla V100-SXM2-32GB, Tesla V100-SXM2-32GB, Tesla V100-SXM2-32GB, Tesla V100-SXM2-32GB. CPU with device(s) cpu:1, cpu:0.
2022-04-03 00:48:56 - CarbonTracker: Average carbon intensity during training was 294.21 gCO2/kWh at detected location: Paris, Île-de-France, FR.
2022-04-03 00:48:56 - CarbonTracker: 
Actual consumption for 1 epoch(s):
	Time:	0:00:07
	Energy:	0.001489 kWh
	CO2eq:	0.437966 g
	This is equivalent to:
	0.003638 km travelled by car
2022-04-03 00:48:56 - CarbonTracker: Live carbon intensity could not be fetched at detected location: Paris, Île-de-France, FR. Defaulted to average carbon intensity for EU-28 in 2017 of 294.21 gCO2/kWh.
2022-04-03 00:48:56 - CarbonTracker: 
Predicted consumption for 1 epoch(s):
	Time:	0:00:07
	Energy:	0.001489 kWh
	CO2eq:	0.437966 g
	This is equivalent to:
	0.003638 km travelled by car
2022-04-03 00:48:56 - CarbonTracker: Finished monitoring.
2022-04-03 00:49:38 - CarbonTracker: The following components were found: GPU with device(s) Tesla V100-SXM2-32GB, Tesla V100-SXM2-32GB, Tesla V100-SXM2-32GB, Tesla V100-SXM2-32GB, Tesla V100-SXM2-32GB, Tesla V100-SXM2-32GB, Tesla V100-SXM2-32GB, Tesla V100-SXM2-32GB. CPU with device(s) cpu:1, cpu:0.
2022-04-03 00:50:11 - CarbonTracker: Average carbon intensity during training was 294.21 gCO2/kWh at detected location: Paris, Île-de-France, FR.
2022-04-03 00:50:11 - CarbonTracker: 
Actual consumption for 1 epoch(s):
	Time:	0:00:07
	Energy:	0.001510 kWh
	CO2eq:	0.444239 g
	This is equivalent to:
	0.003690 km travelled by car
2022-04-03 00:50:11 - CarbonTracker: Live carbon intensity could not be fetched at detected location: Paris, Île-de-France, FR. Defaulted to average carbon intensity for EU-28 in 2017 of 294.21 gCO2/kWh.
2022-04-03 00:50:11 - CarbonTracker: 
Predicted consumption for 1 epoch(s):
	Time:	0:00:07
	Energy:	0.001510 kWh
	CO2eq:	0.444239 g
	This is equivalent to:
	0.003690 km travelled by car
2022-04-03 00:50:11 - CarbonTracker: Finished monitoring.
2022-04-03 00:50:53 - CarbonTracker: The following components were found: GPU with device(s) Tesla V100-SXM2-32GB, Tesla V100-SXM2-32GB, Tesla V100-SXM2-32GB, Tesla V100-SXM2-32GB, Tesla V100-SXM2-32GB, Tesla V100-SXM2-32GB, Tesla V100-SXM2-32GB, Tesla V100-SXM2-32GB. CPU with device(s) cpu:1, cpu:0.
2022-04-03 00:51:25 - CarbonTracker: Average carbon intensity during training was 294.21 gCO2/kWh at detected location: Paris, Île-de-France, FR.
2022-04-03 00:51:25 - CarbonTracker: 
Actual consumption for 1 epoch(s):
	Time:	0:00:07
	Energy:	0.001511 kWh
	CO2eq:	0.444439 g
	This is equivalent to:
	0.003691 km travelled by car
2022-04-03 00:51:25 - CarbonTracker: Live carbon intensity could not be fetched at detected location: Paris, Île-de-France, FR. Defaulted to average carbon intensity for EU-28 in 2017 of 294.21 gCO2/kWh.
2022-04-03 00:51:25 - CarbonTracker: 
Predicted consumption for 1 epoch(s):
	Time:	0:00:07
	Energy:	0.001511 kWh
	CO2eq:	0.444439 g
	This is equivalent to:
	0.003691 km travelled by car
2022-04-03 00:51:25 - CarbonTracker: Finished monitoring.
2022-04-03 00:52:07 - CarbonTracker: The following components were found: GPU with device(s) Tesla V100-SXM2-32GB, Tesla V100-SXM2-32GB, Tesla V100-SXM2-32GB, Tesla V100-SXM2-32GB, Tesla V100-SXM2-32GB, Tesla V100-SXM2-32GB, Tesla V100-SXM2-32GB, Tesla V100-SXM2-32GB. CPU with device(s) cpu:1, cpu:0.
2022-04-03 00:52:40 - CarbonTracker: Average carbon intensity during training was 294.21 gCO2/kWh at detected location: Paris, Île-de-France, FR.
2022-04-03 00:52:40 - CarbonTracker: 
Actual consumption for 1 epoch(s):
	Time:	0:00:07
	Energy:	0.001511 kWh
	CO2eq:	0.444532 g
	This is equivalent to:
	0.003692 km travelled by car
2022-04-03 00:52:40 - CarbonTracker: Live carbon intensity could not be fetched at detected location: Paris, Île-de-France, FR. Defaulted to average carbon intensity for EU-28 in 2017 of 294.21 gCO2/kWh.
2022-04-03 00:52:40 - CarbonTracker: 
Predicted consumption for 1 epoch(s):
	Time:	0:00:07
	Energy:	0.001511 kWh
	CO2eq:	0.444532 g
	This is equivalent to:
	0.003692 km travelled by car
2022-04-03 00:52:40 - CarbonTracker: Finished monitoring.
2022-04-03 00:53:22 - CarbonTracker: The following components were found: GPU with device(s) Tesla V100-SXM2-32GB, Tesla V100-SXM2-32GB, Tesla V100-SXM2-32GB, Tesla V100-SXM2-32GB, Tesla V100-SXM2-32GB, Tesla V100-SXM2-32GB, Tesla V100-SXM2-32GB, Tesla V100-SXM2-32GB. CPU with device(s) cpu:1, cpu:0.
2022-04-03 00:53:54 - CarbonTracker: Average carbon intensity during training was 294.21 gCO2/kWh at detected location: Paris, Île-de-France, FR.
2022-04-03 00:53:54 - CarbonTracker: 
Actual consumption for 1 epoch(s):
	Time:	0:00:07
	Energy:	0.001510 kWh
	CO2eq:	0.444232 g
	This is equivalent to:
	0.003690 km travelled by car
2022-04-03 00:53:54 - CarbonTracker: Live carbon intensity could not be fetched at detected location: Paris, Île-de-France, FR. Defaulted to average carbon intensity for EU-28 in 2017 of 294.21 gCO2/kWh.
2022-04-03 00:53:54 - CarbonTracker: 
Predicted consumption for 1 epoch(s):
	Time:	0:00:07
	Energy:	0.001510 kWh
	CO2eq:	0.444232 g
	This is equivalent to:
	0.003690 km travelled by car
2022-04-03 00:53:54 - CarbonTracker: Finished monitoring.
2022-04-03 00:54:36 - CarbonTracker: The following components were found: GPU with device(s) Tesla V100-SXM2-32GB, Tesla V100-SXM2-32GB, Tesla V100-SXM2-32GB, Tesla V100-SXM2-32GB, Tesla V100-SXM2-32GB, Tesla V100-SXM2-32GB, Tesla V100-SXM2-32GB, Tesla V100-SXM2-32GB. CPU with device(s) cpu:1, cpu:0.
2022-04-03 00:55:05 - CarbonTracker: Average carbon intensity during training was 294.21 gCO2/kWh at detected location: Paris, Île-de-France, FR.
2022-04-03 00:55:05 - CarbonTracker: 
Actual consumption for 1 epoch(s):
	Time:	0:00:03
	Energy:	0.000591 kWh
	CO2eq:	0.173814 g
	This is equivalent to:
	0.001444 km travelled by car
2022-04-03 00:55:05 - CarbonTracker: Live carbon intensity could not be fetched at detected location: Paris, Île-de-France, FR. Defaulted to average carbon intensity for EU-28 in 2017 of 294.21 gCO2/kWh.
2022-04-03 00:55:05 - CarbonTracker: 
Predicted consumption for 1 epoch(s):
	Time:	0:00:03
	Energy:	0.000591 kWh
	CO2eq:	0.173814 g
	This is equivalent to:
	0.001444 km travelled by car
2022-04-03 00:55:05 - CarbonTracker: Finished monitoring.
2022-04-03 00:55:47 - CarbonTracker: The following components were found: GPU with device(s) Tesla V100-SXM2-32GB, Tesla V100-SXM2-32GB, Tesla V100-SXM2-32GB, Tesla V100-SXM2-32GB, Tesla V100-SXM2-32GB, Tesla V100-SXM2-32GB, Tesla V100-SXM2-32GB, Tesla V100-SXM2-32GB. CPU with device(s) cpu:1, cpu:0.
2022-04-03 00:56:19 - CarbonTracker: Average carbon intensity during training was 294.21 gCO2/kWh at detected location: Paris, Île-de-France, FR.
2022-04-03 00:56:19 - CarbonTracker: 
Actual consumption for 1 epoch(s):
	Time:	0:00:07
	Energy:	0.001510 kWh
	CO2eq:	0.444365 g
	This is equivalent to:
	0.003691 km travelled by car
2022-04-03 00:56:19 - CarbonTracker: Live carbon intensity could not be fetched at detected location: Paris, Île-de-France, FR. Defaulted to average carbon intensity for EU-28 in 2017 of 294.21 gCO2/kWh.
2022-04-03 00:56:19 - CarbonTracker: 
Predicted consumption for 1 epoch(s):
	Time:	0:00:07
	Energy:	0.001510 kWh
	CO2eq:	0.444365 g
	This is equivalent to:
	0.003691 km travelled by car
2022-04-03 00:56:19 - CarbonTracker: Finished monitoring.
2022-04-03 00:57:01 - CarbonTracker: The following components were found: GPU with device(s) Tesla V100-SXM2-32GB, Tesla V100-SXM2-32GB, Tesla V100-SXM2-32GB, Tesla V100-SXM2-32GB, Tesla V100-SXM2-32GB, Tesla V100-SXM2-32GB, Tesla V100-SXM2-32GB, Tesla V100-SXM2-32GB. CPU with device(s) cpu:1, cpu:0.
2022-04-03 00:57:34 - CarbonTracker: Average carbon intensity during training was 294.21 gCO2/kWh at detected location: Paris, Île-de-France, FR.
2022-04-03 00:57:34 - CarbonTracker: 
Actual consumption for 1 epoch(s):
	Time:	0:00:07
	Energy:	0.001510 kWh
	CO2eq:	0.444362 g
	This is equivalent to:
	0.003691 km travelled by car
2022-04-03 00:57:34 - CarbonTracker: Live carbon intensity could not be fetched at detected location: Paris, Île-de-France, FR. Defaulted to average carbon intensity for EU-28 in 2017 of 294.21 gCO2/kWh.
2022-04-03 00:57:34 - CarbonTracker: 
Predicted consumption for 1 epoch(s):
	Time:	0:00:07
	Energy:	0.001510 kWh
	CO2eq:	0.444362 g
	This is equivalent to:
	0.003691 km travelled by car
2022-04-03 00:57:34 - CarbonTracker: Finished monitoring.
2022-04-03 00:58:16 - CarbonTracker: The following components were found: GPU with device(s) Tesla V100-SXM2-32GB, Tesla V100-SXM2-32GB, Tesla V100-SXM2-32GB, Tesla V100-SXM2-32GB, Tesla V100-SXM2-32GB, Tesla V100-SXM2-32GB, Tesla V100-SXM2-32GB, Tesla V100-SXM2-32GB. CPU with device(s) cpu:1, cpu:0.
2022-04-03 00:58:48 - CarbonTracker: Average carbon intensity during training was 294.21 gCO2/kWh at detected location: Paris, Île-de-France, FR.
2022-04-03 00:58:48 - CarbonTracker: 
Actual consumption for 1 epoch(s):
	Time:	0:00:07
	Energy:	0.001513 kWh
	CO2eq:	0.445061 g
	This is equivalent to:
	0.003697 km travelled by car
2022-04-03 00:58:48 - CarbonTracker: Live carbon intensity could not be fetched at detected location: Paris, Île-de-France, FR. Defaulted to average carbon intensity for EU-28 in 2017 of 294.21 gCO2/kWh.
2022-04-03 00:58:48 - CarbonTracker: 
Predicted consumption for 1 epoch(s):
	Time:	0:00:07
	Energy:	0.001513 kWh
	CO2eq:	0.445061 g
	This is equivalent to:
	0.003697 km travelled by car
2022-04-03 00:58:48 - CarbonTracker: Finished monitoring.
