data.data.etotal(W),data.data.ecpu(W),data.data.edram(W),data.arch.gemini-1.arch.0.data.ecpu(W),data.arch.gemini-1.arch.0.data.edram(W),data.arch.gemini-1.arch.1.data.ecpu(W),data.arch.gemini-1.arch.1.data.edram(W),data.arch.gemini-1.arch.gpu-nvidia-0.data.ecpu(W),data.arch.gemini-1.arch.gpu-nvidia-0.data.edram(W),data.arch.gemini-1.arch.gpu-nvidia-1.data.ecpu(W),data.arch.gemini-1.arch.gpu-nvidia-1.data.edram(W),data.arch.gemini-1.arch.gpu-nvidia-2.data.ecpu(W),data.arch.gemini-1.arch.gpu-nvidia-2.data.edram(W),data.arch.gemini-1.arch.gpu-nvidia-3.data.ecpu(W),data.arch.gemini-1.arch.gpu-nvidia-3.data.edram(W),data.arch.gemini-1.arch.gpu-nvidia-4.data.ecpu(W),data.arch.gemini-1.arch.gpu-nvidia-4.data.edram(W),data.arch.gemini-1.arch.gpu-nvidia-5.data.ecpu(W),data.arch.gemini-1.arch.gpu-nvidia-5.data.edram(W),data.arch.gemini-1.arch.gpu-nvidia-6.data.ecpu(W),data.arch.gemini-1.arch.gpu-nvidia-6.data.edram(W),data.arch.gemini-1.arch.gpu-nvidia-7.data.ecpu(W),data.arch.gemini-1.arch.gpu-nvidia-7.data.edram(W)
533.31,507.732,25.578,74.681,12.53,70.894,13.048,44.841,0.0,45.785,0.0,44.809,0.0,45.282,0.0,44.809,0.0,45.731,0.0,46.122,0.0,44.778,0.0
533.31,507.732,25.578,74.681,12.53,70.894,13.048,44.841,0.0,45.785,0.0,44.809,0.0,45.282,0.0,44.809,0.0,45.731,0.0,46.122,0.0,44.778,0.0
531.393,505.879,25.514,74.611,12.475,70.828,13.039,44.645,0.0,45.523,0.0,44.563,0.0,45.036,0.0,44.582,0.0,45.543,0.0,45.926,0.0,44.622,0.0
531.333,505.711,25.622,74.417,12.496,70.929,13.126,44.598,0.0,45.557,0.0,44.596,0.0,45.069,0.0,44.617,0.0,45.51,0.0,45.843,0.0,44.575,0.0
530.8,505.273,25.527,74.45,12.472,70.707,13.055,44.555,0.0,45.513,0.0,44.553,0.0,45.005,0.0,44.569,0.0,45.496,0.0,45.853,0.0,44.572,0.0
531.738,506.318,25.42,74.738,12.385,70.812,13.035,44.61,0.0,45.586,0.0,44.629,0.0,45.083,0.0,44.661,0.0,45.566,0.0,45.996,0.0,44.637,0.0
530.908,505.461,25.447,74.532,12.445,70.682,13.002,44.55,0.0,45.535,0.0,44.575,0.0,45.028,0.0,44.595,0.0,45.506,0.0,45.868,0.0,44.59,0.0
530.337,504.923,25.414,74.477,12.468,70.665,12.946,44.495,0.0,45.441,0.0,44.477,0.0,44.951,0.0,44.497,0.0,45.46,0.0,45.894,0.0,44.566,0.0
530.99,505.522,25.468,74.445,12.409,70.794,13.059,44.579,0.0,45.539,0.0,44.576,0.0,45.014,0.0,44.597,0.0,45.506,0.0,45.922,0.0,44.55,0.0
531.07,505.543,25.527,74.597,12.455,70.777,13.072,44.558,0.0,45.523,0.0,44.563,0.0,45.027,0.0,44.586,0.0,45.495,0.0,45.83,0.0,44.587,0.0
531.726,506.125,25.601,74.653,12.48,70.817,13.121,44.621,0.0,45.586,0.0,44.623,0.0,45.098,0.0,44.646,0.0,45.563,0.0,45.893,0.0,44.625,0.0
531.153,505.65,25.503,74.536,12.437,70.779,13.066,44.569,0.0,45.534,0.0,44.556,0.0,45.003,0.0,44.608,0.0,45.537,0.0,45.928,0.0,44.6,0.0
531.143,505.571,25.572,74.472,12.463,70.855,13.109,44.553,0.0,45.519,0.0,44.547,0.0,45.009,0.0,44.587,0.0,45.511,0.0,45.931,0.0,44.587,0.0
531.262,505.673,25.589,74.572,12.488,70.814,13.101,44.571,0.0,45.539,0.0,44.57,0.0,45.035,0.0,44.597,0.0,45.502,0.0,45.879,0.0,44.594,0.0
531.207,505.637,25.57,74.537,12.478,70.853,13.092,44.568,0.0,45.525,0.0,44.556,0.0,45.02,0.0,44.584,0.0,45.495,0.0,45.922,0.0,44.577,0.0
531.019,505.478,25.541,74.45,12.417,70.859,13.124,44.549,0.0,45.505,0.0,44.533,0.0,44.994,0.0,44.591,0.0,45.495,0.0,45.934,0.0,44.568,0.0
530.917,505.386,25.531,74.451,12.446,70.773,13.085,44.532,0.0,45.516,0.0,44.545,0.0,45.009,0.0,44.592,0.0,45.497,0.0,45.897,0.0,44.574,0.0
530.991,505.454,25.537,74.526,12.479,70.723,13.058,44.53,0.0,45.51,0.0,44.554,0.0,45.038,0.0,44.585,0.0,45.501,0.0,45.905,0.0,44.582,0.0
530.781,505.278,25.503,74.47,12.448,70.693,13.055,44.548,0.0,45.51,0.0,44.54,0.0,45.008,0.0,44.577,0.0,45.496,0.0,45.858,0.0,44.578,0.0
530.848,505.328,25.52,74.386,12.438,70.803,13.082,44.551,0.0,45.517,0.0,44.535,0.0,44.98,0.0,44.588,0.0,45.511,0.0,45.861,0.0,44.596,0.0
531.166,505.614,25.552,74.384,12.422,70.857,13.13,44.567,0.0,45.531,0.0,44.569,0.0,45.034,0.0,44.606,0.0,45.521,0.0,45.938,0.0,44.607,0.0
530.834,505.336,25.498,74.289,12.449,70.7,13.049,44.59,0.0,45.566,0.0,44.605,0.0,45.063,0.0,44.578,0.0,45.495,0.0,45.887,0.0,44.563,0.0
530.828,505.333,25.495,74.434,12.495,70.75,13.0,44.538,0.0,45.512,0.0,44.548,0.0,44.997,0.0,44.572,0.0,45.521,0.0,45.867,0.0,44.594,0.0
531.09,505.575,25.515,74.572,12.47,70.758,13.045,44.569,0.0,45.521,0.0,44.545,0.0,45.014,0.0,44.573,0.0,45.518,0.0,45.908,0.0,44.597,0.0
530.943,505.522,25.421,74.498,12.407,70.695,13.014,44.583,0.0,45.543,0.0,44.581,0.0,45.042,0.0,44.608,0.0,45.486,0.0,45.916,0.0,44.57,0.0
530.849,505.368,25.481,74.424,12.471,70.739,13.01,44.545,0.0,45.507,0.0,44.546,0.0,45.003,0.0,44.585,0.0,45.511,0.0,45.911,0.0,44.597,0.0
530.909,505.388,25.521,74.33,12.491,70.737,13.03,44.588,0.0,45.552,0.0,44.581,0.0,45.044,0.0,44.594,0.0,45.518,0.0,45.867,0.0,44.577,0.0
531.082,505.609,25.473,74.347,12.551,70.917,12.922,44.592,0.0,45.553,0.0,44.572,0.0,45.035,0.0,44.607,0.0,45.541,0.0,45.809,0.0,44.636,0.0
530.517,505.004,25.513,74.263,12.466,70.888,13.047,44.46,0.0,45.428,0.0,44.486,0.0,44.96,0.0,44.504,0.0,45.495,0.0,45.92,0.0,44.6,0.0
531.369,505.851,25.518,74.408,12.485,70.745,13.033,44.581,0.0,45.551,0.0,44.668,0.0,45.143,0.0,44.7,0.0,45.529,0.0,45.943,0.0,44.583,0.0
531.003,505.533,25.47,74.395,12.408,70.793,13.062,44.587,0.0,45.586,0.0,44.524,0.0,44.999,0.0,44.601,0.0,45.512,0.0,45.934,0.0,44.602,0.0
529.95,504.548,25.402,74.412,12.367,70.686,13.035,44.336,0.0,45.464,0.0,44.512,0.0,44.967,0.0,44.475,0.0,45.398,0.0,45.757,0.0,44.541,0.0
531.177,505.735,25.442,74.335,12.444,70.618,12.998,44.775,0.0,45.57,0.0,44.603,0.0,45.089,0.0,44.636,0.0,45.543,0.0,45.994,0.0,44.572,0.0
531.174,505.619,25.555,74.599,12.483,70.793,13.072,44.527,0.0,45.527,0.0,44.56,0.0,44.983,0.0,44.587,0.0,45.514,0.0,45.87,0.0,44.659,0.0
530.984,505.539,25.445,74.443,12.484,70.667,12.961,44.597,0.0,45.561,0.0,44.599,0.0,45.08,0.0,44.619,0.0,45.545,0.0,45.861,0.0,44.567,0.0
530.568,505.11,25.458,74.449,12.517,70.656,12.941,44.535,0.0,45.493,0.0,44.532,0.0,44.994,0.0,44.558,0.0,45.469,0.0,45.875,0.0,44.549,0.0
530.861,505.376,25.485,74.561,12.494,70.682,12.991,44.534,0.0,45.514,0.0,44.552,0.0,45.018,0.0,44.58,0.0,45.508,0.0,45.845,0.0,44.582,0.0
531.03,505.62,25.41,74.57,12.448,70.856,12.962,44.53,0.0,45.499,0.0,44.517,0.0,45.008,0.0,44.566,0.0,45.475,0.0,45.963,0.0,44.636,0.0
531.46,505.929,25.531,74.511,12.471,70.892,13.06,44.612,0.0,45.581,0.0,44.611,0.0,45.061,0.0,44.637,0.0,45.555,0.0,45.891,0.0,44.578,0.0
530.982,505.401,25.581,74.638,12.478,70.721,13.103,44.476,0.0,45.488,0.0,44.531,0.0,44.998,0.0,44.569,0.0,45.485,0.0,45.874,0.0,44.621,0.0
530.69,505.246,25.444,74.45,12.449,70.713,12.995,44.567,0.0,45.507,0.0,44.54,0.0,44.993,0.0,44.563,0.0,45.47,0.0,45.885,0.0,44.558,0.0
531.3,505.85,25.45,74.589,12.416,70.837,13.034,44.598,0.0,45.56,0.0,44.6,0.0,45.043,0.0,44.622,0.0,45.543,0.0,45.883,0.0,44.575,0.0
531.65,506.188,25.462,74.63,12.424,70.905,13.038,44.627,0.0,45.584,0.0,44.609,0.0,45.086,0.0,44.641,0.0,45.571,0.0,45.916,0.0,44.619,0.0
530.979,505.407,25.572,74.52,12.501,70.727,13.071,44.564,0.0,45.521,0.0,44.558,0.0,45.018,0.0,44.581,0.0,45.503,0.0,45.837,0.0,44.578,0.0
531.284,505.829,25.455,74.562,12.443,70.849,13.012,44.582,0.0,45.552,0.0,44.592,0.0,45.054,0.0,44.608,0.0,45.54,0.0,45.877,0.0,44.613,0.0
531.077,505.675,25.402,74.531,12.413,70.822,12.989,44.561,0.0,45.536,0.0,44.57,0.0,45.033,0.0,44.602,0.0,45.534,0.0,45.876,0.0,44.61,0.0
530.339,504.867,25.472,74.336,12.436,70.685,13.036,44.492,0.0,45.459,0.0,44.522,0.0,44.982,0.0,44.554,0.0,45.464,0.0,45.828,0.0,44.545,0.0
531.073,505.543,25.53,74.465,12.515,70.785,13.015,44.544,0.0,45.525,0.0,44.554,0.0,45.032,0.0,44.598,0.0,45.511,0.0,45.942,0.0,44.587,0.0
531.313,505.796,25.517,74.484,12.516,70.867,13.001,44.601,0.0,45.566,0.0,44.568,0.0,45.025,0.0,44.599,0.0,45.521,0.0,45.969,0.0,44.596,0.0
531.108,505.627,25.481,74.392,12.444,70.859,13.037,44.604,0.0,45.555,0.0,44.584,0.0,45.026,0.0,44.595,0.0,45.512,0.0,45.908,0.0,44.592,0.0
531.167,505.625,25.542,74.436,12.456,70.809,13.086,44.578,0.0,45.542,0.0,44.588,0.0,45.037,0.0,44.605,0.0,45.524,0.0,45.899,0.0,44.607,0.0
530.636,505.048,25.588,74.396,12.496,70.734,13.092,44.505,0.0,45.465,0.0,44.534,0.0,44.98,0.0,44.56,0.0,45.473,0.0,45.848,0.0,44.553,0.0
530.739,505.148,25.591,74.397,12.498,70.736,13.093,44.519,0.0,45.479,0.0,44.525,0.0,44.979,0.0,44.58,0.0,45.489,0.0,45.878,0.0,44.566,0.0
531.21,505.596,25.614,74.454,12.484,70.771,13.13,44.599,0.0,45.563,0.0,44.559,0.0,45.005,0.0,44.597,0.0,45.517,0.0,45.918,0.0,44.613,0.0
531.253,505.738,25.515,74.577,12.436,70.835,13.079,44.588,0.0,45.563,0.0,44.592,0.0,45.053,0.0,44.581,0.0,45.503,0.0,45.852,0.0,44.594,0.0
531.3,505.778,25.522,74.611,12.413,70.763,13.109,44.568,0.0,45.551,0.0,44.581,0.0,45.046,0.0,44.617,0.0,45.53,0.0,45.93,0.0,44.581,0.0
530.937,505.34,25.597,74.473,12.494,70.723,13.103,44.541,0.0,45.509,0.0,44.546,0.0,44.995,0.0,44.592,0.0,45.484,0.0,45.913,0.0,44.564,0.0
530.694,505.209,25.485,74.452,12.476,70.785,13.009,44.523,0.0,45.5,0.0,44.536,0.0,44.965,0.0,44.577,0.0,45.497,0.0,45.812,0.0,44.562,0.0
531.28,505.664,25.616,74.621,12.529,70.854,13.087,44.521,0.0,45.507,0.0,44.54,0.0,45.007,0.0,44.629,0.0,45.526,0.0,45.86,0.0,44.599,0.0
531.306,505.755,25.551,74.58,12.463,70.784,13.088,44.584,0.0,45.564,0.0,44.598,0.0,45.075,0.0,44.578,0.0,45.491,0.0,45.922,0.0,44.579,0.0
532.028,506.445,25.583,74.772,12.492,70.967,13.091,44.615,0.0,45.584,0.0,44.616,0.0,45.101,0.0,44.656,0.0,45.572,0.0,45.911,0.0,44.651,0.0
530.584,505.113,25.471,74.418,12.432,70.672,13.039,44.55,0.0,45.519,0.0,44.557,0.0,44.958,0.0,44.584,0.0,45.486,0.0,45.803,0.0,44.566,0.0
530.906,505.424,25.482,74.465,12.437,70.75,13.045,44.547,0.0,45.516,0.0,44.56,0.0,45.015,0.0,44.605,0.0,45.513,0.0,45.864,0.0,44.589,0.0
531.381,505.779,25.602,74.631,12.547,70.868,13.055,44.554,0.0,45.519,0.0,44.53,0.0,45.016,0.0,44.628,0.0,45.535,0.0,45.888,0.0,44.61,0.0
530.9,505.396,25.504,74.457,12.472,70.71,13.032,44.595,0.0,45.56,0.0,44.591,0.0,45.067,0.0,44.583,0.0,45.477,0.0,45.798,0.0,44.558,0.0
530.88,505.351,25.529,74.411,12.403,70.798,13.126,44.523,0.0,45.488,0.0,44.525,0.0,45.006,0.0,44.55,0.0,45.484,0.0,45.981,0.0,44.585,0.0
535.616,507.909,27.707,76.667,14.634,71.036,13.073,44.576,0.0,45.551,0.0,44.587,0.0,45.025,0.0,44.605,0.0,45.507,0.0,45.781,0.0,44.574,0.0
541.41,510.152,31.258,78.857,16.877,72.15,14.381,44.412,0.0,45.376,0.0,44.418,0.0,44.889,0.0,44.446,0.0,45.355,0.0,45.803,0.0,44.446,0.0
542.819,511.259,31.56,78.19,16.01,73.221,15.55,44.47,0.0,45.439,0.0,44.521,0.0,45.017,0.0,44.558,0.0,45.459,0.0,45.827,0.0,44.557,0.0
540.134,509.727,30.407,76.454,15.193,72.361,15.214,44.631,0.0,45.617,0.0,44.645,0.0,45.121,0.0,44.667,0.0,45.584,0.0,45.987,0.0,44.66,0.0
535.068,505.895,29.173,75.096,14.636,71.042,14.537,44.5,0.0,45.452,0.0,44.503,0.0,44.934,0.0,44.531,0.0,45.458,0.0,45.837,0.0,44.542,0.0
534.856,505.915,28.941,74.931,14.524,70.922,14.417,44.54,0.0,45.501,0.0,44.54,0.0,44.982,0.0,44.554,0.0,45.453,0.0,45.913,0.0,44.579,0.0
535.673,506.859,28.814,75.054,14.329,71.117,14.485,44.629,0.0,45.592,0.0,44.631,0.0,45.07,0.0,44.648,0.0,45.554,0.0,45.941,0.0,44.623,0.0
535.021,506.24,28.781,74.802,14.129,71.087,14.652,44.604,0.0,45.574,0.0,44.569,0.0,45.03,0.0,44.588,0.0,45.503,0.0,45.888,0.0,44.595,0.0
534.541,505.634,28.907,74.692,14.146,70.976,14.761,44.52,0.0,45.491,0.0,44.509,0.0,44.977,0.0,44.568,0.0,45.488,0.0,45.845,0.0,44.568,0.0
535.404,506.407,28.997,74.811,14.213,71.069,14.784,44.603,0.0,45.577,0.0,44.614,0.0,45.075,0.0,44.624,0.0,45.538,0.0,45.879,0.0,44.617,0.0
535.217,506.209,29.008,74.83,14.23,71.042,14.778,44.565,0.0,45.554,0.0,44.587,0.0,45.024,0.0,44.599,0.0,45.502,0.0,45.917,0.0,44.589,0.0
546.542,512.148,34.394,78.281,17.2,73.939,17.194,44.471,0.0,45.454,0.0,44.488,0.0,44.987,0.0,44.578,0.0,45.482,0.0,45.899,0.0,44.569,0.0
555.646,517.696,37.95,81.234,19.391,76.347,18.559,44.533,0.0,45.503,0.0,44.54,0.0,45.0,0.0,44.583,0.0,45.48,0.0,45.897,0.0,44.579,0.0
554.331,517.655,36.676,81.437,19.301,76.028,17.375,44.582,0.0,45.549,0.0,44.586,0.0,45.009,0.0,44.557,0.0,45.45,0.0,45.904,0.0,44.553,0.0
553.457,517.502,35.955,81.437,19.316,75.77,16.639,44.561,0.0,45.543,0.0,44.579,0.0,45.056,0.0,44.588,0.0,45.48,0.0,45.915,0.0,44.573,0.0
554.158,517.953,36.205,81.6,19.322,75.915,16.883,44.581,0.0,45.559,0.0,44.582,0.0,45.065,0.0,44.629,0.0,45.524,0.0,45.884,0.0,44.614,0.0
555.035,518.273,36.762,82.008,19.33,75.923,17.432,44.587,0.0,45.546,0.0,44.563,0.0,45.045,0.0,44.633,0.0,45.509,0.0,45.86,0.0,44.599,0.0
560.082,520.661,39.421,84.179,21.12,76.53,18.301,44.484,0.0,45.46,0.0,44.499,0.0,44.969,0.0,44.582,0.0,45.467,0.0,45.93,0.0,44.561,0.0
568.515,524.643,43.872,87.328,24.109,77.939,19.763,44.404,0.0,45.38,0.0,44.421,0.0,44.895,0.0,44.451,0.0,45.415,0.0,45.894,0.0,44.516,0.0
570.771,526.725,44.046,86.349,22.673,79.733,21.373,44.623,0.0,45.596,0.0,44.63,0.0,45.106,0.0,44.639,0.0,45.508,0.0,45.938,0.0,44.603,0.0
570.774,527.006,43.768,85.598,21.588,80.697,22.18,44.599,0.0,45.581,0.0,44.615,0.0,45.09,0.0,44.667,0.0,45.55,0.0,45.966,0.0,44.643,0.0
571.774,526.699,45.075,85.908,22.447,81.261,22.628,44.453,0.0,45.428,0.0,44.453,0.0,44.932,0.0,44.539,0.0,45.422,0.0,45.786,0.0,44.517,0.0
572.446,527.212,45.234,84.75,22.143,82.084,23.091,44.591,0.0,45.563,0.0,44.601,0.0,45.027,0.0,44.602,0.0,45.5,0.0,45.905,0.0,44.589,0.0
561.612,520.381,41.231,78.789,18.67,81.211,22.561,44.578,0.0,45.554,0.0,44.591,0.0,45.032,0.0,44.639,0.0,45.498,0.0,45.899,0.0,44.59,0.0
549.537,514.415,35.122,75.228,14.277,78.526,20.845,44.614,0.0,45.583,0.0,44.618,0.0,45.088,0.0,44.64,0.0,45.578,0.0,45.868,0.0,44.672,0.0
543.967,510.779,33.188,74.971,14.247,75.902,18.941,44.494,0.0,45.465,0.0,44.501,0.0,44.957,0.0,44.554,0.0,45.52,0.0,45.801,0.0,44.614,0.0
539.988,508.951,31.037,75.027,14.193,73.177,16.844,44.644,0.0,45.603,0.0,44.618,0.0,45.118,0.0,44.665,0.0,45.532,0.0,45.95,0.0,44.617,0.0
535.948,506.674,29.274,74.681,14.144,71.339,15.13,44.647,0.0,45.627,0.0,44.656,0.0,45.085,0.0,44.681,0.0,45.497,0.0,45.883,0.0,44.578,0.0
535.105,505.894,29.211,74.784,14.306,71.206,14.905,44.488,0.0,45.445,0.0,44.517,0.0,44.997,0.0,44.562,0.0,45.472,0.0,45.866,0.0,44.557,0.0
534.853,505.989,28.864,74.6,14.048,71.087,14.816,44.545,0.0,45.511,0.0,44.574,0.0,45.045,0.0,44.61,0.0,45.503,0.0,45.925,0.0,44.589,0.0
535.261,506.204,29.057,74.853,14.206,71.07,14.851,44.607,0.0,45.573,0.0,44.552,0.0,45.007,0.0,44.594,0.0,45.487,0.0,45.882,0.0,44.579,0.0
540.807,509.116,31.691,77.984,16.696,71.369,14.995,44.441,0.0,45.399,0.0,44.488,0.0,45.003,0.0,44.567,0.0,45.473,0.0,45.835,0.0,44.557,0.0
542.256,510.077,32.179,77.565,16.141,72.749,16.038,44.459,0.0,45.435,0.0,44.468,0.0,44.894,0.0,44.508,0.0,45.516,0.0,45.865,0.0,44.618,0.0
537.431,507.785,29.646,75.558,13.772,72.788,15.874,44.335,0.0,45.327,0.0,44.446,0.0,44.961,0.0,44.534,0.0,45.433,0.0,45.802,0.0,44.601,0.0
534.689,506.346,28.343,74.864,12.83,72.652,15.513,44.174,0.0,45.194,0.0,44.27,0.0,44.738,0.0,44.308,0.0,45.446,0.0,45.846,0.0,44.854,0.0
555.432,523.437,31.995,78.968,16.155,73.857,15.84,44.8,0.0,45.769,0.0,44.727,0.0,45.119,0.0,44.712,0.0,45.567,0.0,45.951,0.0,53.967,0.0
584.83,548.45,36.38,82.928,19.185,76.36,17.195,51.1,0.0,45.948,0.0,44.895,0.0,45.3,0.0,44.844,0.0,45.533,0.0,45.946,0.0,65.596,0.0
603.084,565.278,37.806,83.103,18.674,79.264,19.132,61.718,0.0,45.574,0.0,44.611,0.0,45.067,0.0,44.579,0.0,45.48,0.0,45.935,0.0,69.947,0.0
607.88,571.084,36.796,82.438,17.95,79.562,18.846,67.554,0.0,45.532,0.0,44.577,0.0,45.037,0.0,44.6,0.0,45.505,0.0,45.952,0.0,70.327,0.0
599.732,566.605,33.127,80.283,16.481,76.837,16.646,67.692,0.0,45.541,0.0,44.548,0.0,45.0,0.0,44.581,0.0,45.483,0.0,45.895,0.0,70.745,0.0
591.945,561.949,29.996,76.688,13.564,75.358,16.432,67.666,0.0,45.526,0.0,44.568,0.0,45.045,0.0,44.602,0.0,45.502,0.0,45.905,0.0,71.089,0.0
586.943,558.583,28.36,75.123,12.588,74.042,15.772,67.704,0.0,45.547,0.0,44.589,0.0,45.061,0.0,44.605,0.0,45.502,0.0,45.966,0.0,70.444,0.0
580.013,554.317,25.696,74.839,12.522,71.19,13.174,67.681,0.0,45.587,0.0,44.624,0.0,45.119,0.0,44.665,0.0,45.568,0.0,45.965,0.0,69.079,0.0
573.861,548.326,25.535,74.596,12.488,70.923,13.047,62.273,0.0,45.58,0.0,44.619,0.0,45.12,0.0,44.671,0.0,45.581,0.0,45.959,0.0,69.004,0.0
557.536,532.053,25.483,74.46,12.414,70.875,13.069,46.617,0.0,45.584,0.0,44.617,0.0,45.024,0.0,44.586,0.0,45.5,0.0,45.907,0.0,68.883,0.0
556.853,531.464,25.389,74.462,12.339,70.741,13.05,46.413,0.0,45.476,0.0,44.508,0.0,44.987,0.0,44.535,0.0,45.462,0.0,45.867,0.0,69.013,0.0
554.995,529.526,25.469,74.442,12.447,71.025,13.022,46.507,0.0,45.56,0.0,44.596,0.0,45.063,0.0,44.631,0.0,45.506,0.0,45.928,0.0,66.268,0.0
538.246,512.665,25.581,74.322,12.476,71.011,13.105,46.482,0.0,45.536,0.0,44.577,0.0,45.055,0.0,44.615,0.0,45.516,0.0,45.915,0.0,49.636,0.0
533.934,508.402,25.532,74.534,12.494,70.895,13.038,46.333,0.0,45.527,0.0,44.561,0.0,45.034,0.0,44.59,0.0,45.516,0.0,45.853,0.0,45.559,0.0
532.435,506.945,25.49,74.465,12.448,70.893,13.042,44.827,0.0,45.523,0.0,44.571,0.0,45.044,0.0,44.602,0.0,45.517,0.0,45.938,0.0,45.565,0.0
532.087,506.63,25.457,74.456,12.295,70.944,13.162,44.557,0.0,45.526,0.0,44.549,0.0,45.041,0.0,44.588,0.0,45.503,0.0,45.909,0.0,45.557,0.0
531.423,505.839,25.584,74.311,12.451,70.696,13.133,44.499,0.0,45.47,0.0,44.513,0.0,44.988,0.0,44.54,0.0,45.468,0.0,45.839,0.0,45.515,0.0
531.757,506.199,25.558,74.498,12.457,70.974,13.101,44.598,0.0,45.546,0.0,44.546,0.0,45.052,0.0,44.598,0.0,45.517,0.0,45.924,0.0,44.946,0.0
531.398,505.707,25.691,74.376,12.535,70.975,13.156,44.569,0.0,45.53,0.0,44.571,0.0,45.045,0.0,44.597,0.0,45.529,0.0,45.9,0.0,44.615,0.0
531.348,505.901,25.447,74.682,12.365,70.874,13.082,44.571,0.0,45.536,0.0,44.573,0.0,45.045,0.0,44.592,0.0,45.508,0.0,45.928,0.0,44.592,0.0
530.784,505.28,25.504,74.557,12.482,70.834,13.022,44.493,0.0,45.46,0.0,44.5,0.0,44.975,0.0,44.521,0.0,45.444,0.0,45.927,0.0,44.569,0.0
532.017,506.396,25.621,74.672,12.526,70.951,13.095,44.598,0.0,45.568,0.0,44.604,0.0,45.069,0.0,44.627,0.0,45.606,0.0,46.055,0.0,44.646,0.0
531.536,506.115,25.421,74.556,12.361,71.029,13.06,44.613,0.0,45.573,0.0,44.614,0.0,45.061,0.0,44.638,0.0,45.521,0.0,45.925,0.0,44.585,0.0
530.8,505.362,25.438,74.555,12.452,70.909,12.986,44.503,0.0,45.466,0.0,44.503,0.0,44.961,0.0,44.571,0.0,45.482,0.0,45.849,0.0,44.563,0.0
531.472,505.85,25.622,74.589,12.552,70.889,13.07,44.585,0.0,45.55,0.0,44.594,0.0,45.048,0.0,44.583,0.0,45.505,0.0,45.92,0.0,44.587,0.0
531.355,505.815,25.54,74.541,12.447,70.915,13.093,44.582,0.0,45.546,0.0,44.583,0.0,45.057,0.0,44.593,0.0,45.514,0.0,45.896,0.0,44.588,0.0
531.069,505.527,25.542,74.587,12.448,70.994,13.094,44.505,0.0,45.469,0.0,44.508,0.0,44.959,0.0,44.525,0.0,45.447,0.0,45.926,0.0,44.607,0.0
531.15,505.67,25.48,74.533,12.432,70.9,13.048,44.558,0.0,45.523,0.0,44.559,0.0,44.987,0.0,44.608,0.0,45.525,0.0,45.908,0.0,44.569,0.0
531.578,506.107,25.471,74.601,12.428,70.945,13.043,44.603,0.0,45.564,0.0,44.613,0.0,45.05,0.0,44.659,0.0,45.56,0.0,45.924,0.0,44.588,0.0
530.989,505.488,25.501,74.526,12.474,70.964,13.027,44.539,0.0,45.506,0.0,44.535,0.0,44.986,0.0,44.557,0.0,45.471,0.0,45.827,0.0,44.577,0.0
531.258,505.716,25.542,74.574,12.486,70.916,13.056,44.554,0.0,45.528,0.0,44.563,0.0,45.021,0.0,44.582,0.0,45.512,0.0,45.883,0.0,44.583,0.0
531.712,506.172,25.54,74.66,12.454,70.978,13.086,44.594,0.0,45.562,0.0,44.597,0.0,45.053,0.0,44.619,0.0,45.542,0.0,45.973,0.0,44.594,0.0
531.21,505.657,25.553,74.654,12.481,70.963,13.072,44.529,0.0,45.491,0.0,44.52,0.0,44.975,0.0,44.541,0.0,45.455,0.0,45.953,0.0,44.576,0.0
531.562,505.958,25.604,74.706,12.524,70.928,13.08,44.55,0.0,45.515,0.0,44.555,0.0,45.008,0.0,44.594,0.0,45.52,0.0,45.976,0.0,44.606,0.0
531.879,506.304,25.575,74.594,12.503,70.932,13.072,44.605,0.0,45.57,0.0,44.635,0.0,45.098,0.0,44.68,0.0,45.593,0.0,45.976,0.0,44.621,0.0
531.362,505.829,25.533,74.474,12.479,70.93,13.054,44.585,0.0,45.543,0.0,44.599,0.0,45.066,0.0,44.616,0.0,45.508,0.0,45.921,0.0,44.587,0.0
531.502,505.941,25.561,74.637,12.474,70.956,13.087,44.603,0.0,45.568,0.0,44.567,0.0,45.017,0.0,44.584,0.0,45.508,0.0,45.912,0.0,44.589,0.0
531.31,505.794,25.516,74.643,12.43,70.843,13.086,44.556,0.0,45.53,0.0,44.565,0.0,45.028,0.0,44.589,0.0,45.515,0.0,45.94,0.0,44.585,0.0
530.707,505.253,25.454,74.49,12.392,70.818,13.062,44.51,0.0,45.478,0.0,44.512,0.0,44.961,0.0,44.538,0.0,45.458,0.0,45.927,0.0,44.561,0.0
530.269,504.718,25.551,74.458,12.471,70.696,13.08,44.465,0.0,45.429,0.0,44.463,0.0,44.86,0.0,44.501,0.0,45.42,0.0,45.87,0.0,44.556,0.0
531.812,506.255,25.557,74.489,12.514,70.898,13.043,44.66,0.0,45.628,0.0,44.648,0.0,45.074,0.0,44.687,0.0,45.629,0.0,45.933,0.0,44.609,0.0
531.158,505.677,25.481,74.344,12.462,70.925,13.019,44.588,0.0,45.547,0.0,44.564,0.0,45.028,0.0,44.616,0.0,45.514,0.0,45.955,0.0,44.596,0.0
530.92,505.434,25.486,74.434,12.406,70.845,13.08,44.537,0.0,45.506,0.0,44.509,0.0,45.018,0.0,44.601,0.0,45.494,0.0,45.909,0.0,44.581,0.0
530.306,504.806,25.5,74.219,12.44,70.809,13.06,44.434,0.0,45.411,0.0,44.436,0.0,44.994,0.0,44.568,0.0,45.497,0.0,45.863,0.0,44.575,0.0
531.345,505.882,25.463,74.189,12.483,70.903,12.98,44.718,0.0,45.672,0.0,44.688,0.0,45.006,0.0,44.607,0.0,45.531,0.0,45.966,0.0,44.602,0.0
531.073,505.605,25.468,74.43,12.415,70.805,13.053,44.564,0.0,45.536,0.0,44.572,0.0,45.026,0.0,44.594,0.0,45.518,0.0,45.969,0.0,44.591,0.0
531.124,505.624,25.5,74.353,12.388,70.925,13.112,44.559,0.0,45.524,0.0,44.551,0.0,45.038,0.0,44.608,0.0,45.522,0.0,45.949,0.0,44.595,0.0
531.257,505.762,25.495,74.529,12.448,70.812,13.047,44.579,0.0,45.545,0.0,44.578,0.0,45.019,0.0,44.599,0.0,45.527,0.0,45.977,0.0,44.597,0.0
531.087,505.57,25.517,74.386,12.465,70.911,13.052,44.572,0.0,45.539,0.0,44.527,0.0,45.037,0.0,44.587,0.0,45.506,0.0,45.922,0.0,44.583,0.0
530.095,504.68,25.415,74.344,12.425,70.634,12.99,44.483,0.0,45.455,0.0,44.491,0.0,44.938,0.0,44.515,0.0,45.443,0.0,45.855,0.0,44.522,0.0
531.176,505.71,25.466,74.475,12.452,70.825,13.014,44.573,0.0,45.539,0.0,44.555,0.0,44.996,0.0,44.595,0.0,45.516,0.0,45.988,0.0,44.648,0.0
530.85,505.396,25.454,74.445,12.454,70.754,13.0,44.549,0.0,45.509,0.0,44.55,0.0,45.017,0.0,44.588,0.0,45.534,0.0,45.89,0.0,44.56,0.0
530.921,505.464,25.457,74.509,12.425,70.861,13.032,44.531,0.0,45.496,0.0,44.567,0.0,45.001,0.0,44.61,0.0,45.485,0.0,45.841,0.0,44.563,0.0
531.569,505.968,25.601,74.574,12.472,70.962,13.129,44.606,0.0,45.573,0.0,44.557,0.0,45.038,0.0,44.624,0.0,45.509,0.0,45.919,0.0,44.606,0.0
531.643,506.034,25.609,74.519,12.504,70.872,13.105,44.603,0.0,45.577,0.0,44.598,0.0,45.07,0.0,44.663,0.0,45.543,0.0,45.97,0.0,44.619,0.0
530.528,505.014,25.514,74.197,12.427,70.841,13.087,44.516,0.0,45.482,0.0,44.523,0.0,44.967,0.0,44.569,0.0,45.465,0.0,45.913,0.0,44.541,0.0
530.479,504.953,25.526,74.313,12.424,70.842,13.102,44.48,0.0,45.449,0.0,44.481,0.0,44.934,0.0,44.521,0.0,45.428,0.0,45.939,0.0,44.566,0.0
531.261,505.777,25.484,74.346,12.462,70.899,13.022,44.6,0.0,45.574,0.0,44.611,0.0,45.002,0.0,44.644,0.0,45.55,0.0,45.965,0.0,44.586,0.0
531.233,505.773,25.46,74.397,12.463,70.818,12.997,44.595,0.0,45.567,0.0,44.601,0.0,45.036,0.0,44.628,0.0,45.545,0.0,45.995,0.0,44.591,0.0
530.945,505.502,25.443,74.325,12.376,70.806,13.067,44.57,0.0,45.534,0.0,44.565,0.0,45.047,0.0,44.594,0.0,45.512,0.0,45.951,0.0,44.598,0.0
531.036,505.543,25.493,74.406,12.397,70.778,13.096,44.568,0.0,45.533,0.0,44.572,0.0,45.049,0.0,44.594,0.0,45.513,0.0,45.936,0.0,44.594,0.0
531.126,505.641,25.485,74.397,12.427,70.79,13.058,44.574,0.0,45.543,0.0,44.581,0.0,45.044,0.0,44.6,0.0,45.524,0.0,45.982,0.0,44.606,0.0
531.221,505.727,25.494,74.445,12.452,70.848,13.042,44.574,0.0,45.545,0.0,44.584,0.0,45.05,0.0,44.605,0.0,45.524,0.0,45.944,0.0,44.608,0.0
531.243,505.717,25.526,74.502,12.49,70.887,13.036,44.573,0.0,45.538,0.0,44.57,0.0,45.041,0.0,44.601,0.0,45.514,0.0,45.893,0.0,44.598,0.0
530.786,505.303,25.483,74.439,12.448,70.828,13.035,44.486,0.0,45.508,0.0,44.51,0.0,45.008,0.0,44.567,0.0,45.481,0.0,45.909,0.0,44.567,0.0
530.745,505.276,25.469,74.454,12.431,70.789,13.038,44.506,0.0,45.5,0.0,44.504,0.0,45.006,0.0,44.556,0.0,45.473,0.0,45.932,0.0,44.556,0.0
531.334,505.788,25.546,74.554,12.487,70.864,13.059,44.58,0.0,45.491,0.0,44.571,0.0,45.043,0.0,44.597,0.0,45.517,0.0,45.974,0.0,44.597,0.0
530.827,505.255,25.572,74.558,12.468,70.861,13.104,44.452,0.0,45.419,0.0,44.489,0.0,44.951,0.0,44.511,0.0,45.487,0.0,45.936,0.0,44.591,0.0
530.546,505.018,25.528,74.456,12.442,70.874,13.086,44.485,0.0,45.458,0.0,44.425,0.0,44.878,0.0,44.519,0.0,45.476,0.0,45.872,0.0,44.575,0.0
532.127,506.561,25.566,74.505,12.484,70.953,13.082,44.656,0.0,45.64,0.0,44.669,0.0,45.131,0.0,44.8,0.0,45.593,0.0,45.993,0.0,44.621,0.0
531.641,506.086,25.555,74.442,12.456,70.842,13.099,44.698,0.0,45.661,0.0,44.696,0.0,45.135,0.0,44.591,0.0,45.504,0.0,45.928,0.0,44.589,0.0
530.957,505.421,25.536,74.521,12.451,70.857,13.085,44.529,0.0,45.5,0.0,44.537,0.0,44.971,0.0,44.574,0.0,45.479,0.0,45.889,0.0,44.564,0.0
531.456,505.882,25.574,74.532,12.53,70.926,13.044,44.589,0.0,45.538,0.0,44.572,0.0,45.043,0.0,44.621,0.0,45.514,0.0,45.944,0.0,44.603,0.0
531.242,505.829,25.413,74.602,12.458,70.83,12.955,44.57,0.0,45.532,0.0,44.568,0.0,44.998,0.0,44.639,0.0,45.534,0.0,45.924,0.0,44.632,0.0
530.845,505.386,25.459,74.496,12.432,70.918,13.027,44.527,0.0,45.498,0.0,44.535,0.0,44.995,0.0,44.561,0.0,45.443,0.0,45.835,0.0,44.578,0.0
530.9,505.405,25.495,74.439,12.47,70.74,13.025,44.553,0.0,45.533,0.0,44.569,0.0,45.019,0.0,44.58,0.0,45.496,0.0,45.944,0.0,44.532,0.0
530.932,505.412,25.52,74.438,12.414,70.976,13.106,44.494,0.0,45.469,0.0,44.498,0.0,44.969,0.0,44.536,0.0,45.445,0.0,45.983,0.0,44.604,0.0
532.078,506.608,25.47,74.66,12.417,70.905,13.053,44.644,0.0,45.613,0.0,44.648,0.0,45.105,0.0,44.702,0.0,45.657,0.0,46.016,0.0,44.658,0.0
530.663,505.115,25.548,74.304,12.48,70.797,13.068,44.54,0.0,45.516,0.0,44.553,0.0,44.996,0.0,44.549,0.0,45.429,0.0,45.915,0.0,44.516,0.0
531.62,506.077,25.543,74.669,12.51,70.932,13.033,44.566,0.0,45.535,0.0,44.574,0.0,45.025,0.0,44.638,0.0,45.56,0.0,45.952,0.0,44.626,0.0
531.713,506.086,25.627,74.659,12.547,70.848,13.08,44.622,0.0,45.591,0.0,44.621,0.0,45.063,0.0,44.609,0.0,45.53,0.0,45.938,0.0,44.605,0.0
531.152,505.788,25.364,74.566,12.362,70.966,13.002,44.573,0.0,45.537,0.0,44.571,0.0,45.0,0.0,44.592,0.0,45.513,0.0,45.88,0.0,44.59,0.0
530.085,504.598,25.487,74.474,12.47,70.818,13.017,44.405,0.0,45.378,0.0,44.421,0.0,44.857,0.0,44.456,0.0,45.36,0.0,45.887,0.0,44.542,0.0
531.642,506.046,25.596,74.584,12.499,70.893,13.097,44.58,0.0,45.541,0.0,44.586,0.0,45.018,0.0,44.621,0.0,45.633,0.0,45.963,0.0,44.627,0.0
530.683,505.267,25.416,74.271,12.346,70.631,13.07,44.603,0.0,45.57,0.0,44.608,0.0,45.059,0.0,44.63,0.0,45.475,0.0,45.889,0.0,44.531,0.0
531.118,505.647,25.471,74.421,12.406,70.835,13.065,44.576,0.0,45.544,0.0,44.579,0.0,45.051,0.0,44.603,0.0,45.501,0.0,45.947,0.0,44.59,0.0
530.566,505.04,25.526,74.407,12.456,70.769,13.07,44.512,0.0,45.48,0.0,44.508,0.0,44.95,0.0,44.541,0.0,45.465,0.0,45.842,0.0,44.566,0.0
531.635,505.997,25.638,74.453,12.499,70.908,13.139,44.59,0.0,45.56,0.0,44.585,0.0,45.086,0.0,44.644,0.0,45.569,0.0,45.974,0.0,44.628,0.0
