data.data.etotal(W),data.data.ecpu(W),data.data.edram(W),data.arch.gemini-1.arch.0.data.ecpu(W),data.arch.gemini-1.arch.0.data.edram(W),data.arch.gemini-1.arch.1.data.ecpu(W),data.arch.gemini-1.arch.1.data.edram(W),data.arch.gemini-1.arch.gpu-nvidia-0.data.ecpu(W),data.arch.gemini-1.arch.gpu-nvidia-0.data.edram(W),data.arch.gemini-1.arch.gpu-nvidia-1.data.ecpu(W),data.arch.gemini-1.arch.gpu-nvidia-1.data.edram(W),data.arch.gemini-1.arch.gpu-nvidia-2.data.ecpu(W),data.arch.gemini-1.arch.gpu-nvidia-2.data.edram(W),data.arch.gemini-1.arch.gpu-nvidia-3.data.ecpu(W),data.arch.gemini-1.arch.gpu-nvidia-3.data.edram(W),data.arch.gemini-1.arch.gpu-nvidia-4.data.ecpu(W),data.arch.gemini-1.arch.gpu-nvidia-4.data.edram(W),data.arch.gemini-1.arch.gpu-nvidia-5.data.ecpu(W),data.arch.gemini-1.arch.gpu-nvidia-5.data.edram(W),data.arch.gemini-1.arch.gpu-nvidia-6.data.ecpu(W),data.arch.gemini-1.arch.gpu-nvidia-6.data.edram(W),data.arch.gemini-1.arch.gpu-nvidia-7.data.ecpu(W),data.arch.gemini-1.arch.gpu-nvidia-7.data.edram(W)
534.596,508.99,25.606,75.497,12.515,70.851,13.091,44.865,0.0,45.824,0.0,44.841,0.0,45.288,0.0,45.07,0.0,45.729,0.0,46.238,0.0,44.787,0.0
534.596,508.99,25.606,75.497,12.515,70.851,13.091,44.865,0.0,45.824,0.0,44.841,0.0,45.288,0.0,45.07,0.0,45.729,0.0,46.238,0.0,44.787,0.0
533.375,507.932,25.443,75.465,12.387,70.869,13.056,44.729,0.0,45.703,0.0,44.743,0.0,45.119,0.0,44.957,0.0,45.588,0.0,46.096,0.0,44.663,0.0
532.16,506.695,25.465,75.407,12.476,70.779,12.989,44.565,0.0,45.531,0.0,44.568,0.0,45.029,0.0,44.767,0.0,45.487,0.0,45.997,0.0,44.565,0.0
531.855,506.373,25.482,75.231,12.435,70.693,13.047,44.469,0.0,45.435,0.0,44.546,0.0,45.02,0.0,44.915,0.0,45.492,0.0,45.999,0.0,44.573,0.0
531.869,506.308,25.561,75.283,12.428,70.683,13.133,44.531,0.0,45.495,0.0,44.485,0.0,44.949,0.0,44.825,0.0,45.493,0.0,46.003,0.0,44.561,0.0
532.879,507.489,25.39,75.35,12.417,70.831,12.973,44.681,0.0,45.644,0.0,44.669,0.0,45.141,0.0,44.902,0.0,45.555,0.0,46.077,0.0,44.639,0.0
531.763,506.262,25.501,75.282,12.424,70.78,13.077,44.507,0.0,45.469,0.0,44.499,0.0,44.977,0.0,44.751,0.0,45.431,0.0,45.99,0.0,44.576,0.0
532.168,506.599,25.569,75.306,12.451,70.712,13.118,44.536,0.0,45.499,0.0,44.561,0.0,45.06,0.0,44.822,0.0,45.53,0.0,46.011,0.0,44.562,0.0
532.118,506.616,25.502,75.252,12.429,70.653,13.073,44.604,0.0,45.567,0.0,44.583,0.0,45.039,0.0,44.828,0.0,45.505,0.0,46.017,0.0,44.568,0.0
532.606,507.075,25.531,75.366,12.462,70.732,13.069,44.617,0.0,45.586,0.0,44.608,0.0,45.074,0.0,44.882,0.0,45.545,0.0,46.052,0.0,44.613,0.0
532.11,506.604,25.506,75.347,12.451,70.775,13.055,44.551,0.0,45.521,0.0,44.558,0.0,45.029,0.0,44.761,0.0,45.493,0.0,46.0,0.0,44.569,0.0
532.527,507.024,25.503,75.391,12.409,70.889,13.094,44.578,0.0,45.551,0.0,44.589,0.0,45.06,0.0,44.797,0.0,45.527,0.0,46.037,0.0,44.605,0.0
532.312,506.791,25.521,75.287,12.427,70.845,13.094,44.562,0.0,45.527,0.0,44.566,0.0,45.039,0.0,44.847,0.0,45.516,0.0,46.019,0.0,44.583,0.0
531.513,506.061,25.452,75.205,12.403,70.767,13.049,44.479,0.0,45.436,0.0,44.483,0.0,44.953,0.0,44.753,0.0,45.42,0.0,46.001,0.0,44.564,0.0
532.633,507.115,25.518,75.343,12.412,70.846,13.106,44.597,0.0,45.559,0.0,44.604,0.0,45.074,0.0,44.88,0.0,45.543,0.0,46.053,0.0,44.616,0.0
532.653,507.17,25.483,75.303,12.426,70.8,13.057,44.63,0.0,45.596,0.0,44.625,0.0,45.101,0.0,44.917,0.0,45.572,0.0,46.032,0.0,44.594,0.0
531.992,506.596,25.396,75.279,12.413,70.772,12.983,44.55,0.0,45.515,0.0,44.543,0.0,45.026,0.0,44.836,0.0,45.497,0.0,46.007,0.0,44.571,0.0
531.998,506.639,25.359,75.311,12.378,70.734,12.981,44.55,0.0,45.519,0.0,44.554,0.0,45.033,0.0,44.836,0.0,45.508,0.0,46.016,0.0,44.578,0.0
531.72,506.393,25.327,75.251,12.329,70.657,12.998,44.534,0.0,45.504,0.0,44.536,0.0,45.008,0.0,44.811,0.0,45.479,0.0,46.028,0.0,44.585,0.0
532.138,506.718,25.42,75.246,12.349,70.774,13.071,44.559,0.0,45.531,0.0,44.563,0.0,45.04,0.0,44.857,0.0,45.509,0.0,46.036,0.0,44.603,0.0
532.07,506.606,25.464,75.105,12.411,70.777,13.053,44.582,0.0,45.553,0.0,44.591,0.0,45.067,0.0,44.86,0.0,45.532,0.0,45.984,0.0,44.555,0.0
531.809,506.337,25.472,75.117,12.437,70.736,13.035,44.54,0.0,45.504,0.0,44.547,0.0,45.022,0.0,44.821,0.0,45.487,0.0,45.997,0.0,44.566,0.0
532.211,506.799,25.412,75.233,12.392,70.768,13.02,44.583,0.0,45.547,0.0,44.585,0.0,45.06,0.0,44.87,0.0,45.524,0.0,46.03,0.0,44.599,0.0
532.537,507.033,25.504,75.218,12.415,70.853,13.089,44.612,0.0,45.567,0.0,44.611,0.0,45.076,0.0,44.881,0.0,45.545,0.0,46.056,0.0,44.614,0.0
531.985,506.479,25.506,75.202,12.462,70.838,13.044,44.516,0.0,45.495,0.0,44.544,0.0,45.01,0.0,44.796,0.0,45.497,0.0,46.01,0.0,44.571,0.0
532.038,506.519,25.519,75.219,12.422,70.89,13.097,44.477,0.0,45.492,0.0,44.533,0.0,45.002,0.0,44.766,0.0,45.514,0.0,46.025,0.0,44.601,0.0
531.759,506.248,25.511,75.089,12.42,70.789,13.091,44.577,0.0,45.456,0.0,44.486,0.0,44.988,0.0,44.838,0.0,45.472,0.0,45.985,0.0,44.568,0.0
532.457,506.98,25.477,75.23,12.469,70.984,13.008,44.555,0.0,45.526,0.0,44.564,0.0,45.11,0.0,44.842,0.0,45.54,0.0,46.046,0.0,44.583,0.0
532.395,506.91,25.485,75.23,12.429,70.837,13.056,44.657,0.0,45.624,0.0,44.659,0.0,45.023,0.0,44.839,0.0,45.485,0.0,45.985,0.0,44.571,0.0
532.88,507.487,25.393,75.364,12.403,71.101,12.99,44.604,0.0,45.574,0.0,44.619,0.0,45.089,0.0,44.884,0.0,45.559,0.0,46.061,0.0,44.632,0.0
531.873,506.393,25.48,75.257,12.419,70.797,13.061,44.449,0.0,45.408,0.0,44.559,0.0,45.033,0.0,44.786,0.0,45.497,0.0,46.021,0.0,44.586,0.0
531.72,506.243,25.477,75.18,12.458,70.696,13.019,44.563,0.0,45.534,0.0,44.455,0.0,44.926,0.0,44.812,0.0,45.487,0.0,46.014,0.0,44.576,0.0
532.64,507.21,25.43,75.31,12.426,71.052,13.004,44.636,0.0,45.591,0.0,44.631,0.0,45.102,0.0,44.818,0.0,45.477,0.0,45.981,0.0,44.612,0.0
532.342,506.924,25.418,75.235,12.399,70.85,13.019,44.586,0.0,45.545,0.0,44.586,0.0,45.061,0.0,44.9,0.0,45.543,0.0,46.055,0.0,44.563,0.0
532.129,506.714,25.415,75.225,12.459,70.821,12.956,44.554,0.0,45.532,0.0,44.564,0.0,45.035,0.0,44.907,0.0,45.498,0.0,46.011,0.0,44.567,0.0
531.575,506.255,25.32,75.405,12.445,70.81,12.875,44.468,0.0,45.42,0.0,44.458,0.0,44.93,0.0,44.75,0.0,45.405,0.0,46.025,0.0,44.584,0.0
532.863,507.505,25.358,75.415,12.411,70.924,12.947,44.549,0.0,45.562,0.0,44.668,0.0,45.145,0.0,44.926,0.0,45.634,0.0,46.061,0.0,44.621,0.0
531.972,506.548,25.424,75.284,12.421,70.787,13.003,44.598,0.0,45.525,0.0,44.506,0.0,44.984,0.0,44.785,0.0,45.52,0.0,45.998,0.0,44.561,0.0
532.575,507.099,25.476,75.273,12.441,70.889,13.035,44.616,0.0,45.569,0.0,44.583,0.0,45.103,0.0,44.88,0.0,45.532,0.0,46.042,0.0,44.612,0.0
532.368,506.84,25.528,75.33,12.47,70.837,13.058,44.588,0.0,45.572,0.0,44.597,0.0,45.051,0.0,44.787,0.0,45.486,0.0,45.995,0.0,44.597,0.0
532.183,506.731,25.452,75.252,12.399,70.797,13.053,44.592,0.0,45.56,0.0,44.586,0.0,45.05,0.0,44.805,0.0,45.511,0.0,46.019,0.0,44.559,0.0
532.197,506.723,25.474,75.277,12.449,70.86,13.025,44.552,0.0,45.514,0.0,44.548,0.0,45.022,0.0,44.792,0.0,45.492,0.0,46.058,0.0,44.608,0.0
532.009,506.539,25.47,75.144,12.42,70.782,13.05,44.53,0.0,45.51,0.0,44.54,0.0,45.008,0.0,44.861,0.0,45.545,0.0,46.026,0.0,44.593,0.0
531.346,505.98,25.366,75.018,12.358,70.788,13.008,44.48,0.0,45.453,0.0,44.487,0.0,44.957,0.0,44.757,0.0,45.499,0.0,45.981,0.0,44.56,0.0
531.9,506.517,25.383,75.046,12.386,70.755,12.997,44.602,0.0,45.564,0.0,44.598,0.0,45.077,0.0,44.826,0.0,45.488,0.0,46.002,0.0,44.559,0.0
532.725,507.236,25.489,75.171,12.43,70.808,13.059,44.666,0.0,45.626,0.0,44.656,0.0,45.139,0.0,44.936,0.0,45.553,0.0,46.064,0.0,44.617,0.0
532.281,506.805,25.476,75.162,12.43,70.823,13.046,44.584,0.0,45.554,0.0,44.583,0.0,45.063,0.0,44.873,0.0,45.527,0.0,46.036,0.0,44.6,0.0
531.973,506.5,25.473,75.151,12.427,70.794,13.046,44.525,0.0,45.503,0.0,44.546,0.0,45.018,0.0,44.864,0.0,45.503,0.0,46.017,0.0,44.579,0.0
531.994,506.477,25.517,75.139,12.44,70.77,13.077,44.538,0.0,45.51,0.0,44.556,0.0,45.031,0.0,44.851,0.0,45.497,0.0,46.011,0.0,44.574,0.0
531.668,506.193,25.475,75.067,12.409,70.738,13.066,44.516,0.0,45.478,0.0,44.521,0.0,45.043,0.0,44.797,0.0,45.482,0.0,45.994,0.0,44.557,0.0
531.966,506.448,25.518,75.096,12.422,70.835,13.096,44.524,0.0,45.487,0.0,44.533,0.0,45.027,0.0,44.838,0.0,45.501,0.0,46.009,0.0,44.598,0.0
532.391,506.822,25.569,75.098,12.454,70.858,13.115,44.622,0.0,45.589,0.0,44.625,0.0,45.037,0.0,44.864,0.0,45.513,0.0,46.016,0.0,44.6,0.0
532.22,506.755,25.465,75.116,12.389,70.781,13.076,44.581,0.0,45.548,0.0,44.583,0.0,45.082,0.0,44.838,0.0,45.559,0.0,46.072,0.0,44.595,0.0
532.438,506.919,25.519,75.27,12.443,70.878,13.076,44.568,0.0,45.534,0.0,44.574,0.0,45.072,0.0,44.807,0.0,45.542,0.0,46.055,0.0,44.619,0.0
531.941,506.492,25.449,75.223,12.424,70.797,13.025,44.57,0.0,45.536,0.0,44.576,0.0,45.001,0.0,44.77,0.0,45.484,0.0,45.98,0.0,44.555,0.0
531.803,506.394,25.409,75.211,12.43,70.75,12.979,44.508,0.0,45.499,0.0,44.54,0.0,45.013,0.0,44.79,0.0,45.503,0.0,46.004,0.0,44.576,0.0
532.662,507.264,25.398,75.308,12.419,70.838,12.979,44.667,0.0,45.595,0.0,44.619,0.0,45.098,0.0,44.867,0.0,45.565,0.0,46.07,0.0,44.637,0.0
531.948,506.487,25.461,75.179,12.408,70.824,13.053,44.541,0.0,45.504,0.0,44.54,0.0,45.017,0.0,44.822,0.0,45.498,0.0,45.996,0.0,44.566,0.0
531.996,506.54,25.456,75.181,12.376,70.807,13.08,44.543,0.0,45.515,0.0,44.561,0.0,45.041,0.0,44.807,0.0,45.497,0.0,46.012,0.0,44.576,0.0
532.239,506.648,25.591,75.289,12.478,70.831,13.113,44.533,0.0,45.499,0.0,44.539,0.0,45.016,0.0,44.868,0.0,45.489,0.0,46.009,0.0,44.575,0.0
531.915,506.511,25.404,75.262,12.417,70.962,12.987,44.382,0.0,45.418,0.0,44.517,0.0,44.991,0.0,44.806,0.0,45.462,0.0,46.071,0.0,44.64,0.0
532.454,506.918,25.536,75.142,12.457,70.743,13.079,44.705,0.0,45.583,0.0,44.555,0.0,45.046,0.0,44.921,0.0,45.618,0.0,46.019,0.0,44.586,0.0
531.131,505.67,25.461,75.196,12.426,70.712,13.035,44.386,0.0,45.34,0.0,44.386,0.0,44.953,0.0,44.714,0.0,45.463,0.0,45.969,0.0,44.551,0.0
532.745,507.228,25.517,75.139,12.455,70.644,13.062,44.787,0.0,45.756,0.0,44.789,0.0,45.157,0.0,44.888,0.0,45.497,0.0,46.004,0.0,44.567,0.0
533.188,507.689,25.499,75.293,12.492,70.998,13.007,44.652,0.0,45.616,0.0,44.651,0.0,45.123,0.0,45.01,0.0,45.586,0.0,46.102,0.0,44.658,0.0
536.123,508.25,27.873,77.472,14.747,71.002,13.126,44.46,0.0,45.429,0.0,44.471,0.0,44.942,0.0,44.666,0.0,45.399,0.0,45.917,0.0,44.492,0.0
542.896,511.748,31.148,79.371,16.499,72.404,14.649,44.485,0.0,45.445,0.0,44.488,0.0,44.96,0.0,44.743,0.0,45.414,0.0,45.933,0.0,44.505,0.0
543.777,512.292,31.485,79.119,16.164,73.06,15.321,44.462,0.0,45.43,0.0,44.495,0.0,44.958,0.0,44.772,0.0,45.408,0.0,46.009,0.0,44.579,0.0
540.256,509.982,30.274,77.519,15.457,72.023,14.817,44.482,0.0,45.475,0.0,44.549,0.0,45.025,0.0,44.82,0.0,45.484,0.0,46.016,0.0,44.589,0.0
536.885,507.615,29.27,75.928,14.757,71.138,14.513,44.516,0.0,45.515,0.0,44.557,0.0,45.025,0.0,44.817,0.0,45.488,0.0,46.032,0.0,44.599,0.0
536.344,507.341,29.003,75.757,14.482,70.954,14.521,44.584,0.0,45.532,0.0,44.572,0.0,45.037,0.0,44.803,0.0,45.502,0.0,46.018,0.0,44.582,0.0
536.253,507.478,28.775,75.789,14.291,71.03,14.484,44.559,0.0,45.52,0.0,44.573,0.0,45.04,0.0,44.855,0.0,45.51,0.0,46.016,0.0,44.586,0.0
536.263,507.545,28.718,75.732,14.284,71.203,14.434,44.548,0.0,45.524,0.0,44.558,0.0,45.033,0.0,44.835,0.0,45.5,0.0,46.019,0.0,44.593,0.0
536.963,508.172,28.791,75.889,14.341,71.273,14.45,44.622,0.0,45.588,0.0,44.615,0.0,45.089,0.0,44.843,0.0,45.555,0.0,46.064,0.0,44.634,0.0
536.249,507.508,28.741,75.716,14.298,71.289,14.443,44.541,0.0,45.511,0.0,44.556,0.0,45.032,0.0,44.799,0.0,45.491,0.0,46.0,0.0,44.573,0.0
535.861,507.248,28.613,75.589,14.235,71.27,14.378,44.522,0.0,45.493,0.0,44.539,0.0,45.016,0.0,44.806,0.0,45.475,0.0,45.981,0.0,44.557,0.0
547.406,513.551,33.855,78.941,17.07,73.97,16.785,44.568,0.0,45.535,0.0,44.575,0.0,45.05,0.0,44.808,0.0,45.504,0.0,46.013,0.0,44.587,0.0
555.875,518.604,37.271,82.125,19.559,75.852,17.712,44.584,0.0,45.543,0.0,44.562,0.0,45.035,0.0,44.819,0.0,45.483,0.0,46.015,0.0,44.586,0.0
554.103,518.477,35.626,82.29,19.376,75.505,16.25,44.584,0.0,45.551,0.0,44.558,0.0,45.03,0.0,44.875,0.0,45.479,0.0,46.018,0.0,44.587,0.0
555.642,519.449,36.193,82.439,19.208,76.339,16.985,44.566,0.0,45.529,0.0,44.564,0.0,45.037,0.0,44.852,0.0,45.489,0.0,46.027,0.0,44.607,0.0
556.448,519.681,36.767,82.402,18.913,76.433,17.854,44.622,0.0,45.561,0.0,44.595,0.0,45.068,0.0,44.86,0.0,45.524,0.0,46.021,0.0,44.595,0.0
556.607,519.621,36.986,82.585,19.152,76.116,17.834,44.602,0.0,45.602,0.0,44.626,0.0,45.096,0.0,44.92,0.0,45.551,0.0,45.986,0.0,44.537,0.0
561.962,522.335,39.627,84.707,20.885,77.228,18.742,44.446,0.0,45.492,0.0,44.552,0.0,45.024,0.0,44.82,0.0,45.485,0.0,46.002,0.0,44.579,0.0
572.24,527.543,44.697,88.173,24.278,78.771,20.419,44.559,0.0,45.537,0.0,44.561,0.0,45.032,0.0,44.827,0.0,45.49,0.0,46.01,0.0,44.583,0.0
571.912,527.706,44.206,86.954,22.759,80.058,21.447,44.558,0.0,45.51,0.0,44.556,0.0,45.031,0.0,44.93,0.0,45.483,0.0,46.026,0.0,44.6,0.0
570.204,526.865,43.339,86.051,21.554,80.439,21.785,44.534,0.0,45.459,0.0,44.508,0.0,44.976,0.0,44.786,0.0,45.427,0.0,46.054,0.0,44.631,0.0
572.573,528.435,44.138,86.937,22.453,80.646,21.685,44.644,0.0,45.568,0.0,44.595,0.0,45.064,0.0,44.883,0.0,45.514,0.0,46.004,0.0,44.58,0.0
572.108,527.634,44.474,85.598,22.254,81.174,22.22,44.598,0.0,45.569,0.0,44.588,0.0,45.065,0.0,44.931,0.0,45.52,0.0,46.004,0.0,44.587,0.0
563.509,521.839,41.67,80.295,18.7,80.761,22.97,44.57,0.0,45.541,0.0,44.583,0.0,45.054,0.0,44.912,0.0,45.5,0.0,46.028,0.0,44.595,0.0
547.925,513.515,34.41,75.987,14.152,77.094,20.258,44.54,0.0,45.498,0.0,44.537,0.0,45.01,0.0,44.806,0.0,45.458,0.0,46.012,0.0,44.573,0.0
543.085,511.511,31.574,75.814,14.153,74.245,17.421,44.663,0.0,45.627,0.0,44.698,0.0,45.171,0.0,44.951,0.0,45.628,0.0,46.075,0.0,44.639,0.0
540.72,509.686,31.034,75.647,14.165,73.836,16.869,44.493,0.0,45.46,0.0,44.472,0.0,44.933,0.0,44.799,0.0,45.482,0.0,45.998,0.0,44.566,0.0
540.823,509.874,30.949,75.584,14.1,73.343,16.849,44.618,0.0,45.587,0.0,44.616,0.0,45.09,0.0,44.909,0.0,45.505,0.0,46.026,0.0,44.596,0.0
537.17,507.489,29.681,75.645,14.251,71.714,15.43,44.433,0.0,45.409,0.0,44.449,0.0,44.978,0.0,44.776,0.0,45.501,0.0,46.003,0.0,44.581,0.0
536.328,507.373,28.955,75.565,14.086,71.186,14.869,44.523,0.0,45.485,0.0,44.527,0.0,45.026,0.0,44.896,0.0,45.523,0.0,46.037,0.0,44.605,0.0
536.085,507.249,28.836,75.567,14.101,71.153,14.735,44.578,0.0,45.539,0.0,44.579,0.0,45.031,0.0,44.723,0.0,45.49,0.0,46.009,0.0,44.58,0.0
542.978,511.226,31.752,78.765,16.451,71.84,15.301,44.553,0.0,45.516,0.0,44.56,0.0,45.048,0.0,44.853,0.0,45.497,0.0,46.009,0.0,44.585,0.0
544.627,512.362,32.265,78.627,16.218,72.856,16.047,44.584,0.0,45.559,0.0,44.601,0.0,45.068,0.0,44.965,0.0,45.499,0.0,46.013,0.0,44.59,0.0
538.244,508.434,29.81,76.501,13.834,72.824,15.976,44.221,0.0,45.214,0.0,44.277,0.0,44.781,0.0,44.756,0.0,45.345,0.0,45.929,0.0,44.586,0.0
533.8,506.352,27.448,75.802,12.897,71.837,14.551,43.781,0.0,44.746,0.0,43.814,0.0,44.414,0.0,44.835,0.0,45.45,0.0,45.994,0.0,45.679,0.0
565.966,532.728,33.238,80.215,16.812,74.461,16.426,52.306,0.0,45.609,0.0,44.66,0.0,45.104,0.0,44.949,0.0,45.544,0.0,46.044,0.0,53.836,0.0
606.601,566.932,39.669,84.311,20.184,78.321,19.485,64.79,0.0,46.403,0.0,45.413,0.0,45.712,0.0,44.982,0.0,45.542,0.0,46.044,0.0,65.414,0.0
609.953,572.568,37.385,83.091,18.677,78.386,18.708,68.38,0.0,45.778,0.0,44.77,0.0,45.201,0.0,45.049,0.0,45.584,0.0,46.078,0.0,70.251,0.0
603.742,569.114,34.628,81.68,17.503,77.586,17.125,67.682,0.0,45.566,0.0,44.605,0.0,45.078,0.0,44.932,0.0,45.486,0.0,46.002,0.0,70.497,0.0
599.371,566.291,33.08,79.406,15.541,77.346,17.539,67.642,0.0,45.455,0.0,44.501,0.0,44.981,0.0,44.848,0.0,45.435,0.0,45.932,0.0,70.745,0.0
596.428,564.957,31.471,77.489,13.735,77.151,17.736,67.639,0.0,45.508,0.0,44.557,0.0,45.065,0.0,44.876,0.0,45.554,0.0,46.088,0.0,71.03,0.0
586.311,558.216,28.095,75.552,12.517,74.39,15.578,66.291,0.0,45.52,0.0,44.551,0.0,44.983,0.0,44.766,0.0,45.458,0.0,46.024,0.0,70.681,0.0
567.945,542.473,25.472,75.25,12.431,71.057,13.041,54.211,0.0,45.753,0.0,44.794,0.0,45.265,0.0,45.109,0.0,45.643,0.0,46.104,0.0,69.287,0.0
558.494,533.142,25.352,75.208,12.454,70.817,12.898,46.426,0.0,45.502,0.0,44.545,0.0,45.013,0.0,44.958,0.0,45.474,0.0,46.0,0.0,69.199,0.0
558.808,533.452,25.356,75.327,12.341,70.942,13.015,46.447,0.0,45.476,0.0,44.521,0.0,44.989,0.0,44.923,0.0,45.524,0.0,46.05,0.0,69.253,0.0
559.201,533.767,25.434,75.136,12.413,70.847,13.021,46.574,0.0,45.628,0.0,44.661,0.0,45.153,0.0,44.922,0.0,45.527,0.0,46.048,0.0,69.271,0.0
557.996,532.577,25.419,75.215,12.409,70.988,13.01,46.506,0.0,45.556,0.0,44.595,0.0,45.057,0.0,44.81,0.0,45.516,0.0,46.035,0.0,68.299,0.0
543.796,518.341,25.455,75.159,12.425,70.841,13.03,45.668,0.0,45.542,0.0,44.578,0.0,45.047,0.0,44.879,0.0,45.488,0.0,46.013,0.0,55.126,0.0
541.996,516.488,25.508,75.273,12.47,70.928,13.038,44.64,0.0,45.518,0.0,44.551,0.0,45.027,0.0,44.835,0.0,45.478,0.0,46.001,0.0,54.237,0.0
540.988,515.541,25.447,75.241,12.408,70.876,13.039,44.322,0.0,45.395,0.0,44.45,0.0,44.919,0.0,44.68,0.0,45.37,0.0,46.024,0.0,54.264,0.0
542.355,516.917,25.438,75.233,12.428,70.993,13.01,44.667,0.0,45.566,0.0,44.594,0.0,45.075,0.0,44.972,0.0,45.574,0.0,46.008,0.0,54.235,0.0
542.314,516.727,25.587,75.323,12.473,70.969,13.114,44.599,0.0,45.547,0.0,44.58,0.0,45.056,0.0,44.87,0.0,45.517,0.0,46.013,0.0,54.253,0.0
536.443,510.883,25.56,75.237,12.468,71.067,13.092,44.613,0.0,45.579,0.0,44.626,0.0,45.102,0.0,44.893,0.0,45.522,0.0,46.038,0.0,48.206,0.0
533.532,507.988,25.544,75.32,12.479,70.927,13.065,44.595,0.0,45.555,0.0,44.598,0.0,45.068,0.0,44.849,0.0,45.515,0.0,46.028,0.0,45.533,0.0
532.848,507.309,25.539,75.251,12.448,70.866,13.091,44.557,0.0,45.523,0.0,44.562,0.0,45.032,0.0,44.783,0.0,45.499,0.0,46.015,0.0,45.221,0.0
532.51,506.974,25.536,75.194,12.435,70.992,13.101,44.497,0.0,45.46,0.0,44.503,0.0,44.972,0.0,44.719,0.0,45.434,0.0,46.022,0.0,45.181,0.0
532.38,506.938,25.442,75.226,12.423,70.885,13.019,44.48,0.0,45.45,0.0,44.494,0.0,44.959,0.0,44.865,0.0,45.496,0.0,45.98,0.0,45.103,0.0
532.766,507.228,25.538,75.391,12.469,70.953,13.069,44.549,0.0,45.516,0.0,44.553,0.0,45.022,0.0,44.824,0.0,45.526,0.0,46.001,0.0,44.893,0.0
532.955,507.388,25.567,75.38,12.464,70.96,13.103,44.625,0.0,45.59,0.0,44.63,0.0,45.102,0.0,44.876,0.0,45.515,0.0,46.034,0.0,44.676,0.0
532.916,507.347,25.569,75.366,12.454,70.977,13.115,44.607,0.0,45.577,0.0,44.621,0.0,45.09,0.0,44.976,0.0,45.513,0.0,46.027,0.0,44.593,0.0
532.314,506.824,25.49,75.348,12.421,71.012,13.069,44.523,0.0,45.492,0.0,44.531,0.0,45.0,0.0,44.858,0.0,45.465,0.0,45.985,0.0,44.61,0.0
532.565,507.105,25.46,75.331,12.413,71.01,13.047,44.576,0.0,45.544,0.0,44.577,0.0,45.054,0.0,44.851,0.0,45.512,0.0,46.038,0.0,44.612,0.0
532.791,507.264,25.527,75.374,12.456,70.995,13.071,44.567,0.0,45.572,0.0,44.614,0.0,45.093,0.0,44.869,0.0,45.544,0.0,46.07,0.0,44.566,0.0
532.294,506.829,25.465,75.399,12.443,70.964,13.022,44.524,0.0,45.496,0.0,44.539,0.0,45.014,0.0,44.806,0.0,45.491,0.0,46.016,0.0,44.58,0.0
532.562,507.096,25.466,75.384,12.439,70.964,13.027,44.64,0.0,45.528,0.0,44.555,0.0,45.034,0.0,44.847,0.0,45.518,0.0,46.026,0.0,44.6,0.0
532.239,506.742,25.497,75.265,12.45,70.951,13.047,44.568,0.0,45.533,0.0,44.565,0.0,45.046,0.0,44.759,0.0,45.495,0.0,45.995,0.0,44.565,0.0
533.101,507.557,25.544,75.417,12.458,71.138,13.086,44.621,0.0,45.592,0.0,44.625,0.0,45.098,0.0,44.8,0.0,45.56,0.0,46.068,0.0,44.638,0.0
532.099,506.592,25.507,75.383,12.447,70.884,13.06,44.505,0.0,45.478,0.0,44.517,0.0,44.996,0.0,44.794,0.0,45.462,0.0,45.999,0.0,44.574,0.0
531.72,506.218,25.502,75.244,12.487,70.953,13.015,44.457,0.0,45.424,0.0,44.461,0.0,44.952,0.0,44.752,0.0,45.423,0.0,45.988,0.0,44.564,0.0
533.257,507.714,25.543,75.317,12.486,71.07,13.057,44.66,0.0,45.626,0.0,44.657,0.0,45.116,0.0,44.94,0.0,45.627,0.0,46.065,0.0,44.636,0.0
532.189,506.804,25.385,75.21,12.386,70.985,12.999,44.574,0.0,45.535,0.0,44.573,0.0,45.05,0.0,44.814,0.0,45.488,0.0,46.001,0.0,44.574,0.0
532.457,507.078,25.379,75.167,12.373,70.987,13.006,44.61,0.0,45.571,0.0,44.613,0.0,45.088,0.0,44.889,0.0,45.529,0.0,46.031,0.0,44.593,0.0
532.413,506.915,25.498,75.273,12.418,71.044,13.08,44.567,0.0,45.527,0.0,44.554,0.0,45.028,0.0,44.839,0.0,45.495,0.0,46.009,0.0,44.579,0.0
532.055,506.685,25.37,75.185,12.415,70.928,12.955,44.535,0.0,45.506,0.0,44.543,0.0,45.016,0.0,44.877,0.0,45.496,0.0,46.015,0.0,44.584,0.0
531.296,505.853,25.443,75.176,12.445,70.873,12.998,44.394,0.0,45.407,0.0,44.445,0.0,44.918,0.0,44.738,0.0,45.369,0.0,45.984,0.0,44.549,0.0
532.567,507.084,25.483,75.133,12.431,70.948,13.052,44.631,0.0,45.557,0.0,44.594,0.0,45.062,0.0,44.983,0.0,45.592,0.0,46.01,0.0,44.574,0.0
532.388,506.882,25.506,75.332,12.448,70.844,13.058,44.573,0.0,45.531,0.0,44.568,0.0,45.044,0.0,44.786,0.0,45.531,0.0,46.046,0.0,44.627,0.0
532.881,507.358,25.523,75.305,12.418,70.929,13.105,44.648,0.0,45.623,0.0,44.667,0.0,45.14,0.0,44.878,0.0,45.531,0.0,46.041,0.0,44.596,0.0
532.321,506.711,25.61,75.243,12.478,70.856,13.132,44.566,0.0,45.534,0.0,44.578,0.0,45.044,0.0,44.808,0.0,45.491,0.0,46.01,0.0,44.581,0.0
531.104,505.596,25.508,75.151,12.455,70.756,13.053,44.428,0.0,45.397,0.0,44.429,0.0,44.906,0.0,44.707,0.0,45.367,0.0,45.881,0.0,44.574,0.0
532.768,507.311,25.457,75.17,12.421,70.918,13.036,44.654,0.0,45.621,0.0,44.656,0.0,45.136,0.0,44.873,0.0,45.589,0.0,46.102,0.0,44.592,0.0
532.462,506.915,25.547,75.378,12.441,70.805,13.106,44.581,0.0,45.552,0.0,44.595,0.0,45.063,0.0,44.779,0.0,45.523,0.0,46.044,0.0,44.595,0.0
532.191,506.678,25.513,75.235,12.393,70.844,13.12,44.539,0.0,45.5,0.0,44.535,0.0,45.031,0.0,44.887,0.0,45.503,0.0,46.02,0.0,44.584,0.0
532.423,506.895,25.528,75.274,12.475,70.798,13.053,44.59,0.0,45.566,0.0,44.592,0.0,45.051,0.0,44.869,0.0,45.526,0.0,46.034,0.0,44.595,0.0
532.392,506.878,25.514,75.205,12.463,70.863,13.051,44.587,0.0,45.558,0.0,44.587,0.0,45.05,0.0,44.881,0.0,45.52,0.0,46.025,0.0,44.602,0.0
532.327,506.756,25.571,75.31,12.461,70.741,13.11,44.569,0.0,45.54,0.0,44.573,0.0,45.047,0.0,44.834,0.0,45.517,0.0,46.029,0.0,44.596,0.0
531.755,506.285,25.47,75.262,12.437,70.722,13.033,44.513,0.0,45.478,0.0,44.515,0.0,44.99,0.0,44.795,0.0,45.456,0.0,45.993,0.0,44.561,0.0
531.965,506.506,25.459,75.171,12.417,70.859,13.042,44.502,0.0,45.473,0.0,44.512,0.0,44.978,0.0,44.889,0.0,45.522,0.0,46.015,0.0,44.585,0.0
532.018,506.561,25.457,75.167,12.412,70.794,13.045,44.544,0.0,45.512,0.0,44.554,0.0,45.047,0.0,44.855,0.0,45.51,0.0,46.005,0.0,44.573,0.0
532.358,506.842,25.516,75.303,12.444,70.732,13.072,44.608,0.0,45.571,0.0,44.604,0.0,45.082,0.0,44.836,0.0,45.506,0.0,46.019,0.0,44.581,0.0
532.531,507.006,25.525,75.33,12.468,70.838,13.057,44.612,0.0,45.57,0.0,44.604,0.0,45.061,0.0,44.85,0.0,45.52,0.0,46.03,0.0,44.591,0.0
532.375,506.908,25.467,75.401,12.439,70.839,13.028,44.577,0.0,45.537,0.0,44.577,0.0,45.046,0.0,44.815,0.0,45.511,0.0,46.02,0.0,44.585,0.0
532.151,506.648,25.503,75.42,12.449,70.79,13.054,44.527,0.0,45.493,0.0,44.529,0.0,45.004,0.0,44.79,0.0,45.472,0.0,46.028,0.0,44.595,0.0
532.083,506.536,25.547,75.306,12.474,70.754,13.073,44.524,0.0,45.492,0.0,44.526,0.0,45.0,0.0,44.857,0.0,45.486,0.0,46.011,0.0,44.58,0.0
532.734,507.191,25.543,75.453,12.47,70.722,13.073,44.595,0.0,45.564,0.0,44.595,0.0,45.099,0.0,44.95,0.0,45.581,0.0,46.031,0.0,44.601,0.0
532.67,507.159,25.511,75.472,12.463,70.78,13.048,44.596,0.0,45.559,0.0,44.595,0.0,45.091,0.0,44.87,0.0,45.541,0.0,46.043,0.0,44.612,0.0
531.909,506.424,25.485,75.264,12.433,70.768,13.052,44.565,0.0,45.523,0.0,44.566,0.0,44.993,0.0,44.763,0.0,45.468,0.0,45.97,0.0,44.544,0.0
532.558,506.993,25.565,75.404,12.493,70.863,13.072,44.58,0.0,45.544,0.0,44.579,0.0,45.049,0.0,44.817,0.0,45.523,0.0,46.028,0.0,44.606,0.0
532.44,506.928,25.512,75.339,12.477,70.942,13.035,44.56,0.0,45.526,0.0,44.558,0.0,45.03,0.0,44.837,0.0,45.506,0.0,46.034,0.0,44.596,0.0
532.116,506.563,25.553,75.388,12.473,70.834,13.08,44.507,0.0,45.465,0.0,44.505,0.0,44.976,0.0,44.827,0.0,45.461,0.0,46.018,0.0,44.582,0.0
532.527,506.982,25.545,75.289,12.462,70.905,13.083,44.575,0.0,45.545,0.0,44.578,0.0,45.06,0.0,44.846,0.0,45.579,0.0,46.025,0.0,44.58,0.0
532.944,507.432,25.512,75.381,12.465,71.009,13.047,44.621,0.0,45.586,0.0,44.621,0.0,45.117,0.0,44.828,0.0,45.561,0.0,46.074,0.0,44.634,0.0
531.832,506.411,25.421,75.176,12.423,70.89,12.998,44.539,0.0,45.505,0.0,44.546,0.0,44.995,0.0,44.826,0.0,45.455,0.0,45.952,0.0,44.527,0.0
532.585,507.137,25.448,75.428,12.419,70.985,13.029,44.575,0.0,45.544,0.0,44.576,0.0,45.05,0.0,44.823,0.0,45.509,0.0,46.041,0.0,44.606,0.0
532.413,507.093,25.32,75.492,12.345,70.768,12.975,44.578,0.0,45.551,0.0,44.592,0.0,45.064,0.0,44.891,0.0,45.537,0.0,46.025,0.0,44.595,0.0
531.882,506.474,25.408,75.405,12.426,70.776,12.982,44.482,0.0,45.509,0.0,44.544,0.0,45.014,0.0,44.701,0.0,45.481,0.0,45.995,0.0,44.567,0.0
532.115,506.672,25.443,75.418,12.433,70.845,13.01,44.54,0.0,45.455,0.0,44.491,0.0,44.969,0.0,44.841,0.0,45.511,0.0,46.014,0.0,44.588,0.0
532.982,507.396,25.586,75.571,12.501,71.015,13.085,44.59,0.0,45.54,0.0,44.578,0.0,45.112,0.0,44.791,0.0,45.536,0.0,46.05,0.0,44.613,0.0
533.106,507.654,25.452,75.523,12.453,70.961,12.999,44.653,0.0,45.619,0.0,44.654,0.0,45.075,0.0,44.922,0.0,45.556,0.0,46.062,0.0,44.629,0.0
532.473,507.025,25.448,75.351,12.452,70.927,12.996,44.606,0.0,45.568,0.0,44.603,0.0,45.065,0.0,44.774,0.0,45.515,0.0,46.026,0.0,44.59,0.0
532.698,507.226,25.472,75.467,12.481,71.083,12.991,44.57,0.0,45.532,0.0,44.58,0.0,45.046,0.0,44.828,0.0,45.508,0.0,46.023,0.0,44.589,0.0
532.114,506.594,25.52,75.428,12.442,70.921,13.078,44.489,0.0,45.459,0.0,44.503,0.0,44.97,0.0,44.783,0.0,45.433,0.0,46.018,0.0,44.59,0.0
532.322,506.922,25.4,75.35,12.362,71.01,13.038,44.559,0.0,45.528,0.0,44.561,0.0,45.037,0.0,44.856,0.0,45.514,0.0,45.959,0.0,44.548,0.0
531.825,506.424,25.401,75.396,12.371,70.952,13.03,44.461,0.0,45.43,0.0,44.465,0.0,44.944,0.0,44.626,0.0,45.531,0.0,46.031,0.0,44.588,0.0
532.903,507.475,25.428,75.27,12.404,70.996,13.024,44.67,0.0,45.642,0.0,44.683,0.0,45.154,0.0,44.882,0.0,45.54,0.0,46.034,0.0,44.604,0.0
532.656,507.135,25.521,75.277,12.47,70.879,13.051,44.626,0.0,45.596,0.0,44.635,0.0,45.104,0.0,44.855,0.0,45.524,0.0,46.032,0.0,44.607,0.0
531.68,506.211,25.469,75.281,12.403,70.729,13.066,44.515,0.0,45.482,0.0,44.516,0.0,44.992,0.0,44.756,0.0,45.447,0.0,45.961,0.0,44.532,0.0
531.839,506.416,25.423,75.302,12.364,70.922,13.059,44.488,0.0,45.449,0.0,44.493,0.0,44.972,0.0,44.812,0.0,45.432,0.0,45.991,0.0,44.555,0.0
532.603,507.208,25.395,75.366,12.374,70.964,13.021,44.592,0.0,45.558,0.0,44.587,0.0,45.071,0.0,44.918,0.0,45.531,0.0,46.027,0.0,44.594,0.0
532.878,507.433,25.445,75.421,12.394,70.967,13.051,44.607,0.0,45.571,0.0,44.596,0.0,45.103,0.0,44.921,0.0,45.569,0.0,46.053,0.0,44.625,0.0
532.502,507.06,25.442,75.327,12.406,70.967,13.036,44.545,0.0,45.509,0.0,44.587,0.0,45.063,0.0,44.867,0.0,45.536,0.0,46.043,0.0,44.616,0.0
532.238,506.862,25.376,75.325,12.375,70.917,13.001,44.554,0.0,45.516,0.0,44.545,0.0,45.043,0.0,44.83,0.0,45.517,0.0,46.024,0.0,44.591,0.0
531.7,506.365,25.335,75.287,12.381,70.927,12.954,44.531,0.0,45.494,0.0,44.488,0.0,44.964,0.0,44.698,0.0,45.432,0.0,45.985,0.0,44.559,0.0
