experiment_start,experiment_end,gpu_0_start_benchmark,gpu_0_stop_benchmark,wattmetre_power_watt_energy_consumption(kWh),wattmetre_power_watt_csv_file,bmc_node_power_watt_energy_consumption(kWh),bmc_node_power_watt_csv_file,pdu_outlet_power_watt_energy_consumption(kWh),pdu_outlet_power_watt_csv_file,tool_csv_file,tool_parameters,tool_energy_consumption(kWh),result_dir,tool_name,source_dir,job_id,es_execution_command,es_analysis_command,launch_parallel_script,trace_tar_file,trace_eprofile,execution_script_path,benchmark_config_file,benchmark_config,binary_path,gpu_0_name,gpu_0_benchmark_id,gpu_0_gpu_id,gpu_0_binary_dir,gpu_0_appli,gpu_0_appli_class,gpu_0_sleep_before,gpu_0_sleep_after,gpu_0_execution_script_template,gpu_1_name,gpu_1_benchmark_id,gpu_1_gpu_id,gpu_1_binary_dir,gpu_1_appli,gpu_1_appli_class,gpu_1_sleep_before,gpu_1_sleep_after,gpu_1_execution_script_template,gpu_2_name,gpu_2_benchmark_id,gpu_2_gpu_id,gpu_2_binary_dir,gpu_2_appli,gpu_2_appli_class,gpu_2_sleep_before,gpu_2_sleep_after,gpu_2_execution_script_template,gpu_3_name,gpu_3_benchmark_id,gpu_3_gpu_id,gpu_3_binary_dir,gpu_3_appli,gpu_3_appli_class,gpu_3_sleep_before,gpu_3_sleep_after,gpu_3_execution_script_template,gpu_4_name,gpu_4_benchmark_id,gpu_4_gpu_id,gpu_4_binary_dir,gpu_4_appli,gpu_4_appli_class,gpu_4_sleep_before,gpu_4_sleep_after,gpu_4_execution_script_template,gpu_5_name,gpu_5_benchmark_id,gpu_5_gpu_id,gpu_5_binary_dir,gpu_5_appli,gpu_5_appli_class,gpu_5_sleep_before,gpu_5_sleep_after,gpu_5_execution_script_template,gpu_6_name,gpu_6_benchmark_id,gpu_6_gpu_id,gpu_6_binary_dir,gpu_6_appli,gpu_6_appli_class,gpu_6_sleep_before,gpu_6_sleep_after,gpu_6_execution_script_template,gpu_7_name,gpu_7_benchmark_id,gpu_7_gpu_id,gpu_7_binary_dir,gpu_7_appli,gpu_7_appli_class,gpu_7_sleep_before,gpu_7_sleep_after,gpu_7_execution_script_template,exp_id,host_name,site,node,gpu_name,gpu_count,cpu_name,cpu_count,cpu_phyical_core_count
1647337397.5306213,1647337479.1007028,1647337431.407794,1647337434.840005,0.0081444420209061,/home/mjay/GPU_benchmark_energy/results/gemini/1305030_0/wattmetre_power_watt.csv,0.00283,/home/mjay/GPU_benchmark_energy/results/gemini/1305030_0/bmc_node_power_watt.csv,0.0,/home/mjay/GPU_benchmark_energy/results/gemini/1305030_0/pdu_outlet_power_watt.csv,/home/mjay/GPU_benchmark_energy/results/gemini/1305030_0/energy_scope.csv,/home/mjay/GPU_benchmark_energy/results/gemini/1305030_0/energy_scope_parameters.csv,0.0087800688888888,/home/mjay/GPU_benchmark_energy/results/gemini/1305030_0/,energy scope,/home/mjay/energy_scope,1305030,/home/mjay/energy_scope/energy_scope_g5k.sh,/home/mjay/energy_scope/energy_scope_run_analysis_allgo.sh,/home/mjay/GPU_benchmark_energy/code/launch_parallel.sh,/home/mjay/GPU_benchmark_energy/results/gemini/1305030_0/energy_scope_1305030.tar.gz,/home/mjay/GPU_benchmark_energy/results/gemini/1305030_0/tmp_energy_scope_1305030/energy_scope_eprofile_1305030.txt,/home/mjay/GPU_benchmark_energy/results/gemini/1305030_0//gpu7/scripts/0.sh,/home/mjay/GPU_benchmark_energy/NAS_benchmark_binaries/gpu0/gpu.config,"{'gpu_device': 0, 'ep_threads_per_block': 32}",/home/mjay/GPU_benchmark_energy/NAS_benchmark_binaries/gpu7/ep.E,NAS,1305030_0_0,0,/home/mjay/GPU_benchmark_energy/NAS_benchmark_binaries/gpu0/,ep,E,30,30,/home/mjay/GPU_benchmark_energy/code/script_template.sh,NAS,1305030_0_0,1,/home/mjay/GPU_benchmark_energy/NAS_benchmark_binaries/gpu1/,ep,E,30,30,/home/mjay/GPU_benchmark_energy/code/script_template.sh,NAS,1305030_0_0,2,/home/mjay/GPU_benchmark_energy/NAS_benchmark_binaries/gpu2/,ep,E,30,30,/home/mjay/GPU_benchmark_energy/code/script_template.sh,NAS,1305030_0_0,3,/home/mjay/GPU_benchmark_energy/NAS_benchmark_binaries/gpu3/,ep,E,30,30,/home/mjay/GPU_benchmark_energy/code/script_template.sh,NAS,1305030_0_0,4,/home/mjay/GPU_benchmark_energy/NAS_benchmark_binaries/gpu4/,ep,E,30,30,/home/mjay/GPU_benchmark_energy/code/script_template.sh,NAS,1305030_0_0,5,/home/mjay/GPU_benchmark_energy/NAS_benchmark_binaries/gpu5/,ep,E,30,30,/home/mjay/GPU_benchmark_energy/code/script_template.sh,NAS,1305030_0_0,6,/home/mjay/GPU_benchmark_energy/NAS_benchmark_binaries/gpu6/,ep,E,30,30,/home/mjay/GPU_benchmark_energy/code/script_template.sh,NAS,1305030_0_0,7,/home/mjay/GPU_benchmark_energy/NAS_benchmark_binaries/gpu7/,ep,E,30,30,/home/mjay/GPU_benchmark_energy/code/script_template.sh,1305030_0,"gemini-2.lyon.grid5000.fr
",lyon,gemini-2,Tesla V100-SXM2-32GB,8,Intel(R) Xeon(R) CPU E5-2698 v4 @ 2.20GHz,80,40
1647339172.5339797,1647339192.984892,1647339177.426234,1647339181.738488,0.0021584566666666,/home/mjay/GPU_benchmark_energy/results/gemini/1305030_2/wattmetre_power_watt.csv,0.00074,/home/mjay/GPU_benchmark_energy/results/gemini/1305030_2/bmc_node_power_watt.csv,0.0,/home/mjay/GPU_benchmark_energy/results/gemini/1305030_2/pdu_outlet_power_watt.csv,/home/mjay/GPU_benchmark_energy/results/gemini/1305030_2/energy_scope.csv,/home/mjay/GPU_benchmark_energy/results/gemini/1305030_2/energy_scope_parameters.csv,0.0009019461111111,/home/mjay/GPU_benchmark_energy/results/gemini/1305030_2/,energy scope,/home/mjay/energy_scope,1305030,/home/mjay/energy_scope/energy_scope_g5k.sh,/home/mjay/energy_scope/energy_scope_run_analysis_allgo.sh,/home/mjay/GPU_benchmark_energy/code/launch_parallel.sh,/home/mjay/GPU_benchmark_energy/results/gemini/1305030_2/energy_scope_1305030.tar.gz,/home/mjay/GPU_benchmark_energy/results/gemini/1305030_2/tmp_energy_scope_1305030/energy_scope_eprofile_1305030.txt,/home/mjay/GPU_benchmark_energy/results/gemini/1305030_2//gpu7/scripts/0.sh,/home/mjay/GPU_benchmark_energy/NAS_benchmark_binaries/gpu0/gpu.config,"{'gpu_device': 0, 'ep_threads_per_block': 32}",/home/mjay/GPU_benchmark_energy/NAS_benchmark_binaries/gpu7/ep.E,NAS,1305030_2_0,0,/home/mjay/GPU_benchmark_energy/NAS_benchmark_binaries/gpu0/,ep,E,1,1,/home/mjay/GPU_benchmark_energy/code/script_template.sh,NAS,1305030_2_0,1,/home/mjay/GPU_benchmark_energy/NAS_benchmark_binaries/gpu1/,ep,E,1,1,/home/mjay/GPU_benchmark_energy/code/script_template.sh,NAS,1305030_2_0,2,/home/mjay/GPU_benchmark_energy/NAS_benchmark_binaries/gpu2/,ep,E,1,1,/home/mjay/GPU_benchmark_energy/code/script_template.sh,NAS,1305030_2_0,3,/home/mjay/GPU_benchmark_energy/NAS_benchmark_binaries/gpu3/,ep,E,1,1,/home/mjay/GPU_benchmark_energy/code/script_template.sh,NAS,1305030_2_0,4,/home/mjay/GPU_benchmark_energy/NAS_benchmark_binaries/gpu4/,ep,E,1,1,/home/mjay/GPU_benchmark_energy/code/script_template.sh,NAS,1305030_2_0,5,/home/mjay/GPU_benchmark_energy/NAS_benchmark_binaries/gpu5/,ep,E,1,1,/home/mjay/GPU_benchmark_energy/code/script_template.sh,NAS,1305030_2_0,6,/home/mjay/GPU_benchmark_energy/NAS_benchmark_binaries/gpu6/,ep,E,1,1,/home/mjay/GPU_benchmark_energy/code/script_template.sh,NAS,1305030_2_0,7,/home/mjay/GPU_benchmark_energy/NAS_benchmark_binaries/gpu7/,ep,E,1,1,/home/mjay/GPU_benchmark_energy/code/script_template.sh,1305030_2,"gemini-2.lyon.grid5000.fr
",lyon,gemini-2,Tesla V100-SXM2-32GB,8,Intel(R) Xeon(R) CPU E5-2698 v4 @ 2.20GHz,80,40
1647339202.622439,1647339223.123705,1647339207.459416,1647339207.856626,0.00210621280028,/home/mjay/GPU_benchmark_energy/results/gemini/1305030_3/wattmetre_power_watt.csv,0.0007199999999999,/home/mjay/GPU_benchmark_energy/results/gemini/1305030_3/bmc_node_power_watt.csv,0.0,/home/mjay/GPU_benchmark_energy/results/gemini/1305030_3/pdu_outlet_power_watt.csv,/home/mjay/GPU_benchmark_energy/results/gemini/1305030_3/energy_scope.csv,/home/mjay/GPU_benchmark_energy/results/gemini/1305030_3/energy_scope_parameters.csv,0.0002842466666666,/home/mjay/GPU_benchmark_energy/results/gemini/1305030_3/,energy scope,/home/mjay/energy_scope,1305030,/home/mjay/energy_scope/energy_scope_g5k.sh,/home/mjay/energy_scope/energy_scope_run_analysis_allgo.sh,/home/mjay/GPU_benchmark_energy/code/launch_parallel.sh,/home/mjay/GPU_benchmark_energy/results/gemini/1305030_3/energy_scope_1305030.tar.gz,/home/mjay/GPU_benchmark_energy/results/gemini/1305030_3/tmp_energy_scope_1305030/energy_scope_eprofile_1305030.txt,/home/mjay/GPU_benchmark_energy/results/gemini/1305030_3//gpu7/scripts/0.sh,/home/mjay/GPU_benchmark_energy/NAS_benchmark_binaries/gpu0/gpu.config,"{'gpu_device': 0, 'mg_threads_per_block_on_comm3': 1024, 'mg_threads_per_block_on_interp': 32, 'mg_threads_per_block_on_norm2u3': 32, 'mg_threads_per_block_on_psinv': 1024, 'mg_threads_per_block_on_resid': 512, 'mg_threads_per_block_on_rprj3': 512, 'mg_threads_per_block_on_zero3': 128}",/home/mjay/GPU_benchmark_energy/NAS_benchmark_binaries/gpu7/mg.E,NAS,1305030_3_0,0,/home/mjay/GPU_benchmark_energy/NAS_benchmark_binaries/gpu0/,mg,E,1,1,/home/mjay/GPU_benchmark_energy/code/script_template.sh,NAS,1305030_3_0,1,/home/mjay/GPU_benchmark_energy/NAS_benchmark_binaries/gpu1/,mg,E,1,1,/home/mjay/GPU_benchmark_energy/code/script_template.sh,NAS,1305030_3_0,2,/home/mjay/GPU_benchmark_energy/NAS_benchmark_binaries/gpu2/,mg,E,1,1,/home/mjay/GPU_benchmark_energy/code/script_template.sh,NAS,1305030_3_0,3,/home/mjay/GPU_benchmark_energy/NAS_benchmark_binaries/gpu3/,mg,E,1,1,/home/mjay/GPU_benchmark_energy/code/script_template.sh,NAS,1305030_3_0,4,/home/mjay/GPU_benchmark_energy/NAS_benchmark_binaries/gpu4/,mg,E,1,1,/home/mjay/GPU_benchmark_energy/code/script_template.sh,NAS,1305030_3_0,5,/home/mjay/GPU_benchmark_energy/NAS_benchmark_binaries/gpu5/,mg,E,1,1,/home/mjay/GPU_benchmark_energy/code/script_template.sh,NAS,1305030_3_0,6,/home/mjay/GPU_benchmark_energy/NAS_benchmark_binaries/gpu6/,mg,E,1,1,/home/mjay/GPU_benchmark_energy/code/script_template.sh,NAS,1305030_3_0,7,/home/mjay/GPU_benchmark_energy/NAS_benchmark_binaries/gpu7/,mg,E,1,1,/home/mjay/GPU_benchmark_energy/code/script_template.sh,1305030_3,"gemini-2.lyon.grid5000.fr
",lyon,gemini-2,Tesla V100-SXM2-32GB,8,Intel(R) Xeon(R) CPU E5-2698 v4 @ 2.20GHz,80,40
1647339271.1471264,1647339393.7354603,1647339276.008245,1647339378.431423,0.0137120930022446,/home/mjay/GPU_benchmark_energy/results/gemini/1305030_4/wattmetre_power_watt.csv,0.005,/home/mjay/GPU_benchmark_energy/results/gemini/1305030_4/bmc_node_power_watt.csv,0.0,/home/mjay/GPU_benchmark_energy/results/gemini/1305030_4/pdu_outlet_power_watt.csv,/home/mjay/GPU_benchmark_energy/results/gemini/1305030_4/energy_scope.csv,/home/mjay/GPU_benchmark_energy/results/gemini/1305030_4/energy_scope_parameters.csv,0.0181702952777777,/home/mjay/GPU_benchmark_energy/results/gemini/1305030_4/,energy scope,/home/mjay/energy_scope,1305030,/home/mjay/energy_scope/energy_scope_g5k.sh,/home/mjay/energy_scope/energy_scope_run_analysis_allgo.sh,/home/mjay/GPU_benchmark_energy/code/launch_parallel.sh,/home/mjay/GPU_benchmark_energy/results/gemini/1305030_4/energy_scope_1305030.tar.gz,/home/mjay/GPU_benchmark_energy/results/gemini/1305030_4/tmp_energy_scope_1305030/energy_scope_eprofile_1305030.txt,/home/mjay/GPU_benchmark_energy/results/gemini/1305030_4//gpu7/scripts/0.sh,/home/mjay/GPU_benchmark_energy/NAS_benchmark_binaries/gpu0/gpu.config,"{'gpu_device': 0, 'mg_threads_per_block_on_comm3': 1024, 'mg_threads_per_block_on_interp': 32, 'mg_threads_per_block_on_norm2u3': 32, 'mg_threads_per_block_on_psinv': 1024, 'mg_threads_per_block_on_resid': 512, 'mg_threads_per_block_on_rprj3': 512, 'mg_threads_per_block_on_zero3': 128}",/home/mjay/GPU_benchmark_energy/NAS_benchmark_binaries/gpu7/mg.D,NAS,1305030_4_0,0,/home/mjay/GPU_benchmark_energy/NAS_benchmark_binaries/gpu0/,mg,D,1,1,/home/mjay/GPU_benchmark_energy/code/script_template.sh,NAS,1305030_4_0,1,/home/mjay/GPU_benchmark_energy/NAS_benchmark_binaries/gpu1/,mg,D,1,1,/home/mjay/GPU_benchmark_energy/code/script_template.sh,NAS,1305030_4_0,2,/home/mjay/GPU_benchmark_energy/NAS_benchmark_binaries/gpu2/,mg,D,1,1,/home/mjay/GPU_benchmark_energy/code/script_template.sh,NAS,1305030_4_0,3,/home/mjay/GPU_benchmark_energy/NAS_benchmark_binaries/gpu3/,mg,D,1,1,/home/mjay/GPU_benchmark_energy/code/script_template.sh,NAS,1305030_4_0,4,/home/mjay/GPU_benchmark_energy/NAS_benchmark_binaries/gpu4/,mg,D,1,1,/home/mjay/GPU_benchmark_energy/code/script_template.sh,NAS,1305030_4_0,5,/home/mjay/GPU_benchmark_energy/NAS_benchmark_binaries/gpu5/,mg,D,1,1,/home/mjay/GPU_benchmark_energy/code/script_template.sh,NAS,1305030_4_0,6,/home/mjay/GPU_benchmark_energy/NAS_benchmark_binaries/gpu6/,mg,D,1,1,/home/mjay/GPU_benchmark_energy/code/script_template.sh,NAS,1305030_4_0,7,/home/mjay/GPU_benchmark_energy/NAS_benchmark_binaries/gpu7/,mg,D,1,1,/home/mjay/GPU_benchmark_energy/code/script_template.sh,1305030_4,"gemini-2.lyon.grid5000.fr
",lyon,gemini-2,Tesla V100-SXM2-32GB,8,Intel(R) Xeon(R) CPU E5-2698 v4 @ 2.20GHz,80,40
1647340506.4021654,1647340657.812216,1647340540.291248,1647340544.546186,0.015218366262904,/home/mjay/GPU_benchmark_energy/results/gemini/1305030_6/wattmetre_power_watt.csv,0.00546,/home/mjay/GPU_benchmark_energy/results/gemini/1305030_6/bmc_node_power_watt.csv,0.0,/home/mjay/GPU_benchmark_energy/results/gemini/1305030_6/pdu_outlet_power_watt.csv,/home/mjay/GPU_benchmark_energy/results/gemini/1305030_6/energy_scope.csv,/home/mjay/GPU_benchmark_energy/results/gemini/1305030_6/energy_scope_parameters.csv,0.0182966872222222,/home/mjay/GPU_benchmark_energy/results/gemini/1305030_6/,energy scope,/home/mjay/energy_scope,1305030,/home/mjay/energy_scope/energy_scope_g5k.sh,/home/mjay/energy_scope/energy_scope_run_analysis_allgo.sh,/home/mjay/GPU_benchmark_energy/code/launch_parallel.sh,/home/mjay/GPU_benchmark_energy/results/gemini/1305030_6/energy_scope_1305030.tar.gz,/home/mjay/GPU_benchmark_energy/results/gemini/1305030_6/tmp_energy_scope_1305030/energy_scope_eprofile_1305030.txt,/home/mjay/GPU_benchmark_energy/results/gemini/1305030_6//gpu7/scripts/0.sh,/home/mjay/GPU_benchmark_energy/NAS_benchmark_binaries/gpu0/gpu.config,"{'gpu_device': 0, 'ep_threads_per_block': 32}",/home/mjay/GPU_benchmark_energy/NAS_benchmark_binaries/gpu7/ep.D,NAS,1305030_6_0,0,/home/mjay/GPU_benchmark_energy/NAS_benchmark_binaries/gpu0/,ep,D,30,30,/home/mjay/GPU_benchmark_energy/code/script_template.sh,NAS,1305030_6_0,1,/home/mjay/GPU_benchmark_energy/NAS_benchmark_binaries/gpu1/,ep,D,30,30,/home/mjay/GPU_benchmark_energy/code/script_template.sh,NAS,1305030_6_0,2,/home/mjay/GPU_benchmark_energy/NAS_benchmark_binaries/gpu2/,ep,D,30,30,/home/mjay/GPU_benchmark_energy/code/script_template.sh,NAS,1305030_6_0,3,/home/mjay/GPU_benchmark_energy/NAS_benchmark_binaries/gpu3/,ep,D,30,30,/home/mjay/GPU_benchmark_energy/code/script_template.sh,NAS,1305030_6_0,4,/home/mjay/GPU_benchmark_energy/NAS_benchmark_binaries/gpu4/,ep,D,30,30,/home/mjay/GPU_benchmark_energy/code/script_template.sh,NAS,1305030_6_0,5,/home/mjay/GPU_benchmark_energy/NAS_benchmark_binaries/gpu5/,ep,D,30,30,/home/mjay/GPU_benchmark_energy/code/script_template.sh,NAS,1305030_6_0,6,/home/mjay/GPU_benchmark_energy/NAS_benchmark_binaries/gpu6/,ep,D,30,30,/home/mjay/GPU_benchmark_energy/code/script_template.sh,NAS,1305030_6_0,7,/home/mjay/GPU_benchmark_energy/NAS_benchmark_binaries/gpu7/,ep,D,30,30,/home/mjay/GPU_benchmark_energy/code/script_template.sh,1305030_6,"gemini-2.lyon.grid5000.fr
",lyon,gemini-2,Tesla V100-SXM2-32GB,8,Intel(R) Xeon(R) CPU E5-2698 v4 @ 2.20GHz,80,40
1647340506.4021654,1647340657.812216,1647340604.553908,1647340609.393262,0.015218366262904,/home/mjay/GPU_benchmark_energy/results/gemini/1305030_6/wattmetre_power_watt.csv,0.00546,/home/mjay/GPU_benchmark_energy/results/gemini/1305030_6/bmc_node_power_watt.csv,0.0,/home/mjay/GPU_benchmark_energy/results/gemini/1305030_6/pdu_outlet_power_watt.csv,/home/mjay/GPU_benchmark_energy/results/gemini/1305030_6/energy_scope.csv,/home/mjay/GPU_benchmark_energy/results/gemini/1305030_6/energy_scope_parameters.csv,0.0182966872222222,/home/mjay/GPU_benchmark_energy/results/gemini/1305030_6/,energy scope,/home/mjay/energy_scope,1305030,/home/mjay/energy_scope/energy_scope_g5k.sh,/home/mjay/energy_scope/energy_scope_run_analysis_allgo.sh,/home/mjay/GPU_benchmark_energy/code/launch_parallel.sh,/home/mjay/GPU_benchmark_energy/results/gemini/1305030_6/energy_scope_1305030.tar.gz,/home/mjay/GPU_benchmark_energy/results/gemini/1305030_6/tmp_energy_scope_1305030/energy_scope_eprofile_1305030.txt,/home/mjay/GPU_benchmark_energy/results/gemini/1305030_6//gpu7/scripts/1.sh,/home/mjay/GPU_benchmark_energy/NAS_benchmark_binaries/gpu0/gpu.config,"{'gpu_device': 0, 'lu_threads_per_block_on_erhs_1': 32, 'lu_threads_per_block_on_erhs_2': 32, 'lu_threads_per_block_on_erhs_3': 32, 'lu_threads_per_block_on_erhs_4': 32, 'lu_threads_per_block_on_error': 32, 'lu_threads_per_block_on_norm': 512, 'lu_threads_per_block_on_jacld_blts': 1024, 'lu_threads_per_block_on_jacu_buts': 1024, 'lu_threads_per_block_on_l2norm': 64, 'lu_threads_per_block_on_pintgr_1': 64, 'lu_threads_per_block_on_pintgr_2': 64, 'lu_threads_per_block_on_pintgr_3': 64, 'lu_threads_per_block_on_pintgr_4': 1024, 'lu_threads_per_block_on_rhs_1': 32, 'lu_threads_per_block_on_rhs_2': 32, 'lu_threads_per_block_on_rhs_3': 1024, 'lu_threads_per_block_on_rhs_4': 32, 'lu_threads_per_block_on_setbv_1': 32, 'lu_threads_per_block_on_setbv_2': 32, 'lu_threads_per_block_on_setbv_3': 32, 'lu_threads_per_block_on_setiv': 32, 'lu_threads_per_block_on_ssor_1': 512, 'lu_threads_per_block_on_ssor_2': 1024}",/home/mjay/GPU_benchmark_energy/NAS_benchmark_binaries/gpu7/lu.D,NAS,1305030_6_1,0,/home/mjay/GPU_benchmark_energy/NAS_benchmark_binaries/gpu0/,lu,D,30,30,/home/mjay/GPU_benchmark_energy/code/script_template.sh,NAS,1305030_6_1,1,/home/mjay/GPU_benchmark_energy/NAS_benchmark_binaries/gpu1/,lu,D,30,30,/home/mjay/GPU_benchmark_energy/code/script_template.sh,NAS,1305030_6_1,2,/home/mjay/GPU_benchmark_energy/NAS_benchmark_binaries/gpu2/,lu,D,30,30,/home/mjay/GPU_benchmark_energy/code/script_template.sh,NAS,1305030_6_1,3,/home/mjay/GPU_benchmark_energy/NAS_benchmark_binaries/gpu3/,lu,D,30,30,/home/mjay/GPU_benchmark_energy/code/script_template.sh,NAS,1305030_6_1,4,/home/mjay/GPU_benchmark_energy/NAS_benchmark_binaries/gpu4/,lu,D,30,30,/home/mjay/GPU_benchmark_energy/code/script_template.sh,NAS,1305030_6_1,5,/home/mjay/GPU_benchmark_energy/NAS_benchmark_binaries/gpu5/,lu,D,30,30,/home/mjay/GPU_benchmark_energy/code/script_template.sh,NAS,1305030_6_1,6,/home/mjay/GPU_benchmark_energy/NAS_benchmark_binaries/gpu6/,lu,D,30,30,/home/mjay/GPU_benchmark_energy/code/script_template.sh,NAS,1305030_6_1,7,/home/mjay/GPU_benchmark_energy/NAS_benchmark_binaries/gpu7/,lu,D,30,30,/home/mjay/GPU_benchmark_energy/code/script_template.sh,1305030_6,"gemini-2.lyon.grid5000.fr
",lyon,gemini-2,Tesla V100-SXM2-32GB,8,Intel(R) Xeon(R) CPU E5-2698 v4 @ 2.20GHz,80,40
1647340742.2695248,1647341124.4325154,1647340776.06121,1647341076.075504,0.03810593999277705,/home/mjay/GPU_benchmark_energy/results/gemini/1305030_7/wattmetre_power_watt.csv,0.01336,/home/mjay/GPU_benchmark_energy/results/gemini/1305030_7/bmc_node_power_watt.csv,0.0,/home/mjay/GPU_benchmark_energy/results/gemini/1305030_7/pdu_outlet_power_watt.csv,/home/mjay/GPU_benchmark_energy/results/gemini/1305030_7/energy_scope.csv,/home/mjay/GPU_benchmark_energy/results/gemini/1305030_7/energy_scope_parameters.csv,0.05021945611111111,/home/mjay/GPU_benchmark_energy/results/gemini/1305030_7/,energy scope,/home/mjay/energy_scope,1305030,/home/mjay/energy_scope/energy_scope_g5k.sh,/home/mjay/energy_scope/energy_scope_run_analysis_allgo.sh,/home/mjay/GPU_benchmark_energy/code/launch_parallel.sh,/home/mjay/GPU_benchmark_energy/results/gemini/1305030_7/energy_scope_1305030.tar.gz,/home/mjay/GPU_benchmark_energy/results/gemini/1305030_7/tmp_energy_scope_1305030/energy_scope_eprofile_1305030.txt,/home/mjay/GPU_benchmark_energy/results/gemini/1305030_7//gpu7/scripts/0.sh,/home/mjay/GPU_benchmark_energy/NAS_benchmark_binaries/gpu0/gpu.config,{'gpu_device': 0},/home/mjay/GPU_benchmark_energy/NAS_benchmark_binaries/gpu7/idle.sh,NAS,1305030_7_0,0,/home/mjay/GPU_benchmark_energy/NAS_benchmark_binaries/gpu0/,idle,sh,30,30,/home/mjay/GPU_benchmark_energy/code/script_template.sh,NAS,1305030_7_0,1,/home/mjay/GPU_benchmark_energy/NAS_benchmark_binaries/gpu1/,idle,sh,30,30,/home/mjay/GPU_benchmark_energy/code/script_template.sh,NAS,1305030_7_0,2,/home/mjay/GPU_benchmark_energy/NAS_benchmark_binaries/gpu2/,idle,sh,30,30,/home/mjay/GPU_benchmark_energy/code/script_template.sh,NAS,1305030_7_0,3,/home/mjay/GPU_benchmark_energy/NAS_benchmark_binaries/gpu3/,idle,sh,30,30,/home/mjay/GPU_benchmark_energy/code/script_template.sh,NAS,1305030_7_0,4,/home/mjay/GPU_benchmark_energy/NAS_benchmark_binaries/gpu4/,idle,sh,30,30,/home/mjay/GPU_benchmark_energy/code/script_template.sh,NAS,1305030_7_0,5,/home/mjay/GPU_benchmark_energy/NAS_benchmark_binaries/gpu5/,idle,sh,30,30,/home/mjay/GPU_benchmark_energy/code/script_template.sh,NAS,1305030_7_0,6,/home/mjay/GPU_benchmark_energy/NAS_benchmark_binaries/gpu6/,idle,sh,30,30,/home/mjay/GPU_benchmark_energy/code/script_template.sh,NAS,1305030_7_0,7,/home/mjay/GPU_benchmark_energy/NAS_benchmark_binaries/gpu7/,idle,sh,30,30,/home/mjay/GPU_benchmark_energy/code/script_template.sh,1305030_7,"gemini-2.lyon.grid5000.fr
",lyon,gemini-2,Tesla V100-SXM2-32GB,8,Intel(R) Xeon(R) CPU E5-2698 v4 @ 2.20GHz,80,40
