2022-11-08 00:43:46 - CarbonTracker: The following components were found: CPU with device(s) cpu:1, cpu:0.
2022-11-08 00:46:16 - CarbonTracker: Average carbon intensity during training was 294.21 gCO2/kWh at detected location: Lille, Hauts-de-France, FR.
2022-11-08 00:46:16 - CarbonTracker: 
Actual consumption for 1 epoch(s):
	Time:	0:02:00
	Energy:	0.009375 kWh
	CO2eq:	2.758231 g
	This is equivalent to:
	0.022909 km travelled by car
2022-11-08 00:46:17 - CarbonTracker: Live carbon intensity could not be fetched at detected location: Lille, Hauts-de-France, FR. Defaulted to average carbon intensity for EU-28 in 2017 of 294.21 gCO2/kWh.
2022-11-08 00:46:17 - CarbonTracker: 
Predicted consumption for 1 epoch(s):
	Time:	0:02:00
	Energy:	0.009375 kWh
	CO2eq:	2.758231 g
	This is equivalent to:
	0.022909 km travelled by car
2022-11-08 00:46:17 - CarbonTracker: Finished monitoring.
2022-11-08 00:46:47 - CarbonTracker: The following components were found: CPU with device(s) cpu:1, cpu:0.
2022-11-08 00:47:44 - CarbonTracker: Average carbon intensity during training was 294.21 gCO2/kWh at detected location: Lille, Hauts-de-France, FR.
2022-11-08 00:47:44 - CarbonTracker: 
Actual consumption for 1 epoch(s):
	Time:	0:00:27
	Energy:	0.002152 kWh
	CO2eq:	0.633270 g
	This is equivalent to:
	0.005260 km travelled by car
2022-11-08 00:47:44 - CarbonTracker: Live carbon intensity could not be fetched at detected location: Lille, Hauts-de-France, FR. Defaulted to average carbon intensity for EU-28 in 2017 of 294.21 gCO2/kWh.
2022-11-08 00:47:44 - CarbonTracker: 
Predicted consumption for 1 epoch(s):
	Time:	0:00:27
	Energy:	0.002152 kWh
	CO2eq:	0.633270 g
	This is equivalent to:
	0.005260 km travelled by car
2022-11-08 00:47:44 - CarbonTracker: Finished monitoring.
2022-11-08 00:48:14 - CarbonTracker: The following components were found: CPU with device(s) cpu:1, cpu:0.
2022-11-08 00:49:34 - CarbonTracker: Average carbon intensity during training was 294.21 gCO2/kWh at detected location: Lille, Hauts-de-France, FR.
2022-11-08 00:49:34 - CarbonTracker: 
Actual consumption for 1 epoch(s):
	Time:	0:00:49
	Energy:	0.003714 kWh
	CO2eq:	1.092673 g
	This is equivalent to:
	0.009075 km travelled by car
2022-11-08 00:49:34 - CarbonTracker: Live carbon intensity could not be fetched at detected location: Lille, Hauts-de-France, FR. Defaulted to average carbon intensity for EU-28 in 2017 of 294.21 gCO2/kWh.
2022-11-08 00:49:34 - CarbonTracker: 
Predicted consumption for 1 epoch(s):
	Time:	0:00:49
	Energy:	0.003714 kWh
	CO2eq:	1.092673 g
	This is equivalent to:
	0.009075 km travelled by car
2022-11-08 00:49:34 - CarbonTracker: Finished monitoring.
